%!PS-Adobe-2.0
%%Title: Results.daisy.v100/Run.001/FLOPS.256/GPU_Blocks.0160/GPU_Threads.1024/graph4.ps
%%Creator: gnuplot 5.2 patchlevel 7
%%CreationDate: Sun Jan 19 15:24:43 2020
%%DocumentFonts: (atend)
%%BoundingBox: 50 50 554 770
%%Orientation: Landscape
%%Pages: (atend)
%%EndComments
%%BeginProlog
/gnudict 256 dict def
gnudict begin
%
% The following true/false flags may be edited by hand if desired.
% The unit line width and grayscale image gamma correction may also be changed.
%
/Color true def
/Blacktext false def
/Solid false def
/Dashlength 1 def
/Landscape true def
/Level1 false def
/Level3 false def
/Rounded false def
/ClipToBoundingBox false def
/SuppressPDFMark false def
/TransparentPatterns false def
/gnulinewidth 5.000 def
/userlinewidth gnulinewidth def
/Gamma 1.0 def
/BackgroundColor {-1.000 -1.000 -1.000} def
%
/vshift -46 def
/dl1 {
  10.0 Dashlength userlinewidth gnulinewidth div mul mul mul
  Rounded { currentlinewidth 0.75 mul sub dup 0 le { pop 0.01 } if } if
} def
/dl2 {
  10.0 Dashlength userlinewidth gnulinewidth div mul mul mul
  Rounded { currentlinewidth 0.75 mul add } if
} def
/hpt_ 31.5 def
/vpt_ 31.5 def
/hpt hpt_ def
/vpt vpt_ def
/doclip {
  ClipToBoundingBox {
    newpath 50 50 moveto 554 50 lineto 554 770 lineto 50 770 lineto closepath
    clip
  } if
} def
%
% Gnuplot Prolog Version 5.2 (Dec 2017)
%
%/SuppressPDFMark true def
%
/M {moveto} bind def
/L {lineto} bind def
/R {rmoveto} bind def
/V {rlineto} bind def
/N {newpath moveto} bind def
/Z {closepath} bind def
/C {setrgbcolor} bind def
/f {rlineto fill} bind def
/g {setgray} bind def
/Gshow {show} def   % May be redefined later in the file to support UTF-8
/vpt2 vpt 2 mul def
/hpt2 hpt 2 mul def
/Lshow {currentpoint stroke M 0 vshift R 
	Blacktext {gsave 0 setgray textshow grestore} {textshow} ifelse} def
/Rshow {currentpoint stroke M dup stringwidth pop neg vshift R
	Blacktext {gsave 0 setgray textshow grestore} {textshow} ifelse} def
/Cshow {currentpoint stroke M dup stringwidth pop -2 div vshift R 
	Blacktext {gsave 0 setgray textshow grestore} {textshow} ifelse} def
/UP {dup vpt_ mul /vpt exch def hpt_ mul /hpt exch def
  /hpt2 hpt 2 mul def /vpt2 vpt 2 mul def} def
/DL {Color {setrgbcolor Solid {pop []} if 0 setdash}
 {pop pop pop 0 setgray Solid {pop []} if 0 setdash} ifelse} def
/BL {stroke userlinewidth 2 mul setlinewidth
	Rounded {1 setlinejoin 1 setlinecap} if} def
/AL {stroke userlinewidth 2 div setlinewidth
	Rounded {1 setlinejoin 1 setlinecap} if} def
/UL {dup gnulinewidth mul /userlinewidth exch def
	dup 1 lt {pop 1} if 10 mul /udl exch def} def
/PL {stroke userlinewidth setlinewidth
	Rounded {1 setlinejoin 1 setlinecap} if} def
3.8 setmiterlimit
% Classic Line colors (version 5.0)
/LCw {1 1 1} def
/LCb {0 0 0} def
/LCa {0 0 0} def
/LC0 {1 0 0} def
/LC1 {0 1 0} def
/LC2 {0 0 1} def
/LC3 {1 0 1} def
/LC4 {0 1 1} def
/LC5 {1 1 0} def
/LC6 {0 0 0} def
/LC7 {1 0.3 0} def
/LC8 {0.5 0.5 0.5} def
% Default dash patterns (version 5.0)
/LTB {BL [] LCb DL} def
/LTw {PL [] 1 setgray} def
/LTb {PL [] LCb DL} def
/LTa {AL [1 udl mul 2 udl mul] 0 setdash LCa setrgbcolor} def
/LT0 {PL [] LC0 DL} def
/LT1 {PL [2 dl1 3 dl2] LC1 DL} def
/LT2 {PL [1 dl1 1.5 dl2] LC2 DL} def
/LT3 {PL [6 dl1 2 dl2 1 dl1 2 dl2] LC3 DL} def
/LT4 {PL [1 dl1 2 dl2 6 dl1 2 dl2 1 dl1 2 dl2] LC4 DL} def
/LT5 {PL [4 dl1 2 dl2] LC5 DL} def
/LT6 {PL [1.5 dl1 1.5 dl2 1.5 dl1 1.5 dl2 1.5 dl1 6 dl2] LC6 DL} def
/LT7 {PL [3 dl1 3 dl2 1 dl1 3 dl2] LC7 DL} def
/LT8 {PL [2 dl1 2 dl2 2 dl1 6 dl2] LC8 DL} def
/SL {[] 0 setdash} def
/Pnt {stroke [] 0 setdash gsave 1 setlinecap M 0 0 V stroke grestore} def
/Dia {stroke [] 0 setdash 2 copy vpt add M
  hpt neg vpt neg V hpt vpt neg V
  hpt vpt V hpt neg vpt V closepath stroke
  Pnt} def
/Pls {stroke [] 0 setdash vpt sub M 0 vpt2 V
  currentpoint stroke M
  hpt neg vpt neg R hpt2 0 V stroke
 } def
/Box {stroke [] 0 setdash 2 copy exch hpt sub exch vpt add M
  0 vpt2 neg V hpt2 0 V 0 vpt2 V
  hpt2 neg 0 V closepath stroke
  Pnt} def
/Crs {stroke [] 0 setdash exch hpt sub exch vpt add M
  hpt2 vpt2 neg V currentpoint stroke M
  hpt2 neg 0 R hpt2 vpt2 V stroke} def
/TriU {stroke [] 0 setdash 2 copy vpt 1.12 mul add M
  hpt neg vpt -1.62 mul V
  hpt 2 mul 0 V
  hpt neg vpt 1.62 mul V closepath stroke
  Pnt} def
/Star {2 copy Pls Crs} def
/BoxF {stroke [] 0 setdash exch hpt sub exch vpt add M
  0 vpt2 neg V hpt2 0 V 0 vpt2 V
  hpt2 neg 0 V closepath fill} def
/TriUF {stroke [] 0 setdash vpt 1.12 mul add M
  hpt neg vpt -1.62 mul V
  hpt 2 mul 0 V
  hpt neg vpt 1.62 mul V closepath fill} def
/TriD {stroke [] 0 setdash 2 copy vpt 1.12 mul sub M
  hpt neg vpt 1.62 mul V
  hpt 2 mul 0 V
  hpt neg vpt -1.62 mul V closepath stroke
  Pnt} def
/TriDF {stroke [] 0 setdash vpt 1.12 mul sub M
  hpt neg vpt 1.62 mul V
  hpt 2 mul 0 V
  hpt neg vpt -1.62 mul V closepath fill} def
/DiaF {stroke [] 0 setdash vpt add M
  hpt neg vpt neg V hpt vpt neg V
  hpt vpt V hpt neg vpt V closepath fill} def
/Pent {stroke [] 0 setdash 2 copy gsave
  translate 0 hpt M 4 {72 rotate 0 hpt L} repeat
  closepath stroke grestore Pnt} def
/PentF {stroke [] 0 setdash gsave
  translate 0 hpt M 4 {72 rotate 0 hpt L} repeat
  closepath fill grestore} def
/Circle {stroke [] 0 setdash 2 copy
  hpt 0 360 arc stroke Pnt} def
/CircleF {stroke [] 0 setdash hpt 0 360 arc fill} def
/C0 {BL [] 0 setdash 2 copy moveto vpt 90 450 arc} bind def
/C1 {BL [] 0 setdash 2 copy moveto
	2 copy vpt 0 90 arc closepath fill
	vpt 0 360 arc closepath} bind def
/C2 {BL [] 0 setdash 2 copy moveto
	2 copy vpt 90 180 arc closepath fill
	vpt 0 360 arc closepath} bind def
/C3 {BL [] 0 setdash 2 copy moveto
	2 copy vpt 0 180 arc closepath fill
	vpt 0 360 arc closepath} bind def
/C4 {BL [] 0 setdash 2 copy moveto
	2 copy vpt 180 270 arc closepath fill
	vpt 0 360 arc closepath} bind def
/C5 {BL [] 0 setdash 2 copy moveto
	2 copy vpt 0 90 arc
	2 copy moveto
	2 copy vpt 180 270 arc closepath fill
	vpt 0 360 arc} bind def
/C6 {BL [] 0 setdash 2 copy moveto
	2 copy vpt 90 270 arc closepath fill
	vpt 0 360 arc closepath} bind def
/C7 {BL [] 0 setdash 2 copy moveto
	2 copy vpt 0 270 arc closepath fill
	vpt 0 360 arc closepath} bind def
/C8 {BL [] 0 setdash 2 copy moveto
	2 copy vpt 270 360 arc closepath fill
	vpt 0 360 arc closepath} bind def
/C9 {BL [] 0 setdash 2 copy moveto
	2 copy vpt 270 450 arc closepath fill
	vpt 0 360 arc closepath} bind def
/C10 {BL [] 0 setdash 2 copy 2 copy moveto vpt 270 360 arc closepath fill
	2 copy moveto
	2 copy vpt 90 180 arc closepath fill
	vpt 0 360 arc closepath} bind def
/C11 {BL [] 0 setdash 2 copy moveto
	2 copy vpt 0 180 arc closepath fill
	2 copy moveto
	2 copy vpt 270 360 arc closepath fill
	vpt 0 360 arc closepath} bind def
/C12 {BL [] 0 setdash 2 copy moveto
	2 copy vpt 180 360 arc closepath fill
	vpt 0 360 arc closepath} bind def
/C13 {BL [] 0 setdash 2 copy moveto
	2 copy vpt 0 90 arc closepath fill
	2 copy moveto
	2 copy vpt 180 360 arc closepath fill
	vpt 0 360 arc closepath} bind def
/C14 {BL [] 0 setdash 2 copy moveto
	2 copy vpt 90 360 arc closepath fill
	vpt 0 360 arc} bind def
/C15 {BL [] 0 setdash 2 copy vpt 0 360 arc closepath fill
	vpt 0 360 arc closepath} bind def
/Rec {newpath 4 2 roll moveto 1 index 0 rlineto 0 exch rlineto
	neg 0 rlineto closepath} bind def
/Square {dup Rec} bind def
/Bsquare {vpt sub exch vpt sub exch vpt2 Square} bind def
/S0 {BL [] 0 setdash 2 copy moveto 0 vpt rlineto BL Bsquare} bind def
/S1 {BL [] 0 setdash 2 copy vpt Square fill Bsquare} bind def
/S2 {BL [] 0 setdash 2 copy exch vpt sub exch vpt Square fill Bsquare} bind def
/S3 {BL [] 0 setdash 2 copy exch vpt sub exch vpt2 vpt Rec fill Bsquare} bind def
/S4 {BL [] 0 setdash 2 copy exch vpt sub exch vpt sub vpt Square fill Bsquare} bind def
/S5 {BL [] 0 setdash 2 copy 2 copy vpt Square fill
	exch vpt sub exch vpt sub vpt Square fill Bsquare} bind def
/S6 {BL [] 0 setdash 2 copy exch vpt sub exch vpt sub vpt vpt2 Rec fill Bsquare} bind def
/S7 {BL [] 0 setdash 2 copy exch vpt sub exch vpt sub vpt vpt2 Rec fill
	2 copy vpt Square fill Bsquare} bind def
/S8 {BL [] 0 setdash 2 copy vpt sub vpt Square fill Bsquare} bind def
/S9 {BL [] 0 setdash 2 copy vpt sub vpt vpt2 Rec fill Bsquare} bind def
/S10 {BL [] 0 setdash 2 copy vpt sub vpt Square fill 2 copy exch vpt sub exch vpt Square fill
	Bsquare} bind def
/S11 {BL [] 0 setdash 2 copy vpt sub vpt Square fill 2 copy exch vpt sub exch vpt2 vpt Rec fill
	Bsquare} bind def
/S12 {BL [] 0 setdash 2 copy exch vpt sub exch vpt sub vpt2 vpt Rec fill Bsquare} bind def
/S13 {BL [] 0 setdash 2 copy exch vpt sub exch vpt sub vpt2 vpt Rec fill
	2 copy vpt Square fill Bsquare} bind def
/S14 {BL [] 0 setdash 2 copy exch vpt sub exch vpt sub vpt2 vpt Rec fill
	2 copy exch vpt sub exch vpt Square fill Bsquare} bind def
/S15 {BL [] 0 setdash 2 copy Bsquare fill Bsquare} bind def
/D0 {gsave translate 45 rotate 0 0 S0 stroke grestore} bind def
/D1 {gsave translate 45 rotate 0 0 S1 stroke grestore} bind def
/D2 {gsave translate 45 rotate 0 0 S2 stroke grestore} bind def
/D3 {gsave translate 45 rotate 0 0 S3 stroke grestore} bind def
/D4 {gsave translate 45 rotate 0 0 S4 stroke grestore} bind def
/D5 {gsave translate 45 rotate 0 0 S5 stroke grestore} bind def
/D6 {gsave translate 45 rotate 0 0 S6 stroke grestore} bind def
/D7 {gsave translate 45 rotate 0 0 S7 stroke grestore} bind def
/D8 {gsave translate 45 rotate 0 0 S8 stroke grestore} bind def
/D9 {gsave translate 45 rotate 0 0 S9 stroke grestore} bind def
/D10 {gsave translate 45 rotate 0 0 S10 stroke grestore} bind def
/D11 {gsave translate 45 rotate 0 0 S11 stroke grestore} bind def
/D12 {gsave translate 45 rotate 0 0 S12 stroke grestore} bind def
/D13 {gsave translate 45 rotate 0 0 S13 stroke grestore} bind def
/D14 {gsave translate 45 rotate 0 0 S14 stroke grestore} bind def
/D15 {gsave translate 45 rotate 0 0 S15 stroke grestore} bind def
/DiaE {stroke [] 0 setdash vpt add M
  hpt neg vpt neg V hpt vpt neg V
  hpt vpt V hpt neg vpt V closepath stroke} def
/BoxE {stroke [] 0 setdash exch hpt sub exch vpt add M
  0 vpt2 neg V hpt2 0 V 0 vpt2 V
  hpt2 neg 0 V closepath stroke} def
/TriUE {stroke [] 0 setdash vpt 1.12 mul add M
  hpt neg vpt -1.62 mul V
  hpt 2 mul 0 V
  hpt neg vpt 1.62 mul V closepath stroke} def
/TriDE {stroke [] 0 setdash vpt 1.12 mul sub M
  hpt neg vpt 1.62 mul V
  hpt 2 mul 0 V
  hpt neg vpt -1.62 mul V closepath stroke} def
/PentE {stroke [] 0 setdash gsave
  translate 0 hpt M 4 {72 rotate 0 hpt L} repeat
  closepath stroke grestore} def
/CircE {stroke [] 0 setdash 
  hpt 0 360 arc stroke} def
/Opaque {gsave closepath 1 setgray fill grestore 0 setgray closepath} def
/DiaW {stroke [] 0 setdash vpt add M
  hpt neg vpt neg V hpt vpt neg V
  hpt vpt V hpt neg vpt V Opaque stroke} def
/BoxW {stroke [] 0 setdash exch hpt sub exch vpt add M
  0 vpt2 neg V hpt2 0 V 0 vpt2 V
  hpt2 neg 0 V Opaque stroke} def
/TriUW {stroke [] 0 setdash vpt 1.12 mul add M
  hpt neg vpt -1.62 mul V
  hpt 2 mul 0 V
  hpt neg vpt 1.62 mul V Opaque stroke} def
/TriDW {stroke [] 0 setdash vpt 1.12 mul sub M
  hpt neg vpt 1.62 mul V
  hpt 2 mul 0 V
  hpt neg vpt -1.62 mul V Opaque stroke} def
/PentW {stroke [] 0 setdash gsave
  translate 0 hpt M 4 {72 rotate 0 hpt L} repeat
  Opaque stroke grestore} def
/CircW {stroke [] 0 setdash 
  hpt 0 360 arc Opaque stroke} def
/BoxFill {gsave Rec 1 setgray fill grestore} def
/Density {
  /Fillden exch def
  currentrgbcolor
  /ColB exch def /ColG exch def /ColR exch def
  /ColR ColR Fillden mul Fillden sub 1 add def
  /ColG ColG Fillden mul Fillden sub 1 add def
  /ColB ColB Fillden mul Fillden sub 1 add def
  ColR ColG ColB setrgbcolor} def
/BoxColFill {gsave Rec PolyFill} def
/PolyFill {gsave Density fill grestore grestore} def
/h {rlineto rlineto rlineto closepath gsave fill grestore stroke} bind def
%
% PostScript Level 1 Pattern Fill routine for rectangles
% Usage: x y w h s a XX PatternFill
%	x,y = lower left corner of box to be filled
%	w,h = width and height of box
%	  a = angle in degrees between lines and x-axis
%	 XX = 0/1 for no/yes cross-hatch
%
/PatternFill {gsave /PFa [ 9 2 roll ] def
  PFa 0 get PFa 2 get 2 div add PFa 1 get PFa 3 get 2 div add translate
  PFa 2 get -2 div PFa 3 get -2 div PFa 2 get PFa 3 get Rec
  TransparentPatterns {} {gsave 1 setgray fill grestore} ifelse
  clip
  currentlinewidth 0.5 mul setlinewidth
  /PFs PFa 2 get dup mul PFa 3 get dup mul add sqrt def
  0 0 M PFa 5 get rotate PFs -2 div dup translate
  0 1 PFs PFa 4 get div 1 add floor cvi
	{PFa 4 get mul 0 M 0 PFs V} for
  0 PFa 6 get ne {
	0 1 PFs PFa 4 get div 1 add floor cvi
	{PFa 4 get mul 0 2 1 roll M PFs 0 V} for
 } if
  stroke grestore} def
%
/languagelevel where
 {pop languagelevel} {1} ifelse
dup 2 lt
	{/InterpretLevel1 true def
	 /InterpretLevel3 false def}
	{/InterpretLevel1 Level1 def
	 2 gt
	    {/InterpretLevel3 Level3 def}
	    {/InterpretLevel3 false def}
	 ifelse }
 ifelse
%
% PostScript level 2 pattern fill definitions
%
/Level2PatternFill {
/Tile8x8 {/PaintType 2 /PatternType 1 /TilingType 1 /BBox [0 0 8 8] /XStep 8 /YStep 8}
	bind def
/KeepColor {currentrgbcolor [/Pattern /DeviceRGB] setcolorspace} bind def
<< Tile8x8
 /PaintProc {0.5 setlinewidth pop 0 0 M 8 8 L 0 8 M 8 0 L stroke} 
>> matrix makepattern
/Pat1 exch def
<< Tile8x8
 /PaintProc {0.5 setlinewidth pop 0 0 M 8 8 L 0 8 M 8 0 L stroke
	0 4 M 4 8 L 8 4 L 4 0 L 0 4 L stroke}
>> matrix makepattern
/Pat2 exch def
<< Tile8x8
 /PaintProc {0.5 setlinewidth pop 0 0 M 0 8 L
	8 8 L 8 0 L 0 0 L fill}
>> matrix makepattern
/Pat3 exch def
<< Tile8x8
 /PaintProc {0.5 setlinewidth pop -4 8 M 8 -4 L
	0 12 M 12 0 L stroke}
>> matrix makepattern
/Pat4 exch def
<< Tile8x8
 /PaintProc {0.5 setlinewidth pop -4 0 M 8 12 L
	0 -4 M 12 8 L stroke}
>> matrix makepattern
/Pat5 exch def
<< Tile8x8
 /PaintProc {0.5 setlinewidth pop -2 8 M 4 -4 L
	0 12 M 8 -4 L 4 12 M 10 0 L stroke}
>> matrix makepattern
/Pat6 exch def
<< Tile8x8
 /PaintProc {0.5 setlinewidth pop -2 0 M 4 12 L
	0 -4 M 8 12 L 4 -4 M 10 8 L stroke}
>> matrix makepattern
/Pat7 exch def
<< Tile8x8
 /PaintProc {0.5 setlinewidth pop 8 -2 M -4 4 L
	12 0 M -4 8 L 12 4 M 0 10 L stroke}
>> matrix makepattern
/Pat8 exch def
<< Tile8x8
 /PaintProc {0.5 setlinewidth pop 0 -2 M 12 4 L
	-4 0 M 12 8 L -4 4 M 8 10 L stroke}
>> matrix makepattern
/Pat9 exch def
/Pattern1 {PatternBgnd KeepColor Pat1 setpattern} bind def
/Pattern2 {PatternBgnd KeepColor Pat2 setpattern} bind def
/Pattern3 {PatternBgnd KeepColor Pat3 setpattern} bind def
/Pattern4 {PatternBgnd KeepColor Landscape {Pat5} {Pat4} ifelse setpattern} bind def
/Pattern5 {PatternBgnd KeepColor Landscape {Pat4} {Pat5} ifelse setpattern} bind def
/Pattern6 {PatternBgnd KeepColor Landscape {Pat9} {Pat6} ifelse setpattern} bind def
/Pattern7 {PatternBgnd KeepColor Landscape {Pat8} {Pat7} ifelse setpattern} bind def
} def
%
%
%End of PostScript Level 2 code
%
/PatternBgnd {
  TransparentPatterns {} {gsave 1 setgray fill grestore} ifelse
} def
%
% Substitute for Level 2 pattern fill codes with
% grayscale if Level 2 support is not selected.
%
/Level1PatternFill {
/Pattern1 {0.250 Density} bind def
/Pattern2 {0.500 Density} bind def
/Pattern3 {0.750 Density} bind def
/Pattern4 {0.125 Density} bind def
/Pattern5 {0.375 Density} bind def
/Pattern6 {0.625 Density} bind def
/Pattern7 {0.875 Density} bind def
} def
%
% Now test for support of Level 2 code
%
Level1 {Level1PatternFill} {Level2PatternFill} ifelse
%
/Symbol-Oblique /Symbol findfont [1 0 .167 1 0 0] makefont
dup length dict begin {1 index /FID eq {pop pop} {def} ifelse} forall
currentdict end definefont pop
%
/Metrics {ExtendTextBox Gswidth} def
/Lwidth {currentpoint stroke M 0 vshift R Metrics} def
/Rwidth {currentpoint stroke M dup stringwidth pop neg vshift R Metrics} def
/Cwidth {currentpoint stroke M dup stringwidth pop -2 div vshift R Metrics} def
/GLwidth {currentpoint stroke M 0 vshift R {ExtendTextBox} forall} def
/GRwidth {currentpoint stroke M dup Gwidth vshift R {ExtendTextBox} forall} def
/GCwidth {currentpoint stroke M dup Gwidth 2 div vshift R {ExtendTextBox} forall} def
/GLwidth2 {0 Gwidth AddGlyphWidth} def
/GRwidth2 {Gwidth -1 mul 0 AddGlyphWidth} def
/GCwidth2 {Gwidth 2 div dup -1 mul AddGlyphWidth} def
/AddGlyphWidth { dup TBx2 gt {userdict /TBx2 3 -1 roll put} {pop} ifelse
                 dup TBx1 lt {userdict /TBx1 3 -1 roll put} {pop} ifelse } def
/MFshow {
   { dup 5 get 3 ge
     { 5 get 3 eq {gsave} {grestore} ifelse }
     {dup dup 0 get findfont exch 1 get scalefont setfont
     [ currentpoint ] exch dup 2 get 0 exch R dup 5 get 2 ne {dup dup 6
     get exch 4 get {textshow} {Metrics pop 0 R} ifelse }if dup 5 get 0 eq
     {dup 3 get {2 get neg 0 exch R pop} {pop aload pop M} ifelse} {dup 5
     get 1 eq {dup 2 get exch dup 3 get exch 6 get Gswidth pop -2 div
     dup 0 R} {dup 6 get Gswidth pop -2 div 0 R 6 get
     textshow 2 index {aload pop M neg 3 -1 roll neg R pop pop} {pop pop pop
     pop aload pop M} ifelse }ifelse }ifelse }
     ifelse }
   forall} def
/Gswidth {dup type /stringtype eq {stringwidth} {pop (n) stringwidth} ifelse} def
/MFwidth {0 exch { dup 5 get 3 ge { 5 get 3 eq { 0 } { pop } ifelse }
 {dup 3 get{dup dup 0 get findfont exch 1 get scalefont setfont
     6 get Gswidth pop add} {pop} ifelse} ifelse} forall} def
/MLshow { currentpoint stroke M
  0 exch R
  Blacktext {gsave 0 setgray MFshow grestore} {MFshow} ifelse } bind def
/MRshow { currentpoint stroke M
  exch dup MFwidth neg 3 -1 roll R
  Blacktext {gsave 0 setgray MFshow grestore} {MFshow} ifelse } bind def
/MCshow { currentpoint stroke M
  exch dup MFwidth -2 div 3 -1 roll R
  Blacktext {gsave 0 setgray MFshow grestore} {MFshow} ifelse } bind def
/XYsave    { [( ) 1 2 true false 3 ()] } bind def
/XYrestore { [( ) 1 2 true false 4 ()] } bind def
Level1 SuppressPDFMark or 
{} {
/SDict 10 dict def
systemdict /pdfmark known not {
  userdict /pdfmark systemdict /cleartomark get put
} if
SDict begin [
  /Title (Results.daisy.v100/Run.001/FLOPS.256/GPU_Blocks.0160/GPU_Threads.1024/graph4.ps)
  /Subject (gnuplot plot)
  /Creator (gnuplot 5.2 patchlevel 7)
%  /Producer (gnuplot)
%  /Keywords ()
  /CreationDate (Sun Jan 19 15:24:43 2020)
  /DOCINFO pdfmark
end
} ifelse
%
% Support for boxed text - Ethan A Merritt Sep 2016
%
/InitTextBox { userdict /TBy2 3 -1 roll put userdict /TBx2 3 -1 roll put
           userdict /TBy1 3 -1 roll put userdict /TBx1 3 -1 roll put
	   /Boxing true def } def
/ExtendTextBox { dup type /stringtype eq
    { Boxing { gsave dup false charpath pathbbox
      dup TBy2 gt {userdict /TBy2 3 -1 roll put} {pop} ifelse
      dup TBx2 gt {userdict /TBx2 3 -1 roll put} {pop} ifelse
      dup TBy1 lt {userdict /TBy1 3 -1 roll put} {pop} ifelse
      dup TBx1 lt {userdict /TBx1 3 -1 roll put} {pop} ifelse
      grestore } if }
    {} ifelse} def
/PopTextBox { newpath TBx1 TBxmargin sub TBy1 TBymargin sub M
               TBx1 TBxmargin sub TBy2 TBymargin add L
	       TBx2 TBxmargin add TBy2 TBymargin add L
	       TBx2 TBxmargin add TBy1 TBymargin sub L closepath } def
/DrawTextBox { PopTextBox stroke /Boxing false def} def
/FillTextBox { gsave PopTextBox fill grestore /Boxing false def} def
0 0 0 0 InitTextBox
/TBxmargin 20 def
/TBymargin 20 def
/Boxing false def
/textshow { ExtendTextBox Gshow } def
%
end
%%EndProlog
%%Page: 1 1
gnudict begin
gsave
doclip
50 50 translate
0.100 0.100 scale
90 rotate
0 -5040 translate
0 setgray
newpath
(Helvetica) findfont 140 scalefont setfont
BackgroundColor 0 lt 3 1 roll 0 lt exch 0 lt or or not {gsave BackgroundColor C clippath fill grestore} if
1.000 UL
LTb
LCb setrgbcolor
1.000 UL
LTa
LCa setrgbcolor
770 448 M
6107 0 V
stroke
LTb
LCb setrgbcolor
770 448 M
63 0 V
6044 0 R
-63 0 V
stroke
686 448 M
[ [(Helvetica) 140.0 0.0 true true 0 (1e+01)]
] -46.7 MRshow
/Helvetica findfont 140 scalefont setfont
/vshift -46 def
1.000 UL
LTb
LCb setrgbcolor
1.000 UL
LTa
LCa setrgbcolor
770 867 M
6107 0 V
stroke
LTb
LCb setrgbcolor
770 867 M
31 0 V
6076 0 R
-31 0 V
stroke
LTa
LCa setrgbcolor
770 1111 M
6107 0 V
stroke
LTb
LCb setrgbcolor
770 1111 M
31 0 V
6076 0 R
-31 0 V
stroke
LTa
LCa setrgbcolor
770 1285 M
6107 0 V
stroke
LTb
LCb setrgbcolor
770 1285 M
31 0 V
6076 0 R
-31 0 V
stroke
LTa
LCa setrgbcolor
770 1420 M
6107 0 V
stroke
LTb
LCb setrgbcolor
770 1420 M
31 0 V
6076 0 R
-31 0 V
stroke
LTa
LCa setrgbcolor
770 1530 M
6107 0 V
stroke
LTb
LCb setrgbcolor
770 1530 M
31 0 V
6076 0 R
-31 0 V
stroke
LTa
LCa setrgbcolor
770 1623 M
6107 0 V
stroke
LTb
LCb setrgbcolor
770 1623 M
31 0 V
6076 0 R
-31 0 V
stroke
LTa
LCa setrgbcolor
770 1704 M
6107 0 V
stroke
LTb
LCb setrgbcolor
770 1704 M
31 0 V
6076 0 R
-31 0 V
stroke
LTa
LCa setrgbcolor
770 1775 M
6107 0 V
stroke
LTb
LCb setrgbcolor
770 1775 M
31 0 V
6076 0 R
-31 0 V
stroke
LTa
LCa setrgbcolor
770 1838 M
6107 0 V
stroke
LTb
LCb setrgbcolor
770 1838 M
63 0 V
6044 0 R
-63 0 V
stroke
686 1838 M
[ [(Helvetica) 140.0 0.0 true true 0 (1e+02)]
] -46.7 MRshow
/Helvetica findfont 140 scalefont setfont
1.000 UL
LTb
LCb setrgbcolor
1.000 UL
LTa
LCa setrgbcolor
770 2257 M
6107 0 V
stroke
LTb
LCb setrgbcolor
770 2257 M
31 0 V
6076 0 R
-31 0 V
stroke
LTa
LCa setrgbcolor
770 2502 M
6107 0 V
stroke
LTb
LCb setrgbcolor
770 2502 M
31 0 V
6076 0 R
-31 0 V
stroke
LTa
LCa setrgbcolor
770 2675 M
6107 0 V
stroke
LTb
LCb setrgbcolor
770 2675 M
31 0 V
6076 0 R
-31 0 V
stroke
LTa
LCa setrgbcolor
770 2810 M
6107 0 V
stroke
LTb
LCb setrgbcolor
770 2810 M
31 0 V
6076 0 R
-31 0 V
stroke
LTa
LCa setrgbcolor
770 2920 M
6107 0 V
stroke
LTb
LCb setrgbcolor
770 2920 M
31 0 V
6076 0 R
-31 0 V
stroke
LTa
LCa setrgbcolor
770 3013 M
6107 0 V
stroke
LTb
LCb setrgbcolor
770 3013 M
31 0 V
6076 0 R
-31 0 V
stroke
LTa
LCa setrgbcolor
770 3094 M
6107 0 V
stroke
LTb
LCb setrgbcolor
770 3094 M
31 0 V
6076 0 R
-31 0 V
stroke
LTa
LCa setrgbcolor
770 3165 M
6107 0 V
stroke
LTb
LCb setrgbcolor
770 3165 M
31 0 V
6076 0 R
-31 0 V
stroke
LTa
LCa setrgbcolor
770 3229 M
6107 0 V
stroke
LTb
LCb setrgbcolor
770 3229 M
63 0 V
6044 0 R
-63 0 V
stroke
686 3229 M
[ [(Helvetica) 140.0 0.0 true true 0 (1e+03)]
] -46.7 MRshow
/Helvetica findfont 140 scalefont setfont
1.000 UL
LTb
LCb setrgbcolor
1.000 UL
LTa
LCa setrgbcolor
770 3647 M
6107 0 V
stroke
LTb
LCb setrgbcolor
770 3647 M
31 0 V
6076 0 R
-31 0 V
stroke
LTa
LCa setrgbcolor
770 3892 M
6107 0 V
stroke
LTb
LCb setrgbcolor
770 3892 M
31 0 V
6076 0 R
-31 0 V
stroke
LTa
LCa setrgbcolor
770 4066 M
6107 0 V
stroke
LTb
LCb setrgbcolor
770 4066 M
31 0 V
6076 0 R
-31 0 V
stroke
LTa
LCa setrgbcolor
770 4200 M
6107 0 V
stroke
LTb
LCb setrgbcolor
770 4200 M
31 0 V
6076 0 R
-31 0 V
stroke
LTa
LCa setrgbcolor
770 4311 M
6107 0 V
stroke
LTb
LCb setrgbcolor
770 4311 M
31 0 V
6076 0 R
-31 0 V
stroke
LTa
LCa setrgbcolor
770 4404 M
6107 0 V
stroke
LTb
LCb setrgbcolor
770 4404 M
31 0 V
6076 0 R
-31 0 V
stroke
LTa
LCa setrgbcolor
770 4484 M
6107 0 V
stroke
LTb
LCb setrgbcolor
770 4484 M
31 0 V
6076 0 R
-31 0 V
stroke
LTa
LCa setrgbcolor
770 4555 M
6107 0 V
stroke
LTb
LCb setrgbcolor
770 4555 M
31 0 V
6076 0 R
-31 0 V
stroke
LTa
LCa setrgbcolor
770 4619 M
6107 0 V
stroke
LTb
LCb setrgbcolor
770 4619 M
63 0 V
6044 0 R
-63 0 V
stroke
686 4619 M
[ [(Helvetica) 140.0 0.0 true true 0 (1e+04)]
] -46.7 MRshow
/Helvetica findfont 140 scalefont setfont
1.000 UL
LTb
LCb setrgbcolor
1.000 UL
LTa
LCa setrgbcolor
1067 448 M
0 4171 V
stroke
LTb
LCb setrgbcolor
1067 448 M
0 31 V
0 4140 R
0 -31 V
stroke
LTa
LCa setrgbcolor
1246 448 M
0 4171 V
stroke
LTb
LCb setrgbcolor
1246 448 M
0 31 V
0 4140 R
0 -31 V
stroke
LTa
LCa setrgbcolor
1374 448 M
0 4171 V
stroke
LTb
LCb setrgbcolor
1374 448 M
0 31 V
0 4140 R
0 -31 V
stroke
LTa
LCa setrgbcolor
1473 448 M
0 4171 V
stroke
LTb
LCb setrgbcolor
1473 448 M
0 31 V
0 4140 R
0 -31 V
stroke
LTa
LCa setrgbcolor
1553 448 M
0 4171 V
stroke
LTb
LCb setrgbcolor
1553 448 M
0 31 V
0 4140 R
0 -31 V
stroke
LTa
LCa setrgbcolor
1622 448 M
0 4171 V
stroke
LTb
LCb setrgbcolor
1622 448 M
0 31 V
0 4140 R
0 -31 V
stroke
LTa
LCa setrgbcolor
1681 448 M
0 4171 V
stroke
LTb
LCb setrgbcolor
1681 448 M
0 31 V
0 4140 R
0 -31 V
stroke
LTa
LCa setrgbcolor
1733 448 M
0 4171 V
stroke
LTb
LCb setrgbcolor
1733 448 M
0 31 V
0 4140 R
0 -31 V
stroke
LTa
LCa setrgbcolor
1780 448 M
0 4171 V
stroke
LTb
LCb setrgbcolor
1780 448 M
0 63 V
0 4108 R
0 -63 V
stroke
1780 308 M
[ [(Helvetica) 140.0 0.0 true true 0 (1e+04)]
] -46.7 MCshow
/Helvetica findfont 140 scalefont setfont
1.000 UL
LTb
LCb setrgbcolor
1.000 UL
LTa
LCa setrgbcolor
2087 448 M
0 4171 V
stroke
LTb
LCb setrgbcolor
2087 448 M
0 31 V
0 4140 R
0 -31 V
stroke
LTa
LCa setrgbcolor
2266 448 M
0 4171 V
stroke
LTb
LCb setrgbcolor
2266 448 M
0 31 V
0 4140 R
0 -31 V
stroke
LTa
LCa setrgbcolor
2394 448 M
0 4171 V
stroke
LTb
LCb setrgbcolor
2394 448 M
0 31 V
0 4140 R
0 -31 V
stroke
LTa
LCa setrgbcolor
2493 448 M
0 4171 V
stroke
LTb
LCb setrgbcolor
2493 448 M
0 31 V
0 4140 R
0 -31 V
stroke
LTa
LCa setrgbcolor
2573 448 M
0 4171 V
stroke
LTb
LCb setrgbcolor
2573 448 M
0 31 V
0 4140 R
0 -31 V
stroke
LTa
LCa setrgbcolor
2642 448 M
0 4171 V
stroke
LTb
LCb setrgbcolor
2642 448 M
0 31 V
0 4140 R
0 -31 V
stroke
LTa
LCa setrgbcolor
2701 448 M
0 4171 V
stroke
LTb
LCb setrgbcolor
2701 448 M
0 31 V
0 4140 R
0 -31 V
stroke
LTa
LCa setrgbcolor
2753 448 M
0 4171 V
stroke
LTb
LCb setrgbcolor
2753 448 M
0 31 V
0 4140 R
0 -31 V
stroke
LTa
LCa setrgbcolor
2800 448 M
0 4171 V
stroke
LTb
LCb setrgbcolor
2800 448 M
0 63 V
0 4108 R
0 -63 V
stroke
2800 308 M
[ [(Helvetica) 140.0 0.0 true true 0 (1e+05)]
] -46.7 MCshow
/Helvetica findfont 140 scalefont setfont
1.000 UL
LTb
LCb setrgbcolor
1.000 UL
LTa
LCa setrgbcolor
3107 448 M
0 4171 V
stroke
LTb
LCb setrgbcolor
3107 448 M
0 31 V
0 4140 R
0 -31 V
stroke
LTa
LCa setrgbcolor
3286 448 M
0 4171 V
stroke
LTb
LCb setrgbcolor
3286 448 M
0 31 V
0 4140 R
0 -31 V
stroke
LTa
LCa setrgbcolor
3414 448 M
0 4171 V
stroke
LTb
LCb setrgbcolor
3414 448 M
0 31 V
0 4140 R
0 -31 V
stroke
LTa
LCa setrgbcolor
3513 448 M
0 4171 V
stroke
LTb
LCb setrgbcolor
3513 448 M
0 31 V
0 4140 R
0 -31 V
stroke
LTa
LCa setrgbcolor
3593 448 M
0 4171 V
stroke
LTb
LCb setrgbcolor
3593 448 M
0 31 V
0 4140 R
0 -31 V
stroke
LTa
LCa setrgbcolor
3662 448 M
0 4171 V
stroke
LTb
LCb setrgbcolor
3662 448 M
0 31 V
0 4140 R
0 -31 V
stroke
LTa
LCa setrgbcolor
3721 448 M
0 4171 V
stroke
LTb
LCb setrgbcolor
3721 448 M
0 31 V
0 4140 R
0 -31 V
stroke
LTa
LCa setrgbcolor
3773 448 M
0 4171 V
stroke
LTb
LCb setrgbcolor
3773 448 M
0 31 V
0 4140 R
0 -31 V
stroke
LTa
LCa setrgbcolor
3820 448 M
0 4171 V
stroke
LTb
LCb setrgbcolor
3820 448 M
0 63 V
0 4108 R
0 -63 V
stroke
3820 308 M
[ [(Helvetica) 140.0 0.0 true true 0 (1e+06)]
] -46.7 MCshow
/Helvetica findfont 140 scalefont setfont
1.000 UL
LTb
LCb setrgbcolor
1.000 UL
LTa
LCa setrgbcolor
4127 448 M
0 4171 V
stroke
LTb
LCb setrgbcolor
4127 448 M
0 31 V
0 4140 R
0 -31 V
stroke
LTa
LCa setrgbcolor
4306 448 M
0 4171 V
stroke
LTb
LCb setrgbcolor
4306 448 M
0 31 V
0 4140 R
0 -31 V
stroke
LTa
LCa setrgbcolor
4434 448 M
0 4171 V
stroke
LTb
LCb setrgbcolor
4434 448 M
0 31 V
0 4140 R
0 -31 V
stroke
LTa
LCa setrgbcolor
4533 448 M
0 4171 V
stroke
LTb
LCb setrgbcolor
4533 448 M
0 31 V
0 4140 R
0 -31 V
stroke
LTa
LCa setrgbcolor
4614 448 M
0 4171 V
stroke
LTb
LCb setrgbcolor
4614 448 M
0 31 V
0 4140 R
0 -31 V
stroke
LTa
LCa setrgbcolor
4682 448 M
0 4171 V
stroke
LTb
LCb setrgbcolor
4682 448 M
0 31 V
0 4140 R
0 -31 V
stroke
LTa
LCa setrgbcolor
4741 448 M
0 4171 V
stroke
LTb
LCb setrgbcolor
4741 448 M
0 31 V
0 4140 R
0 -31 V
stroke
LTa
LCa setrgbcolor
4793 448 M
0 4171 V
stroke
LTb
LCb setrgbcolor
4793 448 M
0 31 V
0 4140 R
0 -31 V
stroke
LTa
LCa setrgbcolor
4840 448 M
0 4171 V
stroke
LTb
LCb setrgbcolor
4840 448 M
0 63 V
0 4108 R
0 -63 V
stroke
4840 308 M
[ [(Helvetica) 140.0 0.0 true true 0 (1e+07)]
] -46.7 MCshow
/Helvetica findfont 140 scalefont setfont
1.000 UL
LTb
LCb setrgbcolor
1.000 UL
LTa
LCa setrgbcolor
5147 448 M
0 4171 V
stroke
LTb
LCb setrgbcolor
5147 448 M
0 31 V
0 4140 R
0 -31 V
stroke
LTa
LCa setrgbcolor
5327 448 M
0 4171 V
stroke
LTb
LCb setrgbcolor
5327 448 M
0 31 V
0 4140 R
0 -31 V
stroke
LTa
LCa setrgbcolor
5454 448 M
0 4171 V
stroke
LTb
LCb setrgbcolor
5454 448 M
0 31 V
0 4140 R
0 -31 V
stroke
LTa
LCa setrgbcolor
5553 448 M
0 4171 V
stroke
LTb
LCb setrgbcolor
5553 448 M
0 31 V
0 4140 R
0 -31 V
stroke
LTa
LCa setrgbcolor
5634 448 M
0 4171 V
stroke
LTb
LCb setrgbcolor
5634 448 M
0 31 V
0 4140 R
0 -31 V
stroke
LTa
LCa setrgbcolor
5702 448 M
0 4171 V
stroke
LTb
LCb setrgbcolor
5702 448 M
0 31 V
0 4140 R
0 -31 V
stroke
LTa
LCa setrgbcolor
5761 448 M
0 4171 V
stroke
LTb
LCb setrgbcolor
5761 448 M
0 31 V
0 4140 R
0 -31 V
stroke
LTa
LCa setrgbcolor
5813 448 M
0 4171 V
stroke
LTb
LCb setrgbcolor
5813 448 M
0 31 V
0 4140 R
0 -31 V
stroke
LTa
LCa setrgbcolor
5860 448 M
0 4171 V
stroke
LTb
LCb setrgbcolor
5860 448 M
0 63 V
0 4108 R
0 -63 V
stroke
5860 308 M
[ [(Helvetica) 140.0 0.0 true true 0 (1e+08)]
] -46.7 MCshow
/Helvetica findfont 140 scalefont setfont
1.000 UL
LTb
LCb setrgbcolor
1.000 UL
LTa
LCa setrgbcolor
6167 448 M
0 4171 V
stroke
LTb
LCb setrgbcolor
6167 448 M
0 31 V
0 4140 R
0 -31 V
stroke
LTa
LCa setrgbcolor
6347 448 M
0 4171 V
stroke
LTb
LCb setrgbcolor
6347 448 M
0 31 V
0 4140 R
0 -31 V
stroke
LTa
LCa setrgbcolor
6474 448 M
0 4171 V
stroke
LTb
LCb setrgbcolor
6474 448 M
0 31 V
0 4140 R
0 -31 V
stroke
LTa
LCa setrgbcolor
6573 448 M
0 4171 V
stroke
LTb
LCb setrgbcolor
6573 448 M
0 31 V
0 4140 R
0 -31 V
stroke
LTa
LCa setrgbcolor
6654 448 M
0 4171 V
stroke
LTb
LCb setrgbcolor
6654 448 M
0 31 V
0 4140 R
0 -31 V
stroke
LTa
LCa setrgbcolor
6722 448 M
0 4171 V
stroke
LTb
LCb setrgbcolor
6722 448 M
0 31 V
0 4140 R
0 -31 V
stroke
LTa
LCa setrgbcolor
6781 448 M
0 4171 V
stroke
LTb
LCb setrgbcolor
6781 448 M
0 31 V
0 4140 R
0 -31 V
stroke
LTa
LCa setrgbcolor
6833 448 M
0 4171 V
stroke
LTb
LCb setrgbcolor
6833 448 M
0 31 V
0 4140 R
0 -31 V
stroke
LTa
LCa setrgbcolor
6880 448 M
0 4171 V
stroke
LTb
LCb setrgbcolor
1.000 UL
LTB
LCb setrgbcolor
770 4619 N
770 448 L
6107 0 V
0 4171 V
-6107 0 V
Z stroke
1.000 UP
1.000 UL
LTb
LCb setrgbcolor
LCb setrgbcolor
196 2533 M
currentpoint gsave translate -270 rotate 0 0 moveto
[ [(Helvetica) 140.0 0.0 true true 0 (GFLOPs / sec)]
] -46.7 MCshow
grestore
/Helvetica findfont 140 scalefont setfont
LTb
LCb setrgbcolor
LTb
LCb setrgbcolor
3823 98 M
[ [(Helvetica) 140.0 0.0 true true 0 (Working Set Size \(bytes\))]
] -46.7 MCshow
/Helvetica findfont 140 scalefont setfont
LTb
LCb setrgbcolor
3823 4829 M
[ [(Helvetica) 140.0 0.0 true true 0 (Graph 4 \(Results.daisy.v100/Run.001/FLOPS.256/GPU)]
[(Helvetica) 112.0 -42.0 true true 0 (B)]
[(Helvetica) 140.0 0.0 true true 0 (locks.0160/GPU)]
[(Helvetica) 112.0 -42.0 true true 0 (T)]
[(Helvetica) 140.0 0.0 true true 0 (hreads.1024\))]
] -32.7 MCshow
/Helvetica findfont 140 scalefont setfont
LTb
LCb setrgbcolor
LTb
LCb setrgbcolor
% Begin plot #1
0.400 UP
1.000 UL
LTb
0.58 0.00 0.83 C
770 1299 M
40 42 V
42 56 V
41 57 V
40 54 V
41 57 V
42 56 V
42 57 V
41 -120 V
41 56 V
41 56 V
42 57 V
42 -97 V
42 57 V
42 57 V
42 -71 V
42 58 V
42 57 V
42 -50 V
42 58 V
42 -34 V
42 -21 V
42 57 V
42 57 V
43 58 V
42 57 V
42 58 V
42 57 V
42 57 V
42 54 V
42 58 V
42 58 V
42 57 V
43 57 V
42 58 V
42 57 V
42 58 V
42 57 V
42 58 V
43 58 V
42 57 V
42 57 V
42 57 V
42 58 V
42 57 V
43 58 V
42 57 V
42 57 V
42 58 V
43 58 V
42 58 V
42 57 V
42 56 V
42 58 V
43 58 V
42 58 V
42 57 V
42 57 V
43 57 V
42 56 V
42 58 V
42 58 V
42 57 V
43 58 V
42 57 V
42 58 V
42 56 V
43 58 V
42 58 V
42 -352 V
42 57 V
42 57 V
43 58 V
42 57 V
42 56 V
42 58 V
43 -183 V
42 57 V
42 57 V
42 57 V
42 -114 V
43 57 V
42 57 V
42 -75 V
42 56 V
43 59 V
42 -53 V
42 -31 V
42 53 V
42 -24 V
43 -8 V
42 54 V
42 -6 V
42 0 V
43 6 V
42 7 V
42 -28 V
42 19 V
42 -13 V
43 24 V
42 -4 V
42 4 V
42 -16 V
43 10 V
42 -3 V
42 1 V
42 6 V
42 -3 V
43 1 V
42 -2 V
42 5 V
42 -7 V
43 2 V
42 4 V
42 1 V
42 0 V
42 -1 V
43 -4 V
42 2 V
42 1 V
42 1 V
43 1 V
42 -1 V
42 0 V
42 2 V
43 -3 V
42 2 V
42 0 V
42 0 V
42 1 V
43 -1 V
42 1 V
42 -2 V
42 1 V
43 0 V
42 1 V
42 -1 V
42 1 V
42 0 V
43 -5 V
42 1 V
42 -1 V
42 2 V
43 0 V
42 1 V
42 1 V
770 1299 CircleF
810 1341 CircleF
852 1397 CircleF
893 1454 CircleF
933 1508 CircleF
974 1565 CircleF
1016 1621 CircleF
1058 1678 CircleF
1099 1558 CircleF
1140 1614 CircleF
1181 1670 CircleF
1223 1727 CircleF
1265 1630 CircleF
1307 1687 CircleF
1349 1744 CircleF
1391 1673 CircleF
1433 1731 CircleF
1475 1788 CircleF
1517 1738 CircleF
1559 1796 CircleF
1601 1762 CircleF
1643 1741 CircleF
1685 1798 CircleF
1727 1855 CircleF
1770 1913 CircleF
1812 1970 CircleF
1854 2028 CircleF
1896 2085 CircleF
1938 2142 CircleF
1980 2196 CircleF
2022 2254 CircleF
2064 2312 CircleF
2106 2369 CircleF
2149 2426 CircleF
2191 2484 CircleF
2233 2541 CircleF
2275 2599 CircleF
2317 2656 CircleF
2359 2714 CircleF
2402 2772 CircleF
2444 2829 CircleF
2486 2886 CircleF
2528 2943 CircleF
2570 3001 CircleF
2612 3058 CircleF
2655 3116 CircleF
2697 3173 CircleF
2739 3230 CircleF
2781 3288 CircleF
2824 3346 CircleF
2866 3404 CircleF
2908 3461 CircleF
2950 3517 CircleF
2992 3575 CircleF
3035 3633 CircleF
3077 3691 CircleF
3119 3748 CircleF
3161 3805 CircleF
3204 3862 CircleF
3246 3918 CircleF
3288 3976 CircleF
3330 4034 CircleF
3372 4091 CircleF
3415 4149 CircleF
3457 4206 CircleF
3499 4264 CircleF
3541 4320 CircleF
3584 4378 CircleF
3626 4436 CircleF
3668 4084 CircleF
3710 4141 CircleF
3752 4198 CircleF
3795 4256 CircleF
3837 4313 CircleF
3879 4369 CircleF
3921 4427 CircleF
3964 4244 CircleF
4006 4301 CircleF
4048 4358 CircleF
4090 4415 CircleF
4132 4301 CircleF
4175 4358 CircleF
4217 4415 CircleF
4259 4340 CircleF
4301 4396 CircleF
4344 4455 CircleF
4386 4402 CircleF
4428 4371 CircleF
4470 4424 CircleF
4512 4400 CircleF
4555 4392 CircleF
4597 4446 CircleF
4639 4440 CircleF
4681 4440 CircleF
4724 4446 CircleF
4766 4453 CircleF
4808 4425 CircleF
4850 4444 CircleF
4892 4431 CircleF
4935 4455 CircleF
4977 4451 CircleF
5019 4455 CircleF
5061 4439 CircleF
5104 4449 CircleF
5146 4446 CircleF
5188 4447 CircleF
5230 4453 CircleF
5272 4450 CircleF
5315 4451 CircleF
5357 4449 CircleF
5399 4454 CircleF
5441 4447 CircleF
5484 4449 CircleF
5526 4453 CircleF
5568 4454 CircleF
5610 4454 CircleF
5652 4453 CircleF
5695 4449 CircleF
5737 4451 CircleF
5779 4452 CircleF
5821 4453 CircleF
5864 4454 CircleF
5906 4453 CircleF
5948 4453 CircleF
5990 4455 CircleF
6033 4452 CircleF
6075 4454 CircleF
6117 4454 CircleF
6159 4454 CircleF
6201 4455 CircleF
6244 4454 CircleF
6286 4455 CircleF
6328 4453 CircleF
6370 4454 CircleF
6413 4454 CircleF
6455 4455 CircleF
6497 4454 CircleF
6539 4455 CircleF
6581 4455 CircleF
6624 4450 CircleF
6666 4451 CircleF
6708 4450 CircleF
6750 4452 CircleF
6793 4452 CircleF
6835 4453 CircleF
6877 4454 CircleF
% End plot #1
2.000 UL
LTb
LCb setrgbcolor
1.000 UL
LTB
LCb setrgbcolor
770 4619 N
770 448 L
6107 0 V
0 4171 V
-6107 0 V
Z stroke
1.000 UP
1.000 UL
LTb
LCb setrgbcolor
stroke
grestore
end
showpage
%%Trailer
%%DocumentFonts: Helvetica
%%Pages: 1
