%!PS-Adobe-2.0
%%Title: Results.daisy.v100/Run.001/FLOPS.256/GPU_Blocks.0160/GPU_Threads.1024/graph2.ps
%%Creator: gnuplot 5.2 patchlevel 7
%%CreationDate: Sun Jan 19 15:24:43 2020
%%DocumentFonts: (atend)
%%BoundingBox: 50 50 554 770
%%Orientation: Landscape
%%Pages: (atend)
%%EndComments
%%BeginProlog
/gnudict 256 dict def
gnudict begin
%
% The following true/false flags may be edited by hand if desired.
% The unit line width and grayscale image gamma correction may also be changed.
%
/Color true def
/Blacktext false def
/Solid false def
/Dashlength 1 def
/Landscape true def
/Level1 false def
/Level3 false def
/Rounded false def
/ClipToBoundingBox false def
/SuppressPDFMark false def
/TransparentPatterns false def
/gnulinewidth 5.000 def
/userlinewidth gnulinewidth def
/Gamma 1.0 def
/BackgroundColor {-1.000 -1.000 -1.000} def
%
/vshift -46 def
/dl1 {
  10.0 Dashlength userlinewidth gnulinewidth div mul mul mul
  Rounded { currentlinewidth 0.75 mul sub dup 0 le { pop 0.01 } if } if
} def
/dl2 {
  10.0 Dashlength userlinewidth gnulinewidth div mul mul mul
  Rounded { currentlinewidth 0.75 mul add } if
} def
/hpt_ 31.5 def
/vpt_ 31.5 def
/hpt hpt_ def
/vpt vpt_ def
/doclip {
  ClipToBoundingBox {
    newpath 50 50 moveto 554 50 lineto 554 770 lineto 50 770 lineto closepath
    clip
  } if
} def
%
% Gnuplot Prolog Version 5.2 (Dec 2017)
%
%/SuppressPDFMark true def
%
/M {moveto} bind def
/L {lineto} bind def
/R {rmoveto} bind def
/V {rlineto} bind def
/N {newpath moveto} bind def
/Z {closepath} bind def
/C {setrgbcolor} bind def
/f {rlineto fill} bind def
/g {setgray} bind def
/Gshow {show} def   % May be redefined later in the file to support UTF-8
/vpt2 vpt 2 mul def
/hpt2 hpt 2 mul def
/Lshow {currentpoint stroke M 0 vshift R 
	Blacktext {gsave 0 setgray textshow grestore} {textshow} ifelse} def
/Rshow {currentpoint stroke M dup stringwidth pop neg vshift R
	Blacktext {gsave 0 setgray textshow grestore} {textshow} ifelse} def
/Cshow {currentpoint stroke M dup stringwidth pop -2 div vshift R 
	Blacktext {gsave 0 setgray textshow grestore} {textshow} ifelse} def
/UP {dup vpt_ mul /vpt exch def hpt_ mul /hpt exch def
  /hpt2 hpt 2 mul def /vpt2 vpt 2 mul def} def
/DL {Color {setrgbcolor Solid {pop []} if 0 setdash}
 {pop pop pop 0 setgray Solid {pop []} if 0 setdash} ifelse} def
/BL {stroke userlinewidth 2 mul setlinewidth
	Rounded {1 setlinejoin 1 setlinecap} if} def
/AL {stroke userlinewidth 2 div setlinewidth
	Rounded {1 setlinejoin 1 setlinecap} if} def
/UL {dup gnulinewidth mul /userlinewidth exch def
	dup 1 lt {pop 1} if 10 mul /udl exch def} def
/PL {stroke userlinewidth setlinewidth
	Rounded {1 setlinejoin 1 setlinecap} if} def
3.8 setmiterlimit
% Classic Line colors (version 5.0)
/LCw {1 1 1} def
/LCb {0 0 0} def
/LCa {0 0 0} def
/LC0 {1 0 0} def
/LC1 {0 1 0} def
/LC2 {0 0 1} def
/LC3 {1 0 1} def
/LC4 {0 1 1} def
/LC5 {1 1 0} def
/LC6 {0 0 0} def
/LC7 {1 0.3 0} def
/LC8 {0.5 0.5 0.5} def
% Default dash patterns (version 5.0)
/LTB {BL [] LCb DL} def
/LTw {PL [] 1 setgray} def
/LTb {PL [] LCb DL} def
/LTa {AL [1 udl mul 2 udl mul] 0 setdash LCa setrgbcolor} def
/LT0 {PL [] LC0 DL} def
/LT1 {PL [2 dl1 3 dl2] LC1 DL} def
/LT2 {PL [1 dl1 1.5 dl2] LC2 DL} def
/LT3 {PL [6 dl1 2 dl2 1 dl1 2 dl2] LC3 DL} def
/LT4 {PL [1 dl1 2 dl2 6 dl1 2 dl2 1 dl1 2 dl2] LC4 DL} def
/LT5 {PL [4 dl1 2 dl2] LC5 DL} def
/LT6 {PL [1.5 dl1 1.5 dl2 1.5 dl1 1.5 dl2 1.5 dl1 6 dl2] LC6 DL} def
/LT7 {PL [3 dl1 3 dl2 1 dl1 3 dl2] LC7 DL} def
/LT8 {PL [2 dl1 2 dl2 2 dl1 6 dl2] LC8 DL} def
/SL {[] 0 setdash} def
/Pnt {stroke [] 0 setdash gsave 1 setlinecap M 0 0 V stroke grestore} def
/Dia {stroke [] 0 setdash 2 copy vpt add M
  hpt neg vpt neg V hpt vpt neg V
  hpt vpt V hpt neg vpt V closepath stroke
  Pnt} def
/Pls {stroke [] 0 setdash vpt sub M 0 vpt2 V
  currentpoint stroke M
  hpt neg vpt neg R hpt2 0 V stroke
 } def
/Box {stroke [] 0 setdash 2 copy exch hpt sub exch vpt add M
  0 vpt2 neg V hpt2 0 V 0 vpt2 V
  hpt2 neg 0 V closepath stroke
  Pnt} def
/Crs {stroke [] 0 setdash exch hpt sub exch vpt add M
  hpt2 vpt2 neg V currentpoint stroke M
  hpt2 neg 0 R hpt2 vpt2 V stroke} def
/TriU {stroke [] 0 setdash 2 copy vpt 1.12 mul add M
  hpt neg vpt -1.62 mul V
  hpt 2 mul 0 V
  hpt neg vpt 1.62 mul V closepath stroke
  Pnt} def
/Star {2 copy Pls Crs} def
/BoxF {stroke [] 0 setdash exch hpt sub exch vpt add M
  0 vpt2 neg V hpt2 0 V 0 vpt2 V
  hpt2 neg 0 V closepath fill} def
/TriUF {stroke [] 0 setdash vpt 1.12 mul add M
  hpt neg vpt -1.62 mul V
  hpt 2 mul 0 V
  hpt neg vpt 1.62 mul V closepath fill} def
/TriD {stroke [] 0 setdash 2 copy vpt 1.12 mul sub M
  hpt neg vpt 1.62 mul V
  hpt 2 mul 0 V
  hpt neg vpt -1.62 mul V closepath stroke
  Pnt} def
/TriDF {stroke [] 0 setdash vpt 1.12 mul sub M
  hpt neg vpt 1.62 mul V
  hpt 2 mul 0 V
  hpt neg vpt -1.62 mul V closepath fill} def
/DiaF {stroke [] 0 setdash vpt add M
  hpt neg vpt neg V hpt vpt neg V
  hpt vpt V hpt neg vpt V closepath fill} def
/Pent {stroke [] 0 setdash 2 copy gsave
  translate 0 hpt M 4 {72 rotate 0 hpt L} repeat
  closepath stroke grestore Pnt} def
/PentF {stroke [] 0 setdash gsave
  translate 0 hpt M 4 {72 rotate 0 hpt L} repeat
  closepath fill grestore} def
/Circle {stroke [] 0 setdash 2 copy
  hpt 0 360 arc stroke Pnt} def
/CircleF {stroke [] 0 setdash hpt 0 360 arc fill} def
/C0 {BL [] 0 setdash 2 copy moveto vpt 90 450 arc} bind def
/C1 {BL [] 0 setdash 2 copy moveto
	2 copy vpt 0 90 arc closepath fill
	vpt 0 360 arc closepath} bind def
/C2 {BL [] 0 setdash 2 copy moveto
	2 copy vpt 90 180 arc closepath fill
	vpt 0 360 arc closepath} bind def
/C3 {BL [] 0 setdash 2 copy moveto
	2 copy vpt 0 180 arc closepath fill
	vpt 0 360 arc closepath} bind def
/C4 {BL [] 0 setdash 2 copy moveto
	2 copy vpt 180 270 arc closepath fill
	vpt 0 360 arc closepath} bind def
/C5 {BL [] 0 setdash 2 copy moveto
	2 copy vpt 0 90 arc
	2 copy moveto
	2 copy vpt 180 270 arc closepath fill
	vpt 0 360 arc} bind def
/C6 {BL [] 0 setdash 2 copy moveto
	2 copy vpt 90 270 arc closepath fill
	vpt 0 360 arc closepath} bind def
/C7 {BL [] 0 setdash 2 copy moveto
	2 copy vpt 0 270 arc closepath fill
	vpt 0 360 arc closepath} bind def
/C8 {BL [] 0 setdash 2 copy moveto
	2 copy vpt 270 360 arc closepath fill
	vpt 0 360 arc closepath} bind def
/C9 {BL [] 0 setdash 2 copy moveto
	2 copy vpt 270 450 arc closepath fill
	vpt 0 360 arc closepath} bind def
/C10 {BL [] 0 setdash 2 copy 2 copy moveto vpt 270 360 arc closepath fill
	2 copy moveto
	2 copy vpt 90 180 arc closepath fill
	vpt 0 360 arc closepath} bind def
/C11 {BL [] 0 setdash 2 copy moveto
	2 copy vpt 0 180 arc closepath fill
	2 copy moveto
	2 copy vpt 270 360 arc closepath fill
	vpt 0 360 arc closepath} bind def
/C12 {BL [] 0 setdash 2 copy moveto
	2 copy vpt 180 360 arc closepath fill
	vpt 0 360 arc closepath} bind def
/C13 {BL [] 0 setdash 2 copy moveto
	2 copy vpt 0 90 arc closepath fill
	2 copy moveto
	2 copy vpt 180 360 arc closepath fill
	vpt 0 360 arc closepath} bind def
/C14 {BL [] 0 setdash 2 copy moveto
	2 copy vpt 90 360 arc closepath fill
	vpt 0 360 arc} bind def
/C15 {BL [] 0 setdash 2 copy vpt 0 360 arc closepath fill
	vpt 0 360 arc closepath} bind def
/Rec {newpath 4 2 roll moveto 1 index 0 rlineto 0 exch rlineto
	neg 0 rlineto closepath} bind def
/Square {dup Rec} bind def
/Bsquare {vpt sub exch vpt sub exch vpt2 Square} bind def
/S0 {BL [] 0 setdash 2 copy moveto 0 vpt rlineto BL Bsquare} bind def
/S1 {BL [] 0 setdash 2 copy vpt Square fill Bsquare} bind def
/S2 {BL [] 0 setdash 2 copy exch vpt sub exch vpt Square fill Bsquare} bind def
/S3 {BL [] 0 setdash 2 copy exch vpt sub exch vpt2 vpt Rec fill Bsquare} bind def
/S4 {BL [] 0 setdash 2 copy exch vpt sub exch vpt sub vpt Square fill Bsquare} bind def
/S5 {BL [] 0 setdash 2 copy 2 copy vpt Square fill
	exch vpt sub exch vpt sub vpt Square fill Bsquare} bind def
/S6 {BL [] 0 setdash 2 copy exch vpt sub exch vpt sub vpt vpt2 Rec fill Bsquare} bind def
/S7 {BL [] 0 setdash 2 copy exch vpt sub exch vpt sub vpt vpt2 Rec fill
	2 copy vpt Square fill Bsquare} bind def
/S8 {BL [] 0 setdash 2 copy vpt sub vpt Square fill Bsquare} bind def
/S9 {BL [] 0 setdash 2 copy vpt sub vpt vpt2 Rec fill Bsquare} bind def
/S10 {BL [] 0 setdash 2 copy vpt sub vpt Square fill 2 copy exch vpt sub exch vpt Square fill
	Bsquare} bind def
/S11 {BL [] 0 setdash 2 copy vpt sub vpt Square fill 2 copy exch vpt sub exch vpt2 vpt Rec fill
	Bsquare} bind def
/S12 {BL [] 0 setdash 2 copy exch vpt sub exch vpt sub vpt2 vpt Rec fill Bsquare} bind def
/S13 {BL [] 0 setdash 2 copy exch vpt sub exch vpt sub vpt2 vpt Rec fill
	2 copy vpt Square fill Bsquare} bind def
/S14 {BL [] 0 setdash 2 copy exch vpt sub exch vpt sub vpt2 vpt Rec fill
	2 copy exch vpt sub exch vpt Square fill Bsquare} bind def
/S15 {BL [] 0 setdash 2 copy Bsquare fill Bsquare} bind def
/D0 {gsave translate 45 rotate 0 0 S0 stroke grestore} bind def
/D1 {gsave translate 45 rotate 0 0 S1 stroke grestore} bind def
/D2 {gsave translate 45 rotate 0 0 S2 stroke grestore} bind def
/D3 {gsave translate 45 rotate 0 0 S3 stroke grestore} bind def
/D4 {gsave translate 45 rotate 0 0 S4 stroke grestore} bind def
/D5 {gsave translate 45 rotate 0 0 S5 stroke grestore} bind def
/D6 {gsave translate 45 rotate 0 0 S6 stroke grestore} bind def
/D7 {gsave translate 45 rotate 0 0 S7 stroke grestore} bind def
/D8 {gsave translate 45 rotate 0 0 S8 stroke grestore} bind def
/D9 {gsave translate 45 rotate 0 0 S9 stroke grestore} bind def
/D10 {gsave translate 45 rotate 0 0 S10 stroke grestore} bind def
/D11 {gsave translate 45 rotate 0 0 S11 stroke grestore} bind def
/D12 {gsave translate 45 rotate 0 0 S12 stroke grestore} bind def
/D13 {gsave translate 45 rotate 0 0 S13 stroke grestore} bind def
/D14 {gsave translate 45 rotate 0 0 S14 stroke grestore} bind def
/D15 {gsave translate 45 rotate 0 0 S15 stroke grestore} bind def
/DiaE {stroke [] 0 setdash vpt add M
  hpt neg vpt neg V hpt vpt neg V
  hpt vpt V hpt neg vpt V closepath stroke} def
/BoxE {stroke [] 0 setdash exch hpt sub exch vpt add M
  0 vpt2 neg V hpt2 0 V 0 vpt2 V
  hpt2 neg 0 V closepath stroke} def
/TriUE {stroke [] 0 setdash vpt 1.12 mul add M
  hpt neg vpt -1.62 mul V
  hpt 2 mul 0 V
  hpt neg vpt 1.62 mul V closepath stroke} def
/TriDE {stroke [] 0 setdash vpt 1.12 mul sub M
  hpt neg vpt 1.62 mul V
  hpt 2 mul 0 V
  hpt neg vpt -1.62 mul V closepath stroke} def
/PentE {stroke [] 0 setdash gsave
  translate 0 hpt M 4 {72 rotate 0 hpt L} repeat
  closepath stroke grestore} def
/CircE {stroke [] 0 setdash 
  hpt 0 360 arc stroke} def
/Opaque {gsave closepath 1 setgray fill grestore 0 setgray closepath} def
/DiaW {stroke [] 0 setdash vpt add M
  hpt neg vpt neg V hpt vpt neg V
  hpt vpt V hpt neg vpt V Opaque stroke} def
/BoxW {stroke [] 0 setdash exch hpt sub exch vpt add M
  0 vpt2 neg V hpt2 0 V 0 vpt2 V
  hpt2 neg 0 V Opaque stroke} def
/TriUW {stroke [] 0 setdash vpt 1.12 mul add M
  hpt neg vpt -1.62 mul V
  hpt 2 mul 0 V
  hpt neg vpt 1.62 mul V Opaque stroke} def
/TriDW {stroke [] 0 setdash vpt 1.12 mul sub M
  hpt neg vpt 1.62 mul V
  hpt 2 mul 0 V
  hpt neg vpt -1.62 mul V Opaque stroke} def
/PentW {stroke [] 0 setdash gsave
  translate 0 hpt M 4 {72 rotate 0 hpt L} repeat
  Opaque stroke grestore} def
/CircW {stroke [] 0 setdash 
  hpt 0 360 arc Opaque stroke} def
/BoxFill {gsave Rec 1 setgray fill grestore} def
/Density {
  /Fillden exch def
  currentrgbcolor
  /ColB exch def /ColG exch def /ColR exch def
  /ColR ColR Fillden mul Fillden sub 1 add def
  /ColG ColG Fillden mul Fillden sub 1 add def
  /ColB ColB Fillden mul Fillden sub 1 add def
  ColR ColG ColB setrgbcolor} def
/BoxColFill {gsave Rec PolyFill} def
/PolyFill {gsave Density fill grestore grestore} def
/h {rlineto rlineto rlineto closepath gsave fill grestore stroke} bind def
%
% PostScript Level 1 Pattern Fill routine for rectangles
% Usage: x y w h s a XX PatternFill
%	x,y = lower left corner of box to be filled
%	w,h = width and height of box
%	  a = angle in degrees between lines and x-axis
%	 XX = 0/1 for no/yes cross-hatch
%
/PatternFill {gsave /PFa [ 9 2 roll ] def
  PFa 0 get PFa 2 get 2 div add PFa 1 get PFa 3 get 2 div add translate
  PFa 2 get -2 div PFa 3 get -2 div PFa 2 get PFa 3 get Rec
  TransparentPatterns {} {gsave 1 setgray fill grestore} ifelse
  clip
  currentlinewidth 0.5 mul setlinewidth
  /PFs PFa 2 get dup mul PFa 3 get dup mul add sqrt def
  0 0 M PFa 5 get rotate PFs -2 div dup translate
  0 1 PFs PFa 4 get div 1 add floor cvi
	{PFa 4 get mul 0 M 0 PFs V} for
  0 PFa 6 get ne {
	0 1 PFs PFa 4 get div 1 add floor cvi
	{PFa 4 get mul 0 2 1 roll M PFs 0 V} for
 } if
  stroke grestore} def
%
/languagelevel where
 {pop languagelevel} {1} ifelse
dup 2 lt
	{/InterpretLevel1 true def
	 /InterpretLevel3 false def}
	{/InterpretLevel1 Level1 def
	 2 gt
	    {/InterpretLevel3 Level3 def}
	    {/InterpretLevel3 false def}
	 ifelse }
 ifelse
%
% PostScript level 2 pattern fill definitions
%
/Level2PatternFill {
/Tile8x8 {/PaintType 2 /PatternType 1 /TilingType 1 /BBox [0 0 8 8] /XStep 8 /YStep 8}
	bind def
/KeepColor {currentrgbcolor [/Pattern /DeviceRGB] setcolorspace} bind def
<< Tile8x8
 /PaintProc {0.5 setlinewidth pop 0 0 M 8 8 L 0 8 M 8 0 L stroke} 
>> matrix makepattern
/Pat1 exch def
<< Tile8x8
 /PaintProc {0.5 setlinewidth pop 0 0 M 8 8 L 0 8 M 8 0 L stroke
	0 4 M 4 8 L 8 4 L 4 0 L 0 4 L stroke}
>> matrix makepattern
/Pat2 exch def
<< Tile8x8
 /PaintProc {0.5 setlinewidth pop 0 0 M 0 8 L
	8 8 L 8 0 L 0 0 L fill}
>> matrix makepattern
/Pat3 exch def
<< Tile8x8
 /PaintProc {0.5 setlinewidth pop -4 8 M 8 -4 L
	0 12 M 12 0 L stroke}
>> matrix makepattern
/Pat4 exch def
<< Tile8x8
 /PaintProc {0.5 setlinewidth pop -4 0 M 8 12 L
	0 -4 M 12 8 L stroke}
>> matrix makepattern
/Pat5 exch def
<< Tile8x8
 /PaintProc {0.5 setlinewidth pop -2 8 M 4 -4 L
	0 12 M 8 -4 L 4 12 M 10 0 L stroke}
>> matrix makepattern
/Pat6 exch def
<< Tile8x8
 /PaintProc {0.5 setlinewidth pop -2 0 M 4 12 L
	0 -4 M 8 12 L 4 -4 M 10 8 L stroke}
>> matrix makepattern
/Pat7 exch def
<< Tile8x8
 /PaintProc {0.5 setlinewidth pop 8 -2 M -4 4 L
	12 0 M -4 8 L 12 4 M 0 10 L stroke}
>> matrix makepattern
/Pat8 exch def
<< Tile8x8
 /PaintProc {0.5 setlinewidth pop 0 -2 M 12 4 L
	-4 0 M 12 8 L -4 4 M 8 10 L stroke}
>> matrix makepattern
/Pat9 exch def
/Pattern1 {PatternBgnd KeepColor Pat1 setpattern} bind def
/Pattern2 {PatternBgnd KeepColor Pat2 setpattern} bind def
/Pattern3 {PatternBgnd KeepColor Pat3 setpattern} bind def
/Pattern4 {PatternBgnd KeepColor Landscape {Pat5} {Pat4} ifelse setpattern} bind def
/Pattern5 {PatternBgnd KeepColor Landscape {Pat4} {Pat5} ifelse setpattern} bind def
/Pattern6 {PatternBgnd KeepColor Landscape {Pat9} {Pat6} ifelse setpattern} bind def
/Pattern7 {PatternBgnd KeepColor Landscape {Pat8} {Pat7} ifelse setpattern} bind def
} def
%
%
%End of PostScript Level 2 code
%
/PatternBgnd {
  TransparentPatterns {} {gsave 1 setgray fill grestore} ifelse
} def
%
% Substitute for Level 2 pattern fill codes with
% grayscale if Level 2 support is not selected.
%
/Level1PatternFill {
/Pattern1 {0.250 Density} bind def
/Pattern2 {0.500 Density} bind def
/Pattern3 {0.750 Density} bind def
/Pattern4 {0.125 Density} bind def
/Pattern5 {0.375 Density} bind def
/Pattern6 {0.625 Density} bind def
/Pattern7 {0.875 Density} bind def
} def
%
% Now test for support of Level 2 code
%
Level1 {Level1PatternFill} {Level2PatternFill} ifelse
%
/Symbol-Oblique /Symbol findfont [1 0 .167 1 0 0] makefont
dup length dict begin {1 index /FID eq {pop pop} {def} ifelse} forall
currentdict end definefont pop
%
/Metrics {ExtendTextBox Gswidth} def
/Lwidth {currentpoint stroke M 0 vshift R Metrics} def
/Rwidth {currentpoint stroke M dup stringwidth pop neg vshift R Metrics} def
/Cwidth {currentpoint stroke M dup stringwidth pop -2 div vshift R Metrics} def
/GLwidth {currentpoint stroke M 0 vshift R {ExtendTextBox} forall} def
/GRwidth {currentpoint stroke M dup Gwidth vshift R {ExtendTextBox} forall} def
/GCwidth {currentpoint stroke M dup Gwidth 2 div vshift R {ExtendTextBox} forall} def
/GLwidth2 {0 Gwidth AddGlyphWidth} def
/GRwidth2 {Gwidth -1 mul 0 AddGlyphWidth} def
/GCwidth2 {Gwidth 2 div dup -1 mul AddGlyphWidth} def
/AddGlyphWidth { dup TBx2 gt {userdict /TBx2 3 -1 roll put} {pop} ifelse
                 dup TBx1 lt {userdict /TBx1 3 -1 roll put} {pop} ifelse } def
/MFshow {
   { dup 5 get 3 ge
     { 5 get 3 eq {gsave} {grestore} ifelse }
     {dup dup 0 get findfont exch 1 get scalefont setfont
     [ currentpoint ] exch dup 2 get 0 exch R dup 5 get 2 ne {dup dup 6
     get exch 4 get {textshow} {Metrics pop 0 R} ifelse }if dup 5 get 0 eq
     {dup 3 get {2 get neg 0 exch R pop} {pop aload pop M} ifelse} {dup 5
     get 1 eq {dup 2 get exch dup 3 get exch 6 get Gswidth pop -2 div
     dup 0 R} {dup 6 get Gswidth pop -2 div 0 R 6 get
     textshow 2 index {aload pop M neg 3 -1 roll neg R pop pop} {pop pop pop
     pop aload pop M} ifelse }ifelse }ifelse }
     ifelse }
   forall} def
/Gswidth {dup type /stringtype eq {stringwidth} {pop (n) stringwidth} ifelse} def
/MFwidth {0 exch { dup 5 get 3 ge { 5 get 3 eq { 0 } { pop } ifelse }
 {dup 3 get{dup dup 0 get findfont exch 1 get scalefont setfont
     6 get Gswidth pop add} {pop} ifelse} ifelse} forall} def
/MLshow { currentpoint stroke M
  0 exch R
  Blacktext {gsave 0 setgray MFshow grestore} {MFshow} ifelse } bind def
/MRshow { currentpoint stroke M
  exch dup MFwidth neg 3 -1 roll R
  Blacktext {gsave 0 setgray MFshow grestore} {MFshow} ifelse } bind def
/MCshow { currentpoint stroke M
  exch dup MFwidth -2 div 3 -1 roll R
  Blacktext {gsave 0 setgray MFshow grestore} {MFshow} ifelse } bind def
/XYsave    { [( ) 1 2 true false 3 ()] } bind def
/XYrestore { [( ) 1 2 true false 4 ()] } bind def
Level1 SuppressPDFMark or 
{} {
/SDict 10 dict def
systemdict /pdfmark known not {
  userdict /pdfmark systemdict /cleartomark get put
} if
SDict begin [
  /Title (Results.daisy.v100/Run.001/FLOPS.256/GPU_Blocks.0160/GPU_Threads.1024/graph2.ps)
  /Subject (gnuplot plot)
  /Creator (gnuplot 5.2 patchlevel 7)
%  /Producer (gnuplot)
%  /Keywords ()
  /CreationDate (Sun Jan 19 15:24:43 2020)
  /DOCINFO pdfmark
end
} ifelse
%
% Support for boxed text - Ethan A Merritt Sep 2016
%
/InitTextBox { userdict /TBy2 3 -1 roll put userdict /TBx2 3 -1 roll put
           userdict /TBy1 3 -1 roll put userdict /TBx1 3 -1 roll put
	   /Boxing true def } def
/ExtendTextBox { dup type /stringtype eq
    { Boxing { gsave dup false charpath pathbbox
      dup TBy2 gt {userdict /TBy2 3 -1 roll put} {pop} ifelse
      dup TBx2 gt {userdict /TBx2 3 -1 roll put} {pop} ifelse
      dup TBy1 lt {userdict /TBy1 3 -1 roll put} {pop} ifelse
      dup TBx1 lt {userdict /TBx1 3 -1 roll put} {pop} ifelse
      grestore } if }
    {} ifelse} def
/PopTextBox { newpath TBx1 TBxmargin sub TBy1 TBymargin sub M
               TBx1 TBxmargin sub TBy2 TBymargin add L
	       TBx2 TBxmargin add TBy2 TBymargin add L
	       TBx2 TBxmargin add TBy1 TBymargin sub L closepath } def
/DrawTextBox { PopTextBox stroke /Boxing false def} def
/FillTextBox { gsave PopTextBox fill grestore /Boxing false def} def
0 0 0 0 InitTextBox
/TBxmargin 20 def
/TBymargin 20 def
/Boxing false def
/textshow { ExtendTextBox Gshow } def
%
end
%%EndProlog
%%Page: 1 1
gnudict begin
gsave
doclip
50 50 translate
0.100 0.100 scale
90 rotate
0 -5040 translate
0 setgray
newpath
(Helvetica) findfont 140 scalefont setfont
BackgroundColor 0 lt 3 1 roll 0 lt exch 0 lt or or not {gsave BackgroundColor C clippath fill grestore} if
1.000 UL
LTb
LCb setrgbcolor
1.000 UL
LTa
LCa setrgbcolor
770 448 M
6107 0 V
stroke
LTb
LCb setrgbcolor
770 448 M
63 0 V
6044 0 R
-63 0 V
stroke
686 448 M
[ [(Helvetica) 140.0 0.0 true true 0 (1e-02)]
] -46.7 MRshow
/Helvetica findfont 140 scalefont setfont
/vshift -46 def
1.000 UL
LTb
LCb setrgbcolor
1.000 UL
LTa
LCa setrgbcolor
770 699 M
6107 0 V
stroke
LTb
LCb setrgbcolor
770 699 M
31 0 V
6076 0 R
-31 0 V
stroke
LTa
LCa setrgbcolor
770 846 M
6107 0 V
stroke
LTb
LCb setrgbcolor
770 846 M
31 0 V
6076 0 R
-31 0 V
stroke
LTa
LCa setrgbcolor
770 950 M
6107 0 V
stroke
LTb
LCb setrgbcolor
770 950 M
31 0 V
6076 0 R
-31 0 V
stroke
LTa
LCa setrgbcolor
770 1031 M
6107 0 V
stroke
LTb
LCb setrgbcolor
770 1031 M
31 0 V
6076 0 R
-31 0 V
stroke
LTa
LCa setrgbcolor
770 1097 M
6107 0 V
stroke
LTb
LCb setrgbcolor
770 1097 M
31 0 V
6076 0 R
-31 0 V
stroke
LTa
LCa setrgbcolor
770 1153 M
6107 0 V
stroke
LTb
LCb setrgbcolor
770 1153 M
31 0 V
6076 0 R
-31 0 V
stroke
LTa
LCa setrgbcolor
770 1201 M
6107 0 V
stroke
LTb
LCb setrgbcolor
770 1201 M
31 0 V
6076 0 R
-31 0 V
stroke
LTa
LCa setrgbcolor
770 1244 M
6107 0 V
stroke
LTb
LCb setrgbcolor
770 1244 M
31 0 V
6076 0 R
-31 0 V
stroke
LTa
LCa setrgbcolor
770 1282 M
6107 0 V
stroke
LTb
LCb setrgbcolor
770 1282 M
63 0 V
6044 0 R
-63 0 V
stroke
686 1282 M
[ [(Helvetica) 140.0 0.0 true true 0 (1e-01)]
] -46.7 MRshow
/Helvetica findfont 140 scalefont setfont
1.000 UL
LTb
LCb setrgbcolor
1.000 UL
LTa
LCa setrgbcolor
770 1533 M
6107 0 V
stroke
LTb
LCb setrgbcolor
770 1533 M
31 0 V
6076 0 R
-31 0 V
stroke
LTa
LCa setrgbcolor
770 1680 M
6107 0 V
stroke
LTb
LCb setrgbcolor
770 1680 M
31 0 V
6076 0 R
-31 0 V
stroke
LTa
LCa setrgbcolor
770 1784 M
6107 0 V
stroke
LTb
LCb setrgbcolor
770 1784 M
31 0 V
6076 0 R
-31 0 V
stroke
LTa
LCa setrgbcolor
770 1865 M
6107 0 V
stroke
LTb
LCb setrgbcolor
770 1865 M
31 0 V
6076 0 R
-31 0 V
stroke
LTa
LCa setrgbcolor
770 1931 M
6107 0 V
stroke
LTb
LCb setrgbcolor
770 1931 M
31 0 V
6076 0 R
-31 0 V
stroke
LTa
LCa setrgbcolor
770 1987 M
6107 0 V
stroke
LTb
LCb setrgbcolor
770 1987 M
31 0 V
6076 0 R
-31 0 V
stroke
LTa
LCa setrgbcolor
770 2036 M
6107 0 V
stroke
LTb
LCb setrgbcolor
770 2036 M
31 0 V
6076 0 R
-31 0 V
stroke
LTa
LCa setrgbcolor
770 2078 M
6107 0 V
stroke
LTb
LCb setrgbcolor
770 2078 M
31 0 V
6076 0 R
-31 0 V
stroke
LTa
LCa setrgbcolor
770 2116 M
6107 0 V
stroke
LTb
LCb setrgbcolor
770 2116 M
63 0 V
6044 0 R
-63 0 V
stroke
686 2116 M
[ [(Helvetica) 140.0 0.0 true true 0 (1e+00)]
] -46.7 MRshow
/Helvetica findfont 140 scalefont setfont
1.000 UL
LTb
LCb setrgbcolor
1.000 UL
LTa
LCa setrgbcolor
770 2368 M
6107 0 V
stroke
LTb
LCb setrgbcolor
770 2368 M
31 0 V
6076 0 R
-31 0 V
stroke
LTa
LCa setrgbcolor
770 2514 M
6107 0 V
stroke
LTb
LCb setrgbcolor
770 2514 M
31 0 V
6076 0 R
-31 0 V
stroke
LTa
LCa setrgbcolor
770 2619 M
6107 0 V
stroke
LTb
LCb setrgbcolor
770 2619 M
31 0 V
6076 0 R
-31 0 V
stroke
LTa
LCa setrgbcolor
770 2699 M
6107 0 V
stroke
LTb
LCb setrgbcolor
770 2699 M
31 0 V
6076 0 R
-31 0 V
stroke
LTa
LCa setrgbcolor
770 2766 M
6107 0 V
stroke
LTb
LCb setrgbcolor
770 2766 M
31 0 V
6076 0 R
-31 0 V
stroke
LTa
LCa setrgbcolor
770 2821 M
6107 0 V
stroke
LTb
LCb setrgbcolor
770 2821 M
31 0 V
6076 0 R
-31 0 V
stroke
LTa
LCa setrgbcolor
770 2870 M
6107 0 V
stroke
LTb
LCb setrgbcolor
770 2870 M
31 0 V
6076 0 R
-31 0 V
stroke
LTa
LCa setrgbcolor
770 2912 M
6107 0 V
stroke
LTb
LCb setrgbcolor
770 2912 M
31 0 V
6076 0 R
-31 0 V
stroke
LTa
LCa setrgbcolor
770 2951 M
6107 0 V
stroke
LTb
LCb setrgbcolor
770 2951 M
63 0 V
6044 0 R
-63 0 V
stroke
686 2951 M
[ [(Helvetica) 140.0 0.0 true true 0 (1e+01)]
] -46.7 MRshow
/Helvetica findfont 140 scalefont setfont
1.000 UL
LTb
LCb setrgbcolor
1.000 UL
LTa
LCa setrgbcolor
770 3202 M
6107 0 V
stroke
LTb
LCb setrgbcolor
770 3202 M
31 0 V
6076 0 R
-31 0 V
stroke
LTa
LCa setrgbcolor
770 3349 M
6107 0 V
stroke
LTb
LCb setrgbcolor
770 3349 M
31 0 V
6076 0 R
-31 0 V
stroke
LTa
LCa setrgbcolor
770 3453 M
6107 0 V
stroke
LTb
LCb setrgbcolor
770 3453 M
31 0 V
6076 0 R
-31 0 V
stroke
LTa
LCa setrgbcolor
770 3534 M
6107 0 V
stroke
LTb
LCb setrgbcolor
770 3534 M
31 0 V
6076 0 R
-31 0 V
stroke
LTa
LCa setrgbcolor
770 3600 M
6107 0 V
stroke
LTb
LCb setrgbcolor
770 3600 M
31 0 V
6076 0 R
-31 0 V
stroke
LTa
LCa setrgbcolor
770 3656 M
6107 0 V
stroke
LTb
LCb setrgbcolor
770 3656 M
31 0 V
6076 0 R
-31 0 V
stroke
LTa
LCa setrgbcolor
770 3704 M
6107 0 V
stroke
LTb
LCb setrgbcolor
770 3704 M
31 0 V
6076 0 R
-31 0 V
stroke
LTa
LCa setrgbcolor
770 3747 M
6107 0 V
stroke
LTb
LCb setrgbcolor
770 3747 M
31 0 V
6076 0 R
-31 0 V
stroke
LTa
LCa setrgbcolor
770 3785 M
6107 0 V
stroke
LTb
LCb setrgbcolor
770 3785 M
63 0 V
6044 0 R
-63 0 V
stroke
686 3785 M
[ [(Helvetica) 140.0 0.0 true true 0 (1e+02)]
] -46.7 MRshow
/Helvetica findfont 140 scalefont setfont
1.000 UL
LTb
LCb setrgbcolor
1.000 UL
LTa
LCa setrgbcolor
770 4036 M
6107 0 V
stroke
LTb
LCb setrgbcolor
770 4036 M
31 0 V
6076 0 R
-31 0 V
stroke
LTa
LCa setrgbcolor
770 4183 M
6107 0 V
stroke
LTb
LCb setrgbcolor
770 4183 M
31 0 V
6076 0 R
-31 0 V
stroke
LTa
LCa setrgbcolor
770 4287 M
6107 0 V
stroke
LTb
LCb setrgbcolor
770 4287 M
31 0 V
6076 0 R
-31 0 V
stroke
LTa
LCa setrgbcolor
770 4368 M
6107 0 V
stroke
LTb
LCb setrgbcolor
770 4368 M
31 0 V
6076 0 R
-31 0 V
stroke
LTa
LCa setrgbcolor
770 4434 M
6107 0 V
stroke
LTb
LCb setrgbcolor
770 4434 M
31 0 V
6076 0 R
-31 0 V
stroke
LTa
LCa setrgbcolor
770 4490 M
6107 0 V
stroke
LTb
LCb setrgbcolor
770 4490 M
31 0 V
6076 0 R
-31 0 V
stroke
LTa
LCa setrgbcolor
770 4538 M
6107 0 V
stroke
LTb
LCb setrgbcolor
770 4538 M
31 0 V
6076 0 R
-31 0 V
stroke
LTa
LCa setrgbcolor
770 4581 M
6107 0 V
stroke
LTb
LCb setrgbcolor
770 4581 M
31 0 V
6076 0 R
-31 0 V
stroke
LTa
LCa setrgbcolor
770 4619 M
6107 0 V
stroke
LTb
LCb setrgbcolor
770 4619 M
63 0 V
6044 0 R
-63 0 V
stroke
686 4619 M
[ [(Helvetica) 140.0 0.0 true true 0 (1e+03)]
] -46.7 MRshow
/Helvetica findfont 140 scalefont setfont
1.000 UL
LTb
LCb setrgbcolor
1.000 UL
LTa
LCa setrgbcolor
1067 448 M
0 4171 V
stroke
LTb
LCb setrgbcolor
1067 448 M
0 31 V
0 4140 R
0 -31 V
stroke
LTa
LCa setrgbcolor
1246 448 M
0 4171 V
stroke
LTb
LCb setrgbcolor
1246 448 M
0 31 V
0 4140 R
0 -31 V
stroke
LTa
LCa setrgbcolor
1374 448 M
0 4171 V
stroke
LTb
LCb setrgbcolor
1374 448 M
0 31 V
0 4140 R
0 -31 V
stroke
LTa
LCa setrgbcolor
1473 448 M
0 4171 V
stroke
LTb
LCb setrgbcolor
1473 448 M
0 31 V
0 4140 R
0 -31 V
stroke
LTa
LCa setrgbcolor
1553 448 M
0 4171 V
stroke
LTb
LCb setrgbcolor
1553 448 M
0 31 V
0 4140 R
0 -31 V
stroke
LTa
LCa setrgbcolor
1622 448 M
0 4171 V
stroke
LTb
LCb setrgbcolor
1622 448 M
0 31 V
0 4140 R
0 -31 V
stroke
LTa
LCa setrgbcolor
1681 448 M
0 4171 V
stroke
LTb
LCb setrgbcolor
1681 448 M
0 31 V
0 4140 R
0 -31 V
stroke
LTa
LCa setrgbcolor
1733 448 M
0 4171 V
stroke
LTb
LCb setrgbcolor
1733 448 M
0 31 V
0 4140 R
0 -31 V
stroke
LTa
LCa setrgbcolor
1780 448 M
0 4171 V
stroke
LTb
LCb setrgbcolor
1780 448 M
0 63 V
0 4108 R
0 -63 V
stroke
1780 308 M
[ [(Helvetica) 140.0 0.0 true true 0 (1e+04)]
] -46.7 MCshow
/Helvetica findfont 140 scalefont setfont
1.000 UL
LTb
LCb setrgbcolor
1.000 UL
LTa
LCa setrgbcolor
2087 448 M
0 4171 V
stroke
LTb
LCb setrgbcolor
2087 448 M
0 31 V
0 4140 R
0 -31 V
stroke
LTa
LCa setrgbcolor
2266 448 M
0 4171 V
stroke
LTb
LCb setrgbcolor
2266 448 M
0 31 V
0 4140 R
0 -31 V
stroke
LTa
LCa setrgbcolor
2394 448 M
0 4171 V
stroke
LTb
LCb setrgbcolor
2394 448 M
0 31 V
0 4140 R
0 -31 V
stroke
LTa
LCa setrgbcolor
2493 448 M
0 4171 V
stroke
LTb
LCb setrgbcolor
2493 448 M
0 31 V
0 4140 R
0 -31 V
stroke
LTa
LCa setrgbcolor
2573 448 M
0 4171 V
stroke
LTb
LCb setrgbcolor
2573 448 M
0 31 V
0 4140 R
0 -31 V
stroke
LTa
LCa setrgbcolor
2642 448 M
0 4171 V
stroke
LTb
LCb setrgbcolor
2642 448 M
0 31 V
0 4140 R
0 -31 V
stroke
LTa
LCa setrgbcolor
2701 448 M
0 4171 V
stroke
LTb
LCb setrgbcolor
2701 448 M
0 31 V
0 4140 R
0 -31 V
stroke
LTa
LCa setrgbcolor
2753 448 M
0 4171 V
stroke
LTb
LCb setrgbcolor
2753 448 M
0 31 V
0 4140 R
0 -31 V
stroke
LTa
LCa setrgbcolor
2800 448 M
0 4171 V
stroke
LTb
LCb setrgbcolor
2800 448 M
0 63 V
0 4108 R
0 -63 V
stroke
2800 308 M
[ [(Helvetica) 140.0 0.0 true true 0 (1e+05)]
] -46.7 MCshow
/Helvetica findfont 140 scalefont setfont
1.000 UL
LTb
LCb setrgbcolor
1.000 UL
LTa
LCa setrgbcolor
3107 448 M
0 4171 V
stroke
LTb
LCb setrgbcolor
3107 448 M
0 31 V
0 4140 R
0 -31 V
stroke
LTa
LCa setrgbcolor
3286 448 M
0 4171 V
stroke
LTb
LCb setrgbcolor
3286 448 M
0 31 V
0 4140 R
0 -31 V
stroke
LTa
LCa setrgbcolor
3414 448 M
0 4171 V
stroke
LTb
LCb setrgbcolor
3414 448 M
0 31 V
0 4140 R
0 -31 V
stroke
LTa
LCa setrgbcolor
3513 448 M
0 4171 V
stroke
LTb
LCb setrgbcolor
3513 448 M
0 31 V
0 4140 R
0 -31 V
stroke
LTa
LCa setrgbcolor
3593 448 M
0 4171 V
stroke
LTb
LCb setrgbcolor
3593 448 M
0 31 V
0 4140 R
0 -31 V
stroke
LTa
LCa setrgbcolor
3662 448 M
0 4171 V
stroke
LTb
LCb setrgbcolor
3662 448 M
0 31 V
0 4140 R
0 -31 V
stroke
LTa
LCa setrgbcolor
3721 448 M
0 4171 V
stroke
LTb
LCb setrgbcolor
3721 448 M
0 31 V
0 4140 R
0 -31 V
stroke
LTa
LCa setrgbcolor
3773 448 M
0 4171 V
stroke
LTb
LCb setrgbcolor
3773 448 M
0 31 V
0 4140 R
0 -31 V
stroke
LTa
LCa setrgbcolor
3820 448 M
0 4171 V
stroke
LTb
LCb setrgbcolor
3820 448 M
0 63 V
0 4108 R
0 -63 V
stroke
3820 308 M
[ [(Helvetica) 140.0 0.0 true true 0 (1e+06)]
] -46.7 MCshow
/Helvetica findfont 140 scalefont setfont
1.000 UL
LTb
LCb setrgbcolor
1.000 UL
LTa
LCa setrgbcolor
4127 448 M
0 4171 V
stroke
LTb
LCb setrgbcolor
4127 448 M
0 31 V
0 4140 R
0 -31 V
stroke
LTa
LCa setrgbcolor
4306 448 M
0 4171 V
stroke
LTb
LCb setrgbcolor
4306 448 M
0 31 V
0 4140 R
0 -31 V
stroke
LTa
LCa setrgbcolor
4434 448 M
0 4171 V
stroke
LTb
LCb setrgbcolor
4434 448 M
0 31 V
0 4140 R
0 -31 V
stroke
LTa
LCa setrgbcolor
4533 448 M
0 4171 V
stroke
LTb
LCb setrgbcolor
4533 448 M
0 31 V
0 4140 R
0 -31 V
stroke
LTa
LCa setrgbcolor
4614 448 M
0 4171 V
stroke
LTb
LCb setrgbcolor
4614 448 M
0 31 V
0 4140 R
0 -31 V
stroke
LTa
LCa setrgbcolor
4682 448 M
0 4171 V
stroke
LTb
LCb setrgbcolor
4682 448 M
0 31 V
0 4140 R
0 -31 V
stroke
LTa
LCa setrgbcolor
4741 448 M
0 4171 V
stroke
LTb
LCb setrgbcolor
4741 448 M
0 31 V
0 4140 R
0 -31 V
stroke
LTa
LCa setrgbcolor
4793 448 M
0 4171 V
stroke
LTb
LCb setrgbcolor
4793 448 M
0 31 V
0 4140 R
0 -31 V
stroke
LTa
LCa setrgbcolor
4840 448 M
0 4171 V
stroke
LTb
LCb setrgbcolor
4840 448 M
0 63 V
0 4108 R
0 -63 V
stroke
4840 308 M
[ [(Helvetica) 140.0 0.0 true true 0 (1e+07)]
] -46.7 MCshow
/Helvetica findfont 140 scalefont setfont
1.000 UL
LTb
LCb setrgbcolor
1.000 UL
LTa
LCa setrgbcolor
5147 448 M
0 4171 V
stroke
LTb
LCb setrgbcolor
5147 448 M
0 31 V
0 4140 R
0 -31 V
stroke
LTa
LCa setrgbcolor
5327 448 M
0 4171 V
stroke
LTb
LCb setrgbcolor
5327 448 M
0 31 V
0 4140 R
0 -31 V
stroke
LTa
LCa setrgbcolor
5454 448 M
0 4171 V
stroke
LTb
LCb setrgbcolor
5454 448 M
0 31 V
0 4140 R
0 -31 V
stroke
LTa
LCa setrgbcolor
5553 448 M
0 4171 V
stroke
LTb
LCb setrgbcolor
5553 448 M
0 31 V
0 4140 R
0 -31 V
stroke
LTa
LCa setrgbcolor
5634 448 M
0 4171 V
stroke
LTb
LCb setrgbcolor
5634 448 M
0 31 V
0 4140 R
0 -31 V
stroke
LTa
LCa setrgbcolor
5702 448 M
0 4171 V
stroke
LTb
LCb setrgbcolor
5702 448 M
0 31 V
0 4140 R
0 -31 V
stroke
LTa
LCa setrgbcolor
5761 448 M
0 4171 V
stroke
LTb
LCb setrgbcolor
5761 448 M
0 31 V
0 4140 R
0 -31 V
stroke
LTa
LCa setrgbcolor
5813 448 M
0 4171 V
stroke
LTb
LCb setrgbcolor
5813 448 M
0 31 V
0 4140 R
0 -31 V
stroke
LTa
LCa setrgbcolor
5860 448 M
0 4171 V
stroke
LTb
LCb setrgbcolor
5860 448 M
0 63 V
0 4108 R
0 -63 V
stroke
5860 308 M
[ [(Helvetica) 140.0 0.0 true true 0 (1e+08)]
] -46.7 MCshow
/Helvetica findfont 140 scalefont setfont
1.000 UL
LTb
LCb setrgbcolor
1.000 UL
LTa
LCa setrgbcolor
6167 448 M
0 4171 V
stroke
LTb
LCb setrgbcolor
6167 448 M
0 31 V
0 4140 R
0 -31 V
stroke
LTa
LCa setrgbcolor
6347 448 M
0 4171 V
stroke
LTb
LCb setrgbcolor
6347 448 M
0 31 V
0 4140 R
0 -31 V
stroke
LTa
LCa setrgbcolor
6474 448 M
0 4171 V
stroke
LTb
LCb setrgbcolor
6474 448 M
0 31 V
0 4140 R
0 -31 V
stroke
LTa
LCa setrgbcolor
6573 448 M
0 4171 V
stroke
LTb
LCb setrgbcolor
6573 448 M
0 31 V
0 4140 R
0 -31 V
stroke
LTa
LCa setrgbcolor
6654 448 M
0 4171 V
stroke
LTb
LCb setrgbcolor
6654 448 M
0 31 V
0 4140 R
0 -31 V
stroke
LTa
LCa setrgbcolor
6722 448 M
0 4171 V
stroke
LTb
LCb setrgbcolor
6722 448 M
0 31 V
0 4140 R
0 -31 V
stroke
LTa
LCa setrgbcolor
6781 448 M
0 4171 V
stroke
LTb
LCb setrgbcolor
6781 448 M
0 31 V
0 4140 R
0 -31 V
stroke
LTa
LCa setrgbcolor
6833 448 M
0 4171 V
stroke
LTb
LCb setrgbcolor
6833 448 M
0 31 V
0 4140 R
0 -31 V
stroke
LTa
LCa setrgbcolor
6880 448 M
0 4171 V
stroke
LTb
LCb setrgbcolor
1.000 UL
LTB
LCb setrgbcolor
770 4619 N
770 448 L
6107 0 V
0 4171 V
-6107 0 V
Z stroke
1.000 UP
1.000 UL
LTb
LCb setrgbcolor
LCb setrgbcolor
196 2533 M
currentpoint gsave translate -270 rotate 0 0 moveto
[ [(Helvetica) 140.0 0.0 true true 0 (Total Bandwidth \(GB/s\))]
] -46.7 MCshow
grestore
/Helvetica findfont 140 scalefont setfont
LTb
LCb setrgbcolor
LTb
LCb setrgbcolor
3823 98 M
[ [(Helvetica) 140.0 0.0 true true 0 (Working Set Size \(bytes\))]
] -46.7 MCshow
/Helvetica findfont 140 scalefont setfont
LTb
LCb setrgbcolor
3823 4829 M
[ [(Helvetica) 140.0 0.0 true true 0 (Graph 2 \(Results.daisy.v100/Run.001/FLOPS.256/GPU)]
[(Helvetica) 112.0 -42.0 true true 0 (B)]
[(Helvetica) 140.0 0.0 true true 0 (locks.0160/GPU)]
[(Helvetica) 112.0 -42.0 true true 0 (T)]
[(Helvetica) 140.0 0.0 true true 0 (hreads.1024\))]
] -32.7 MCshow
/Helvetica findfont 140 scalefont setfont
LTb
LCb setrgbcolor
LTb
LCb setrgbcolor
% Begin plot #1
0.400 UP
1.000 UL
LTb
0.58 0.00 0.83 C
770 1206 M
0 498 V
0 232 V
0 170 V
0 116 V
0 76 V
0 52 V
0 24 V
0 14 V
0 -1 V
0 4 V
0 2 V
0 2 V
0 10 V
0 36 V
0 16 V
810 1296 M
0 502 V
0 198 V
0 172 V
0 106 V
0 90 V
0 63 V
0 24 V
0 12 V
0 14 V
0 1 V
0 1 V
0 1 V
0 1 V
0 1 V
852 1359 M
0 445 V
0 196 V
0 176 V
0 133 V
0 93 V
0 61 V
0 22 V
0 12 V
0 10 V
0 4 V
0 2 V
0 2 V
0 1 V
893 1377 M
0 452 V
0 202 V
0 189 V
0 126 V
0 90 V
0 58 V
0 31 V
0 7 V
0 9 V
0 4 V
0 2 V
0 2 V
0 1 V
933 1442 M
0 425 V
0 236 V
0 153 V
0 127 V
0 88 V
0 56 V
0 25 V
0 18 V
0 3 V
0 6 V
0 2 V
0 1 V
974 1489 M
0 426 V
0 221 V
0 156 V
0 135 V
0 86 V
0 46 V
0 32 V
0 13 V
0 1 V
0 8 V
0 2 V
0 1 V
42 -1160 R
0 495 V
0 208 V
0 169 V
0 134 V
0 74 V
0 59 V
0 27 V
0 10 V
0 13 V
0 2 V
0 1 V
0 1 V
0 1 V
42 -1098 R
0 429 V
0 213 V
0 170 V
0 129 V
0 81 V
0 56 V
0 27 V
0 16 V
0 3 V
0 4 V
0 1 V
0 1 V
0 1 V
0 1 V
41 -1129 R
0 448 V
0 206 V
0 134 V
0 119 V
0 68 V
0 35 V
0 26 V
0 7 V
0 5 V
0 5 V
0 2 V
0 1 V
0 1 V
41 -1003 R
0 371 V
0 238 V
0 173 V
0 101 V
0 69 V
0 32 V
0 28 V
0 13 V
0 4 V
0 4 V
0 2 V
0 1 V
0 1 V
41 -1003 R
0 435 V
0 192 V
0 141 V
0 116 V
0 71 V
0 40 V
0 20 V
0 11 V
0 5 V
0 2 V
0 1 V
0 1 V
0 1 V
0 1 V
42 -1011 R
0 435 V
0 209 V
0 134 V
0 107 V
0 76 V
0 42 V
0 20 V
0 8 V
0 4 V
0 7 V
0 1 V
0 1 V
0 1 V
42 -1012 R
0 242 V
0 345 V
0 145 V
0 73 V
0 80 V
0 34 V
0 10 V
0 13 V
0 6 V
0 3 V
0 1 V
0 1 V
42 -936 R
0 445 V
0 170 V
0 135 V
0 98 V
0 57 V
0 30 V
0 18 V
0 6 V
0 5 V
0 3 V
0 2 V
0 1 V
42 -926 R
0 441 V
0 179 V
0 122 V
0 99 V
0 53 V
0 33 V
0 15 V
0 11 V
0 4 V
0 1 V
0 2 V
0 1 V
42 -925 R
0 393 V
0 189 V
0 105 V
0 92 V
0 49 V
0 27 V
0 13 V
0 2 V
0 7 V
0 3 V
0 1 V
0 1 V
42 -817 R
0 380 V
0 157 V
0 132 V
0 78 V
0 48 V
0 29 V
0 12 V
0 8 V
0 3 V
0 2 V
0 2 V
0 1 V
42 -854 R
0 412 V
0 168 V
0 118 V
0 87 V
0 48 V
0 26 V
0 14 V
0 8 V
0 3 V
0 2 V
0 1 V
0 1 V
42 -865 R
0 407 V
stroke 1517 2292 M
0 161 V
0 105 V
0 75 V
0 39 V
0 24 V
0 12 V
0 5 V
0 3 V
0 3 V
0 1 V
42 -788 R
0 389 V
0 150 V
0 127 V
0 71 V
0 40 V
0 22 V
0 11 V
0 5 V
0 4 V
0 2 V
0 1 V
0 1 V
42 -788 R
0 376 V
0 147 V
0 102 V
0 65 V
0 36 V
0 21 V
0 10 V
0 4 V
0 3 V
0 2 V
0 1 V
0 1 V
42 -748 R
0 382 V
0 130 V
0 89 V
0 63 V
0 35 V
0 17 V
0 9 V
0 5 V
0 2 V
0 1 V
0 1 V
0 1 V
42 -683 R
0 355 V
0 106 V
0 128 V
0 61 V
0 26 V
0 16 V
0 15 V
0 5 V
0 2 V
0 1 V
0 1 V
0 1 V
42 -716 R
0 371 V
0 154 V
0 93 V
0 54 V
0 43 V
0 18 V
0 7 V
0 5 V
0 3 V
0 1 V
0 1 V
0 1 V
43 -680 R
0 349 V
0 147 V
0 93 V
0 54 V
0 35 V
0 17 V
0 10 V
0 4 V
0 1 V
0 3 V
0 1 V
42 -691 R
0 358 V
0 152 V
0 89 V
0 56 V
0 34 V
0 18 V
0 9 V
0 5 V
0 2 V
0 2 V
0 1 V
42 -713 R
0 372 V
0 149 V
0 93 V
0 66 V
0 25 V
0 22 V
0 9 V
0 6 V
0 3 V
0 1 V
0 1 V
42 -690 R
0 366 V
0 135 V
0 95 V
0 57 V
0 36 V
0 17 V
0 9 V
0 4 V
0 3 V
0 1 V
0 1 V
42 -710 R
0 369 V
0 155 V
0 96 V
0 56 V
0 29 V
0 21 V
0 8 V
0 6 V
0 2 V
0 1 V
0 1 V
0 1 V
42 -702 R
0 363 V
0 148 V
0 63 V
0 83 V
0 38 V
0 21 V
0 9 V
0 4 V
0 2 V
0 2 V
0 1 V
42 -684 R
0 340 V
0 153 V
0 103 V
0 54 V
0 33 V
0 17 V
0 10 V
0 4 V
0 2 V
0 1 V
0 1 V
0 1 V
42 -687 R
0 361 V
0 134 V
0 100 V
0 59 V
0 31 V
0 18 V
0 8 V
0 5 V
0 3 V
0 2 V
42 -683 R
0 343 V
0 152 V
0 81 V
0 64 V
0 43 V
0 16 V
0 8 V
0 6 V
0 2 V
0 1 V
0 1 V
0 1 V
43 -735 R
0 401 V
0 138 V
0 105 V
0 53 V
0 37 V
0 16 V
0 10 V
0 5 V
0 2 V
0 1 V
0 1 V
42 -699 R
0 370 V
0 132 V
0 106 V
0 56 V
0 33 V
0 17 V
0 11 V
0 4 V
0 2 V
0 1 V
0 1 V
0 1 V
42 -691 R
0 335 V
0 142 V
0 116 V
0 65 V
0 26 V
0 20 V
0 11 V
0 5 V
0 3 V
0 1 V
0 1 V
42 -682 R
0 351 V
0 132 V
0 108 V
0 55 V
0 36 V
0 16 V
0 9 V
0 5 V
0 2 V
0 1 V
0 1 V
42 -714 R
0 390 V
0 132 V
0 100 V
0 57 V
0 36 V
0 15 V
0 10 V
0 5 V
0 2 V
0 1 V
0 1 V
42 -679 R
0 362 V
0 131 V
stroke 2359 3085 M
0 94 V
0 56 V
0 35 V
0 16 V
0 10 V
0 5 V
0 2 V
0 1 V
0 1 V
0 1 V
43 -664 R
0 341 V
0 140 V
0 89 V
0 59 V
0 33 V
0 18 V
0 8 V
0 6 V
0 1 V
0 1 V
0 1 V
0 1 V
42 -655 R
0 299 V
0 157 V
0 106 V
0 53 V
0 38 V
0 14 V
0 12 V
0 6 V
0 1 V
0 2 V
0 1 V
0 1 V
0 -1 V
42 -692 R
0 371 V
0 137 V
0 87 V
0 65 V
0 31 V
0 18 V
0 8 V
0 5 V
0 2 V
0 1 V
0 1 V
0 1 V
42 -682 R
0 361 V
0 135 V
0 95 V
0 58 V
0 32 V
0 16 V
0 9 V
0 6 V
0 2 V
0 1 V
0 1 V
42 -672 R
0 347 V
0 138 V
0 97 V
0 56 V
0 33 V
0 18 V
0 9 V
0 4 V
0 2 V
0 1 V
0 2 V
42 -656 R
0 336 V
0 133 V
0 92 V
0 60 V
0 32 V
0 20 V
0 7 V
0 6 V
0 3 V
0 1 V
43 -729 R
0 382 V
0 149 V
0 105 V
0 55 V
0 38 V
0 16 V
0 9 V
0 5 V
0 2 V
0 1 V
0 1 V
0 1 V
42 -730 R
0 404 V
0 131 V
0 101 V
0 58 V
0 34 V
0 17 V
0 10 V
0 4 V
0 3 V
0 1 V
0 1 V
42 -729 R
0 390 V
0 144 V
0 105 V
0 58 V
0 31 V
0 17 V
0 10 V
0 4 V
0 2 V
0 1 V
0 1 V
0 1 V
42 -740 R
0 410 V
0 143 V
0 92 V
0 60 V
0 33 V
0 18 V
0 9 V
0 4 V
0 3 V
0 1 V
0 1 V
43 -742 R
0 406 V
0 146 V
0 92 V
0 64 V
0 33 V
0 17 V
0 10 V
0 4 V
0 2 V
0 1 V
0 1 V
0 1 V
42 -700 R
0 376 V
0 137 V
0 95 V
0 55 V
0 36 V
0 17 V
0 9 V
0 5 V
0 2 V
0 1 V
0 1 V
0 1 V
42 -695 R
0 362 V
0 144 V
0 95 V
0 59 V
0 32 V
0 18 V
0 9 V
0 4 V
0 3 V
0 1 V
0 1 V
0 1 V
42 -696 R
0 362 V
0 148 V
0 96 V
0 53 V
0 36 V
0 16 V
0 10 V
0 4 V
0 2 V
0 2 V
0 1 V
42 -724 R
0 406 V
0 131 V
0 95 V
0 43 V
0 47 V
0 18 V
0 9 V
0 5 V
0 2 V
0 1 V
0 1 V
43 -695 R
0 357 V
0 154 V
0 91 V
0 55 V
0 37 V
0 18 V
0 9 V
0 5 V
0 1 V
0 2 V
0 1 V
42 -715 R
0 387 V
0 137 V
0 101 V
0 16 V
0 71 V
0 18 V
0 11 V
0 4 V
0 3 V
0 1 V
0 1 V
42 -707 R
0 377 V
0 133 V
0 99 V
0 62 V
0 32 V
0 21 V
0 7 V
0 5 V
0 3 V
0 1 V
0 1 V
42 -687 R
0 356 V
0 148 V
0 87 V
0 58 V
0 35 V
0 19 V
0 10 V
0 4 V
0 2 V
0 1 V
0 1 V
43 -744 R
0 409 V
0 141 V
stroke 3204 3766 M
0 100 V
0 56 V
0 37 V
0 17 V
0 10 V
0 4 V
0 2 V
0 1 V
0 1 V
0 1 V
42 -703 R
0 366 V
0 127 V
0 111 V
0 58 V
0 35 V
0 20 V
0 11 V
0 3 V
0 4 V
0 1 V
42 -725 R
0 391 V
0 141 V
0 103 V
0 52 V
0 38 V
0 16 V
0 10 V
0 4 V
0 3 V
0 1 V
0 1 V
42 -711 R
0 391 V
0 128 V
0 100 V
0 54 V
0 38 V
0 16 V
0 10 V
0 4 V
0 3 V
0 1 V
0 1 V
42 -698 R
0 381 V
0 125 V
0 101 V
0 52 V
0 36 V
0 18 V
0 9 V
0 6 V
0 2 V
0 1 V
0 1 V
43 -710 R
0 376 V
0 149 V
0 92 V
0 56 V
0 36 V
0 17 V
0 10 V
0 5 V
0 2 V
0 1 V
0 1 V
42 -724 R
0 391 V
0 136 V
0 101 V
0 54 V
0 35 V
0 22 V
0 9 V
0 6 V
0 3 V
0 1 V
42 -730 R
0 388 V
0 160 V
0 89 V
0 58 V
0 33 V
0 19 V
0 8 V
0 6 V
0 2 V
0 1 V
0 1 V
42 -708 R
0 383 V
0 127 V
0 102 V
0 60 V
0 35 V
0 17 V
0 9 V
0 5 V
0 3 V
43 -699 R
0 368 V
0 138 V
0 96 V
0 59 V
0 38 V
0 17 V
0 9 V
0 5 V
0 2 V
0 2 V
42 -710 R
0 324 V
0 190 V
0 94 V
0 63 V
0 38 V
0 12 V
0 10 V
0 9 V
0 4 V
0 1 V
42 -747 R
0 301 V
0 103 V
0 62 V
0 30 V
0 22 V
0 8 V
0 6 V
0 2 V
0 1 V
0 1 V
42 -512 R
0 226 V
0 181 V
0 68 V
0 32 V
0 21 V
0 9 V
0 5 V
0 2 V
0 1 V
0 1 V
42 -497 R
0 298 V
0 100 V
0 62 V
0 35 V
0 19 V
0 8 V
0 5 V
0 3 V
0 1 V
43 -514 R
0 320 V
0 95 V
0 61 V
0 35 V
0 19 V
0 10 V
0 4 V
0 3 V
0 1 V
0 1 V
42 -1039 R
0 843 V
0 94 V
0 63 V
0 36 V
0 18 V
0 5 V
0 9 V
0 3 V
0 2 V
42 -521 R
0 324 V
0 97 V
0 63 V
0 34 V
0 19 V
0 9 V
0 5 V
0 3 V
0 1 V
42 -515 R
0 322 V
0 92 V
0 66 V
0 32 V
0 19 V
0 9 V
0 5 V
0 3 V
0 1 V
43 -527 R
0 247 V
0 74 V
0 49 V
0 23 V
0 12 V
0 7 V
0 3 V
0 2 V
0 1 V
42 -384 R
0 245 V
0 76 V
0 47 V
0 25 V
0 13 V
0 6 V
0 3 V
0 2 V
0 1 V
42 -390 R
0 253 V
0 76 V
0 45 V
0 26 V
0 12 V
0 6 V
0 4 V
0 1 V
0 1 V
42 -406 R
0 269 V
0 77 V
0 44 V
0 25 V
0 10 V
0 8 V
0 4 V
0 2 V
0 2 V
42 -438 R
0 237 V
0 58 V
0 37 V
0 17 V
0 11 V
0 4 V
0 3 V
0 2 V
43 -328 R
0 228 V
0 61 V
stroke 4175 4219 M
0 35 V
0 19 V
0 10 V
0 5 V
0 3 V
0 1 V
42 -342 R
0 240 V
0 65 V
0 34 V
0 19 V
0 9 V
0 6 V
0 2 V
0 1 V
42 -367 R
0 213 V
0 49 V
0 31 V
0 14 V
0 8 V
0 3 V
0 3 V
0 1 V
42 -285 R
0 207 V
0 51 V
0 31 V
0 16 V
0 8 V
0 3 V
0 3 V
43 -271 R
0 192 V
0 52 V
0 31 V
0 16 V
0 8 V
0 4 V
0 2 V
0 1 V
42 -337 R
0 208 V
0 48 V
0 25 V
0 12 V
0 6 V
0 4 V
0 2 V
0 1 V
42 -276 R
0 173 V
0 40 V
0 19 V
0 13 V
0 7 V
0 3 V
0 1 V
0 1 V
42 -302 R
0 245 V
0 45 V
0 22 V
0 12 V
0 5 V
0 3 V
0 2 V
42 -252 R
0 164 V
0 35 V
0 19 V
0 11 V
0 5 V
0 2 V
0 2 V
43 -230 R
0 156 V
0 33 V
0 18 V
0 9 V
0 5 V
0 2 V
0 1 V
42 -183 R
0 146 V
0 35 V
0 18 V
0 9 V
0 5 V
0 2 V
0 1 V
42 -212 R
0 140 V
0 37 V
0 17 V
0 7 V
0 5 V
0 1 V
0 1 V
42 -202 R
0 134 V
0 36 V
0 10 V
0 15 V
0 4 V
0 3 V
0 1 V
43 -198 R
0 132 V
0 40 V
0 15 V
0 7 V
0 4 V
0 2 V
0 1 V
42 -180 R
0 122 V
0 36 V
0 14 V
0 7 V
0 3 V
0 2 V
42 -184 R
0 116 V
0 28 V
0 13 V
0 6 V
0 3 V
0 1 V
42 -155 R
0 111 V
0 19 V
0 25 V
0 7 V
0 3 V
0 2 V
42 -160 R
0 109 V
0 22 V
0 12 V
0 5 V
0 3 V
0 1 V
43 -144 R
0 116 V
0 21 V
0 12 V
0 5 V
0 2 V
0 2 V
42 -142 R
0 100 V
0 19 V
0 12 V
0 6 V
0 1 V
0 2 V
42 -121 R
0 81 V
0 22 V
0 11 V
0 5 V
0 3 V
0 1 V
42 -121 R
0 75 V
0 22 V
0 8 V
0 3 V
0 2 V
0 1 V
43 -109 R
0 81 V
0 19 V
0 9 V
0 5 V
0 2 V
42 -100 R
0 69 V
0 13 V
0 9 V
0 4 V
0 3 V
42 -86 R
0 61 V
0 14 V
0 6 V
0 4 V
0 1 V
42 -78 R
0 57 V
0 13 V
0 6 V
0 5 V
0 1 V
42 -75 R
0 51 V
0 10 V
0 7 V
0 4 V
0 1 V
43 -68 R
0 44 V
0 15 V
0 5 V
0 2 V
0 3 V
42 -61 R
0 44 V
0 8 V
0 3 V
0 3 V
0 2 V
42 -55 R
0 40 V
0 9 V
0 6 V
0 2 V
42 -56 R
0 37 V
0 10 V
0 4 V
0 2 V
43 -44 R
0 32 V
0 8 V
0 3 V
0 1 V
42 -43 R
0 34 V
0 7 V
0 3 V
0 2 V
42 -40 R
0 29 V
0 7 V
0 2 V
0 3 V
42 -38 R
0 27 V
0 5 V
0 4 V
0 2 V
42 -36 R
0 26 V
0 5 V
0 3 V
0 1 V
43 -123 R
0 115 V
stroke 5695 4341 M
0 4 V
0 2 V
42 -25 R
0 20 V
0 4 V
0 2 V
42 -24 R
0 16 V
0 6 V
0 2 V
42 -21 R
0 16 V
0 5 V
0 1 V
43 -20 R
0 16 V
0 3 V
0 2 V
42 -18 R
0 11 V
0 5 V
0 1 V
42 -16 R
0 12 V
0 3 V
0 1 V
42 -15 R
0 11 V
0 4 V
0 1 V
43 -14 R
0 11 V
0 1 V
42 -12 R
0 -29 V
0 43 V
42 -11 R
0 8 V
0 3 V
42 -10 R
0 9 V
0 1 V
42 -10 R
0 8 V
0 2 V
43 -8 R
0 6 V
0 2 V
42 -8 R
0 8 V
42 -6 R
0 5 V
42 -4 R
0 5 V
43 -5 R
0 5 V
42 -4 R
0 4 V
42 -4 R
0 4 V
42 -4 R
0 4 V
42 -3 R
0 4 V
43 -4 R
42 1 R
42 0 R
42 1 R
43 0 R
42 0 R
42 1 R
770 1206 CircleF
770 1704 CircleF
770 1936 CircleF
770 2106 CircleF
770 2222 CircleF
770 2298 CircleF
770 2350 CircleF
770 2374 CircleF
770 2388 CircleF
770 2387 CircleF
770 2391 CircleF
770 2393 CircleF
770 2395 CircleF
770 2395 CircleF
770 2395 CircleF
770 2395 CircleF
770 2395 CircleF
770 2405 CircleF
770 2441 CircleF
770 2457 CircleF
770 2457 CircleF
810 1296 CircleF
810 1798 CircleF
810 1996 CircleF
810 2168 CircleF
810 2274 CircleF
810 2364 CircleF
810 2427 CircleF
810 2451 CircleF
810 2463 CircleF
810 2477 CircleF
810 2478 CircleF
810 2479 CircleF
810 2480 CircleF
810 2481 CircleF
810 2481 CircleF
810 2482 CircleF
810 2482 CircleF
810 2482 CircleF
810 2482 CircleF
810 2482 CircleF
852 1359 CircleF
852 1804 CircleF
852 2000 CircleF
852 2176 CircleF
852 2309 CircleF
852 2402 CircleF
852 2463 CircleF
852 2485 CircleF
852 2497 CircleF
852 2507 CircleF
852 2511 CircleF
852 2513 CircleF
852 2515 CircleF
852 2515 CircleF
852 2516 CircleF
852 2516 CircleF
852 2516 CircleF
852 2516 CircleF
852 2516 CircleF
852 2516 CircleF
893 1377 CircleF
893 1829 CircleF
893 2031 CircleF
893 2220 CircleF
893 2346 CircleF
893 2436 CircleF
893 2494 CircleF
893 2525 CircleF
893 2532 CircleF
893 2541 CircleF
893 2545 CircleF
893 2547 CircleF
893 2549 CircleF
893 2549 CircleF
893 2550 CircleF
893 2550 CircleF
893 2550 CircleF
893 2550 CircleF
893 2550 CircleF
893 2550 CircleF
933 1442 CircleF
933 1867 CircleF
933 2103 CircleF
933 2256 CircleF
933 2383 CircleF
933 2471 CircleF
933 2527 CircleF
933 2552 CircleF
933 2570 CircleF
933 2573 CircleF
933 2579 CircleF
933 2581 CircleF
933 2581 CircleF
933 2581 CircleF
933 2582 CircleF
933 2582 CircleF
933 2582 CircleF
933 2582 CircleF
933 2582 CircleF
933 2582 CircleF
974 1489 CircleF
974 1915 CircleF
974 2136 CircleF
974 2292 CircleF
974 2427 CircleF
974 2513 CircleF
974 2559 CircleF
974 2591 CircleF
974 2604 CircleF
974 2605 CircleF
974 2613 CircleF
974 2615 CircleF
974 2615 CircleF
974 2616 CircleF
974 2616 CircleF
974 2616 CircleF
974 2616 CircleF
974 2616 CircleF
974 2616 CircleF
974 2616 CircleF
1016 1456 CircleF
1016 1951 CircleF
1016 2159 CircleF
1016 2328 CircleF
1016 2462 CircleF
1016 2536 CircleF
1016 2595 CircleF
1016 2622 CircleF
1016 2632 CircleF
1016 2645 CircleF
1016 2647 CircleF
1016 2648 CircleF
1016 2649 CircleF
1016 2649 CircleF
1016 2649 CircleF
1016 2650 CircleF
1016 2650 CircleF
1016 2650 CircleF
1016 2650 CircleF
1016 2650 CircleF
1058 1552 CircleF
1058 1981 CircleF
1058 2194 CircleF
1058 2364 CircleF
1058 2493 CircleF
1058 2574 CircleF
1058 2630 CircleF
1058 2657 CircleF
1058 2673 CircleF
1058 2676 CircleF
1058 2680 CircleF
1058 2681 CircleF
1058 2682 CircleF
1058 2683 CircleF
1058 2684 CircleF
1058 2684 CircleF
1058 2684 CircleF
1058 2684 CircleF
1058 2684 CircleF
1058 2684 CircleF
1099 1555 CircleF
1099 2003 CircleF
1099 2209 CircleF
1099 2343 CircleF
1099 2462 CircleF
1099 2530 CircleF
1099 2565 CircleF
1099 2591 CircleF
1099 2598 CircleF
1099 2603 CircleF
1099 2608 CircleF
1099 2610 CircleF
1099 2611 CircleF
1099 2612 CircleF
1099 2612 CircleF
1099 2612 CircleF
1099 2612 CircleF
1099 2612 CircleF
1099 2612 CircleF
1140 1609 CircleF
1140 1980 CircleF
1140 2218 CircleF
1140 2391 CircleF
1140 2492 CircleF
1140 2561 CircleF
1140 2593 CircleF
1140 2621 CircleF
1140 2634 CircleF
1140 2638 CircleF
1140 2642 CircleF
1140 2644 CircleF
1140 2644 CircleF
1140 2645 CircleF
1140 2645 CircleF
1140 2645 CircleF
1140 2645 CircleF
1140 2646 CircleF
1140 2646 CircleF
1181 1643 CircleF
1181 2078 CircleF
1181 2270 CircleF
1181 2411 CircleF
1181 2527 CircleF
1181 2598 CircleF
1181 2638 CircleF
1181 2658 CircleF
1181 2669 CircleF
1181 2674 CircleF
1181 2676 CircleF
1181 2677 CircleF
1181 2678 CircleF
1181 2679 CircleF
1181 2679 CircleF
1181 2679 CircleF
1181 2679 CircleF
1181 2679 CircleF
1181 2680 CircleF
1223 1669 CircleF
1223 2104 CircleF
1223 2313 CircleF
1223 2447 CircleF
1223 2554 CircleF
1223 2630 CircleF
1223 2672 CircleF
1223 2692 CircleF
1223 2700 CircleF
1223 2704 CircleF
1223 2711 CircleF
1223 2712 CircleF
1223 2712 CircleF
1223 2713 CircleF
1223 2713 CircleF
1223 2713 CircleF
1223 2714 CircleF
1223 2714 CircleF
1223 2714 CircleF
1265 1702 CircleF
1265 1944 CircleF
1265 2289 CircleF
1265 2434 CircleF
1265 2507 CircleF
1265 2587 CircleF
1265 2621 CircleF
1265 2631 CircleF
1265 2644 CircleF
1265 2650 CircleF
1265 2653 CircleF
1265 2654 CircleF
1265 2654 CircleF
1265 2655 CircleF
1265 2655 CircleF
1265 2655 CircleF
1265 2655 CircleF
1265 2655 CircleF
1265 2655 CircleF
1307 1719 CircleF
1307 2164 CircleF
1307 2334 CircleF
1307 2469 CircleF
1307 2567 CircleF
1307 2624 CircleF
1307 2654 CircleF
1307 2672 CircleF
1307 2678 CircleF
1307 2683 CircleF
1307 2686 CircleF
1307 2688 CircleF
1307 2689 CircleF
1307 2689 CircleF
1307 2689 CircleF
1307 2689 CircleF
1307 2689 CircleF
1307 2689 CircleF
1307 2689 CircleF
1349 1763 CircleF
1349 2204 CircleF
1349 2383 CircleF
1349 2505 CircleF
1349 2604 CircleF
1349 2657 CircleF
1349 2690 CircleF
1349 2705 CircleF
1349 2716 CircleF
1349 2720 CircleF
1349 2721 CircleF
1349 2723 CircleF
1349 2723 CircleF
1349 2724 CircleF
1349 2724 CircleF
1349 2724 CircleF
1349 2724 CircleF
1349 2724 CircleF
1349 2724 CircleF
1391 1799 CircleF
1391 2192 CircleF
1391 2381 CircleF
1391 2486 CircleF
1391 2578 CircleF
1391 2627 CircleF
1391 2654 CircleF
1391 2667 CircleF
1391 2669 CircleF
1391 2676 CircleF
1391 2679 CircleF
1391 2680 CircleF
1391 2681 CircleF
1391 2681 CircleF
1391 2681 CircleF
1391 2681 CircleF
1391 2681 CircleF
1391 2681 CircleF
1433 1864 CircleF
1433 2244 CircleF
1433 2401 CircleF
1433 2533 CircleF
1433 2611 CircleF
1433 2659 CircleF
1433 2688 CircleF
1433 2700 CircleF
1433 2708 CircleF
1433 2711 CircleF
1433 2713 CircleF
1433 2715 CircleF
1433 2715 CircleF
1433 2715 CircleF
1433 2716 CircleF
1433 2716 CircleF
1433 2716 CircleF
1433 2716 CircleF
1475 1862 CircleF
1475 2274 CircleF
1475 2442 CircleF
1475 2560 CircleF
1475 2647 CircleF
1475 2695 CircleF
1475 2721 CircleF
1475 2735 CircleF
1475 2743 CircleF
1475 2746 CircleF
1475 2748 CircleF
1475 2749 CircleF
1475 2749 CircleF
1475 2750 CircleF
1475 2750 CircleF
1475 2750 CircleF
1475 2750 CircleF
1475 2750 CircleF
1517 1885 CircleF
1517 2292 CircleF
1517 2453 CircleF
1517 2558 CircleF
1517 2633 CircleF
1517 2672 CircleF
1517 2696 CircleF
1517 2708 CircleF
1517 2713 CircleF
1517 2716 CircleF
1517 2719 CircleF
1517 2719 CircleF
1517 2720 CircleF
1517 2720 CircleF
1517 2720 CircleF
1517 2720 CircleF
1517 2720 CircleF
1517 2720 CircleF
1559 1932 CircleF
1559 2321 CircleF
1559 2471 CircleF
1559 2598 CircleF
1559 2669 CircleF
1559 2709 CircleF
1559 2731 CircleF
1559 2742 CircleF
1559 2747 CircleF
1559 2751 CircleF
1559 2753 CircleF
1559 2754 CircleF
1559 2754 CircleF
1559 2755 CircleF
1559 2755 CircleF
1559 2755 CircleF
1559 2755 CircleF
1559 2755 CircleF
1601 1967 CircleF
1601 2343 CircleF
1601 2490 CircleF
1601 2592 CircleF
1601 2657 CircleF
1601 2693 CircleF
1601 2714 CircleF
1601 2724 CircleF
1601 2728 CircleF
1601 2731 CircleF
1601 2733 CircleF
1601 2734 CircleF
1601 2734 CircleF
1601 2734 CircleF
1601 2735 CircleF
1601 2735 CircleF
1601 2735 CircleF
1601 2735 CircleF
1643 1987 CircleF
1643 2369 CircleF
1643 2499 CircleF
1643 2588 CircleF
1643 2651 CircleF
1643 2686 CircleF
1643 2703 CircleF
1643 2712 CircleF
1643 2717 CircleF
1643 2719 CircleF
1643 2720 CircleF
1643 2721 CircleF
1643 2722 CircleF
1643 2722 CircleF
1643 2722 CircleF
1643 2722 CircleF
1643 2722 CircleF
1643 2722 CircleF
1685 2039 CircleF
1685 2394 CircleF
1685 2500 CircleF
1685 2628 CircleF
1685 2689 CircleF
1685 2715 CircleF
1685 2731 CircleF
1685 2746 CircleF
1685 2751 CircleF
1685 2753 CircleF
1685 2754 CircleF
1685 2755 CircleF
1685 2756 CircleF
1685 2756 CircleF
1685 2756 CircleF
1685 2756 CircleF
1685 2756 CircleF
1685 2756 CircleF
1727 2040 CircleF
1727 2411 CircleF
1727 2565 CircleF
1727 2658 CircleF
1727 2712 CircleF
1727 2755 CircleF
1727 2773 CircleF
1727 2780 CircleF
1727 2785 CircleF
1727 2788 CircleF
1727 2789 CircleF
1727 2790 CircleF
1727 2790 CircleF
1727 2790 CircleF
1727 2790 CircleF
1727 2791 CircleF
1727 2791 CircleF
1770 2111 CircleF
1770 2460 CircleF
1770 2607 CircleF
1770 2700 CircleF
1770 2754 CircleF
1770 2789 CircleF
1770 2806 CircleF
1770 2816 CircleF
1770 2820 CircleF
1770 2821 CircleF
1770 2824 CircleF
1770 2824 CircleF
1770 2825 CircleF
1770 2825 CircleF
1770 2825 CircleF
1770 2825 CircleF
1770 2825 CircleF
1812 2134 CircleF
1812 2492 CircleF
1812 2644 CircleF
1812 2733 CircleF
1812 2789 CircleF
1812 2823 CircleF
1812 2841 CircleF
1812 2850 CircleF
1812 2855 CircleF
1812 2857 CircleF
1812 2857 CircleF
1812 2859 CircleF
1812 2859 CircleF
1812 2859 CircleF
1812 2859 CircleF
1812 2859 CircleF
1812 2860 CircleF
1854 2147 CircleF
1854 2519 CircleF
1854 2668 CircleF
1854 2761 CircleF
1854 2827 CircleF
1854 2852 CircleF
1854 2874 CircleF
1854 2883 CircleF
1854 2889 CircleF
1854 2892 CircleF
1854 2892 CircleF
1854 2893 CircleF
1854 2894 CircleF
1854 2894 CircleF
1854 2894 CircleF
1854 2894 CircleF
1854 2894 CircleF
1896 2204 CircleF
1896 2570 CircleF
1896 2705 CircleF
1896 2800 CircleF
1896 2857 CircleF
1896 2893 CircleF
1896 2910 CircleF
1896 2919 CircleF
1896 2923 CircleF
1896 2926 CircleF
1896 2927 CircleF
1896 2928 CircleF
1896 2928 CircleF
1896 2928 CircleF
1896 2928 CircleF
1896 2928 CircleF
1896 2928 CircleF
1938 2218 CircleF
1938 2587 CircleF
1938 2742 CircleF
1938 2838 CircleF
1938 2894 CircleF
1938 2923 CircleF
1938 2944 CircleF
1938 2952 CircleF
1938 2958 CircleF
1938 2960 CircleF
1938 2961 CircleF
1938 2962 CircleF
1938 2962 CircleF
1938 2963 CircleF
1938 2963 CircleF
1938 2963 CircleF
1938 2963 CircleF
1980 2261 CircleF
1980 2624 CircleF
1980 2772 CircleF
1980 2835 CircleF
1980 2918 CircleF
1980 2956 CircleF
1980 2977 CircleF
1980 2986 CircleF
1980 2990 CircleF
1980 2992 CircleF
1980 2994 CircleF
1980 2995 CircleF
1980 2995 CircleF
1980 2995 CircleF
1980 2995 CircleF
1980 2995 CircleF
1980 2995 CircleF
2022 2311 CircleF
2022 2651 CircleF
2022 2804 CircleF
2022 2907 CircleF
2022 2961 CircleF
2022 2994 CircleF
2022 3011 CircleF
2022 3021 CircleF
2022 3025 CircleF
2022 3027 CircleF
2022 3028 CircleF
2022 3029 CircleF
2022 3029 CircleF
2022 3030 CircleF
2022 3030 CircleF
2022 3030 CircleF
2064 2343 CircleF
2064 2704 CircleF
2064 2838 CircleF
2064 2938 CircleF
2064 2997 CircleF
2064 3028 CircleF
2064 3046 CircleF
2064 3054 CircleF
2064 3059 CircleF
2064 3062 CircleF
2064 3062 CircleF
2064 3064 CircleF
2064 3064 CircleF
2064 3064 CircleF
2064 3064 CircleF
2064 3064 CircleF
2106 2381 CircleF
2106 2724 CircleF
2106 2876 CircleF
2106 2957 CircleF
2106 3021 CircleF
2106 3064 CircleF
2106 3080 CircleF
2106 3088 CircleF
2106 3094 CircleF
2106 3096 CircleF
2106 3097 CircleF
2106 3098 CircleF
2106 3098 CircleF
2106 3099 CircleF
2106 3099 CircleF
2106 3099 CircleF
2149 2364 CircleF
2149 2765 CircleF
2149 2903 CircleF
2149 3008 CircleF
2149 3061 CircleF
2149 3098 CircleF
2149 3114 CircleF
2149 3124 CircleF
2149 3129 CircleF
2149 3131 CircleF
2149 3132 CircleF
2149 3132 CircleF
2149 3133 CircleF
2149 3133 CircleF
2149 3133 CircleF
2149 3133 CircleF
2191 2434 CircleF
2191 2804 CircleF
2191 2936 CircleF
2191 3042 CircleF
2191 3098 CircleF
2191 3131 CircleF
2191 3148 CircleF
2191 3159 CircleF
2191 3163 CircleF
2191 3165 CircleF
2191 3166 CircleF
2191 3167 CircleF
2191 3167 CircleF
2191 3168 CircleF
2191 3168 CircleF
2191 3168 CircleF
2233 2477 CircleF
2233 2812 CircleF
2233 2954 CircleF
2233 3070 CircleF
2233 3135 CircleF
2233 3161 CircleF
2233 3181 CircleF
2233 3192 CircleF
2233 3197 CircleF
2233 3200 CircleF
2233 3201 CircleF
2233 3202 CircleF
2233 3202 CircleF
2233 3202 CircleF
2233 3202 CircleF
2233 3202 CircleF
2275 2520 CircleF
2275 2871 CircleF
2275 3003 CircleF
2275 3111 CircleF
2275 3166 CircleF
2275 3202 CircleF
2275 3218 CircleF
2275 3227 CircleF
2275 3232 CircleF
2275 3234 CircleF
2275 3235 CircleF
2275 3236 CircleF
2275 3236 CircleF
2275 3236 CircleF
2275 3236 CircleF
2275 3236 CircleF
2317 2522 CircleF
2317 2912 CircleF
2317 3044 CircleF
2317 3144 CircleF
2317 3201 CircleF
2317 3237 CircleF
2317 3252 CircleF
2317 3262 CircleF
2317 3267 CircleF
2317 3269 CircleF
2317 3269 CircleF
2317 3270 CircleF
2317 3271 CircleF
2317 3271 CircleF
2317 3271 CircleF
2359 2592 CircleF
2359 2954 CircleF
2359 3085 CircleF
2359 3179 CircleF
2359 3235 CircleF
2359 3270 CircleF
2359 3286 CircleF
2359 3296 CircleF
2359 3301 CircleF
2359 3303 CircleF
2359 3304 CircleF
2359 3305 CircleF
2359 3305 CircleF
2359 3305 CircleF
2359 3306 CircleF
2402 2642 CircleF
2402 2983 CircleF
2402 3123 CircleF
2402 3212 CircleF
2402 3271 CircleF
2402 3304 CircleF
2402 3322 CircleF
2402 3330 CircleF
2402 3336 CircleF
2402 3337 CircleF
2402 3338 CircleF
2402 3339 CircleF
2402 3340 CircleF
2402 3340 CircleF
2402 3340 CircleF
2444 2685 CircleF
2444 2984 CircleF
2444 3141 CircleF
2444 3247 CircleF
2444 3300 CircleF
2444 3338 CircleF
2444 3352 CircleF
2444 3364 CircleF
2444 3370 CircleF
2444 3371 CircleF
2444 3373 CircleF
2444 3374 CircleF
2444 3374 CircleF
2444 3375 CircleF
2444 3374 CircleF
2486 2682 CircleF
2486 3053 CircleF
2486 3190 CircleF
2486 3277 CircleF
2486 3342 CircleF
2486 3373 CircleF
2486 3391 CircleF
2486 3399 CircleF
2486 3404 CircleF
2486 3406 CircleF
2486 3407 CircleF
2486 3408 CircleF
2486 3408 CircleF
2486 3409 CircleF
2486 3409 CircleF
2528 2727 CircleF
2528 3088 CircleF
2528 3223 CircleF
2528 3318 CircleF
2528 3376 CircleF
2528 3408 CircleF
2528 3424 CircleF
2528 3433 CircleF
2528 3439 CircleF
2528 3441 CircleF
2528 3442 CircleF
2528 3443 CircleF
2528 3443 CircleF
2528 3443 CircleF
2528 3443 CircleF
2570 2771 CircleF
2570 3118 CircleF
2570 3256 CircleF
2570 3353 CircleF
2570 3409 CircleF
2570 3442 CircleF
2570 3460 CircleF
2570 3469 CircleF
2570 3473 CircleF
2570 3475 CircleF
2570 3476 CircleF
2570 3478 CircleF
2570 3478 CircleF
2570 3478 CircleF
2570 3478 CircleF
2612 2822 CircleF
2612 3158 CircleF
2612 3291 CircleF
2612 3383 CircleF
2612 3443 CircleF
2612 3475 CircleF
2612 3495 CircleF
2612 3502 CircleF
2612 3508 CircleF
2612 3508 CircleF
2612 3511 CircleF
2612 3511 CircleF
2612 3512 CircleF
2612 3512 CircleF
2612 3512 CircleF
2655 2783 CircleF
2655 3165 CircleF
2655 3314 CircleF
2655 3419 CircleF
2655 3474 CircleF
2655 3512 CircleF
2655 3528 CircleF
2655 3537 CircleF
2655 3542 CircleF
2655 3544 CircleF
2655 3545 CircleF
2655 3546 CircleF
2655 3547 CircleF
2655 3547 CircleF
2697 2817 CircleF
2697 3221 CircleF
2697 3352 CircleF
2697 3453 CircleF
2697 3511 CircleF
2697 3545 CircleF
2697 3562 CircleF
2697 3572 CircleF
2697 3576 CircleF
2697 3579 CircleF
2697 3580 CircleF
2697 3580 CircleF
2697 3581 CircleF
2697 3581 CircleF
2739 2852 CircleF
2739 3242 CircleF
2739 3386 CircleF
2739 3491 CircleF
2739 3549 CircleF
2739 3580 CircleF
2739 3597 CircleF
2739 3607 CircleF
2739 3611 CircleF
2739 3613 CircleF
2739 3614 CircleF
2739 3615 CircleF
2739 3616 CircleF
2739 3616 CircleF
2781 2876 CircleF
2781 3286 CircleF
2781 3429 CircleF
2781 3521 CircleF
2781 3581 CircleF
2781 3614 CircleF
2781 3632 CircleF
2781 3641 CircleF
2781 3645 CircleF
2781 3648 CircleF
2781 3649 CircleF
2781 3650 CircleF
2781 3650 CircleF
2781 3650 CircleF
2824 2908 CircleF
2824 3314 CircleF
2824 3460 CircleF
2824 3552 CircleF
2824 3616 CircleF
2824 3649 CircleF
2824 3666 CircleF
2824 3676 CircleF
2824 3680 CircleF
2824 3682 CircleF
2824 3683 CircleF
2824 3684 CircleF
2824 3685 CircleF
2824 3685 CircleF
2866 2985 CircleF
2866 3361 CircleF
2866 3498 CircleF
2866 3593 CircleF
2866 3648 CircleF
2866 3684 CircleF
2866 3701 CircleF
2866 3710 CircleF
2866 3715 CircleF
2866 3717 CircleF
2866 3718 CircleF
2866 3719 CircleF
2866 3719 CircleF
2866 3720 CircleF
2908 3025 CircleF
2908 3387 CircleF
2908 3531 CircleF
2908 3626 CircleF
2908 3685 CircleF
2908 3717 CircleF
2908 3735 CircleF
2908 3744 CircleF
2908 3748 CircleF
2908 3751 CircleF
2908 3752 CircleF
2908 3753 CircleF
2908 3753 CircleF
2908 3754 CircleF
2950 3058 CircleF
2950 3420 CircleF
2950 3568 CircleF
2950 3664 CircleF
2950 3717 CircleF
2950 3753 CircleF
2950 3769 CircleF
2950 3779 CircleF
2950 3783 CircleF
2950 3785 CircleF
2950 3787 CircleF
2950 3787 CircleF
2950 3788 CircleF
2992 3064 CircleF
2992 3470 CircleF
2992 3601 CircleF
2992 3696 CircleF
2992 3739 CircleF
2992 3786 CircleF
2992 3804 CircleF
2992 3813 CircleF
2992 3818 CircleF
2992 3820 CircleF
2992 3821 CircleF
2992 3822 CircleF
2992 3822 CircleF
3035 3127 CircleF
3035 3484 CircleF
3035 3638 CircleF
3035 3729 CircleF
3035 3784 CircleF
3035 3821 CircleF
3035 3839 CircleF
3035 3848 CircleF
3035 3853 CircleF
3035 3854 CircleF
3035 3856 CircleF
3035 3857 CircleF
3035 3857 CircleF
3077 3142 CircleF
3077 3529 CircleF
3077 3666 CircleF
3077 3767 CircleF
3077 3783 CircleF
3077 3854 CircleF
3077 3872 CircleF
3077 3883 CircleF
3077 3887 CircleF
3077 3890 CircleF
3077 3891 CircleF
3077 3891 CircleF
3077 3892 CircleF
3119 3185 CircleF
3119 3562 CircleF
3119 3695 CircleF
3119 3794 CircleF
3119 3856 CircleF
3119 3888 CircleF
3119 3909 CircleF
3119 3916 CircleF
3119 3921 CircleF
3119 3924 CircleF
3119 3925 CircleF
3119 3925 CircleF
3119 3926 CircleF
3161 3239 CircleF
3161 3595 CircleF
3161 3743 CircleF
3161 3830 CircleF
3161 3888 CircleF
3161 3923 CircleF
3161 3942 CircleF
3161 3952 CircleF
3161 3956 CircleF
3161 3958 CircleF
3161 3959 CircleF
3161 3960 CircleF
3161 3960 CircleF
3204 3216 CircleF
3204 3625 CircleF
3204 3766 CircleF
3204 3866 CircleF
3204 3922 CircleF
3204 3959 CircleF
3204 3976 CircleF
3204 3986 CircleF
3204 3990 CircleF
3204 3992 CircleF
3204 3993 CircleF
3204 3994 CircleF
3204 3995 CircleF
3246 3292 CircleF
3246 3658 CircleF
3246 3785 CircleF
3246 3896 CircleF
3246 3954 CircleF
3246 3989 CircleF
3246 4009 CircleF
3246 4020 CircleF
3246 4023 CircleF
3246 4027 CircleF
3246 4028 CircleF
3246 4028 CircleF
3288 3303 CircleF
3288 3694 CircleF
3288 3835 CircleF
3288 3938 CircleF
3288 3990 CircleF
3288 4028 CircleF
3288 4044 CircleF
3288 4054 CircleF
3288 4058 CircleF
3288 4061 CircleF
3288 4062 CircleF
3288 4063 CircleF
3330 3352 CircleF
3330 3743 CircleF
3330 3871 CircleF
3330 3971 CircleF
3330 4025 CircleF
3330 4063 CircleF
3330 4079 CircleF
3330 4089 CircleF
3330 4093 CircleF
3330 4096 CircleF
3330 4097 CircleF
3330 4098 CircleF
3372 3400 CircleF
3372 3781 CircleF
3372 3906 CircleF
3372 4007 CircleF
3372 4059 CircleF
3372 4095 CircleF
3372 4113 CircleF
3372 4122 CircleF
3372 4128 CircleF
3372 4130 CircleF
3372 4131 CircleF
3372 4132 CircleF
3415 3422 CircleF
3415 3798 CircleF
3415 3947 CircleF
3415 4039 CircleF
3415 4095 CircleF
3415 4131 CircleF
3415 4148 CircleF
3415 4158 CircleF
3415 4163 CircleF
3415 4165 CircleF
3415 4166 CircleF
3415 4167 CircleF
3457 3443 CircleF
3457 3834 CircleF
3457 3970 CircleF
3457 4071 CircleF
3457 4125 CircleF
3457 4160 CircleF
3457 4182 CircleF
3457 4191 CircleF
3457 4197 CircleF
3457 4200 CircleF
3457 4200 CircleF
3457 4201 CircleF
3499 3471 CircleF
3499 3859 CircleF
3499 4019 CircleF
3499 4108 CircleF
3499 4166 CircleF
3499 4199 CircleF
3499 4218 CircleF
3499 4226 CircleF
3499 4232 CircleF
3499 4234 CircleF
3499 4235 CircleF
3499 4236 CircleF
3541 3528 CircleF
3541 3911 CircleF
3541 4038 CircleF
3541 4140 CircleF
3541 4200 CircleF
3541 4235 CircleF
3541 4252 CircleF
3541 4261 CircleF
3541 4266 CircleF
3541 4269 CircleF
3541 4269 CircleF
3584 3570 CircleF
3584 3938 CircleF
3584 4076 CircleF
3584 4172 CircleF
3584 4231 CircleF
3584 4269 CircleF
3584 4286 CircleF
3584 4295 CircleF
3584 4300 CircleF
3584 4302 CircleF
3584 4304 CircleF
3626 3594 CircleF
3626 3918 CircleF
3626 4108 CircleF
3626 4202 CircleF
3626 4265 CircleF
3626 4303 CircleF
3626 4315 CircleF
3626 4325 CircleF
3626 4334 CircleF
3626 4338 CircleF
3626 4339 CircleF
3668 3592 CircleF
3668 3893 CircleF
3668 3996 CircleF
3668 4058 CircleF
3668 4088 CircleF
3668 4110 CircleF
3668 4118 CircleF
3668 4124 CircleF
3668 4126 CircleF
3668 4127 CircleF
3668 4128 CircleF
3710 3616 CircleF
3710 3842 CircleF
3710 4023 CircleF
3710 4091 CircleF
3710 4123 CircleF
3710 4144 CircleF
3710 4153 CircleF
3710 4158 CircleF
3710 4160 CircleF
3710 4161 CircleF
3710 4162 CircleF
3752 3665 CircleF
3752 3963 CircleF
3752 4063 CircleF
3752 4125 CircleF
3752 4160 CircleF
3752 4179 CircleF
3752 4187 CircleF
3752 4192 CircleF
3752 4195 CircleF
3752 4195 CircleF
3752 4196 CircleF
3795 3682 CircleF
3795 4002 CircleF
3795 4097 CircleF
3795 4158 CircleF
3795 4193 CircleF
3795 4212 CircleF
3795 4222 CircleF
3795 4226 CircleF
3795 4229 CircleF
3795 4230 CircleF
3795 4231 CircleF
3837 3192 CircleF
3837 4035 CircleF
3837 4129 CircleF
3837 4192 CircleF
3837 4228 CircleF
3837 4246 CircleF
3837 4251 CircleF
3837 4260 CircleF
3837 4263 CircleF
3837 4265 CircleF
3837 4265 CircleF
3879 3744 CircleF
3879 4068 CircleF
3879 4165 CircleF
3879 4228 CircleF
3879 4262 CircleF
3879 4281 CircleF
3879 4290 CircleF
3879 4295 CircleF
3879 4298 CircleF
3879 4299 CircleF
3921 3784 CircleF
3921 4106 CircleF
3921 4198 CircleF
3921 4264 CircleF
3921 4296 CircleF
3921 4315 CircleF
3921 4324 CircleF
3921 4329 CircleF
3921 4332 CircleF
3921 4333 CircleF
3964 3806 CircleF
3964 4053 CircleF
3964 4127 CircleF
3964 4176 CircleF
3964 4199 CircleF
3964 4211 CircleF
3964 4218 CircleF
3964 4221 CircleF
3964 4223 CircleF
3964 4224 CircleF
4006 3840 CircleF
4006 4085 CircleF
4006 4161 CircleF
4006 4208 CircleF
4006 4233 CircleF
4006 4246 CircleF
4006 4252 CircleF
4006 4255 CircleF
4006 4257 CircleF
4006 4258 CircleF
4048 3868 CircleF
4048 4121 CircleF
4048 4197 CircleF
4048 4242 CircleF
4048 4268 CircleF
4048 4280 CircleF
4048 4286 CircleF
4048 4290 CircleF
4048 4291 CircleF
4048 4292 CircleF
4090 3886 CircleF
4090 4155 CircleF
4090 4232 CircleF
4090 4276 CircleF
4090 4301 CircleF
4090 4311 CircleF
4090 4319 CircleF
4090 4323 CircleF
4090 4325 CircleF
4090 4327 CircleF
4132 3889 CircleF
4132 4126 CircleF
4132 4184 CircleF
4132 4221 CircleF
4132 4238 CircleF
4132 4249 CircleF
4132 4253 CircleF
4132 4256 CircleF
4132 4258 CircleF
4132 4258 CircleF
4175 3930 CircleF
4175 4158 CircleF
4175 4219 CircleF
4175 4254 CircleF
4175 4273 CircleF
4175 4283 CircleF
4175 4288 CircleF
4175 4291 CircleF
4175 4292 CircleF
4217 3950 CircleF
4217 4190 CircleF
4217 4255 CircleF
4217 4289 CircleF
4217 4308 CircleF
4217 4317 CircleF
4217 4323 CircleF
4217 4325 CircleF
4217 4326 CircleF
4259 3959 CircleF
4259 4172 CircleF
4259 4221 CircleF
4259 4252 CircleF
4259 4266 CircleF
4259 4274 CircleF
4259 4277 CircleF
4259 4280 CircleF
4259 4281 CircleF
4301 3996 CircleF
4301 4203 CircleF
4301 4254 CircleF
4301 4285 CircleF
4301 4301 CircleF
4301 4309 CircleF
4301 4312 CircleF
4301 4315 CircleF
4301 4315 CircleF
4344 4044 CircleF
4344 4236 CircleF
4344 4288 CircleF
4344 4319 CircleF
4344 4335 CircleF
4344 4343 CircleF
4344 4347 CircleF
4344 4349 CircleF
4344 4350 CircleF
4386 4013 CircleF
4386 4221 CircleF
4386 4269 CircleF
4386 4294 CircleF
4386 4306 CircleF
4386 4312 CircleF
4386 4316 CircleF
4386 4318 CircleF
4386 4319 CircleF
4428 4043 CircleF
4428 4216 CircleF
4428 4256 CircleF
4428 4275 CircleF
4428 4288 CircleF
4428 4295 CircleF
4428 4298 CircleF
4428 4299 CircleF
4428 4300 CircleF
4470 3998 CircleF
4470 4243 CircleF
4470 4288 CircleF
4470 4310 CircleF
4470 4322 CircleF
4470 4327 CircleF
4470 4330 CircleF
4470 4332 CircleF
4512 4080 CircleF
4512 4244 CircleF
4512 4279 CircleF
4512 4298 CircleF
4512 4309 CircleF
4512 4314 CircleF
4512 4316 CircleF
4512 4318 CircleF
4555 4088 CircleF
4555 4244 CircleF
4555 4277 CircleF
4555 4295 CircleF
4555 4304 CircleF
4555 4309 CircleF
4555 4311 CircleF
4555 4312 CircleF
4597 4129 CircleF
4597 4275 CircleF
4597 4310 CircleF
4597 4328 CircleF
4597 4337 CircleF
4597 4342 CircleF
4597 4344 CircleF
4597 4345 CircleF
4639 4133 CircleF
4639 4273 CircleF
4639 4310 CircleF
4639 4327 CircleF
4639 4334 CircleF
4639 4339 CircleF
4639 4340 CircleF
4639 4341 CircleF
4681 4139 CircleF
4681 4273 CircleF
4681 4309 CircleF
4681 4319 CircleF
4681 4334 CircleF
4681 4338 CircleF
4681 4341 CircleF
4681 4342 CircleF
4724 4144 CircleF
4724 4276 CircleF
4724 4316 CircleF
4724 4331 CircleF
4724 4338 CircleF
4724 4342 CircleF
4724 4344 CircleF
4724 4345 CircleF
4766 4165 CircleF
4766 4287 CircleF
4766 4323 CircleF
4766 4337 CircleF
4766 4344 CircleF
4766 4347 CircleF
4766 4349 CircleF
4808 4165 CircleF
4808 4281 CircleF
4808 4309 CircleF
4808 4322 CircleF
4808 4328 CircleF
4808 4331 CircleF
4808 4332 CircleF
4850 4177 CircleF
4850 4288 CircleF
4850 4307 CircleF
4850 4332 CircleF
4850 4339 CircleF
4850 4342 CircleF
4850 4344 CircleF
4892 4184 CircleF
4892 4293 CircleF
4892 4315 CircleF
4892 4327 CircleF
4892 4332 CircleF
4892 4335 CircleF
4892 4336 CircleF
4935 4192 CircleF
4935 4308 CircleF
4935 4329 CircleF
4935 4341 CircleF
4935 4346 CircleF
4935 4348 CircleF
4935 4350 CircleF
4977 4208 CircleF
4977 4308 CircleF
4977 4327 CircleF
4977 4339 CircleF
4977 4345 CircleF
4977 4346 CircleF
4977 4348 CircleF
5019 4227 CircleF
5019 4308 CircleF
5019 4330 CircleF
5019 4341 CircleF
5019 4346 CircleF
5019 4349 CircleF
5019 4350 CircleF
5061 4229 CircleF
5061 4304 CircleF
5061 4326 CircleF
5061 4334 CircleF
5061 4337 CircleF
5061 4339 CircleF
5061 4340 CircleF
5104 4231 CircleF
5104 4312 CircleF
5104 4331 CircleF
5104 4340 CircleF
5104 4345 CircleF
5104 4347 CircleF
5146 4247 CircleF
5146 4316 CircleF
5146 4329 CircleF
5146 4338 CircleF
5146 4342 CircleF
5146 4345 CircleF
5188 4259 CircleF
5188 4320 CircleF
5188 4334 CircleF
5188 4340 CircleF
5188 4344 CircleF
5188 4345 CircleF
5230 4267 CircleF
5230 4324 CircleF
5230 4337 CircleF
5230 4343 CircleF
5230 4348 CircleF
5230 4349 CircleF
5272 4274 CircleF
5272 4325 CircleF
5272 4335 CircleF
5272 4342 CircleF
5272 4346 CircleF
5272 4347 CircleF
5315 4279 CircleF
5315 4323 CircleF
5315 4338 CircleF
5315 4343 CircleF
5315 4345 CircleF
5315 4348 CircleF
5357 4287 CircleF
5357 4331 CircleF
5357 4339 CircleF
5357 4342 CircleF
5357 4345 CircleF
5357 4347 CircleF
5399 4292 CircleF
5399 4332 CircleF
5399 4341 CircleF
5399 4347 CircleF
5399 4349 CircleF
5441 4293 CircleF
5441 4330 CircleF
5441 4340 CircleF
5441 4344 CircleF
5441 4346 CircleF
5484 4302 CircleF
5484 4334 CircleF
5484 4342 CircleF
5484 4345 CircleF
5484 4346 CircleF
5526 4303 CircleF
5526 4337 CircleF
5526 4344 CircleF
5526 4347 CircleF
5526 4349 CircleF
5568 4309 CircleF
5568 4338 CircleF
5568 4345 CircleF
5568 4347 CircleF
5568 4350 CircleF
5610 4312 CircleF
5610 4339 CircleF
5610 4344 CircleF
5610 4348 CircleF
5610 4350 CircleF
5652 4314 CircleF
5652 4340 CircleF
5652 4345 CircleF
5652 4348 CircleF
5652 4349 CircleF
5695 4226 CircleF
5695 4341 CircleF
5695 4345 CircleF
5695 4347 CircleF
5737 4322 CircleF
5737 4342 CircleF
5737 4346 CircleF
5737 4348 CircleF
5779 4324 CircleF
5779 4340 CircleF
5779 4346 CircleF
5779 4348 CircleF
5821 4327 CircleF
5821 4343 CircleF
5821 4348 CircleF
5821 4349 CircleF
5864 4329 CircleF
5864 4345 CircleF
5864 4348 CircleF
5864 4350 CircleF
5906 4332 CircleF
5906 4343 CircleF
5906 4348 CircleF
5906 4349 CircleF
5948 4333 CircleF
5948 4345 CircleF
5948 4348 CircleF
5948 4349 CircleF
5990 4334 CircleF
5990 4345 CircleF
5990 4349 CircleF
5990 4350 CircleF
6033 4336 CircleF
6033 4347 CircleF
6033 4348 CircleF
6075 4336 CircleF
6075 4307 CircleF
6075 4350 CircleF
6117 4339 CircleF
6117 4347 CircleF
6117 4350 CircleF
6159 4340 CircleF
6159 4349 CircleF
6159 4350 CircleF
6201 4340 CircleF
6201 4348 CircleF
6201 4350 CircleF
6244 4342 CircleF
6244 4348 CircleF
6244 4350 CircleF
6286 4342 CircleF
6286 4350 CircleF
6286 4350 CircleF
6328 4344 CircleF
6328 4349 CircleF
6370 4345 CircleF
6370 4350 CircleF
6413 4345 CircleF
6413 4350 CircleF
6455 4346 CircleF
6455 4350 CircleF
6497 4346 CircleF
6497 4350 CircleF
6539 4346 CircleF
6539 4350 CircleF
6581 4347 CircleF
6581 4351 CircleF
6624 4347 CircleF
6666 4348 CircleF
6708 4348 CircleF
6750 4349 CircleF
6793 4349 CircleF
6835 4349 CircleF
6877 4350 CircleF
% End plot #1
2.000 UL
LTb
LCb setrgbcolor
1.000 UL
LTB
LCb setrgbcolor
770 4619 N
770 448 L
6107 0 V
0 4171 V
-6107 0 V
Z stroke
1.000 UP
1.000 UL
LTb
LCb setrgbcolor
stroke
grestore
end
showpage
%%Trailer
%%DocumentFonts: Helvetica
%%Pages: 1
