%!PS-Adobe-2.0
%%Title: Results.daisy.v100/Run.001/FLOPS.128/GPU_Blocks.0160/GPU_Threads.1024/graph2.ps
%%Creator: gnuplot 5.2 patchlevel 7
%%CreationDate: Sun Jan 19 15:23:19 2020
%%DocumentFonts: (atend)
%%BoundingBox: 50 50 554 770
%%Orientation: Landscape
%%Pages: (atend)
%%EndComments
%%BeginProlog
/gnudict 256 dict def
gnudict begin
%
% The following true/false flags may be edited by hand if desired.
% The unit line width and grayscale image gamma correction may also be changed.
%
/Color true def
/Blacktext false def
/Solid false def
/Dashlength 1 def
/Landscape true def
/Level1 false def
/Level3 false def
/Rounded false def
/ClipToBoundingBox false def
/SuppressPDFMark false def
/TransparentPatterns false def
/gnulinewidth 5.000 def
/userlinewidth gnulinewidth def
/Gamma 1.0 def
/BackgroundColor {-1.000 -1.000 -1.000} def
%
/vshift -46 def
/dl1 {
  10.0 Dashlength userlinewidth gnulinewidth div mul mul mul
  Rounded { currentlinewidth 0.75 mul sub dup 0 le { pop 0.01 } if } if
} def
/dl2 {
  10.0 Dashlength userlinewidth gnulinewidth div mul mul mul
  Rounded { currentlinewidth 0.75 mul add } if
} def
/hpt_ 31.5 def
/vpt_ 31.5 def
/hpt hpt_ def
/vpt vpt_ def
/doclip {
  ClipToBoundingBox {
    newpath 50 50 moveto 554 50 lineto 554 770 lineto 50 770 lineto closepath
    clip
  } if
} def
%
% Gnuplot Prolog Version 5.2 (Dec 2017)
%
%/SuppressPDFMark true def
%
/M {moveto} bind def
/L {lineto} bind def
/R {rmoveto} bind def
/V {rlineto} bind def
/N {newpath moveto} bind def
/Z {closepath} bind def
/C {setrgbcolor} bind def
/f {rlineto fill} bind def
/g {setgray} bind def
/Gshow {show} def   % May be redefined later in the file to support UTF-8
/vpt2 vpt 2 mul def
/hpt2 hpt 2 mul def
/Lshow {currentpoint stroke M 0 vshift R 
	Blacktext {gsave 0 setgray textshow grestore} {textshow} ifelse} def
/Rshow {currentpoint stroke M dup stringwidth pop neg vshift R
	Blacktext {gsave 0 setgray textshow grestore} {textshow} ifelse} def
/Cshow {currentpoint stroke M dup stringwidth pop -2 div vshift R 
	Blacktext {gsave 0 setgray textshow grestore} {textshow} ifelse} def
/UP {dup vpt_ mul /vpt exch def hpt_ mul /hpt exch def
  /hpt2 hpt 2 mul def /vpt2 vpt 2 mul def} def
/DL {Color {setrgbcolor Solid {pop []} if 0 setdash}
 {pop pop pop 0 setgray Solid {pop []} if 0 setdash} ifelse} def
/BL {stroke userlinewidth 2 mul setlinewidth
	Rounded {1 setlinejoin 1 setlinecap} if} def
/AL {stroke userlinewidth 2 div setlinewidth
	Rounded {1 setlinejoin 1 setlinecap} if} def
/UL {dup gnulinewidth mul /userlinewidth exch def
	dup 1 lt {pop 1} if 10 mul /udl exch def} def
/PL {stroke userlinewidth setlinewidth
	Rounded {1 setlinejoin 1 setlinecap} if} def
3.8 setmiterlimit
% Classic Line colors (version 5.0)
/LCw {1 1 1} def
/LCb {0 0 0} def
/LCa {0 0 0} def
/LC0 {1 0 0} def
/LC1 {0 1 0} def
/LC2 {0 0 1} def
/LC3 {1 0 1} def
/LC4 {0 1 1} def
/LC5 {1 1 0} def
/LC6 {0 0 0} def
/LC7 {1 0.3 0} def
/LC8 {0.5 0.5 0.5} def
% Default dash patterns (version 5.0)
/LTB {BL [] LCb DL} def
/LTw {PL [] 1 setgray} def
/LTb {PL [] LCb DL} def
/LTa {AL [1 udl mul 2 udl mul] 0 setdash LCa setrgbcolor} def
/LT0 {PL [] LC0 DL} def
/LT1 {PL [2 dl1 3 dl2] LC1 DL} def
/LT2 {PL [1 dl1 1.5 dl2] LC2 DL} def
/LT3 {PL [6 dl1 2 dl2 1 dl1 2 dl2] LC3 DL} def
/LT4 {PL [1 dl1 2 dl2 6 dl1 2 dl2 1 dl1 2 dl2] LC4 DL} def
/LT5 {PL [4 dl1 2 dl2] LC5 DL} def
/LT6 {PL [1.5 dl1 1.5 dl2 1.5 dl1 1.5 dl2 1.5 dl1 6 dl2] LC6 DL} def
/LT7 {PL [3 dl1 3 dl2 1 dl1 3 dl2] LC7 DL} def
/LT8 {PL [2 dl1 2 dl2 2 dl1 6 dl2] LC8 DL} def
/SL {[] 0 setdash} def
/Pnt {stroke [] 0 setdash gsave 1 setlinecap M 0 0 V stroke grestore} def
/Dia {stroke [] 0 setdash 2 copy vpt add M
  hpt neg vpt neg V hpt vpt neg V
  hpt vpt V hpt neg vpt V closepath stroke
  Pnt} def
/Pls {stroke [] 0 setdash vpt sub M 0 vpt2 V
  currentpoint stroke M
  hpt neg vpt neg R hpt2 0 V stroke
 } def
/Box {stroke [] 0 setdash 2 copy exch hpt sub exch vpt add M
  0 vpt2 neg V hpt2 0 V 0 vpt2 V
  hpt2 neg 0 V closepath stroke
  Pnt} def
/Crs {stroke [] 0 setdash exch hpt sub exch vpt add M
  hpt2 vpt2 neg V currentpoint stroke M
  hpt2 neg 0 R hpt2 vpt2 V stroke} def
/TriU {stroke [] 0 setdash 2 copy vpt 1.12 mul add M
  hpt neg vpt -1.62 mul V
  hpt 2 mul 0 V
  hpt neg vpt 1.62 mul V closepath stroke
  Pnt} def
/Star {2 copy Pls Crs} def
/BoxF {stroke [] 0 setdash exch hpt sub exch vpt add M
  0 vpt2 neg V hpt2 0 V 0 vpt2 V
  hpt2 neg 0 V closepath fill} def
/TriUF {stroke [] 0 setdash vpt 1.12 mul add M
  hpt neg vpt -1.62 mul V
  hpt 2 mul 0 V
  hpt neg vpt 1.62 mul V closepath fill} def
/TriD {stroke [] 0 setdash 2 copy vpt 1.12 mul sub M
  hpt neg vpt 1.62 mul V
  hpt 2 mul 0 V
  hpt neg vpt -1.62 mul V closepath stroke
  Pnt} def
/TriDF {stroke [] 0 setdash vpt 1.12 mul sub M
  hpt neg vpt 1.62 mul V
  hpt 2 mul 0 V
  hpt neg vpt -1.62 mul V closepath fill} def
/DiaF {stroke [] 0 setdash vpt add M
  hpt neg vpt neg V hpt vpt neg V
  hpt vpt V hpt neg vpt V closepath fill} def
/Pent {stroke [] 0 setdash 2 copy gsave
  translate 0 hpt M 4 {72 rotate 0 hpt L} repeat
  closepath stroke grestore Pnt} def
/PentF {stroke [] 0 setdash gsave
  translate 0 hpt M 4 {72 rotate 0 hpt L} repeat
  closepath fill grestore} def
/Circle {stroke [] 0 setdash 2 copy
  hpt 0 360 arc stroke Pnt} def
/CircleF {stroke [] 0 setdash hpt 0 360 arc fill} def
/C0 {BL [] 0 setdash 2 copy moveto vpt 90 450 arc} bind def
/C1 {BL [] 0 setdash 2 copy moveto
	2 copy vpt 0 90 arc closepath fill
	vpt 0 360 arc closepath} bind def
/C2 {BL [] 0 setdash 2 copy moveto
	2 copy vpt 90 180 arc closepath fill
	vpt 0 360 arc closepath} bind def
/C3 {BL [] 0 setdash 2 copy moveto
	2 copy vpt 0 180 arc closepath fill
	vpt 0 360 arc closepath} bind def
/C4 {BL [] 0 setdash 2 copy moveto
	2 copy vpt 180 270 arc closepath fill
	vpt 0 360 arc closepath} bind def
/C5 {BL [] 0 setdash 2 copy moveto
	2 copy vpt 0 90 arc
	2 copy moveto
	2 copy vpt 180 270 arc closepath fill
	vpt 0 360 arc} bind def
/C6 {BL [] 0 setdash 2 copy moveto
	2 copy vpt 90 270 arc closepath fill
	vpt 0 360 arc closepath} bind def
/C7 {BL [] 0 setdash 2 copy moveto
	2 copy vpt 0 270 arc closepath fill
	vpt 0 360 arc closepath} bind def
/C8 {BL [] 0 setdash 2 copy moveto
	2 copy vpt 270 360 arc closepath fill
	vpt 0 360 arc closepath} bind def
/C9 {BL [] 0 setdash 2 copy moveto
	2 copy vpt 270 450 arc closepath fill
	vpt 0 360 arc closepath} bind def
/C10 {BL [] 0 setdash 2 copy 2 copy moveto vpt 270 360 arc closepath fill
	2 copy moveto
	2 copy vpt 90 180 arc closepath fill
	vpt 0 360 arc closepath} bind def
/C11 {BL [] 0 setdash 2 copy moveto
	2 copy vpt 0 180 arc closepath fill
	2 copy moveto
	2 copy vpt 270 360 arc closepath fill
	vpt 0 360 arc closepath} bind def
/C12 {BL [] 0 setdash 2 copy moveto
	2 copy vpt 180 360 arc closepath fill
	vpt 0 360 arc closepath} bind def
/C13 {BL [] 0 setdash 2 copy moveto
	2 copy vpt 0 90 arc closepath fill
	2 copy moveto
	2 copy vpt 180 360 arc closepath fill
	vpt 0 360 arc closepath} bind def
/C14 {BL [] 0 setdash 2 copy moveto
	2 copy vpt 90 360 arc closepath fill
	vpt 0 360 arc} bind def
/C15 {BL [] 0 setdash 2 copy vpt 0 360 arc closepath fill
	vpt 0 360 arc closepath} bind def
/Rec {newpath 4 2 roll moveto 1 index 0 rlineto 0 exch rlineto
	neg 0 rlineto closepath} bind def
/Square {dup Rec} bind def
/Bsquare {vpt sub exch vpt sub exch vpt2 Square} bind def
/S0 {BL [] 0 setdash 2 copy moveto 0 vpt rlineto BL Bsquare} bind def
/S1 {BL [] 0 setdash 2 copy vpt Square fill Bsquare} bind def
/S2 {BL [] 0 setdash 2 copy exch vpt sub exch vpt Square fill Bsquare} bind def
/S3 {BL [] 0 setdash 2 copy exch vpt sub exch vpt2 vpt Rec fill Bsquare} bind def
/S4 {BL [] 0 setdash 2 copy exch vpt sub exch vpt sub vpt Square fill Bsquare} bind def
/S5 {BL [] 0 setdash 2 copy 2 copy vpt Square fill
	exch vpt sub exch vpt sub vpt Square fill Bsquare} bind def
/S6 {BL [] 0 setdash 2 copy exch vpt sub exch vpt sub vpt vpt2 Rec fill Bsquare} bind def
/S7 {BL [] 0 setdash 2 copy exch vpt sub exch vpt sub vpt vpt2 Rec fill
	2 copy vpt Square fill Bsquare} bind def
/S8 {BL [] 0 setdash 2 copy vpt sub vpt Square fill Bsquare} bind def
/S9 {BL [] 0 setdash 2 copy vpt sub vpt vpt2 Rec fill Bsquare} bind def
/S10 {BL [] 0 setdash 2 copy vpt sub vpt Square fill 2 copy exch vpt sub exch vpt Square fill
	Bsquare} bind def
/S11 {BL [] 0 setdash 2 copy vpt sub vpt Square fill 2 copy exch vpt sub exch vpt2 vpt Rec fill
	Bsquare} bind def
/S12 {BL [] 0 setdash 2 copy exch vpt sub exch vpt sub vpt2 vpt Rec fill Bsquare} bind def
/S13 {BL [] 0 setdash 2 copy exch vpt sub exch vpt sub vpt2 vpt Rec fill
	2 copy vpt Square fill Bsquare} bind def
/S14 {BL [] 0 setdash 2 copy exch vpt sub exch vpt sub vpt2 vpt Rec fill
	2 copy exch vpt sub exch vpt Square fill Bsquare} bind def
/S15 {BL [] 0 setdash 2 copy Bsquare fill Bsquare} bind def
/D0 {gsave translate 45 rotate 0 0 S0 stroke grestore} bind def
/D1 {gsave translate 45 rotate 0 0 S1 stroke grestore} bind def
/D2 {gsave translate 45 rotate 0 0 S2 stroke grestore} bind def
/D3 {gsave translate 45 rotate 0 0 S3 stroke grestore} bind def
/D4 {gsave translate 45 rotate 0 0 S4 stroke grestore} bind def
/D5 {gsave translate 45 rotate 0 0 S5 stroke grestore} bind def
/D6 {gsave translate 45 rotate 0 0 S6 stroke grestore} bind def
/D7 {gsave translate 45 rotate 0 0 S7 stroke grestore} bind def
/D8 {gsave translate 45 rotate 0 0 S8 stroke grestore} bind def
/D9 {gsave translate 45 rotate 0 0 S9 stroke grestore} bind def
/D10 {gsave translate 45 rotate 0 0 S10 stroke grestore} bind def
/D11 {gsave translate 45 rotate 0 0 S11 stroke grestore} bind def
/D12 {gsave translate 45 rotate 0 0 S12 stroke grestore} bind def
/D13 {gsave translate 45 rotate 0 0 S13 stroke grestore} bind def
/D14 {gsave translate 45 rotate 0 0 S14 stroke grestore} bind def
/D15 {gsave translate 45 rotate 0 0 S15 stroke grestore} bind def
/DiaE {stroke [] 0 setdash vpt add M
  hpt neg vpt neg V hpt vpt neg V
  hpt vpt V hpt neg vpt V closepath stroke} def
/BoxE {stroke [] 0 setdash exch hpt sub exch vpt add M
  0 vpt2 neg V hpt2 0 V 0 vpt2 V
  hpt2 neg 0 V closepath stroke} def
/TriUE {stroke [] 0 setdash vpt 1.12 mul add M
  hpt neg vpt -1.62 mul V
  hpt 2 mul 0 V
  hpt neg vpt 1.62 mul V closepath stroke} def
/TriDE {stroke [] 0 setdash vpt 1.12 mul sub M
  hpt neg vpt 1.62 mul V
  hpt 2 mul 0 V
  hpt neg vpt -1.62 mul V closepath stroke} def
/PentE {stroke [] 0 setdash gsave
  translate 0 hpt M 4 {72 rotate 0 hpt L} repeat
  closepath stroke grestore} def
/CircE {stroke [] 0 setdash 
  hpt 0 360 arc stroke} def
/Opaque {gsave closepath 1 setgray fill grestore 0 setgray closepath} def
/DiaW {stroke [] 0 setdash vpt add M
  hpt neg vpt neg V hpt vpt neg V
  hpt vpt V hpt neg vpt V Opaque stroke} def
/BoxW {stroke [] 0 setdash exch hpt sub exch vpt add M
  0 vpt2 neg V hpt2 0 V 0 vpt2 V
  hpt2 neg 0 V Opaque stroke} def
/TriUW {stroke [] 0 setdash vpt 1.12 mul add M
  hpt neg vpt -1.62 mul V
  hpt 2 mul 0 V
  hpt neg vpt 1.62 mul V Opaque stroke} def
/TriDW {stroke [] 0 setdash vpt 1.12 mul sub M
  hpt neg vpt 1.62 mul V
  hpt 2 mul 0 V
  hpt neg vpt -1.62 mul V Opaque stroke} def
/PentW {stroke [] 0 setdash gsave
  translate 0 hpt M 4 {72 rotate 0 hpt L} repeat
  Opaque stroke grestore} def
/CircW {stroke [] 0 setdash 
  hpt 0 360 arc Opaque stroke} def
/BoxFill {gsave Rec 1 setgray fill grestore} def
/Density {
  /Fillden exch def
  currentrgbcolor
  /ColB exch def /ColG exch def /ColR exch def
  /ColR ColR Fillden mul Fillden sub 1 add def
  /ColG ColG Fillden mul Fillden sub 1 add def
  /ColB ColB Fillden mul Fillden sub 1 add def
  ColR ColG ColB setrgbcolor} def
/BoxColFill {gsave Rec PolyFill} def
/PolyFill {gsave Density fill grestore grestore} def
/h {rlineto rlineto rlineto closepath gsave fill grestore stroke} bind def
%
% PostScript Level 1 Pattern Fill routine for rectangles
% Usage: x y w h s a XX PatternFill
%	x,y = lower left corner of box to be filled
%	w,h = width and height of box
%	  a = angle in degrees between lines and x-axis
%	 XX = 0/1 for no/yes cross-hatch
%
/PatternFill {gsave /PFa [ 9 2 roll ] def
  PFa 0 get PFa 2 get 2 div add PFa 1 get PFa 3 get 2 div add translate
  PFa 2 get -2 div PFa 3 get -2 div PFa 2 get PFa 3 get Rec
  TransparentPatterns {} {gsave 1 setgray fill grestore} ifelse
  clip
  currentlinewidth 0.5 mul setlinewidth
  /PFs PFa 2 get dup mul PFa 3 get dup mul add sqrt def
  0 0 M PFa 5 get rotate PFs -2 div dup translate
  0 1 PFs PFa 4 get div 1 add floor cvi
	{PFa 4 get mul 0 M 0 PFs V} for
  0 PFa 6 get ne {
	0 1 PFs PFa 4 get div 1 add floor cvi
	{PFa 4 get mul 0 2 1 roll M PFs 0 V} for
 } if
  stroke grestore} def
%
/languagelevel where
 {pop languagelevel} {1} ifelse
dup 2 lt
	{/InterpretLevel1 true def
	 /InterpretLevel3 false def}
	{/InterpretLevel1 Level1 def
	 2 gt
	    {/InterpretLevel3 Level3 def}
	    {/InterpretLevel3 false def}
	 ifelse }
 ifelse
%
% PostScript level 2 pattern fill definitions
%
/Level2PatternFill {
/Tile8x8 {/PaintType 2 /PatternType 1 /TilingType 1 /BBox [0 0 8 8] /XStep 8 /YStep 8}
	bind def
/KeepColor {currentrgbcolor [/Pattern /DeviceRGB] setcolorspace} bind def
<< Tile8x8
 /PaintProc {0.5 setlinewidth pop 0 0 M 8 8 L 0 8 M 8 0 L stroke} 
>> matrix makepattern
/Pat1 exch def
<< Tile8x8
 /PaintProc {0.5 setlinewidth pop 0 0 M 8 8 L 0 8 M 8 0 L stroke
	0 4 M 4 8 L 8 4 L 4 0 L 0 4 L stroke}
>> matrix makepattern
/Pat2 exch def
<< Tile8x8
 /PaintProc {0.5 setlinewidth pop 0 0 M 0 8 L
	8 8 L 8 0 L 0 0 L fill}
>> matrix makepattern
/Pat3 exch def
<< Tile8x8
 /PaintProc {0.5 setlinewidth pop -4 8 M 8 -4 L
	0 12 M 12 0 L stroke}
>> matrix makepattern
/Pat4 exch def
<< Tile8x8
 /PaintProc {0.5 setlinewidth pop -4 0 M 8 12 L
	0 -4 M 12 8 L stroke}
>> matrix makepattern
/Pat5 exch def
<< Tile8x8
 /PaintProc {0.5 setlinewidth pop -2 8 M 4 -4 L
	0 12 M 8 -4 L 4 12 M 10 0 L stroke}
>> matrix makepattern
/Pat6 exch def
<< Tile8x8
 /PaintProc {0.5 setlinewidth pop -2 0 M 4 12 L
	0 -4 M 8 12 L 4 -4 M 10 8 L stroke}
>> matrix makepattern
/Pat7 exch def
<< Tile8x8
 /PaintProc {0.5 setlinewidth pop 8 -2 M -4 4 L
	12 0 M -4 8 L 12 4 M 0 10 L stroke}
>> matrix makepattern
/Pat8 exch def
<< Tile8x8
 /PaintProc {0.5 setlinewidth pop 0 -2 M 12 4 L
	-4 0 M 12 8 L -4 4 M 8 10 L stroke}
>> matrix makepattern
/Pat9 exch def
/Pattern1 {PatternBgnd KeepColor Pat1 setpattern} bind def
/Pattern2 {PatternBgnd KeepColor Pat2 setpattern} bind def
/Pattern3 {PatternBgnd KeepColor Pat3 setpattern} bind def
/Pattern4 {PatternBgnd KeepColor Landscape {Pat5} {Pat4} ifelse setpattern} bind def
/Pattern5 {PatternBgnd KeepColor Landscape {Pat4} {Pat5} ifelse setpattern} bind def
/Pattern6 {PatternBgnd KeepColor Landscape {Pat9} {Pat6} ifelse setpattern} bind def
/Pattern7 {PatternBgnd KeepColor Landscape {Pat8} {Pat7} ifelse setpattern} bind def
} def
%
%
%End of PostScript Level 2 code
%
/PatternBgnd {
  TransparentPatterns {} {gsave 1 setgray fill grestore} ifelse
} def
%
% Substitute for Level 2 pattern fill codes with
% grayscale if Level 2 support is not selected.
%
/Level1PatternFill {
/Pattern1 {0.250 Density} bind def
/Pattern2 {0.500 Density} bind def
/Pattern3 {0.750 Density} bind def
/Pattern4 {0.125 Density} bind def
/Pattern5 {0.375 Density} bind def
/Pattern6 {0.625 Density} bind def
/Pattern7 {0.875 Density} bind def
} def
%
% Now test for support of Level 2 code
%
Level1 {Level1PatternFill} {Level2PatternFill} ifelse
%
/Symbol-Oblique /Symbol findfont [1 0 .167 1 0 0] makefont
dup length dict begin {1 index /FID eq {pop pop} {def} ifelse} forall
currentdict end definefont pop
%
/Metrics {ExtendTextBox Gswidth} def
/Lwidth {currentpoint stroke M 0 vshift R Metrics} def
/Rwidth {currentpoint stroke M dup stringwidth pop neg vshift R Metrics} def
/Cwidth {currentpoint stroke M dup stringwidth pop -2 div vshift R Metrics} def
/GLwidth {currentpoint stroke M 0 vshift R {ExtendTextBox} forall} def
/GRwidth {currentpoint stroke M dup Gwidth vshift R {ExtendTextBox} forall} def
/GCwidth {currentpoint stroke M dup Gwidth 2 div vshift R {ExtendTextBox} forall} def
/GLwidth2 {0 Gwidth AddGlyphWidth} def
/GRwidth2 {Gwidth -1 mul 0 AddGlyphWidth} def
/GCwidth2 {Gwidth 2 div dup -1 mul AddGlyphWidth} def
/AddGlyphWidth { dup TBx2 gt {userdict /TBx2 3 -1 roll put} {pop} ifelse
                 dup TBx1 lt {userdict /TBx1 3 -1 roll put} {pop} ifelse } def
/MFshow {
   { dup 5 get 3 ge
     { 5 get 3 eq {gsave} {grestore} ifelse }
     {dup dup 0 get findfont exch 1 get scalefont setfont
     [ currentpoint ] exch dup 2 get 0 exch R dup 5 get 2 ne {dup dup 6
     get exch 4 get {textshow} {Metrics pop 0 R} ifelse }if dup 5 get 0 eq
     {dup 3 get {2 get neg 0 exch R pop} {pop aload pop M} ifelse} {dup 5
     get 1 eq {dup 2 get exch dup 3 get exch 6 get Gswidth pop -2 div
     dup 0 R} {dup 6 get Gswidth pop -2 div 0 R 6 get
     textshow 2 index {aload pop M neg 3 -1 roll neg R pop pop} {pop pop pop
     pop aload pop M} ifelse }ifelse }ifelse }
     ifelse }
   forall} def
/Gswidth {dup type /stringtype eq {stringwidth} {pop (n) stringwidth} ifelse} def
/MFwidth {0 exch { dup 5 get 3 ge { 5 get 3 eq { 0 } { pop } ifelse }
 {dup 3 get{dup dup 0 get findfont exch 1 get scalefont setfont
     6 get Gswidth pop add} {pop} ifelse} ifelse} forall} def
/MLshow { currentpoint stroke M
  0 exch R
  Blacktext {gsave 0 setgray MFshow grestore} {MFshow} ifelse } bind def
/MRshow { currentpoint stroke M
  exch dup MFwidth neg 3 -1 roll R
  Blacktext {gsave 0 setgray MFshow grestore} {MFshow} ifelse } bind def
/MCshow { currentpoint stroke M
  exch dup MFwidth -2 div 3 -1 roll R
  Blacktext {gsave 0 setgray MFshow grestore} {MFshow} ifelse } bind def
/XYsave    { [( ) 1 2 true false 3 ()] } bind def
/XYrestore { [( ) 1 2 true false 4 ()] } bind def
Level1 SuppressPDFMark or 
{} {
/SDict 10 dict def
systemdict /pdfmark known not {
  userdict /pdfmark systemdict /cleartomark get put
} if
SDict begin [
  /Title (Results.daisy.v100/Run.001/FLOPS.128/GPU_Blocks.0160/GPU_Threads.1024/graph2.ps)
  /Subject (gnuplot plot)
  /Creator (gnuplot 5.2 patchlevel 7)
%  /Producer (gnuplot)
%  /Keywords ()
  /CreationDate (Sun Jan 19 15:23:19 2020)
  /DOCINFO pdfmark
end
} ifelse
%
% Support for boxed text - Ethan A Merritt Sep 2016
%
/InitTextBox { userdict /TBy2 3 -1 roll put userdict /TBx2 3 -1 roll put
           userdict /TBy1 3 -1 roll put userdict /TBx1 3 -1 roll put
	   /Boxing true def } def
/ExtendTextBox { dup type /stringtype eq
    { Boxing { gsave dup false charpath pathbbox
      dup TBy2 gt {userdict /TBy2 3 -1 roll put} {pop} ifelse
      dup TBx2 gt {userdict /TBx2 3 -1 roll put} {pop} ifelse
      dup TBy1 lt {userdict /TBy1 3 -1 roll put} {pop} ifelse
      dup TBx1 lt {userdict /TBx1 3 -1 roll put} {pop} ifelse
      grestore } if }
    {} ifelse} def
/PopTextBox { newpath TBx1 TBxmargin sub TBy1 TBymargin sub M
               TBx1 TBxmargin sub TBy2 TBymargin add L
	       TBx2 TBxmargin add TBy2 TBymargin add L
	       TBx2 TBxmargin add TBy1 TBymargin sub L closepath } def
/DrawTextBox { PopTextBox stroke /Boxing false def} def
/FillTextBox { gsave PopTextBox fill grestore /Boxing false def} def
0 0 0 0 InitTextBox
/TBxmargin 20 def
/TBymargin 20 def
/Boxing false def
/textshow { ExtendTextBox Gshow } def
%
end
%%EndProlog
%%Page: 1 1
gnudict begin
gsave
doclip
50 50 translate
0.100 0.100 scale
90 rotate
0 -5040 translate
0 setgray
newpath
(Helvetica) findfont 140 scalefont setfont
BackgroundColor 0 lt 3 1 roll 0 lt exch 0 lt or or not {gsave BackgroundColor C clippath fill grestore} if
1.000 UL
LTb
LCb setrgbcolor
1.000 UL
LTa
LCa setrgbcolor
770 448 M
6107 0 V
stroke
LTb
LCb setrgbcolor
770 448 M
63 0 V
6044 0 R
-63 0 V
stroke
686 448 M
[ [(Helvetica) 140.0 0.0 true true 0 (1e-02)]
] -46.7 MRshow
/Helvetica findfont 140 scalefont setfont
/vshift -46 def
1.000 UL
LTb
LCb setrgbcolor
1.000 UL
LTa
LCa setrgbcolor
770 699 M
6107 0 V
stroke
LTb
LCb setrgbcolor
770 699 M
31 0 V
6076 0 R
-31 0 V
stroke
LTa
LCa setrgbcolor
770 846 M
6107 0 V
stroke
LTb
LCb setrgbcolor
770 846 M
31 0 V
6076 0 R
-31 0 V
stroke
LTa
LCa setrgbcolor
770 950 M
6107 0 V
stroke
LTb
LCb setrgbcolor
770 950 M
31 0 V
6076 0 R
-31 0 V
stroke
LTa
LCa setrgbcolor
770 1031 M
6107 0 V
stroke
LTb
LCb setrgbcolor
770 1031 M
31 0 V
6076 0 R
-31 0 V
stroke
LTa
LCa setrgbcolor
770 1097 M
6107 0 V
stroke
LTb
LCb setrgbcolor
770 1097 M
31 0 V
6076 0 R
-31 0 V
stroke
LTa
LCa setrgbcolor
770 1153 M
6107 0 V
stroke
LTb
LCb setrgbcolor
770 1153 M
31 0 V
6076 0 R
-31 0 V
stroke
LTa
LCa setrgbcolor
770 1201 M
6107 0 V
stroke
LTb
LCb setrgbcolor
770 1201 M
31 0 V
6076 0 R
-31 0 V
stroke
LTa
LCa setrgbcolor
770 1244 M
6107 0 V
stroke
LTb
LCb setrgbcolor
770 1244 M
31 0 V
6076 0 R
-31 0 V
stroke
LTa
LCa setrgbcolor
770 1282 M
6107 0 V
stroke
LTb
LCb setrgbcolor
770 1282 M
63 0 V
6044 0 R
-63 0 V
stroke
686 1282 M
[ [(Helvetica) 140.0 0.0 true true 0 (1e-01)]
] -46.7 MRshow
/Helvetica findfont 140 scalefont setfont
1.000 UL
LTb
LCb setrgbcolor
1.000 UL
LTa
LCa setrgbcolor
770 1533 M
6107 0 V
stroke
LTb
LCb setrgbcolor
770 1533 M
31 0 V
6076 0 R
-31 0 V
stroke
LTa
LCa setrgbcolor
770 1680 M
6107 0 V
stroke
LTb
LCb setrgbcolor
770 1680 M
31 0 V
6076 0 R
-31 0 V
stroke
LTa
LCa setrgbcolor
770 1784 M
6107 0 V
stroke
LTb
LCb setrgbcolor
770 1784 M
31 0 V
6076 0 R
-31 0 V
stroke
LTa
LCa setrgbcolor
770 1865 M
6107 0 V
stroke
LTb
LCb setrgbcolor
770 1865 M
31 0 V
6076 0 R
-31 0 V
stroke
LTa
LCa setrgbcolor
770 1931 M
6107 0 V
stroke
LTb
LCb setrgbcolor
770 1931 M
31 0 V
6076 0 R
-31 0 V
stroke
LTa
LCa setrgbcolor
770 1987 M
6107 0 V
stroke
LTb
LCb setrgbcolor
770 1987 M
31 0 V
6076 0 R
-31 0 V
stroke
LTa
LCa setrgbcolor
770 2036 M
6107 0 V
stroke
LTb
LCb setrgbcolor
770 2036 M
31 0 V
6076 0 R
-31 0 V
stroke
LTa
LCa setrgbcolor
770 2078 M
6107 0 V
stroke
LTb
LCb setrgbcolor
770 2078 M
31 0 V
6076 0 R
-31 0 V
stroke
LTa
LCa setrgbcolor
770 2116 M
6107 0 V
stroke
LTb
LCb setrgbcolor
770 2116 M
63 0 V
6044 0 R
-63 0 V
stroke
686 2116 M
[ [(Helvetica) 140.0 0.0 true true 0 (1e+00)]
] -46.7 MRshow
/Helvetica findfont 140 scalefont setfont
1.000 UL
LTb
LCb setrgbcolor
1.000 UL
LTa
LCa setrgbcolor
770 2368 M
6107 0 V
stroke
LTb
LCb setrgbcolor
770 2368 M
31 0 V
6076 0 R
-31 0 V
stroke
LTa
LCa setrgbcolor
770 2514 M
6107 0 V
stroke
LTb
LCb setrgbcolor
770 2514 M
31 0 V
6076 0 R
-31 0 V
stroke
LTa
LCa setrgbcolor
770 2619 M
6107 0 V
stroke
LTb
LCb setrgbcolor
770 2619 M
31 0 V
6076 0 R
-31 0 V
stroke
LTa
LCa setrgbcolor
770 2699 M
6107 0 V
stroke
LTb
LCb setrgbcolor
770 2699 M
31 0 V
6076 0 R
-31 0 V
stroke
LTa
LCa setrgbcolor
770 2766 M
6107 0 V
stroke
LTb
LCb setrgbcolor
770 2766 M
31 0 V
6076 0 R
-31 0 V
stroke
LTa
LCa setrgbcolor
770 2821 M
6107 0 V
stroke
LTb
LCb setrgbcolor
770 2821 M
31 0 V
6076 0 R
-31 0 V
stroke
LTa
LCa setrgbcolor
770 2870 M
6107 0 V
stroke
LTb
LCb setrgbcolor
770 2870 M
31 0 V
6076 0 R
-31 0 V
stroke
LTa
LCa setrgbcolor
770 2912 M
6107 0 V
stroke
LTb
LCb setrgbcolor
770 2912 M
31 0 V
6076 0 R
-31 0 V
stroke
LTa
LCa setrgbcolor
770 2951 M
6107 0 V
stroke
LTb
LCb setrgbcolor
770 2951 M
63 0 V
6044 0 R
-63 0 V
stroke
686 2951 M
[ [(Helvetica) 140.0 0.0 true true 0 (1e+01)]
] -46.7 MRshow
/Helvetica findfont 140 scalefont setfont
1.000 UL
LTb
LCb setrgbcolor
1.000 UL
LTa
LCa setrgbcolor
770 3202 M
6107 0 V
stroke
LTb
LCb setrgbcolor
770 3202 M
31 0 V
6076 0 R
-31 0 V
stroke
LTa
LCa setrgbcolor
770 3349 M
6107 0 V
stroke
LTb
LCb setrgbcolor
770 3349 M
31 0 V
6076 0 R
-31 0 V
stroke
LTa
LCa setrgbcolor
770 3453 M
6107 0 V
stroke
LTb
LCb setrgbcolor
770 3453 M
31 0 V
6076 0 R
-31 0 V
stroke
LTa
LCa setrgbcolor
770 3534 M
6107 0 V
stroke
LTb
LCb setrgbcolor
770 3534 M
31 0 V
6076 0 R
-31 0 V
stroke
LTa
LCa setrgbcolor
770 3600 M
6107 0 V
stroke
LTb
LCb setrgbcolor
770 3600 M
31 0 V
6076 0 R
-31 0 V
stroke
LTa
LCa setrgbcolor
770 3656 M
6107 0 V
stroke
LTb
LCb setrgbcolor
770 3656 M
31 0 V
6076 0 R
-31 0 V
stroke
LTa
LCa setrgbcolor
770 3704 M
6107 0 V
stroke
LTb
LCb setrgbcolor
770 3704 M
31 0 V
6076 0 R
-31 0 V
stroke
LTa
LCa setrgbcolor
770 3747 M
6107 0 V
stroke
LTb
LCb setrgbcolor
770 3747 M
31 0 V
6076 0 R
-31 0 V
stroke
LTa
LCa setrgbcolor
770 3785 M
6107 0 V
stroke
LTb
LCb setrgbcolor
770 3785 M
63 0 V
6044 0 R
-63 0 V
stroke
686 3785 M
[ [(Helvetica) 140.0 0.0 true true 0 (1e+02)]
] -46.7 MRshow
/Helvetica findfont 140 scalefont setfont
1.000 UL
LTb
LCb setrgbcolor
1.000 UL
LTa
LCa setrgbcolor
770 4036 M
6107 0 V
stroke
LTb
LCb setrgbcolor
770 4036 M
31 0 V
6076 0 R
-31 0 V
stroke
LTa
LCa setrgbcolor
770 4183 M
6107 0 V
stroke
LTb
LCb setrgbcolor
770 4183 M
31 0 V
6076 0 R
-31 0 V
stroke
LTa
LCa setrgbcolor
770 4287 M
6107 0 V
stroke
LTb
LCb setrgbcolor
770 4287 M
31 0 V
6076 0 R
-31 0 V
stroke
LTa
LCa setrgbcolor
770 4368 M
6107 0 V
stroke
LTb
LCb setrgbcolor
770 4368 M
31 0 V
6076 0 R
-31 0 V
stroke
LTa
LCa setrgbcolor
770 4434 M
6107 0 V
stroke
LTb
LCb setrgbcolor
770 4434 M
31 0 V
6076 0 R
-31 0 V
stroke
LTa
LCa setrgbcolor
770 4490 M
6107 0 V
stroke
LTb
LCb setrgbcolor
770 4490 M
31 0 V
6076 0 R
-31 0 V
stroke
LTa
LCa setrgbcolor
770 4538 M
6107 0 V
stroke
LTb
LCb setrgbcolor
770 4538 M
31 0 V
6076 0 R
-31 0 V
stroke
LTa
LCa setrgbcolor
770 4581 M
6107 0 V
stroke
LTb
LCb setrgbcolor
770 4581 M
31 0 V
6076 0 R
-31 0 V
stroke
LTa
LCa setrgbcolor
770 4619 M
6107 0 V
stroke
LTb
LCb setrgbcolor
770 4619 M
63 0 V
6044 0 R
-63 0 V
stroke
686 4619 M
[ [(Helvetica) 140.0 0.0 true true 0 (1e+03)]
] -46.7 MRshow
/Helvetica findfont 140 scalefont setfont
1.000 UL
LTb
LCb setrgbcolor
1.000 UL
LTa
LCa setrgbcolor
1067 448 M
0 4171 V
stroke
LTb
LCb setrgbcolor
1067 448 M
0 31 V
0 4140 R
0 -31 V
stroke
LTa
LCa setrgbcolor
1246 448 M
0 4171 V
stroke
LTb
LCb setrgbcolor
1246 448 M
0 31 V
0 4140 R
0 -31 V
stroke
LTa
LCa setrgbcolor
1374 448 M
0 4171 V
stroke
LTb
LCb setrgbcolor
1374 448 M
0 31 V
0 4140 R
0 -31 V
stroke
LTa
LCa setrgbcolor
1473 448 M
0 4171 V
stroke
LTb
LCb setrgbcolor
1473 448 M
0 31 V
0 4140 R
0 -31 V
stroke
LTa
LCa setrgbcolor
1553 448 M
0 4171 V
stroke
LTb
LCb setrgbcolor
1553 448 M
0 31 V
0 4140 R
0 -31 V
stroke
LTa
LCa setrgbcolor
1622 448 M
0 4171 V
stroke
LTb
LCb setrgbcolor
1622 448 M
0 31 V
0 4140 R
0 -31 V
stroke
LTa
LCa setrgbcolor
1681 448 M
0 4171 V
stroke
LTb
LCb setrgbcolor
1681 448 M
0 31 V
0 4140 R
0 -31 V
stroke
LTa
LCa setrgbcolor
1733 448 M
0 4171 V
stroke
LTb
LCb setrgbcolor
1733 448 M
0 31 V
0 4140 R
0 -31 V
stroke
LTa
LCa setrgbcolor
1780 448 M
0 4171 V
stroke
LTb
LCb setrgbcolor
1780 448 M
0 63 V
0 4108 R
0 -63 V
stroke
1780 308 M
[ [(Helvetica) 140.0 0.0 true true 0 (1e+04)]
] -46.7 MCshow
/Helvetica findfont 140 scalefont setfont
1.000 UL
LTb
LCb setrgbcolor
1.000 UL
LTa
LCa setrgbcolor
2087 448 M
0 4171 V
stroke
LTb
LCb setrgbcolor
2087 448 M
0 31 V
0 4140 R
0 -31 V
stroke
LTa
LCa setrgbcolor
2266 448 M
0 4171 V
stroke
LTb
LCb setrgbcolor
2266 448 M
0 31 V
0 4140 R
0 -31 V
stroke
LTa
LCa setrgbcolor
2394 448 M
0 4171 V
stroke
LTb
LCb setrgbcolor
2394 448 M
0 31 V
0 4140 R
0 -31 V
stroke
LTa
LCa setrgbcolor
2493 448 M
0 4171 V
stroke
LTb
LCb setrgbcolor
2493 448 M
0 31 V
0 4140 R
0 -31 V
stroke
LTa
LCa setrgbcolor
2573 448 M
0 4171 V
stroke
LTb
LCb setrgbcolor
2573 448 M
0 31 V
0 4140 R
0 -31 V
stroke
LTa
LCa setrgbcolor
2642 448 M
0 4171 V
stroke
LTb
LCb setrgbcolor
2642 448 M
0 31 V
0 4140 R
0 -31 V
stroke
LTa
LCa setrgbcolor
2701 448 M
0 4171 V
stroke
LTb
LCb setrgbcolor
2701 448 M
0 31 V
0 4140 R
0 -31 V
stroke
LTa
LCa setrgbcolor
2753 448 M
0 4171 V
stroke
LTb
LCb setrgbcolor
2753 448 M
0 31 V
0 4140 R
0 -31 V
stroke
LTa
LCa setrgbcolor
2800 448 M
0 4171 V
stroke
LTb
LCb setrgbcolor
2800 448 M
0 63 V
0 4108 R
0 -63 V
stroke
2800 308 M
[ [(Helvetica) 140.0 0.0 true true 0 (1e+05)]
] -46.7 MCshow
/Helvetica findfont 140 scalefont setfont
1.000 UL
LTb
LCb setrgbcolor
1.000 UL
LTa
LCa setrgbcolor
3107 448 M
0 4171 V
stroke
LTb
LCb setrgbcolor
3107 448 M
0 31 V
0 4140 R
0 -31 V
stroke
LTa
LCa setrgbcolor
3286 448 M
0 4171 V
stroke
LTb
LCb setrgbcolor
3286 448 M
0 31 V
0 4140 R
0 -31 V
stroke
LTa
LCa setrgbcolor
3414 448 M
0 4171 V
stroke
LTb
LCb setrgbcolor
3414 448 M
0 31 V
0 4140 R
0 -31 V
stroke
LTa
LCa setrgbcolor
3513 448 M
0 4171 V
stroke
LTb
LCb setrgbcolor
3513 448 M
0 31 V
0 4140 R
0 -31 V
stroke
LTa
LCa setrgbcolor
3593 448 M
0 4171 V
stroke
LTb
LCb setrgbcolor
3593 448 M
0 31 V
0 4140 R
0 -31 V
stroke
LTa
LCa setrgbcolor
3662 448 M
0 4171 V
stroke
LTb
LCb setrgbcolor
3662 448 M
0 31 V
0 4140 R
0 -31 V
stroke
LTa
LCa setrgbcolor
3721 448 M
0 4171 V
stroke
LTb
LCb setrgbcolor
3721 448 M
0 31 V
0 4140 R
0 -31 V
stroke
LTa
LCa setrgbcolor
3773 448 M
0 4171 V
stroke
LTb
LCb setrgbcolor
3773 448 M
0 31 V
0 4140 R
0 -31 V
stroke
LTa
LCa setrgbcolor
3820 448 M
0 4171 V
stroke
LTb
LCb setrgbcolor
3820 448 M
0 63 V
0 4108 R
0 -63 V
stroke
3820 308 M
[ [(Helvetica) 140.0 0.0 true true 0 (1e+06)]
] -46.7 MCshow
/Helvetica findfont 140 scalefont setfont
1.000 UL
LTb
LCb setrgbcolor
1.000 UL
LTa
LCa setrgbcolor
4127 448 M
0 4171 V
stroke
LTb
LCb setrgbcolor
4127 448 M
0 31 V
0 4140 R
0 -31 V
stroke
LTa
LCa setrgbcolor
4306 448 M
0 4171 V
stroke
LTb
LCb setrgbcolor
4306 448 M
0 31 V
0 4140 R
0 -31 V
stroke
LTa
LCa setrgbcolor
4434 448 M
0 4171 V
stroke
LTb
LCb setrgbcolor
4434 448 M
0 31 V
0 4140 R
0 -31 V
stroke
LTa
LCa setrgbcolor
4533 448 M
0 4171 V
stroke
LTb
LCb setrgbcolor
4533 448 M
0 31 V
0 4140 R
0 -31 V
stroke
LTa
LCa setrgbcolor
4614 448 M
0 4171 V
stroke
LTb
LCb setrgbcolor
4614 448 M
0 31 V
0 4140 R
0 -31 V
stroke
LTa
LCa setrgbcolor
4682 448 M
0 4171 V
stroke
LTb
LCb setrgbcolor
4682 448 M
0 31 V
0 4140 R
0 -31 V
stroke
LTa
LCa setrgbcolor
4741 448 M
0 4171 V
stroke
LTb
LCb setrgbcolor
4741 448 M
0 31 V
0 4140 R
0 -31 V
stroke
LTa
LCa setrgbcolor
4793 448 M
0 4171 V
stroke
LTb
LCb setrgbcolor
4793 448 M
0 31 V
0 4140 R
0 -31 V
stroke
LTa
LCa setrgbcolor
4840 448 M
0 4171 V
stroke
LTb
LCb setrgbcolor
4840 448 M
0 63 V
0 4108 R
0 -63 V
stroke
4840 308 M
[ [(Helvetica) 140.0 0.0 true true 0 (1e+07)]
] -46.7 MCshow
/Helvetica findfont 140 scalefont setfont
1.000 UL
LTb
LCb setrgbcolor
1.000 UL
LTa
LCa setrgbcolor
5147 448 M
0 4171 V
stroke
LTb
LCb setrgbcolor
5147 448 M
0 31 V
0 4140 R
0 -31 V
stroke
LTa
LCa setrgbcolor
5327 448 M
0 4171 V
stroke
LTb
LCb setrgbcolor
5327 448 M
0 31 V
0 4140 R
0 -31 V
stroke
LTa
LCa setrgbcolor
5454 448 M
0 4171 V
stroke
LTb
LCb setrgbcolor
5454 448 M
0 31 V
0 4140 R
0 -31 V
stroke
LTa
LCa setrgbcolor
5553 448 M
0 4171 V
stroke
LTb
LCb setrgbcolor
5553 448 M
0 31 V
0 4140 R
0 -31 V
stroke
LTa
LCa setrgbcolor
5634 448 M
0 4171 V
stroke
LTb
LCb setrgbcolor
5634 448 M
0 31 V
0 4140 R
0 -31 V
stroke
LTa
LCa setrgbcolor
5702 448 M
0 4171 V
stroke
LTb
LCb setrgbcolor
5702 448 M
0 31 V
0 4140 R
0 -31 V
stroke
LTa
LCa setrgbcolor
5761 448 M
0 4171 V
stroke
LTb
LCb setrgbcolor
5761 448 M
0 31 V
0 4140 R
0 -31 V
stroke
LTa
LCa setrgbcolor
5813 448 M
0 4171 V
stroke
LTb
LCb setrgbcolor
5813 448 M
0 31 V
0 4140 R
0 -31 V
stroke
LTa
LCa setrgbcolor
5860 448 M
0 4171 V
stroke
LTb
LCb setrgbcolor
5860 448 M
0 63 V
0 4108 R
0 -63 V
stroke
5860 308 M
[ [(Helvetica) 140.0 0.0 true true 0 (1e+08)]
] -46.7 MCshow
/Helvetica findfont 140 scalefont setfont
1.000 UL
LTb
LCb setrgbcolor
1.000 UL
LTa
LCa setrgbcolor
6167 448 M
0 4171 V
stroke
LTb
LCb setrgbcolor
6167 448 M
0 31 V
0 4140 R
0 -31 V
stroke
LTa
LCa setrgbcolor
6347 448 M
0 4171 V
stroke
LTb
LCb setrgbcolor
6347 448 M
0 31 V
0 4140 R
0 -31 V
stroke
LTa
LCa setrgbcolor
6474 448 M
0 4171 V
stroke
LTb
LCb setrgbcolor
6474 448 M
0 31 V
0 4140 R
0 -31 V
stroke
LTa
LCa setrgbcolor
6573 448 M
0 4171 V
stroke
LTb
LCb setrgbcolor
6573 448 M
0 31 V
0 4140 R
0 -31 V
stroke
LTa
LCa setrgbcolor
6654 448 M
0 4171 V
stroke
LTb
LCb setrgbcolor
6654 448 M
0 31 V
0 4140 R
0 -31 V
stroke
LTa
LCa setrgbcolor
6722 448 M
0 4171 V
stroke
LTb
LCb setrgbcolor
6722 448 M
0 31 V
0 4140 R
0 -31 V
stroke
LTa
LCa setrgbcolor
6781 448 M
0 4171 V
stroke
LTb
LCb setrgbcolor
6781 448 M
0 31 V
0 4140 R
0 -31 V
stroke
LTa
LCa setrgbcolor
6833 448 M
0 4171 V
stroke
LTb
LCb setrgbcolor
6833 448 M
0 31 V
0 4140 R
0 -31 V
stroke
LTa
LCa setrgbcolor
6880 448 M
0 4171 V
stroke
LTb
LCb setrgbcolor
1.000 UL
LTB
LCb setrgbcolor
770 4619 N
770 448 L
6107 0 V
0 4171 V
-6107 0 V
Z stroke
1.000 UP
1.000 UL
LTb
LCb setrgbcolor
LCb setrgbcolor
196 2533 M
currentpoint gsave translate -270 rotate 0 0 moveto
[ [(Helvetica) 140.0 0.0 true true 0 (Total Bandwidth \(GB/s\))]
] -46.7 MCshow
grestore
/Helvetica findfont 140 scalefont setfont
LTb
LCb setrgbcolor
LTb
LCb setrgbcolor
3823 98 M
[ [(Helvetica) 140.0 0.0 true true 0 (Working Set Size \(bytes\))]
] -46.7 MCshow
/Helvetica findfont 140 scalefont setfont
LTb
LCb setrgbcolor
3823 4829 M
[ [(Helvetica) 140.0 0.0 true true 0 (Graph 2 \(Results.daisy.v100/Run.001/FLOPS.128/GPU)]
[(Helvetica) 112.0 -42.0 true true 0 (B)]
[(Helvetica) 140.0 0.0 true true 0 (locks.0160/GPU)]
[(Helvetica) 112.0 -42.0 true true 0 (T)]
[(Helvetica) 140.0 0.0 true true 0 (hreads.1024\))]
] -32.7 MCshow
/Helvetica findfont 140 scalefont setfont
LTb
LCb setrgbcolor
LTb
LCb setrgbcolor
% Begin plot #1
0.400 UP
1.000 UL
LTb
0.58 0.00 0.83 C
770 1214 M
0 522 V
0 240 V
0 233 V
0 156 V
0 122 V
0 66 V
0 56 V
0 24 V
0 -4 V
0 8 V
0 4 V
0 5 V
0 1 V
810 1287 M
0 489 V
0 251 V
0 198 V
0 161 V
0 121 V
0 58 V
0 64 V
0 25 V
0 -2 V
0 8 V
0 7 V
0 -1 V
0 1 V
0 1 V
852 1350 M
0 487 V
0 224 V
0 198 V
0 161 V
0 116 V
0 84 V
0 39 V
0 23 V
0 2 V
0 13 V
0 1 V
0 2 V
0 1 V
0 1 V
893 1358 M
0 459 V
0 283 V
0 174 V
0 186 V
0 112 V
0 74 V
0 46 V
0 20 V
0 19 V
0 1 V
0 3 V
0 1 V
0 1 V
933 1446 M
0 447 V
0 225 V
0 208 V
0 154 V
0 129 V
0 70 V
0 49 V
0 9 V
0 15 V
0 8 V
0 7 V
0 -1 V
0 1 V
0 1 V
974 1454 M
0 481 V
0 235 V
0 189 V
0 152 V
0 126 V
0 84 V
0 44 V
0 21 V
0 -3 V
0 15 V
0 4 V
0 -1 V
0 2 V
42 -1354 R
0 503 V
0 258 V
0 174 V
0 167 V
0 116 V
0 82 V
0 46 V
0 10 V
0 14 V
0 9 V
0 6 V
0 1 V
0 1 V
42 -1332 R
0 494 V
0 229 V
0 202 V
0 161 V
0 105 V
0 88 V
0 45 V
0 11 V
0 14 V
0 9 V
0 5 V
0 1 V
0 1 V
0 1 V
41 -1305 R
0 456 V
0 235 V
0 186 V
0 145 V
0 100 V
0 67 V
0 39 V
0 21 V
0 3 V
0 7 V
0 3 V
0 1 V
0 1 V
41 -1251 R
0 289 V
0 391 V
0 200 V
0 159 V
0 93 V
0 76 V
0 31 V
0 23 V
0 10 V
0 8 V
0 2 V
0 1 V
0 1 V
0 1 V
41 -1230 R
0 453 V
0 218 V
0 196 V
0 138 V
0 109 V
0 74 V
0 36 V
0 23 V
0 3 V
0 8 V
0 3 V
0 1 V
0 1 V
0 1 V
42 -1196 R
0 403 V
0 251 V
0 178 V
0 153 V
0 106 V
0 63 V
0 37 V
0 15 V
0 8 V
0 9 V
0 3 V
0 2 V
0 1 V
0 1 V
42 -1252 R
0 453 V
0 237 V
0 169 V
0 97 V
0 123 V
0 63 V
0 30 V
0 13 V
0 7 V
0 9 V
0 2 V
0 1 V
0 1 V
42 -1157 R
0 454 V
0 199 V
0 197 V
0 140 V
0 84 V
0 56 V
0 22 V
0 20 V
0 9 V
0 6 V
0 1 V
0 2 V
0 1 V
0 -3 V
0 4 V
42 -1154 R
0 459 V
0 203 V
0 189 V
0 120 V
0 101 V
0 54 V
0 29 V
0 12 V
0 8 V
0 8 V
0 3 V
0 1 V
0 1 V
42 -1263 R
0 549 V
0 217 V
0 143 V
0 139 V
0 68 V
0 56 V
0 26 V
0 4 V
0 16 V
0 2 V
0 2 V
0 1 V
0 1 V
42 -1084 R
0 436 V
0 222 V
0 163 V
0 116 V
0 77 V
0 51 V
0 26 V
0 12 V
0 6 V
0 6 V
0 1 V
0 2 V
0 1 V
42 -1076 R
0 445 V
0 189 V
stroke 1475 2507 M
0 170 V
0 127 V
0 80 V
0 43 V
0 26 V
0 17 V
0 7 V
0 2 V
0 2 V
0 1 V
0 1 V
42 -1090 R
0 435 V
0 206 V
0 151 V
0 112 V
0 71 V
0 43 V
0 21 V
0 12 V
0 5 V
0 3 V
0 2 V
0 1 V
0 1 V
42 -1023 R
0 432 V
0 200 V
0 161 V
0 108 V
0 66 V
0 44 V
0 22 V
0 11 V
0 6 V
0 4 V
0 1 V
0 1 V
0 1 V
42 -1016 R
0 422 V
0 196 V
0 125 V
0 112 V
0 66 V
0 37 V
0 19 V
0 9 V
0 5 V
0 3 V
0 2 V
0 1 V
0 1 V
42 -986 R
0 426 V
0 192 V
0 132 V
0 86 V
0 65 V
0 36 V
0 19 V
0 7 V
0 6 V
0 2 V
0 1 V
0 1 V
0 1 V
42 -929 R
0 412 V
0 141 V
0 188 V
0 99 V
0 52 V
0 35 V
0 17 V
0 9 V
0 4 V
0 3 V
0 1 V
0 1 V
0 1 V
42 -922 R
0 382 V
0 191 V
0 157 V
0 102 V
0 54 V
0 34 V
0 18 V
0 9 V
0 4 V
0 3 V
0 1 V
0 1 V
0 1 V
43 -929 R
0 434 V
0 168 V
0 137 V
0 95 V
0 59 V
0 34 V
0 17 V
0 10 V
0 4 V
0 2 V
0 1 V
0 1 V
0 1 V
42 -929 R
0 408 V
0 208 V
0 130 V
0 91 V
0 57 V
0 31 V
0 19 V
0 9 V
0 5 V
0 2 V
0 2 V
0 1 V
42 -931 R
0 425 V
0 178 V
0 143 V
0 94 V
0 56 V
0 35 V
0 16 V
0 8 V
0 5 V
0 3 V
0 1 V
0 1 V
0 1 V
42 -913 R
0 406 V
0 184 V
0 137 V
0 95 V
0 56 V
0 32 V
0 19 V
0 9 V
0 4 V
0 3 V
0 1 V
0 1 V
42 -940 R
0 439 V
0 186 V
0 120 V
0 105 V
0 54 V
0 35 V
0 17 V
0 9 V
0 4 V
0 3 V
0 1 V
0 1 V
0 1 V
42 -937 R
0 423 V
0 190 V
0 93 V
0 131 V
0 64 V
0 32 V
0 17 V
0 10 V
0 4 V
0 2 V
0 1 V
0 1 V
0 1 V
42 -921 R
0 414 V
0 181 V
0 141 V
0 93 V
0 59 V
0 29 V
0 19 V
0 10 V
0 4 V
0 3 V
0 1 V
0 1 V
42 -901 R
0 387 V
0 188 V
0 141 V
0 97 V
0 53 V
0 34 V
0 18 V
0 9 V
0 4 V
0 2 V
0 2 V
0 1 V
42 -921 R
0 419 V
0 162 V
0 144 V
0 99 V
0 65 V
0 31 V
0 16 V
0 10 V
0 4 V
0 2 V
0 1 V
0 1 V
0 1 V
43 -937 R
0 432 V
0 181 V
0 144 V
0 94 V
0 52 V
0 33 V
0 18 V
0 8 V
0 4 V
0 3 V
0 1 V
0 1 V
0 1 V
42 -922 R
0 414 V
0 180 V
0 140 V
0 98 V
0 57 V
0 31 V
0 17 V
0 10 V
0 4 V
0 2 V
0 2 V
0 1 V
42 -929 R
0 396 V
0 207 V
0 139 V
0 93 V
stroke 2233 3311 M
0 56 V
0 38 V
0 17 V
0 9 V
0 4 V
0 2 V
0 1 V
0 1 V
42 -918 R
0 414 V
0 179 V
0 138 V
0 95 V
0 60 V
0 29 V
0 20 V
0 9 V
0 4 V
0 1 V
0 3 V
0 1 V
42 -950 R
0 439 V
0 190 V
0 131 V
0 100 V
0 57 V
0 31 V
0 5 V
0 21 V
0 6 V
0 2 V
0 1 V
0 1 V
42 -924 R
0 423 V
0 180 V
0 138 V
0 94 V
0 56 V
0 33 V
0 16 V
0 9 V
0 6 V
0 1 V
0 1 V
0 1 V
0 1 V
43 -909 R
0 407 V
0 181 V
0 123 V
0 109 V
0 55 V
0 34 V
0 16 V
0 10 V
0 4 V
0 2 V
0 1 V
0 1 V
42 -899 R
0 398 V
0 185 V
0 122 V
0 104 V
0 57 V
0 34 V
0 16 V
0 9 V
0 3 V
0 3 V
0 2 V
0 1 V
42 -895 R
0 394 V
0 172 V
0 133 V
0 104 V
0 57 V
0 33 V
0 18 V
0 9 V
0 5 V
0 2 V
0 1 V
0 1 V
42 -936 R
0 429 V
0 192 V
0 131 V
0 96 V
0 53 V
0 36 V
0 15 V
0 8 V
0 5 V
0 3 V
0 1 V
0 1 V
0 1 V
42 -914 R
0 403 V
0 195 V
0 125 V
0 103 V
0 53 V
0 34 V
0 18 V
0 7 V
0 6 V
0 1 V
0 2 V
0 1 V
42 -915 R
0 415 V
0 186 V
0 120 V
0 105 V
0 56 V
0 32 V
0 15 V
0 11 V
0 3 V
0 4 V
0 2 V
0 1 V
43 -950 R
0 439 V
0 185 V
0 136 V
0 98 V
0 59 V
0 32 V
0 18 V
0 8 V
0 4 V
0 2 V
0 2 V
0 1 V
42 -959 R
0 470 V
0 166 V
0 135 V
0 98 V
0 56 V
0 33 V
0 18 V
0 8 V
0 4 V
0 3 V
0 1 V
0 1 V
0 1 V
42 -950 R
0 349 V
0 257 V
0 161 V
0 89 V
0 58 V
0 34 V
0 19 V
0 9 V
0 4 V
0 2 V
0 1 V
0 1 V
42 -945 R
0 440 V
0 185 V
0 136 V
0 96 V
0 55 V
0 32 V
0 18 V
0 9 V
0 4 V
0 2 V
0 2 V
0 1 V
43 -970 R
0 462 V
0 178 V
0 142 V
0 99 V
0 57 V
0 30 V
0 19 V
0 9 V
0 4 V
0 2 V
0 1 V
0 1 V
42 -951 R
0 449 V
0 179 V
0 135 V
0 98 V
0 55 V
0 34 V
0 18 V
0 9 V
0 4 V
0 2 V
0 2 V
0 1 V
42 -938 R
0 421 V
0 194 V
0 137 V
0 96 V
0 54 V
0 34 V
0 18 V
0 9 V
0 5 V
0 2 V
0 1 V
0 1 V
42 -945 R
0 442 V
0 183 V
0 134 V
0 97 V
0 54 V
0 34 V
0 18 V
0 8 V
0 5 V
0 2 V
0 2 V
42 -935 R
0 414 V
0 187 V
0 140 V
0 56 V
0 81 V
0 28 V
0 1 V
0 -4 V
0 1 V
0 1 V
0 1 V
0 1 V
43 -908 R
0 448 V
0 168 V
0 131 V
0 83 V
stroke 3035 3919 M
0 53 V
0 32 V
0 13 V
0 10 V
0 4 V
0 2 V
0 2 V
42 -909 R
0 431 V
0 177 V
0 139 V
0 83 V
0 53 V
0 26 V
0 18 V
0 9 V
0 4 V
0 1 V
0 2 V
0 1 V
42 -892 R
0 412 V
0 184 V
0 124 V
0 91 V
0 53 V
0 28 V
0 15 V
0 11 V
0 3 V
0 4 V
0 1 V
42 -914 R
0 451 V
0 163 V
0 130 V
0 89 V
0 52 V
0 30 V
0 17 V
0 9 V
0 4 V
0 2 V
0 1 V
0 1 V
43 -897 R
0 370 V
0 221 V
0 121 V
0 104 V
0 51 V
0 31 V
0 17 V
0 7 V
0 5 V
0 2 V
0 2 V
0 1 V
42 -899 R
0 428 V
0 173 V
0 128 V
0 87 V
0 56 V
0 29 V
0 16 V
0 8 V
0 3 V
0 3 V
0 1 V
42 -911 R
0 438 V
0 170 V
0 133 V
0 88 V
0 56 V
0 29 V
0 16 V
0 8 V
0 4 V
0 3 V
0 1 V
42 -902 R
0 432 V
0 177 V
0 119 V
0 87 V
0 57 V
0 33 V
0 15 V
0 9 V
0 4 V
0 2 V
0 1 V
42 -900 R
0 429 V
0 166 V
0 132 V
0 90 V
0 52 V
0 33 V
0 17 V
0 8 V
0 4 V
0 2 V
0 2 V
43 -910 R
0 432 V
0 183 V
0 123 V
0 84 V
0 60 V
0 30 V
0 16 V
0 7 V
0 5 V
0 3 V
0 1 V
42 -906 R
0 432 V
0 171 V
0 135 V
0 85 V
0 55 V
0 30 V
0 16 V
0 9 V
0 4 V
0 3 V
0 1 V
42 -917 R
0 433 V
0 180 V
0 130 V
0 86 V
0 60 V
0 31 V
0 15 V
0 8 V
0 5 V
0 2 V
0 2 V
42 -897 R
0 426 V
0 170 V
0 132 V
0 85 V
0 54 V
0 29 V
0 20 V
0 8 V
0 3 V
0 3 V
43 -905 R
0 428 V
0 167 V
0 142 V
0 83 V
0 52 V
0 35 V
0 17 V
0 9 V
0 4 V
0 2 V
42 -908 R
0 375 V
0 223 V
0 138 V
0 91 V
0 52 V
0 32 V
0 17 V
0 8 V
0 4 V
0 3 V
42 -919 R
0 365 V
0 128 V
0 101 V
0 52 V
0 32 V
0 16 V
0 9 V
0 5 V
0 2 V
0 1 V
42 -688 R
0 372 V
0 137 V
0 96 V
0 52 V
0 32 V
0 17 V
0 9 V
0 4 V
0 2 V
0 2 V
42 -690 R
0 382 V
0 127 V
0 97 V
0 54 V
0 31 V
0 16 V
0 10 V
0 4 V
0 2 V
0 1 V
43 -700 R
0 394 V
0 129 V
0 93 V
0 54 V
0 31 V
0 17 V
0 9 V
0 4 V
0 2 V
0 2 V
42 -688 R
0 370 V
0 139 V
0 93 V
0 56 V
0 30 V
0 13 V
0 13 V
0 5 V
0 2 V
0 1 V
42 -684 R
0 373 V
0 135 V
0 92 V
0 55 V
0 30 V
0 16 V
0 9 V
0 5 V
0 3 V
42 -694 R
0 384 V
0 118 V
0 96 V
0 66 V
0 26 V
0 21 V
0 10 V
0 5 V
stroke 3921 4513 M
0 2 V
43 -709 R
0 332 V
0 107 V
0 77 V
0 40 V
0 22 V
0 11 V
0 7 V
0 3 V
0 1 V
42 -560 R
0 334 V
0 99 V
0 79 V
0 40 V
0 21 V
0 11 V
0 6 V
0 3 V
0 2 V
42 -572 R
0 343 V
0 105 V
0 75 V
0 39 V
0 22 V
0 12 V
0 6 V
0 2 V
0 2 V
42 -583 R
0 350 V
0 105 V
0 77 V
0 42 V
0 16 V
0 17 V
0 7 V
0 2 V
0 2 V
42 -599 R
0 309 V
0 98 V
0 59 V
0 32 V
0 15 V
0 10 V
0 4 V
0 3 V
0 1 V
43 -481 R
0 303 V
0 85 V
0 63 V
0 28 V
0 19 V
0 9 V
0 5 V
0 3 V
42 -477 R
0 274 V
0 114 V
0 57 V
0 33 V
0 16 V
0 10 V
0 5 V
0 2 V
42 -515 R
0 282 V
0 80 V
0 55 V
0 22 V
0 18 V
0 7 V
0 4 V
0 2 V
42 -428 R
0 275 V
0 78 V
0 54 V
0 27 V
0 16 V
0 7 V
0 4 V
0 1 V
43 -431 R
0 287 V
0 78 V
0 45 V
0 29 V
0 14 V
0 7 V
0 4 V
0 1 V
42 -463 R
0 267 V
0 75 V
0 47 V
0 22 V
0 11 V
0 7 V
0 3 V
0 1 V
42 -400 R
0 244 V
0 60 V
0 37 V
0 20 V
0 9 V
0 5 V
0 3 V
0 2 V
42 -415 R
0 300 V
0 71 V
0 36 V
0 22 V
0 11 V
0 5 V
0 3 V
42 -365 R
0 221 V
0 62 V
0 35 V
0 18 V
0 9 V
0 4 V
0 2 V
43 -809 R
0 688 V
0 56 V
0 30 V
0 14 V
0 8 V
0 3 V
0 3 V
42 -292 R
0 208 V
0 58 V
0 29 V
0 15 V
0 10 V
0 4 V
0 2 V
42 -329 R
0 202 V
0 62 V
0 32 V
0 17 V
0 8 V
0 3 V
0 2 V
42 -334 R
0 214 V
0 60 V
0 28 V
0 19 V
0 8 V
0 4 V
0 1 V
43 -298 R
0 184 V
0 57 V
0 30 V
0 18 V
0 8 V
0 3 V
0 2 V
42 -321 R
0 209 V
0 68 V
0 23 V
0 15 V
0 7 V
0 3 V
42 -318 R
0 204 V
0 51 V
0 28 V
0 10 V
0 5 V
0 2 V
42 -283 R
0 196 V
0 55 V
0 25 V
0 11 V
0 5 V
0 3 V
42 -260 R
0 158 V
0 60 V
0 15 V
0 12 V
0 5 V
0 2 V
43 -250 R
0 169 V
0 56 V
0 20 V
0 10 V
0 7 V
0 3 V
42 -244 R
0 150 V
0 48 V
0 24 V
0 12 V
0 5 V
0 3 V
42 -233 R
0 139 V
0 53 V
0 21 V
0 12 V
0 6 V
0 3 V
42 -214 R
0 128 V
0 35 V
0 23 V
0 10 V
0 3 V
0 2 V
43 -189 R
0 113 V
0 41 V
0 23 V
0 10 V
0 6 V
42 -192 R
0 116 V
0 33 V
0 16 V
0 9 V
0 7 V
42 -165 R
0 116 V
0 19 V
0 9 V
0 11 V
0 7 V
42 -145 R
0 98 V
0 21 V
0 12 V
0 6 V
stroke 5230 4503 M
0 4 V
42 -136 R
0 95 V
0 17 V
0 10 V
0 5 V
0 3 V
43 -113 R
0 78 V
0 20 V
0 10 V
0 1 V
0 5 V
42 -113 R
0 79 V
0 17 V
0 11 V
0 3 V
42 -98 R
0 73 V
0 16 V
0 7 V
0 3 V
42 -88 R
0 68 V
0 8 V
0 8 V
0 3 V
43 -76 R
0 57 V
0 9 V
0 8 V
0 1 V
42 -70 R
0 51 V
0 11 V
0 5 V
0 3 V
42 -65 R
0 45 V
0 12 V
0 5 V
0 1 V
42 -63 R
0 50 V
0 7 V
0 2 V
0 2 V
42 -48 R
0 38 V
0 5 V
0 1 V
0 4 V
43 -47 R
0 36 V
0 7 V
0 -2 V
42 -29 R
0 27 V
0 3 V
42 -26 R
0 30 V
0 1 V
0 -3 V
42 -28 R
0 28 V
0 -1 V
43 -24 R
0 24 V
0 3 V
0 -2 V
42 -22 R
0 26 V
0 -3 V
0 -5 V
42 -13 R
0 17 V
0 -4 V
42 -13 R
0 18 V
0 -4 V
43 -11 R
0 16 V
0 -1 V
42 -15 R
0 16 V
0 -7 V
42 -4 R
0 9 V
0 -6 V
42 0 R
0 7 V
0 -8 V
42 2 R
0 4 V
0 -7 V
43 6 R
0 3 V
0 -9 V
42 2 R
0 7 V
0 -8 V
42 3 R
0 4 V
42 -5 R
0 3 V
43 -2 R
0 2 V
42 0 R
42 -2 R
0 -1 V
42 0 R
0 -2 V
42 4 R
0 -3 V
43 3 R
42 0 R
42 -19 R
42 13 R
43 2 R
42 6 R
42 1 R
770 1214 CircleF
770 1736 CircleF
770 1976 CircleF
770 2209 CircleF
770 2365 CircleF
770 2487 CircleF
770 2553 CircleF
770 2609 CircleF
770 2633 CircleF
770 2629 CircleF
770 2637 CircleF
770 2641 CircleF
770 2646 CircleF
770 2646 CircleF
770 2647 CircleF
770 2647 CircleF
770 2647 CircleF
770 2647 CircleF
770 2647 CircleF
770 2647 CircleF
770 2647 CircleF
810 1287 CircleF
810 1776 CircleF
810 2027 CircleF
810 2225 CircleF
810 2386 CircleF
810 2507 CircleF
810 2565 CircleF
810 2629 CircleF
810 2654 CircleF
810 2652 CircleF
810 2660 CircleF
810 2667 CircleF
810 2666 CircleF
810 2667 CircleF
810 2668 CircleF
810 2668 CircleF
810 2668 CircleF
810 2668 CircleF
810 2668 CircleF
810 2668 CircleF
852 1350 CircleF
852 1837 CircleF
852 2061 CircleF
852 2259 CircleF
852 2420 CircleF
852 2536 CircleF
852 2620 CircleF
852 2659 CircleF
852 2682 CircleF
852 2684 CircleF
852 2697 CircleF
852 2698 CircleF
852 2700 CircleF
852 2701 CircleF
852 2701 CircleF
852 2702 CircleF
852 2702 CircleF
852 2702 CircleF
852 2702 CircleF
852 2702 CircleF
893 1358 CircleF
893 1817 CircleF
893 2100 CircleF
893 2274 CircleF
893 2460 CircleF
893 2572 CircleF
893 2646 CircleF
893 2692 CircleF
893 2712 CircleF
893 2731 CircleF
893 2732 CircleF
893 2732 CircleF
893 2735 CircleF
893 2735 CircleF
893 2736 CircleF
893 2736 CircleF
893 2736 CircleF
893 2736 CircleF
893 2737 CircleF
893 2737 CircleF
933 1446 CircleF
933 1893 CircleF
933 2118 CircleF
933 2326 CircleF
933 2480 CircleF
933 2609 CircleF
933 2679 CircleF
933 2728 CircleF
933 2737 CircleF
933 2752 CircleF
933 2760 CircleF
933 2767 CircleF
933 2766 CircleF
933 2767 CircleF
933 2768 CircleF
933 2768 CircleF
933 2768 CircleF
933 2768 CircleF
933 2768 CircleF
933 2768 CircleF
974 1454 CircleF
974 1935 CircleF
974 2170 CircleF
974 2359 CircleF
974 2511 CircleF
974 2637 CircleF
974 2721 CircleF
974 2765 CircleF
974 2786 CircleF
974 2783 CircleF
974 2798 CircleF
974 2798 CircleF
974 2802 CircleF
974 2801 CircleF
974 2803 CircleF
974 2803 CircleF
974 2803 CircleF
974 2803 CircleF
974 2803 CircleF
974 2803 CircleF
1016 1449 CircleF
1016 1952 CircleF
1016 2210 CircleF
1016 2384 CircleF
1016 2551 CircleF
1016 2667 CircleF
1016 2749 CircleF
1016 2795 CircleF
1016 2805 CircleF
1016 2819 CircleF
1016 2828 CircleF
1016 2834 CircleF
1016 2835 CircleF
1016 2835 CircleF
1016 2835 CircleF
1016 2836 CircleF
1016 2836 CircleF
1016 2836 CircleF
1016 2836 CircleF
1016 2836 CircleF
1058 1504 CircleF
1058 1998 CircleF
1058 2227 CircleF
1058 2429 CircleF
1058 2590 CircleF
1058 2695 CircleF
1058 2783 CircleF
1058 2828 CircleF
1058 2839 CircleF
1058 2853 CircleF
1058 2862 CircleF
1058 2867 CircleF
1058 2868 CircleF
1058 2868 CircleF
1058 2869 CircleF
1058 2870 CircleF
1058 2870 CircleF
1058 2870 CircleF
1058 2870 CircleF
1058 2870 CircleF
1099 1565 CircleF
1099 2021 CircleF
1099 2256 CircleF
1099 2442 CircleF
1099 2587 CircleF
1099 2687 CircleF
1099 2754 CircleF
1099 2793 CircleF
1099 2814 CircleF
1099 2817 CircleF
1099 2824 CircleF
1099 2824 CircleF
1099 2827 CircleF
1099 2828 CircleF
1099 2829 CircleF
1099 2829 CircleF
1099 2829 CircleF
1099 2829 CircleF
1099 2829 CircleF
1140 1578 CircleF
1140 1867 CircleF
1140 2258 CircleF
1140 2458 CircleF
1140 2617 CircleF
1140 2710 CircleF
1140 2786 CircleF
1140 2817 CircleF
1140 2840 CircleF
1140 2850 CircleF
1140 2858 CircleF
1140 2860 CircleF
1140 2861 CircleF
1140 2861 CircleF
1140 2862 CircleF
1140 2862 CircleF
1140 2862 CircleF
1140 2862 CircleF
1140 2863 CircleF
1181 1633 CircleF
1181 2086 CircleF
1181 2304 CircleF
1181 2500 CircleF
1181 2638 CircleF
1181 2747 CircleF
1181 2821 CircleF
1181 2857 CircleF
1181 2880 CircleF
1181 2883 CircleF
1181 2891 CircleF
1181 2894 CircleF
1181 2895 CircleF
1181 2895 CircleF
1181 2896 CircleF
1181 2896 CircleF
1181 2896 CircleF
1181 2896 CircleF
1181 2897 CircleF
1223 1701 CircleF
1223 2104 CircleF
1223 2355 CircleF
1223 2533 CircleF
1223 2686 CircleF
1223 2792 CircleF
1223 2855 CircleF
1223 2892 CircleF
1223 2907 CircleF
1223 2915 CircleF
1223 2924 CircleF
1223 2927 CircleF
1223 2929 CircleF
1223 2929 CircleF
1223 2930 CircleF
1223 2930 CircleF
1223 2930 CircleF
1223 2931 CircleF
1223 2931 CircleF
1265 1679 CircleF
1265 2132 CircleF
1265 2369 CircleF
1265 2538 CircleF
1265 2635 CircleF
1265 2758 CircleF
1265 2821 CircleF
1265 2851 CircleF
1265 2864 CircleF
1265 2871 CircleF
1265 2880 CircleF
1265 2882 CircleF
1265 2883 CircleF
1265 2883 CircleF
1265 2884 CircleF
1265 2884 CircleF
1265 2884 CircleF
1265 2884 CircleF
1265 2884 CircleF
1307 1727 CircleF
1307 2181 CircleF
1307 2380 CircleF
1307 2577 CircleF
1307 2717 CircleF
1307 2801 CircleF
1307 2857 CircleF
1307 2879 CircleF
1307 2899 CircleF
1307 2908 CircleF
1307 2914 CircleF
1307 2915 CircleF
1307 2917 CircleF
1307 2918 CircleF
1307 2918 CircleF
1307 2918 CircleF
1307 2915 CircleF
1307 2919 CircleF
1307 2919 CircleF
1349 1765 CircleF
1349 2224 CircleF
1349 2427 CircleF
1349 2616 CircleF
1349 2736 CircleF
1349 2837 CircleF
1349 2891 CircleF
1349 2920 CircleF
1349 2932 CircleF
1349 2940 CircleF
1349 2948 CircleF
1349 2951 CircleF
1349 2951 CircleF
1349 2952 CircleF
1349 2952 CircleF
1349 2953 CircleF
1349 2953 CircleF
1349 2953 CircleF
1349 2953 CircleF
1391 1690 CircleF
1391 2239 CircleF
1391 2456 CircleF
1391 2599 CircleF
1391 2738 CircleF
1391 2806 CircleF
1391 2862 CircleF
1391 2888 CircleF
1391 2892 CircleF
1391 2908 CircleF
1391 2910 CircleF
1391 2912 CircleF
1391 2913 CircleF
1391 2914 CircleF
1391 2914 CircleF
1391 2914 CircleF
1391 2914 CircleF
1391 2914 CircleF
1433 1830 CircleF
1433 2266 CircleF
1433 2488 CircleF
1433 2651 CircleF
1433 2767 CircleF
1433 2844 CircleF
1433 2895 CircleF
1433 2921 CircleF
1433 2933 CircleF
1433 2939 CircleF
1433 2945 CircleF
1433 2946 CircleF
1433 2948 CircleF
1433 2948 CircleF
1433 2949 CircleF
1433 2949 CircleF
1433 2949 CircleF
1433 2949 CircleF
1475 1873 CircleF
1475 2318 CircleF
1475 2507 CircleF
1475 2677 CircleF
1475 2804 CircleF
1475 2884 CircleF
1475 2927 CircleF
1475 2953 CircleF
1475 2970 CircleF
1475 2977 CircleF
1475 2979 CircleF
1475 2981 CircleF
1475 2982 CircleF
1475 2983 CircleF
1475 2983 CircleF
1475 2983 CircleF
1475 2983 CircleF
1475 2983 CircleF
1517 1893 CircleF
1517 2328 CircleF
1517 2534 CircleF
1517 2685 CircleF
1517 2797 CircleF
1517 2868 CircleF
1517 2911 CircleF
1517 2932 CircleF
1517 2944 CircleF
1517 2949 CircleF
1517 2952 CircleF
1517 2954 CircleF
1517 2955 CircleF
1517 2955 CircleF
1517 2956 CircleF
1517 2956 CircleF
1517 2956 CircleF
1517 2956 CircleF
1559 1933 CircleF
1559 2365 CircleF
1559 2565 CircleF
1559 2726 CircleF
1559 2834 CircleF
1559 2900 CircleF
1559 2944 CircleF
1559 2966 CircleF
1559 2977 CircleF
1559 2983 CircleF
1559 2987 CircleF
1559 2988 CircleF
1559 2989 CircleF
1559 2990 CircleF
1559 2990 CircleF
1559 2990 CircleF
1559 2990 CircleF
1559 2990 CircleF
1601 1974 CircleF
1601 2396 CircleF
1601 2592 CircleF
1601 2717 CircleF
1601 2829 CircleF
1601 2895 CircleF
1601 2932 CircleF
1601 2951 CircleF
1601 2960 CircleF
1601 2965 CircleF
1601 2968 CircleF
1601 2970 CircleF
1601 2971 CircleF
1601 2971 CircleF
1601 2971 CircleF
1601 2972 CircleF
1601 2972 CircleF
1601 2972 CircleF
1643 1986 CircleF
1643 2412 CircleF
1643 2604 CircleF
1643 2736 CircleF
1643 2822 CircleF
1643 2887 CircleF
1643 2923 CircleF
1643 2942 CircleF
1643 2949 CircleF
1643 2955 CircleF
1643 2957 CircleF
1643 2958 CircleF
1643 2959 CircleF
1643 2960 CircleF
1643 2960 CircleF
1643 2960 CircleF
1643 2960 CircleF
1643 2960 CircleF
1685 2031 CircleF
1685 2443 CircleF
1685 2584 CircleF
1685 2772 CircleF
1685 2871 CircleF
1685 2923 CircleF
1685 2958 CircleF
1685 2975 CircleF
1685 2984 CircleF
1685 2988 CircleF
1685 2991 CircleF
1685 2992 CircleF
1685 2993 CircleF
1685 2994 CircleF
1685 2994 CircleF
1685 2994 CircleF
1685 2994 CircleF
1685 2994 CircleF
1727 2072 CircleF
1727 2454 CircleF
1727 2645 CircleF
1727 2802 CircleF
1727 2904 CircleF
1727 2958 CircleF
1727 2992 CircleF
1727 3010 CircleF
1727 3019 CircleF
1727 3023 CircleF
1727 3026 CircleF
1727 3027 CircleF
1727 3028 CircleF
1727 3028 CircleF
1727 3028 CircleF
1727 3028 CircleF
1727 3029 CircleF
1770 2100 CircleF
1770 2534 CircleF
1770 2702 CircleF
1770 2839 CircleF
1770 2934 CircleF
1770 2993 CircleF
1770 3027 CircleF
1770 3044 CircleF
1770 3054 CircleF
1770 3058 CircleF
1770 3060 CircleF
1770 3061 CircleF
1770 3062 CircleF
1770 3063 CircleF
1770 3063 CircleF
1770 3063 CircleF
1770 3063 CircleF
1812 2134 CircleF
1812 2542 CircleF
1812 2750 CircleF
1812 2880 CircleF
1812 2971 CircleF
1812 3028 CircleF
1812 3059 CircleF
1812 3078 CircleF
1812 3087 CircleF
1812 3092 CircleF
1812 3094 CircleF
1812 3096 CircleF
1812 3097 CircleF
1812 3097 CircleF
1812 3097 CircleF
1812 3097 CircleF
1812 3097 CircleF
1854 2166 CircleF
1854 2591 CircleF
1854 2769 CircleF
1854 2912 CircleF
1854 3006 CircleF
1854 3062 CircleF
1854 3097 CircleF
1854 3113 CircleF
1854 3121 CircleF
1854 3126 CircleF
1854 3129 CircleF
1854 3130 CircleF
1854 3131 CircleF
1854 3132 CircleF
1854 3132 CircleF
1854 3132 CircleF
1854 3132 CircleF
1896 2219 CircleF
1896 2625 CircleF
1896 2809 CircleF
1896 2946 CircleF
1896 3041 CircleF
1896 3097 CircleF
1896 3129 CircleF
1896 3148 CircleF
1896 3157 CircleF
1896 3161 CircleF
1896 3164 CircleF
1896 3165 CircleF
1896 3166 CircleF
1896 3166 CircleF
1896 3166 CircleF
1896 3166 CircleF
1896 3166 CircleF
1938 2226 CircleF
1938 2665 CircleF
1938 2851 CircleF
1938 2971 CircleF
1938 3076 CircleF
1938 3130 CircleF
1938 3165 CircleF
1938 3182 CircleF
1938 3191 CircleF
1938 3195 CircleF
1938 3198 CircleF
1938 3199 CircleF
1938 3200 CircleF
1938 3200 CircleF
1938 3201 CircleF
1938 3201 CircleF
1938 3201 CircleF
1980 2264 CircleF
1980 2687 CircleF
1980 2877 CircleF
1980 2970 CircleF
1980 3101 CircleF
1980 3165 CircleF
1980 3197 CircleF
1980 3214 CircleF
1980 3224 CircleF
1980 3228 CircleF
1980 3230 CircleF
1980 3231 CircleF
1980 3232 CircleF
1980 3233 CircleF
1980 3233 CircleF
1980 3233 CircleF
1980 3233 CircleF
2022 2312 CircleF
2022 2726 CircleF
2022 2907 CircleF
2022 3048 CircleF
2022 3141 CircleF
2022 3200 CircleF
2022 3229 CircleF
2022 3248 CircleF
2022 3258 CircleF
2022 3262 CircleF
2022 3265 CircleF
2022 3266 CircleF
2022 3267 CircleF
2022 3267 CircleF
2022 3267 CircleF
2022 3267 CircleF
2064 2366 CircleF
2064 2753 CircleF
2064 2941 CircleF
2064 3082 CircleF
2064 3179 CircleF
2064 3232 CircleF
2064 3266 CircleF
2064 3284 CircleF
2064 3293 CircleF
2064 3297 CircleF
2064 3299 CircleF
2064 3301 CircleF
2064 3301 CircleF
2064 3301 CircleF
2064 3302 CircleF
2064 3302 CircleF
2106 2381 CircleF
2106 2800 CircleF
2106 2962 CircleF
2106 3106 CircleF
2106 3205 CircleF
2106 3270 CircleF
2106 3301 CircleF
2106 3317 CircleF
2106 3327 CircleF
2106 3331 CircleF
2106 3333 CircleF
2106 3334 CircleF
2106 3335 CircleF
2106 3336 CircleF
2106 3336 CircleF
2106 3336 CircleF
2149 2399 CircleF
2149 2831 CircleF
2149 3012 CircleF
2149 3156 CircleF
2149 3250 CircleF
2149 3302 CircleF
2149 3335 CircleF
2149 3353 CircleF
2149 3361 CircleF
2149 3365 CircleF
2149 3368 CircleF
2149 3369 CircleF
2149 3370 CircleF
2149 3370 CircleF
2149 3371 CircleF
2149 3371 CircleF
2191 2449 CircleF
2191 2863 CircleF
2191 3043 CircleF
2191 3183 CircleF
2191 3281 CircleF
2191 3338 CircleF
2191 3369 CircleF
2191 3386 CircleF
2191 3396 CircleF
2191 3400 CircleF
2191 3402 CircleF
2191 3404 CircleF
2191 3405 CircleF
2191 3405 CircleF
2191 3405 CircleF
2191 3405 CircleF
2233 2476 CircleF
2233 2872 CircleF
2233 3079 CircleF
2233 3218 CircleF
2233 3311 CircleF
2233 3367 CircleF
2233 3405 CircleF
2233 3422 CircleF
2233 3431 CircleF
2233 3435 CircleF
2233 3437 CircleF
2233 3438 CircleF
2233 3439 CircleF
2233 3439 CircleF
2233 3439 CircleF
2233 3439 CircleF
2275 2521 CircleF
2275 2935 CircleF
2275 3114 CircleF
2275 3252 CircleF
2275 3347 CircleF
2275 3407 CircleF
2275 3436 CircleF
2275 3456 CircleF
2275 3465 CircleF
2275 3469 CircleF
2275 3470 CircleF
2275 3473 CircleF
2275 3473 CircleF
2275 3474 CircleF
2275 3474 CircleF
2275 3474 CircleF
2317 2524 CircleF
2317 2963 CircleF
2317 3153 CircleF
2317 3284 CircleF
2317 3384 CircleF
2317 3441 CircleF
2317 3472 CircleF
2317 3477 CircleF
2317 3498 CircleF
2317 3504 CircleF
2317 3506 CircleF
2317 3507 CircleF
2317 3508 CircleF
2317 3508 CircleF
2317 3508 CircleF
2359 2584 CircleF
2359 3007 CircleF
2359 3187 CircleF
2359 3325 CircleF
2359 3419 CircleF
2359 3475 CircleF
2359 3508 CircleF
2359 3524 CircleF
2359 3533 CircleF
2359 3539 CircleF
2359 3540 CircleF
2359 3541 CircleF
2359 3542 CircleF
2359 3543 CircleF
2359 3543 CircleF
2402 2634 CircleF
2402 3041 CircleF
2402 3222 CircleF
2402 3345 CircleF
2402 3454 CircleF
2402 3509 CircleF
2402 3543 CircleF
2402 3559 CircleF
2402 3569 CircleF
2402 3573 CircleF
2402 3575 CircleF
2402 3576 CircleF
2402 3577 CircleF
2402 3577 CircleF
2402 3577 CircleF
2444 2678 CircleF
2444 3076 CircleF
2444 3261 CircleF
2444 3383 CircleF
2444 3487 CircleF
2444 3544 CircleF
2444 3578 CircleF
2444 3594 CircleF
2444 3603 CircleF
2444 3606 CircleF
2444 3609 CircleF
2444 3611 CircleF
2444 3611 CircleF
2444 3612 CircleF
2444 3612 CircleF
2486 2717 CircleF
2486 3111 CircleF
2486 3283 CircleF
2486 3416 CircleF
2486 3520 CircleF
2486 3577 CircleF
2486 3610 CircleF
2486 3628 CircleF
2486 3637 CircleF
2486 3642 CircleF
2486 3644 CircleF
2486 3645 CircleF
2486 3646 CircleF
2486 3646 CircleF
2486 3646 CircleF
2528 2710 CircleF
2528 3139 CircleF
2528 3331 CircleF
2528 3462 CircleF
2528 3558 CircleF
2528 3611 CircleF
2528 3647 CircleF
2528 3662 CircleF
2528 3670 CircleF
2528 3675 CircleF
2528 3678 CircleF
2528 3679 CircleF
2528 3680 CircleF
2528 3681 CircleF
2528 3681 CircleF
2570 2767 CircleF
2570 3170 CircleF
2570 3365 CircleF
2570 3490 CircleF
2570 3593 CircleF
2570 3646 CircleF
2570 3680 CircleF
2570 3698 CircleF
2570 3705 CircleF
2570 3711 CircleF
2570 3712 CircleF
2570 3714 CircleF
2570 3715 CircleF
2570 3715 CircleF
2570 3715 CircleF
2612 2800 CircleF
2612 3215 CircleF
2612 3401 CircleF
2612 3521 CircleF
2612 3626 CircleF
2612 3682 CircleF
2612 3714 CircleF
2612 3729 CircleF
2612 3740 CircleF
2612 3743 CircleF
2612 3747 CircleF
2612 3749 CircleF
2612 3749 CircleF
2612 3750 CircleF
2612 3750 CircleF
2655 2800 CircleF
2655 3239 CircleF
2655 3424 CircleF
2655 3560 CircleF
2655 3658 CircleF
2655 3717 CircleF
2655 3749 CircleF
2655 3767 CircleF
2655 3775 CircleF
2655 3779 CircleF
2655 3781 CircleF
2655 3783 CircleF
2655 3784 CircleF
2655 3784 CircleF
2697 2825 CircleF
2697 3295 CircleF
2697 3461 CircleF
2697 3596 CircleF
2697 3694 CircleF
2697 3750 CircleF
2697 3783 CircleF
2697 3801 CircleF
2697 3809 CircleF
2697 3813 CircleF
2697 3816 CircleF
2697 3817 CircleF
2697 3818 CircleF
2697 3819 CircleF
2739 2869 CircleF
2739 3218 CircleF
2739 3475 CircleF
2739 3636 CircleF
2739 3725 CircleF
2739 3783 CircleF
2739 3817 CircleF
2739 3836 CircleF
2739 3845 CircleF
2739 3849 CircleF
2739 3851 CircleF
2739 3852 CircleF
2739 3853 CircleF
2739 3853 CircleF
2781 2908 CircleF
2781 3348 CircleF
2781 3533 CircleF
2781 3669 CircleF
2781 3765 CircleF
2781 3820 CircleF
2781 3852 CircleF
2781 3870 CircleF
2781 3879 CircleF
2781 3883 CircleF
2781 3885 CircleF
2781 3887 CircleF
2781 3888 CircleF
2781 3888 CircleF
2824 2918 CircleF
2824 3380 CircleF
2824 3558 CircleF
2824 3700 CircleF
2824 3799 CircleF
2824 3856 CircleF
2824 3886 CircleF
2824 3905 CircleF
2824 3914 CircleF
2824 3918 CircleF
2824 3920 CircleF
2824 3921 CircleF
2824 3922 CircleF
2824 3922 CircleF
2866 2971 CircleF
2866 3420 CircleF
2866 3599 CircleF
2866 3734 CircleF
2866 3832 CircleF
2866 3887 CircleF
2866 3921 CircleF
2866 3939 CircleF
2866 3948 CircleF
2866 3952 CircleF
2866 3954 CircleF
2866 3956 CircleF
2866 3956 CircleF
2866 3957 CircleF
2908 3019 CircleF
2908 3440 CircleF
2908 3634 CircleF
2908 3771 CircleF
2908 3867 CircleF
2908 3921 CircleF
2908 3955 CircleF
2908 3973 CircleF
2908 3982 CircleF
2908 3987 CircleF
2908 3989 CircleF
2908 3990 CircleF
2908 3991 CircleF
2908 3991 CircleF
2950 3046 CircleF
2950 3488 CircleF
2950 3671 CircleF
2950 3805 CircleF
2950 3902 CircleF
2950 3956 CircleF
2950 3990 CircleF
2950 4008 CircleF
2950 4016 CircleF
2950 4021 CircleF
2950 4023 CircleF
2950 4025 CircleF
2950 4025 CircleF
2992 3090 CircleF
2992 3504 CircleF
2992 3691 CircleF
2992 3831 CircleF
2992 3887 CircleF
2992 3968 CircleF
2992 3996 CircleF
2992 3997 CircleF
2992 3993 CircleF
2992 3994 CircleF
2992 3995 CircleF
2992 3996 CircleF
2992 3997 CircleF
3035 3089 CircleF
3035 3537 CircleF
3035 3705 CircleF
3035 3836 CircleF
3035 3919 CircleF
3035 3972 CircleF
3035 4004 CircleF
3035 4017 CircleF
3035 4027 CircleF
3035 4031 CircleF
3035 4033 CircleF
3035 4035 CircleF
3035 4035 CircleF
3077 3126 CircleF
3077 3557 CircleF
3077 3734 CircleF
3077 3873 CircleF
3077 3956 CircleF
3077 4009 CircleF
3077 4035 CircleF
3077 4053 CircleF
3077 4062 CircleF
3077 4066 CircleF
3077 4067 CircleF
3077 4069 CircleF
3077 4070 CircleF
3119 3178 CircleF
3119 3590 CircleF
3119 3774 CircleF
3119 3898 CircleF
3119 3989 CircleF
3119 4042 CircleF
3119 4070 CircleF
3119 4085 CircleF
3119 4096 CircleF
3119 4099 CircleF
3119 4103 CircleF
3119 4104 CircleF
3119 4104 CircleF
3161 3190 CircleF
3161 3641 CircleF
3161 3804 CircleF
3161 3934 CircleF
3161 4023 CircleF
3161 4075 CircleF
3161 4105 CircleF
3161 4122 CircleF
3161 4131 CircleF
3161 4135 CircleF
3161 4137 CircleF
3161 4138 CircleF
3161 4139 CircleF
3204 3242 CircleF
3204 3612 CircleF
3204 3833 CircleF
3204 3954 CircleF
3204 4058 CircleF
3204 4109 CircleF
3204 4140 CircleF
3204 4157 CircleF
3204 4164 CircleF
3204 4169 CircleF
3204 4171 CircleF
3204 4173 CircleF
3204 4174 CircleF
3246 3275 CircleF
3246 3703 CircleF
3246 3876 CircleF
3246 4004 CircleF
3246 4091 CircleF
3246 4147 CircleF
3246 4176 CircleF
3246 4192 CircleF
3246 4200 CircleF
3246 4203 CircleF
3246 4206 CircleF
3246 4207 CircleF
3288 3296 CircleF
3288 3734 CircleF
3288 3904 CircleF
3288 4037 CircleF
3288 4125 CircleF
3288 4181 CircleF
3288 4210 CircleF
3288 4226 CircleF
3288 4234 CircleF
3288 4238 CircleF
3288 4241 CircleF
3288 4242 CircleF
3330 3340 CircleF
3330 3772 CircleF
3330 3949 CircleF
3330 4068 CircleF
3330 4155 CircleF
3330 4212 CircleF
3330 4245 CircleF
3330 4260 CircleF
3330 4269 CircleF
3330 4273 CircleF
3330 4275 CircleF
3330 4276 CircleF
3372 3376 CircleF
3372 3805 CircleF
3372 3971 CircleF
3372 4103 CircleF
3372 4193 CircleF
3372 4245 CircleF
3372 4278 CircleF
3372 4295 CircleF
3372 4303 CircleF
3372 4307 CircleF
3372 4309 CircleF
3372 4311 CircleF
3415 3401 CircleF
3415 3833 CircleF
3415 4016 CircleF
3415 4139 CircleF
3415 4223 CircleF
3415 4283 CircleF
3415 4313 CircleF
3415 4329 CircleF
3415 4336 CircleF
3415 4341 CircleF
3415 4344 CircleF
3415 4345 CircleF
3457 3439 CircleF
3457 3871 CircleF
3457 4042 CircleF
3457 4177 CircleF
3457 4262 CircleF
3457 4317 CircleF
3457 4347 CircleF
3457 4363 CircleF
3457 4372 CircleF
3457 4376 CircleF
3457 4379 CircleF
3457 4380 CircleF
3499 3463 CircleF
3499 3896 CircleF
3499 4076 CircleF
3499 4206 CircleF
3499 4292 CircleF
3499 4352 CircleF
3499 4383 CircleF
3499 4398 CircleF
3499 4406 CircleF
3499 4411 CircleF
3499 4413 CircleF
3499 4415 CircleF
3541 3518 CircleF
3541 3944 CircleF
3541 4114 CircleF
3541 4246 CircleF
3541 4331 CircleF
3541 4385 CircleF
3541 4414 CircleF
3541 4434 CircleF
3541 4442 CircleF
3541 4445 CircleF
3541 4448 CircleF
3584 3543 CircleF
3584 3971 CircleF
3584 4138 CircleF
3584 4280 CircleF
3584 4363 CircleF
3584 4415 CircleF
3584 4450 CircleF
3584 4467 CircleF
3584 4476 CircleF
3584 4480 CircleF
3584 4482 CircleF
3626 3574 CircleF
3626 3949 CircleF
3626 4172 CircleF
3626 4310 CircleF
3626 4401 CircleF
3626 4453 CircleF
3626 4485 CircleF
3626 4502 CircleF
3626 4510 CircleF
3626 4514 CircleF
3626 4517 CircleF
3668 3598 CircleF
3668 3963 CircleF
3668 4091 CircleF
3668 4192 CircleF
3668 4244 CircleF
3668 4276 CircleF
3668 4292 CircleF
3668 4301 CircleF
3668 4306 CircleF
3668 4308 CircleF
3668 4309 CircleF
3710 3621 CircleF
3710 3993 CircleF
3710 4130 CircleF
3710 4226 CircleF
3710 4278 CircleF
3710 4310 CircleF
3710 4327 CircleF
3710 4336 CircleF
3710 4340 CircleF
3710 4342 CircleF
3710 4344 CircleF
3752 3654 CircleF
3752 4036 CircleF
3752 4163 CircleF
3752 4260 CircleF
3752 4314 CircleF
3752 4345 CircleF
3752 4361 CircleF
3752 4371 CircleF
3752 4375 CircleF
3752 4377 CircleF
3752 4378 CircleF
3795 3678 CircleF
3795 4072 CircleF
3795 4201 CircleF
3795 4294 CircleF
3795 4348 CircleF
3795 4379 CircleF
3795 4396 CircleF
3795 4405 CircleF
3795 4409 CircleF
3795 4411 CircleF
3795 4413 CircleF
3837 3725 CircleF
3837 4095 CircleF
3837 4234 CircleF
3837 4327 CircleF
3837 4383 CircleF
3837 4413 CircleF
3837 4426 CircleF
3837 4439 CircleF
3837 4444 CircleF
3837 4446 CircleF
3837 4447 CircleF
3879 3763 CircleF
3879 4136 CircleF
3879 4271 CircleF
3879 4363 CircleF
3879 4418 CircleF
3879 4448 CircleF
3879 4464 CircleF
3879 4473 CircleF
3879 4478 CircleF
3879 4481 CircleF
3921 3787 CircleF
3921 4171 CircleF
3921 4289 CircleF
3921 4385 CircleF
3921 4451 CircleF
3921 4477 CircleF
3921 4498 CircleF
3921 4508 CircleF
3921 4513 CircleF
3921 4515 CircleF
3964 3806 CircleF
3964 4138 CircleF
3964 4245 CircleF
3964 4322 CircleF
3964 4362 CircleF
3964 4384 CircleF
3964 4395 CircleF
3964 4402 CircleF
3964 4405 CircleF
3964 4406 CircleF
4006 3846 CircleF
4006 4180 CircleF
4006 4279 CircleF
4006 4358 CircleF
4006 4398 CircleF
4006 4419 CircleF
4006 4430 CircleF
4006 4436 CircleF
4006 4439 CircleF
4006 4441 CircleF
4048 3869 CircleF
4048 4212 CircleF
4048 4317 CircleF
4048 4392 CircleF
4048 4431 CircleF
4048 4453 CircleF
4048 4465 CircleF
4048 4471 CircleF
4048 4473 CircleF
4048 4475 CircleF
4090 3892 CircleF
4090 4242 CircleF
4090 4347 CircleF
4090 4424 CircleF
4090 4466 CircleF
4090 4482 CircleF
4090 4499 CircleF
4090 4506 CircleF
4090 4508 CircleF
4090 4510 CircleF
4132 3911 CircleF
4132 4220 CircleF
4132 4318 CircleF
4132 4377 CircleF
4132 4409 CircleF
4132 4424 CircleF
4132 4434 CircleF
4132 4438 CircleF
4132 4441 CircleF
4132 4442 CircleF
4175 3961 CircleF
4175 4264 CircleF
4175 4349 CircleF
4175 4412 CircleF
4175 4440 CircleF
4175 4459 CircleF
4175 4468 CircleF
4175 4473 CircleF
4175 4476 CircleF
4217 3999 CircleF
4217 4273 CircleF
4217 4387 CircleF
4217 4444 CircleF
4217 4477 CircleF
4217 4493 CircleF
4217 4503 CircleF
4217 4508 CircleF
4217 4510 CircleF
4259 3995 CircleF
4259 4277 CircleF
4259 4357 CircleF
4259 4412 CircleF
4259 4434 CircleF
4259 4452 CircleF
4259 4459 CircleF
4259 4463 CircleF
4259 4465 CircleF
4301 4037 CircleF
4301 4312 CircleF
4301 4390 CircleF
4301 4444 CircleF
4301 4471 CircleF
4301 4487 CircleF
4301 4494 CircleF
4301 4498 CircleF
4301 4499 CircleF
4344 4068 CircleF
4344 4355 CircleF
4344 4433 CircleF
4344 4478 CircleF
4344 4507 CircleF
4344 4521 CircleF
4344 4528 CircleF
4344 4532 CircleF
4344 4533 CircleF
4386 4070 CircleF
4386 4337 CircleF
4386 4412 CircleF
4386 4459 CircleF
4386 4481 CircleF
4386 4492 CircleF
4386 4499 CircleF
4386 4502 CircleF
4386 4503 CircleF
4428 4103 CircleF
4428 4347 CircleF
4428 4407 CircleF
4428 4444 CircleF
4428 4464 CircleF
4428 4473 CircleF
4428 4478 CircleF
4428 4481 CircleF
4428 4483 CircleF
4470 4068 CircleF
4470 4368 CircleF
4470 4439 CircleF
4470 4475 CircleF
4470 4497 CircleF
4470 4508 CircleF
4470 4513 CircleF
4470 4516 CircleF
4512 4151 CircleF
4512 4372 CircleF
4512 4434 CircleF
4512 4469 CircleF
4512 4487 CircleF
4512 4496 CircleF
4512 4500 CircleF
4512 4502 CircleF
4555 3693 CircleF
4555 4381 CircleF
4555 4437 CircleF
4555 4467 CircleF
4555 4481 CircleF
4555 4489 CircleF
4555 4492 CircleF
4555 4495 CircleF
4597 4203 CircleF
4597 4411 CircleF
4597 4469 CircleF
4597 4498 CircleF
4597 4513 CircleF
4597 4523 CircleF
4597 4527 CircleF
4597 4529 CircleF
4639 4200 CircleF
4639 4402 CircleF
4639 4464 CircleF
4639 4496 CircleF
4639 4513 CircleF
4639 4521 CircleF
4639 4524 CircleF
4639 4526 CircleF
4681 4192 CircleF
4681 4406 CircleF
4681 4466 CircleF
4681 4494 CircleF
4681 4513 CircleF
4681 4521 CircleF
4681 4525 CircleF
4681 4526 CircleF
4724 4228 CircleF
4724 4412 CircleF
4724 4469 CircleF
4724 4499 CircleF
4724 4517 CircleF
4724 4525 CircleF
4724 4528 CircleF
4724 4530 CircleF
4766 4209 CircleF
4766 4418 CircleF
4766 4486 CircleF
4766 4509 CircleF
4766 4524 CircleF
4766 4531 CircleF
4766 4534 CircleF
4808 4216 CircleF
4808 4420 CircleF
4808 4471 CircleF
4808 4499 CircleF
4808 4509 CircleF
4808 4514 CircleF
4808 4516 CircleF
4850 4233 CircleF
4850 4429 CircleF
4850 4484 CircleF
4850 4509 CircleF
4850 4520 CircleF
4850 4525 CircleF
4850 4528 CircleF
4892 4268 CircleF
4892 4426 CircleF
4892 4486 CircleF
4892 4501 CircleF
4892 4513 CircleF
4892 4518 CircleF
4892 4520 CircleF
4935 4270 CircleF
4935 4439 CircleF
4935 4495 CircleF
4935 4515 CircleF
4935 4525 CircleF
4935 4532 CircleF
4935 4535 CircleF
4977 4291 CircleF
4977 4441 CircleF
4977 4489 CircleF
4977 4513 CircleF
4977 4525 CircleF
4977 4530 CircleF
4977 4533 CircleF
5019 4300 CircleF
5019 4439 CircleF
5019 4492 CircleF
5019 4513 CircleF
5019 4525 CircleF
5019 4531 CircleF
5019 4534 CircleF
5061 4320 CircleF
5061 4448 CircleF
5061 4483 CircleF
5061 4506 CircleF
5061 4516 CircleF
5061 4519 CircleF
5061 4521 CircleF
5104 4332 CircleF
5104 4445 CircleF
5104 4486 CircleF
5104 4509 CircleF
5104 4519 CircleF
5104 4525 CircleF
5146 4333 CircleF
5146 4449 CircleF
5146 4482 CircleF
5146 4498 CircleF
5146 4507 CircleF
5146 4514 CircleF
5188 4349 CircleF
5188 4465 CircleF
5188 4484 CircleF
5188 4493 CircleF
5188 4504 CircleF
5188 4511 CircleF
5230 4366 CircleF
5230 4464 CircleF
5230 4485 CircleF
5230 4497 CircleF
5230 4503 CircleF
5230 4507 CircleF
5272 4371 CircleF
5272 4466 CircleF
5272 4483 CircleF
5272 4493 CircleF
5272 4498 CircleF
5272 4501 CircleF
5315 4388 CircleF
5315 4466 CircleF
5315 4486 CircleF
5315 4496 CircleF
5315 4497 CircleF
5315 4502 CircleF
5357 4389 CircleF
5357 4468 CircleF
5357 4485 CircleF
5357 4496 CircleF
5357 4499 CircleF
5357 4499 CircleF
5399 4401 CircleF
5399 4474 CircleF
5399 4490 CircleF
5399 4497 CircleF
5399 4500 CircleF
5441 4412 CircleF
5441 4480 CircleF
5441 4488 CircleF
5441 4496 CircleF
5441 4499 CircleF
5484 4423 CircleF
5484 4480 CircleF
5484 4489 CircleF
5484 4497 CircleF
5484 4498 CircleF
5526 4428 CircleF
5526 4479 CircleF
5526 4490 CircleF
5526 4495 CircleF
5526 4498 CircleF
5568 4433 CircleF
5568 4478 CircleF
5568 4490 CircleF
5568 4495 CircleF
5568 4496 CircleF
5610 4433 CircleF
5610 4483 CircleF
5610 4490 CircleF
5610 4492 CircleF
5610 4494 CircleF
5652 4446 CircleF
5652 4484 CircleF
5652 4489 CircleF
5652 4490 CircleF
5652 4494 CircleF
5695 4447 CircleF
5695 4483 CircleF
5695 4490 CircleF
5695 4488 CircleF
5737 4459 CircleF
5737 4486 CircleF
5737 4489 CircleF
5737 4489 CircleF
5779 4463 CircleF
5779 4493 CircleF
5779 4494 CircleF
5779 4491 CircleF
5821 4463 CircleF
5821 4491 CircleF
5821 4491 CircleF
5821 4490 CircleF
5864 4466 CircleF
5864 4490 CircleF
5864 4493 CircleF
5864 4491 CircleF
5906 4469 CircleF
5906 4495 CircleF
5906 4492 CircleF
5906 4487 CircleF
5948 4474 CircleF
5948 4491 CircleF
5948 4491 CircleF
5948 4487 CircleF
5990 4474 CircleF
5990 4492 CircleF
5990 4492 CircleF
5990 4488 CircleF
6033 4477 CircleF
6033 4493 CircleF
6033 4492 CircleF
6075 4477 CircleF
6075 4493 CircleF
6075 4486 CircleF
6117 4482 CircleF
6117 4491 CircleF
6117 4485 CircleF
6159 4485 CircleF
6159 4492 CircleF
6159 4484 CircleF
6201 4486 CircleF
6201 4490 CircleF
6201 4483 CircleF
6244 4489 CircleF
6244 4492 CircleF
6244 4483 CircleF
6286 4485 CircleF
6286 4492 CircleF
6286 4484 CircleF
6328 4487 CircleF
6328 4491 CircleF
6370 4486 CircleF
6370 4489 CircleF
6413 4487 CircleF
6413 4489 CircleF
6455 4489 CircleF
6455 4489 CircleF
6497 4487 CircleF
6497 4486 CircleF
6539 4486 CircleF
6539 4484 CircleF
6581 4488 CircleF
6581 4485 CircleF
6624 4488 CircleF
6666 4488 CircleF
6708 4469 CircleF
6750 4482 CircleF
6793 4484 CircleF
6835 4490 CircleF
6877 4491 CircleF
% End plot #1
2.000 UL
LTb
LCb setrgbcolor
1.000 UL
LTB
LCb setrgbcolor
770 4619 N
770 448 L
6107 0 V
0 4171 V
-6107 0 V
Z stroke
1.000 UP
1.000 UL
LTb
LCb setrgbcolor
stroke
grestore
end
showpage
%%Trailer
%%DocumentFonts: Helvetica
%%Pages: 1
