%!PS-Adobe-2.0
%%Title: Results.daisy.v100/Run.001/FLOPS.064/GPU_Blocks.0320/GPU_Threads.0512/graph2.ps
%%Creator: gnuplot 5.2 patchlevel 7
%%CreationDate: Sun Jan 19 15:22:13 2020
%%DocumentFonts: (atend)
%%BoundingBox: 50 50 554 770
%%Orientation: Landscape
%%Pages: (atend)
%%EndComments
%%BeginProlog
/gnudict 256 dict def
gnudict begin
%
% The following true/false flags may be edited by hand if desired.
% The unit line width and grayscale image gamma correction may also be changed.
%
/Color true def
/Blacktext false def
/Solid false def
/Dashlength 1 def
/Landscape true def
/Level1 false def
/Level3 false def
/Rounded false def
/ClipToBoundingBox false def
/SuppressPDFMark false def
/TransparentPatterns false def
/gnulinewidth 5.000 def
/userlinewidth gnulinewidth def
/Gamma 1.0 def
/BackgroundColor {-1.000 -1.000 -1.000} def
%
/vshift -46 def
/dl1 {
  10.0 Dashlength userlinewidth gnulinewidth div mul mul mul
  Rounded { currentlinewidth 0.75 mul sub dup 0 le { pop 0.01 } if } if
} def
/dl2 {
  10.0 Dashlength userlinewidth gnulinewidth div mul mul mul
  Rounded { currentlinewidth 0.75 mul add } if
} def
/hpt_ 31.5 def
/vpt_ 31.5 def
/hpt hpt_ def
/vpt vpt_ def
/doclip {
  ClipToBoundingBox {
    newpath 50 50 moveto 554 50 lineto 554 770 lineto 50 770 lineto closepath
    clip
  } if
} def
%
% Gnuplot Prolog Version 5.2 (Dec 2017)
%
%/SuppressPDFMark true def
%
/M {moveto} bind def
/L {lineto} bind def
/R {rmoveto} bind def
/V {rlineto} bind def
/N {newpath moveto} bind def
/Z {closepath} bind def
/C {setrgbcolor} bind def
/f {rlineto fill} bind def
/g {setgray} bind def
/Gshow {show} def   % May be redefined later in the file to support UTF-8
/vpt2 vpt 2 mul def
/hpt2 hpt 2 mul def
/Lshow {currentpoint stroke M 0 vshift R 
	Blacktext {gsave 0 setgray textshow grestore} {textshow} ifelse} def
/Rshow {currentpoint stroke M dup stringwidth pop neg vshift R
	Blacktext {gsave 0 setgray textshow grestore} {textshow} ifelse} def
/Cshow {currentpoint stroke M dup stringwidth pop -2 div vshift R 
	Blacktext {gsave 0 setgray textshow grestore} {textshow} ifelse} def
/UP {dup vpt_ mul /vpt exch def hpt_ mul /hpt exch def
  /hpt2 hpt 2 mul def /vpt2 vpt 2 mul def} def
/DL {Color {setrgbcolor Solid {pop []} if 0 setdash}
 {pop pop pop 0 setgray Solid {pop []} if 0 setdash} ifelse} def
/BL {stroke userlinewidth 2 mul setlinewidth
	Rounded {1 setlinejoin 1 setlinecap} if} def
/AL {stroke userlinewidth 2 div setlinewidth
	Rounded {1 setlinejoin 1 setlinecap} if} def
/UL {dup gnulinewidth mul /userlinewidth exch def
	dup 1 lt {pop 1} if 10 mul /udl exch def} def
/PL {stroke userlinewidth setlinewidth
	Rounded {1 setlinejoin 1 setlinecap} if} def
3.8 setmiterlimit
% Classic Line colors (version 5.0)
/LCw {1 1 1} def
/LCb {0 0 0} def
/LCa {0 0 0} def
/LC0 {1 0 0} def
/LC1 {0 1 0} def
/LC2 {0 0 1} def
/LC3 {1 0 1} def
/LC4 {0 1 1} def
/LC5 {1 1 0} def
/LC6 {0 0 0} def
/LC7 {1 0.3 0} def
/LC8 {0.5 0.5 0.5} def
% Default dash patterns (version 5.0)
/LTB {BL [] LCb DL} def
/LTw {PL [] 1 setgray} def
/LTb {PL [] LCb DL} def
/LTa {AL [1 udl mul 2 udl mul] 0 setdash LCa setrgbcolor} def
/LT0 {PL [] LC0 DL} def
/LT1 {PL [2 dl1 3 dl2] LC1 DL} def
/LT2 {PL [1 dl1 1.5 dl2] LC2 DL} def
/LT3 {PL [6 dl1 2 dl2 1 dl1 2 dl2] LC3 DL} def
/LT4 {PL [1 dl1 2 dl2 6 dl1 2 dl2 1 dl1 2 dl2] LC4 DL} def
/LT5 {PL [4 dl1 2 dl2] LC5 DL} def
/LT6 {PL [1.5 dl1 1.5 dl2 1.5 dl1 1.5 dl2 1.5 dl1 6 dl2] LC6 DL} def
/LT7 {PL [3 dl1 3 dl2 1 dl1 3 dl2] LC7 DL} def
/LT8 {PL [2 dl1 2 dl2 2 dl1 6 dl2] LC8 DL} def
/SL {[] 0 setdash} def
/Pnt {stroke [] 0 setdash gsave 1 setlinecap M 0 0 V stroke grestore} def
/Dia {stroke [] 0 setdash 2 copy vpt add M
  hpt neg vpt neg V hpt vpt neg V
  hpt vpt V hpt neg vpt V closepath stroke
  Pnt} def
/Pls {stroke [] 0 setdash vpt sub M 0 vpt2 V
  currentpoint stroke M
  hpt neg vpt neg R hpt2 0 V stroke
 } def
/Box {stroke [] 0 setdash 2 copy exch hpt sub exch vpt add M
  0 vpt2 neg V hpt2 0 V 0 vpt2 V
  hpt2 neg 0 V closepath stroke
  Pnt} def
/Crs {stroke [] 0 setdash exch hpt sub exch vpt add M
  hpt2 vpt2 neg V currentpoint stroke M
  hpt2 neg 0 R hpt2 vpt2 V stroke} def
/TriU {stroke [] 0 setdash 2 copy vpt 1.12 mul add M
  hpt neg vpt -1.62 mul V
  hpt 2 mul 0 V
  hpt neg vpt 1.62 mul V closepath stroke
  Pnt} def
/Star {2 copy Pls Crs} def
/BoxF {stroke [] 0 setdash exch hpt sub exch vpt add M
  0 vpt2 neg V hpt2 0 V 0 vpt2 V
  hpt2 neg 0 V closepath fill} def
/TriUF {stroke [] 0 setdash vpt 1.12 mul add M
  hpt neg vpt -1.62 mul V
  hpt 2 mul 0 V
  hpt neg vpt 1.62 mul V closepath fill} def
/TriD {stroke [] 0 setdash 2 copy vpt 1.12 mul sub M
  hpt neg vpt 1.62 mul V
  hpt 2 mul 0 V
  hpt neg vpt -1.62 mul V closepath stroke
  Pnt} def
/TriDF {stroke [] 0 setdash vpt 1.12 mul sub M
  hpt neg vpt 1.62 mul V
  hpt 2 mul 0 V
  hpt neg vpt -1.62 mul V closepath fill} def
/DiaF {stroke [] 0 setdash vpt add M
  hpt neg vpt neg V hpt vpt neg V
  hpt vpt V hpt neg vpt V closepath fill} def
/Pent {stroke [] 0 setdash 2 copy gsave
  translate 0 hpt M 4 {72 rotate 0 hpt L} repeat
  closepath stroke grestore Pnt} def
/PentF {stroke [] 0 setdash gsave
  translate 0 hpt M 4 {72 rotate 0 hpt L} repeat
  closepath fill grestore} def
/Circle {stroke [] 0 setdash 2 copy
  hpt 0 360 arc stroke Pnt} def
/CircleF {stroke [] 0 setdash hpt 0 360 arc fill} def
/C0 {BL [] 0 setdash 2 copy moveto vpt 90 450 arc} bind def
/C1 {BL [] 0 setdash 2 copy moveto
	2 copy vpt 0 90 arc closepath fill
	vpt 0 360 arc closepath} bind def
/C2 {BL [] 0 setdash 2 copy moveto
	2 copy vpt 90 180 arc closepath fill
	vpt 0 360 arc closepath} bind def
/C3 {BL [] 0 setdash 2 copy moveto
	2 copy vpt 0 180 arc closepath fill
	vpt 0 360 arc closepath} bind def
/C4 {BL [] 0 setdash 2 copy moveto
	2 copy vpt 180 270 arc closepath fill
	vpt 0 360 arc closepath} bind def
/C5 {BL [] 0 setdash 2 copy moveto
	2 copy vpt 0 90 arc
	2 copy moveto
	2 copy vpt 180 270 arc closepath fill
	vpt 0 360 arc} bind def
/C6 {BL [] 0 setdash 2 copy moveto
	2 copy vpt 90 270 arc closepath fill
	vpt 0 360 arc closepath} bind def
/C7 {BL [] 0 setdash 2 copy moveto
	2 copy vpt 0 270 arc closepath fill
	vpt 0 360 arc closepath} bind def
/C8 {BL [] 0 setdash 2 copy moveto
	2 copy vpt 270 360 arc closepath fill
	vpt 0 360 arc closepath} bind def
/C9 {BL [] 0 setdash 2 copy moveto
	2 copy vpt 270 450 arc closepath fill
	vpt 0 360 arc closepath} bind def
/C10 {BL [] 0 setdash 2 copy 2 copy moveto vpt 270 360 arc closepath fill
	2 copy moveto
	2 copy vpt 90 180 arc closepath fill
	vpt 0 360 arc closepath} bind def
/C11 {BL [] 0 setdash 2 copy moveto
	2 copy vpt 0 180 arc closepath fill
	2 copy moveto
	2 copy vpt 270 360 arc closepath fill
	vpt 0 360 arc closepath} bind def
/C12 {BL [] 0 setdash 2 copy moveto
	2 copy vpt 180 360 arc closepath fill
	vpt 0 360 arc closepath} bind def
/C13 {BL [] 0 setdash 2 copy moveto
	2 copy vpt 0 90 arc closepath fill
	2 copy moveto
	2 copy vpt 180 360 arc closepath fill
	vpt 0 360 arc closepath} bind def
/C14 {BL [] 0 setdash 2 copy moveto
	2 copy vpt 90 360 arc closepath fill
	vpt 0 360 arc} bind def
/C15 {BL [] 0 setdash 2 copy vpt 0 360 arc closepath fill
	vpt 0 360 arc closepath} bind def
/Rec {newpath 4 2 roll moveto 1 index 0 rlineto 0 exch rlineto
	neg 0 rlineto closepath} bind def
/Square {dup Rec} bind def
/Bsquare {vpt sub exch vpt sub exch vpt2 Square} bind def
/S0 {BL [] 0 setdash 2 copy moveto 0 vpt rlineto BL Bsquare} bind def
/S1 {BL [] 0 setdash 2 copy vpt Square fill Bsquare} bind def
/S2 {BL [] 0 setdash 2 copy exch vpt sub exch vpt Square fill Bsquare} bind def
/S3 {BL [] 0 setdash 2 copy exch vpt sub exch vpt2 vpt Rec fill Bsquare} bind def
/S4 {BL [] 0 setdash 2 copy exch vpt sub exch vpt sub vpt Square fill Bsquare} bind def
/S5 {BL [] 0 setdash 2 copy 2 copy vpt Square fill
	exch vpt sub exch vpt sub vpt Square fill Bsquare} bind def
/S6 {BL [] 0 setdash 2 copy exch vpt sub exch vpt sub vpt vpt2 Rec fill Bsquare} bind def
/S7 {BL [] 0 setdash 2 copy exch vpt sub exch vpt sub vpt vpt2 Rec fill
	2 copy vpt Square fill Bsquare} bind def
/S8 {BL [] 0 setdash 2 copy vpt sub vpt Square fill Bsquare} bind def
/S9 {BL [] 0 setdash 2 copy vpt sub vpt vpt2 Rec fill Bsquare} bind def
/S10 {BL [] 0 setdash 2 copy vpt sub vpt Square fill 2 copy exch vpt sub exch vpt Square fill
	Bsquare} bind def
/S11 {BL [] 0 setdash 2 copy vpt sub vpt Square fill 2 copy exch vpt sub exch vpt2 vpt Rec fill
	Bsquare} bind def
/S12 {BL [] 0 setdash 2 copy exch vpt sub exch vpt sub vpt2 vpt Rec fill Bsquare} bind def
/S13 {BL [] 0 setdash 2 copy exch vpt sub exch vpt sub vpt2 vpt Rec fill
	2 copy vpt Square fill Bsquare} bind def
/S14 {BL [] 0 setdash 2 copy exch vpt sub exch vpt sub vpt2 vpt Rec fill
	2 copy exch vpt sub exch vpt Square fill Bsquare} bind def
/S15 {BL [] 0 setdash 2 copy Bsquare fill Bsquare} bind def
/D0 {gsave translate 45 rotate 0 0 S0 stroke grestore} bind def
/D1 {gsave translate 45 rotate 0 0 S1 stroke grestore} bind def
/D2 {gsave translate 45 rotate 0 0 S2 stroke grestore} bind def
/D3 {gsave translate 45 rotate 0 0 S3 stroke grestore} bind def
/D4 {gsave translate 45 rotate 0 0 S4 stroke grestore} bind def
/D5 {gsave translate 45 rotate 0 0 S5 stroke grestore} bind def
/D6 {gsave translate 45 rotate 0 0 S6 stroke grestore} bind def
/D7 {gsave translate 45 rotate 0 0 S7 stroke grestore} bind def
/D8 {gsave translate 45 rotate 0 0 S8 stroke grestore} bind def
/D9 {gsave translate 45 rotate 0 0 S9 stroke grestore} bind def
/D10 {gsave translate 45 rotate 0 0 S10 stroke grestore} bind def
/D11 {gsave translate 45 rotate 0 0 S11 stroke grestore} bind def
/D12 {gsave translate 45 rotate 0 0 S12 stroke grestore} bind def
/D13 {gsave translate 45 rotate 0 0 S13 stroke grestore} bind def
/D14 {gsave translate 45 rotate 0 0 S14 stroke grestore} bind def
/D15 {gsave translate 45 rotate 0 0 S15 stroke grestore} bind def
/DiaE {stroke [] 0 setdash vpt add M
  hpt neg vpt neg V hpt vpt neg V
  hpt vpt V hpt neg vpt V closepath stroke} def
/BoxE {stroke [] 0 setdash exch hpt sub exch vpt add M
  0 vpt2 neg V hpt2 0 V 0 vpt2 V
  hpt2 neg 0 V closepath stroke} def
/TriUE {stroke [] 0 setdash vpt 1.12 mul add M
  hpt neg vpt -1.62 mul V
  hpt 2 mul 0 V
  hpt neg vpt 1.62 mul V closepath stroke} def
/TriDE {stroke [] 0 setdash vpt 1.12 mul sub M
  hpt neg vpt 1.62 mul V
  hpt 2 mul 0 V
  hpt neg vpt -1.62 mul V closepath stroke} def
/PentE {stroke [] 0 setdash gsave
  translate 0 hpt M 4 {72 rotate 0 hpt L} repeat
  closepath stroke grestore} def
/CircE {stroke [] 0 setdash 
  hpt 0 360 arc stroke} def
/Opaque {gsave closepath 1 setgray fill grestore 0 setgray closepath} def
/DiaW {stroke [] 0 setdash vpt add M
  hpt neg vpt neg V hpt vpt neg V
  hpt vpt V hpt neg vpt V Opaque stroke} def
/BoxW {stroke [] 0 setdash exch hpt sub exch vpt add M
  0 vpt2 neg V hpt2 0 V 0 vpt2 V
  hpt2 neg 0 V Opaque stroke} def
/TriUW {stroke [] 0 setdash vpt 1.12 mul add M
  hpt neg vpt -1.62 mul V
  hpt 2 mul 0 V
  hpt neg vpt 1.62 mul V Opaque stroke} def
/TriDW {stroke [] 0 setdash vpt 1.12 mul sub M
  hpt neg vpt 1.62 mul V
  hpt 2 mul 0 V
  hpt neg vpt -1.62 mul V Opaque stroke} def
/PentW {stroke [] 0 setdash gsave
  translate 0 hpt M 4 {72 rotate 0 hpt L} repeat
  Opaque stroke grestore} def
/CircW {stroke [] 0 setdash 
  hpt 0 360 arc Opaque stroke} def
/BoxFill {gsave Rec 1 setgray fill grestore} def
/Density {
  /Fillden exch def
  currentrgbcolor
  /ColB exch def /ColG exch def /ColR exch def
  /ColR ColR Fillden mul Fillden sub 1 add def
  /ColG ColG Fillden mul Fillden sub 1 add def
  /ColB ColB Fillden mul Fillden sub 1 add def
  ColR ColG ColB setrgbcolor} def
/BoxColFill {gsave Rec PolyFill} def
/PolyFill {gsave Density fill grestore grestore} def
/h {rlineto rlineto rlineto closepath gsave fill grestore stroke} bind def
%
% PostScript Level 1 Pattern Fill routine for rectangles
% Usage: x y w h s a XX PatternFill
%	x,y = lower left corner of box to be filled
%	w,h = width and height of box
%	  a = angle in degrees between lines and x-axis
%	 XX = 0/1 for no/yes cross-hatch
%
/PatternFill {gsave /PFa [ 9 2 roll ] def
  PFa 0 get PFa 2 get 2 div add PFa 1 get PFa 3 get 2 div add translate
  PFa 2 get -2 div PFa 3 get -2 div PFa 2 get PFa 3 get Rec
  TransparentPatterns {} {gsave 1 setgray fill grestore} ifelse
  clip
  currentlinewidth 0.5 mul setlinewidth
  /PFs PFa 2 get dup mul PFa 3 get dup mul add sqrt def
  0 0 M PFa 5 get rotate PFs -2 div dup translate
  0 1 PFs PFa 4 get div 1 add floor cvi
	{PFa 4 get mul 0 M 0 PFs V} for
  0 PFa 6 get ne {
	0 1 PFs PFa 4 get div 1 add floor cvi
	{PFa 4 get mul 0 2 1 roll M PFs 0 V} for
 } if
  stroke grestore} def
%
/languagelevel where
 {pop languagelevel} {1} ifelse
dup 2 lt
	{/InterpretLevel1 true def
	 /InterpretLevel3 false def}
	{/InterpretLevel1 Level1 def
	 2 gt
	    {/InterpretLevel3 Level3 def}
	    {/InterpretLevel3 false def}
	 ifelse }
 ifelse
%
% PostScript level 2 pattern fill definitions
%
/Level2PatternFill {
/Tile8x8 {/PaintType 2 /PatternType 1 /TilingType 1 /BBox [0 0 8 8] /XStep 8 /YStep 8}
	bind def
/KeepColor {currentrgbcolor [/Pattern /DeviceRGB] setcolorspace} bind def
<< Tile8x8
 /PaintProc {0.5 setlinewidth pop 0 0 M 8 8 L 0 8 M 8 0 L stroke} 
>> matrix makepattern
/Pat1 exch def
<< Tile8x8
 /PaintProc {0.5 setlinewidth pop 0 0 M 8 8 L 0 8 M 8 0 L stroke
	0 4 M 4 8 L 8 4 L 4 0 L 0 4 L stroke}
>> matrix makepattern
/Pat2 exch def
<< Tile8x8
 /PaintProc {0.5 setlinewidth pop 0 0 M 0 8 L
	8 8 L 8 0 L 0 0 L fill}
>> matrix makepattern
/Pat3 exch def
<< Tile8x8
 /PaintProc {0.5 setlinewidth pop -4 8 M 8 -4 L
	0 12 M 12 0 L stroke}
>> matrix makepattern
/Pat4 exch def
<< Tile8x8
 /PaintProc {0.5 setlinewidth pop -4 0 M 8 12 L
	0 -4 M 12 8 L stroke}
>> matrix makepattern
/Pat5 exch def
<< Tile8x8
 /PaintProc {0.5 setlinewidth pop -2 8 M 4 -4 L
	0 12 M 8 -4 L 4 12 M 10 0 L stroke}
>> matrix makepattern
/Pat6 exch def
<< Tile8x8
 /PaintProc {0.5 setlinewidth pop -2 0 M 4 12 L
	0 -4 M 8 12 L 4 -4 M 10 8 L stroke}
>> matrix makepattern
/Pat7 exch def
<< Tile8x8
 /PaintProc {0.5 setlinewidth pop 8 -2 M -4 4 L
	12 0 M -4 8 L 12 4 M 0 10 L stroke}
>> matrix makepattern
/Pat8 exch def
<< Tile8x8
 /PaintProc {0.5 setlinewidth pop 0 -2 M 12 4 L
	-4 0 M 12 8 L -4 4 M 8 10 L stroke}
>> matrix makepattern
/Pat9 exch def
/Pattern1 {PatternBgnd KeepColor Pat1 setpattern} bind def
/Pattern2 {PatternBgnd KeepColor Pat2 setpattern} bind def
/Pattern3 {PatternBgnd KeepColor Pat3 setpattern} bind def
/Pattern4 {PatternBgnd KeepColor Landscape {Pat5} {Pat4} ifelse setpattern} bind def
/Pattern5 {PatternBgnd KeepColor Landscape {Pat4} {Pat5} ifelse setpattern} bind def
/Pattern6 {PatternBgnd KeepColor Landscape {Pat9} {Pat6} ifelse setpattern} bind def
/Pattern7 {PatternBgnd KeepColor Landscape {Pat8} {Pat7} ifelse setpattern} bind def
} def
%
%
%End of PostScript Level 2 code
%
/PatternBgnd {
  TransparentPatterns {} {gsave 1 setgray fill grestore} ifelse
} def
%
% Substitute for Level 2 pattern fill codes with
% grayscale if Level 2 support is not selected.
%
/Level1PatternFill {
/Pattern1 {0.250 Density} bind def
/Pattern2 {0.500 Density} bind def
/Pattern3 {0.750 Density} bind def
/Pattern4 {0.125 Density} bind def
/Pattern5 {0.375 Density} bind def
/Pattern6 {0.625 Density} bind def
/Pattern7 {0.875 Density} bind def
} def
%
% Now test for support of Level 2 code
%
Level1 {Level1PatternFill} {Level2PatternFill} ifelse
%
/Symbol-Oblique /Symbol findfont [1 0 .167 1 0 0] makefont
dup length dict begin {1 index /FID eq {pop pop} {def} ifelse} forall
currentdict end definefont pop
%
/Metrics {ExtendTextBox Gswidth} def
/Lwidth {currentpoint stroke M 0 vshift R Metrics} def
/Rwidth {currentpoint stroke M dup stringwidth pop neg vshift R Metrics} def
/Cwidth {currentpoint stroke M dup stringwidth pop -2 div vshift R Metrics} def
/GLwidth {currentpoint stroke M 0 vshift R {ExtendTextBox} forall} def
/GRwidth {currentpoint stroke M dup Gwidth vshift R {ExtendTextBox} forall} def
/GCwidth {currentpoint stroke M dup Gwidth 2 div vshift R {ExtendTextBox} forall} def
/GLwidth2 {0 Gwidth AddGlyphWidth} def
/GRwidth2 {Gwidth -1 mul 0 AddGlyphWidth} def
/GCwidth2 {Gwidth 2 div dup -1 mul AddGlyphWidth} def
/AddGlyphWidth { dup TBx2 gt {userdict /TBx2 3 -1 roll put} {pop} ifelse
                 dup TBx1 lt {userdict /TBx1 3 -1 roll put} {pop} ifelse } def
/MFshow {
   { dup 5 get 3 ge
     { 5 get 3 eq {gsave} {grestore} ifelse }
     {dup dup 0 get findfont exch 1 get scalefont setfont
     [ currentpoint ] exch dup 2 get 0 exch R dup 5 get 2 ne {dup dup 6
     get exch 4 get {textshow} {Metrics pop 0 R} ifelse }if dup 5 get 0 eq
     {dup 3 get {2 get neg 0 exch R pop} {pop aload pop M} ifelse} {dup 5
     get 1 eq {dup 2 get exch dup 3 get exch 6 get Gswidth pop -2 div
     dup 0 R} {dup 6 get Gswidth pop -2 div 0 R 6 get
     textshow 2 index {aload pop M neg 3 -1 roll neg R pop pop} {pop pop pop
     pop aload pop M} ifelse }ifelse }ifelse }
     ifelse }
   forall} def
/Gswidth {dup type /stringtype eq {stringwidth} {pop (n) stringwidth} ifelse} def
/MFwidth {0 exch { dup 5 get 3 ge { 5 get 3 eq { 0 } { pop } ifelse }
 {dup 3 get{dup dup 0 get findfont exch 1 get scalefont setfont
     6 get Gswidth pop add} {pop} ifelse} ifelse} forall} def
/MLshow { currentpoint stroke M
  0 exch R
  Blacktext {gsave 0 setgray MFshow grestore} {MFshow} ifelse } bind def
/MRshow { currentpoint stroke M
  exch dup MFwidth neg 3 -1 roll R
  Blacktext {gsave 0 setgray MFshow grestore} {MFshow} ifelse } bind def
/MCshow { currentpoint stroke M
  exch dup MFwidth -2 div 3 -1 roll R
  Blacktext {gsave 0 setgray MFshow grestore} {MFshow} ifelse } bind def
/XYsave    { [( ) 1 2 true false 3 ()] } bind def
/XYrestore { [( ) 1 2 true false 4 ()] } bind def
Level1 SuppressPDFMark or 
{} {
/SDict 10 dict def
systemdict /pdfmark known not {
  userdict /pdfmark systemdict /cleartomark get put
} if
SDict begin [
  /Title (Results.daisy.v100/Run.001/FLOPS.064/GPU_Blocks.0320/GPU_Threads.0512/graph2.ps)
  /Subject (gnuplot plot)
  /Creator (gnuplot 5.2 patchlevel 7)
%  /Producer (gnuplot)
%  /Keywords ()
  /CreationDate (Sun Jan 19 15:22:13 2020)
  /DOCINFO pdfmark
end
} ifelse
%
% Support for boxed text - Ethan A Merritt Sep 2016
%
/InitTextBox { userdict /TBy2 3 -1 roll put userdict /TBx2 3 -1 roll put
           userdict /TBy1 3 -1 roll put userdict /TBx1 3 -1 roll put
	   /Boxing true def } def
/ExtendTextBox { dup type /stringtype eq
    { Boxing { gsave dup false charpath pathbbox
      dup TBy2 gt {userdict /TBy2 3 -1 roll put} {pop} ifelse
      dup TBx2 gt {userdict /TBx2 3 -1 roll put} {pop} ifelse
      dup TBy1 lt {userdict /TBy1 3 -1 roll put} {pop} ifelse
      dup TBx1 lt {userdict /TBx1 3 -1 roll put} {pop} ifelse
      grestore } if }
    {} ifelse} def
/PopTextBox { newpath TBx1 TBxmargin sub TBy1 TBymargin sub M
               TBx1 TBxmargin sub TBy2 TBymargin add L
	       TBx2 TBxmargin add TBy2 TBymargin add L
	       TBx2 TBxmargin add TBy1 TBymargin sub L closepath } def
/DrawTextBox { PopTextBox stroke /Boxing false def} def
/FillTextBox { gsave PopTextBox fill grestore /Boxing false def} def
0 0 0 0 InitTextBox
/TBxmargin 20 def
/TBymargin 20 def
/Boxing false def
/textshow { ExtendTextBox Gshow } def
%
end
%%EndProlog
%%Page: 1 1
gnudict begin
gsave
doclip
50 50 translate
0.100 0.100 scale
90 rotate
0 -5040 translate
0 setgray
newpath
(Helvetica) findfont 140 scalefont setfont
BackgroundColor 0 lt 3 1 roll 0 lt exch 0 lt or or not {gsave BackgroundColor C clippath fill grestore} if
1.000 UL
LTb
LCb setrgbcolor
1.000 UL
LTa
LCa setrgbcolor
770 448 M
6107 0 V
stroke
LTb
LCb setrgbcolor
770 448 M
63 0 V
6044 0 R
-63 0 V
stroke
686 448 M
[ [(Helvetica) 140.0 0.0 true true 0 (1e-02)]
] -46.7 MRshow
/Helvetica findfont 140 scalefont setfont
/vshift -46 def
1.000 UL
LTb
LCb setrgbcolor
1.000 UL
LTa
LCa setrgbcolor
770 657 M
6107 0 V
stroke
LTb
LCb setrgbcolor
770 657 M
31 0 V
6076 0 R
-31 0 V
stroke
LTa
LCa setrgbcolor
770 780 M
6107 0 V
stroke
LTb
LCb setrgbcolor
770 780 M
31 0 V
6076 0 R
-31 0 V
stroke
LTa
LCa setrgbcolor
770 867 M
6107 0 V
stroke
LTb
LCb setrgbcolor
770 867 M
31 0 V
6076 0 R
-31 0 V
stroke
LTa
LCa setrgbcolor
770 934 M
6107 0 V
stroke
LTb
LCb setrgbcolor
770 934 M
31 0 V
6076 0 R
-31 0 V
stroke
LTa
LCa setrgbcolor
770 989 M
6107 0 V
stroke
LTb
LCb setrgbcolor
770 989 M
31 0 V
6076 0 R
-31 0 V
stroke
LTa
LCa setrgbcolor
770 1035 M
6107 0 V
stroke
LTb
LCb setrgbcolor
770 1035 M
31 0 V
6076 0 R
-31 0 V
stroke
LTa
LCa setrgbcolor
770 1076 M
6107 0 V
stroke
LTb
LCb setrgbcolor
770 1076 M
31 0 V
6076 0 R
-31 0 V
stroke
LTa
LCa setrgbcolor
770 1111 M
6107 0 V
stroke
LTb
LCb setrgbcolor
770 1111 M
31 0 V
6076 0 R
-31 0 V
stroke
LTa
LCa setrgbcolor
770 1143 M
6107 0 V
stroke
LTb
LCb setrgbcolor
770 1143 M
63 0 V
6044 0 R
-63 0 V
stroke
686 1143 M
[ [(Helvetica) 140.0 0.0 true true 0 (1e-01)]
] -46.7 MRshow
/Helvetica findfont 140 scalefont setfont
1.000 UL
LTb
LCb setrgbcolor
1.000 UL
LTa
LCa setrgbcolor
770 1352 M
6107 0 V
stroke
LTb
LCb setrgbcolor
770 1352 M
31 0 V
6076 0 R
-31 0 V
stroke
LTa
LCa setrgbcolor
770 1475 M
6107 0 V
stroke
LTb
LCb setrgbcolor
770 1475 M
31 0 V
6076 0 R
-31 0 V
stroke
LTa
LCa setrgbcolor
770 1562 M
6107 0 V
stroke
LTb
LCb setrgbcolor
770 1562 M
31 0 V
6076 0 R
-31 0 V
stroke
LTa
LCa setrgbcolor
770 1629 M
6107 0 V
stroke
LTb
LCb setrgbcolor
770 1629 M
31 0 V
6076 0 R
-31 0 V
stroke
LTa
LCa setrgbcolor
770 1684 M
6107 0 V
stroke
LTb
LCb setrgbcolor
770 1684 M
31 0 V
6076 0 R
-31 0 V
stroke
LTa
LCa setrgbcolor
770 1731 M
6107 0 V
stroke
LTb
LCb setrgbcolor
770 1731 M
31 0 V
6076 0 R
-31 0 V
stroke
LTa
LCa setrgbcolor
770 1771 M
6107 0 V
stroke
LTb
LCb setrgbcolor
770 1771 M
31 0 V
6076 0 R
-31 0 V
stroke
LTa
LCa setrgbcolor
770 1807 M
6107 0 V
stroke
LTb
LCb setrgbcolor
770 1807 M
31 0 V
6076 0 R
-31 0 V
stroke
LTa
LCa setrgbcolor
770 1838 M
6107 0 V
stroke
LTb
LCb setrgbcolor
770 1838 M
63 0 V
6044 0 R
-63 0 V
stroke
686 1838 M
[ [(Helvetica) 140.0 0.0 true true 0 (1e+00)]
] -46.7 MRshow
/Helvetica findfont 140 scalefont setfont
1.000 UL
LTb
LCb setrgbcolor
1.000 UL
LTa
LCa setrgbcolor
770 2048 M
6107 0 V
stroke
LTb
LCb setrgbcolor
770 2048 M
31 0 V
6076 0 R
-31 0 V
stroke
LTa
LCa setrgbcolor
770 2170 M
6107 0 V
stroke
LTb
LCb setrgbcolor
770 2170 M
31 0 V
6076 0 R
-31 0 V
stroke
LTa
LCa setrgbcolor
770 2257 M
6107 0 V
stroke
LTb
LCb setrgbcolor
770 2257 M
31 0 V
6076 0 R
-31 0 V
stroke
LTa
LCa setrgbcolor
770 2324 M
6107 0 V
stroke
LTb
LCb setrgbcolor
770 2324 M
31 0 V
6076 0 R
-31 0 V
stroke
LTa
LCa setrgbcolor
770 2379 M
6107 0 V
stroke
LTb
LCb setrgbcolor
770 2379 M
31 0 V
6076 0 R
-31 0 V
stroke
LTa
LCa setrgbcolor
770 2426 M
6107 0 V
stroke
LTb
LCb setrgbcolor
770 2426 M
31 0 V
6076 0 R
-31 0 V
stroke
LTa
LCa setrgbcolor
770 2466 M
6107 0 V
stroke
LTb
LCb setrgbcolor
770 2466 M
31 0 V
6076 0 R
-31 0 V
stroke
LTa
LCa setrgbcolor
770 2502 M
6107 0 V
stroke
LTb
LCb setrgbcolor
770 2502 M
31 0 V
6076 0 R
-31 0 V
stroke
LTa
LCa setrgbcolor
770 2534 M
6107 0 V
stroke
LTb
LCb setrgbcolor
770 2534 M
63 0 V
6044 0 R
-63 0 V
stroke
686 2534 M
[ [(Helvetica) 140.0 0.0 true true 0 (1e+01)]
] -46.7 MRshow
/Helvetica findfont 140 scalefont setfont
1.000 UL
LTb
LCb setrgbcolor
1.000 UL
LTa
LCa setrgbcolor
770 2743 M
6107 0 V
stroke
LTb
LCb setrgbcolor
770 2743 M
31 0 V
6076 0 R
-31 0 V
stroke
LTa
LCa setrgbcolor
770 2865 M
6107 0 V
stroke
LTb
LCb setrgbcolor
770 2865 M
31 0 V
6076 0 R
-31 0 V
stroke
LTa
LCa setrgbcolor
770 2952 M
6107 0 V
stroke
LTb
LCb setrgbcolor
770 2952 M
31 0 V
6076 0 R
-31 0 V
stroke
LTa
LCa setrgbcolor
770 3019 M
6107 0 V
stroke
LTb
LCb setrgbcolor
770 3019 M
31 0 V
6076 0 R
-31 0 V
stroke
LTa
LCa setrgbcolor
770 3074 M
6107 0 V
stroke
LTb
LCb setrgbcolor
770 3074 M
31 0 V
6076 0 R
-31 0 V
stroke
LTa
LCa setrgbcolor
770 3121 M
6107 0 V
stroke
LTb
LCb setrgbcolor
770 3121 M
31 0 V
6076 0 R
-31 0 V
stroke
LTa
LCa setrgbcolor
770 3161 M
6107 0 V
stroke
LTb
LCb setrgbcolor
770 3161 M
31 0 V
6076 0 R
-31 0 V
stroke
LTa
LCa setrgbcolor
770 3197 M
6107 0 V
stroke
LTb
LCb setrgbcolor
770 3197 M
31 0 V
6076 0 R
-31 0 V
stroke
LTa
LCa setrgbcolor
770 3229 M
6107 0 V
stroke
LTb
LCb setrgbcolor
770 3229 M
63 0 V
6044 0 R
-63 0 V
stroke
686 3229 M
[ [(Helvetica) 140.0 0.0 true true 0 (1e+02)]
] -46.7 MRshow
/Helvetica findfont 140 scalefont setfont
1.000 UL
LTb
LCb setrgbcolor
1.000 UL
LTa
LCa setrgbcolor
770 3438 M
6107 0 V
stroke
LTb
LCb setrgbcolor
770 3438 M
31 0 V
6076 0 R
-31 0 V
stroke
LTa
LCa setrgbcolor
770 3560 M
6107 0 V
stroke
LTb
LCb setrgbcolor
770 3560 M
31 0 V
6076 0 R
-31 0 V
stroke
LTa
LCa setrgbcolor
770 3647 M
6107 0 V
stroke
LTb
LCb setrgbcolor
770 3647 M
31 0 V
6076 0 R
-31 0 V
stroke
LTa
LCa setrgbcolor
770 3715 M
6107 0 V
stroke
LTb
LCb setrgbcolor
770 3715 M
31 0 V
6076 0 R
-31 0 V
stroke
LTa
LCa setrgbcolor
770 3770 M
6107 0 V
stroke
LTb
LCb setrgbcolor
770 3770 M
31 0 V
6076 0 R
-31 0 V
stroke
LTa
LCa setrgbcolor
770 3816 M
6107 0 V
stroke
LTb
LCb setrgbcolor
770 3816 M
31 0 V
6076 0 R
-31 0 V
stroke
LTa
LCa setrgbcolor
770 3856 M
6107 0 V
stroke
LTb
LCb setrgbcolor
770 3856 M
31 0 V
6076 0 R
-31 0 V
stroke
LTa
LCa setrgbcolor
770 3892 M
6107 0 V
stroke
LTb
LCb setrgbcolor
770 3892 M
31 0 V
6076 0 R
-31 0 V
stroke
LTa
LCa setrgbcolor
770 3924 M
6107 0 V
stroke
LTb
LCb setrgbcolor
770 3924 M
63 0 V
6044 0 R
-63 0 V
stroke
686 3924 M
[ [(Helvetica) 140.0 0.0 true true 0 (1e+03)]
] -46.7 MRshow
/Helvetica findfont 140 scalefont setfont
1.000 UL
LTb
LCb setrgbcolor
1.000 UL
LTa
LCa setrgbcolor
770 4133 M
6107 0 V
stroke
LTb
LCb setrgbcolor
770 4133 M
31 0 V
6076 0 R
-31 0 V
stroke
LTa
LCa setrgbcolor
770 4256 M
6107 0 V
stroke
LTb
LCb setrgbcolor
770 4256 M
31 0 V
6076 0 R
-31 0 V
stroke
LTa
LCa setrgbcolor
770 4342 M
6107 0 V
stroke
LTb
LCb setrgbcolor
770 4342 M
31 0 V
6076 0 R
-31 0 V
stroke
LTa
LCa setrgbcolor
770 4410 M
6107 0 V
stroke
LTb
LCb setrgbcolor
770 4410 M
31 0 V
6076 0 R
-31 0 V
stroke
LTa
LCa setrgbcolor
770 4465 M
6107 0 V
stroke
LTb
LCb setrgbcolor
770 4465 M
31 0 V
6076 0 R
-31 0 V
stroke
LTa
LCa setrgbcolor
770 4511 M
6107 0 V
stroke
LTb
LCb setrgbcolor
770 4511 M
31 0 V
6076 0 R
-31 0 V
stroke
LTa
LCa setrgbcolor
770 4552 M
6107 0 V
stroke
LTb
LCb setrgbcolor
770 4552 M
31 0 V
6076 0 R
-31 0 V
stroke
LTa
LCa setrgbcolor
770 4587 M
6107 0 V
stroke
LTb
LCb setrgbcolor
770 4587 M
31 0 V
6076 0 R
-31 0 V
stroke
LTa
LCa setrgbcolor
770 4619 M
6107 0 V
stroke
LTb
LCb setrgbcolor
770 4619 M
63 0 V
6044 0 R
-63 0 V
stroke
686 4619 M
[ [(Helvetica) 140.0 0.0 true true 0 (1e+04)]
] -46.7 MRshow
/Helvetica findfont 140 scalefont setfont
1.000 UL
LTb
LCb setrgbcolor
1.000 UL
LTa
LCa setrgbcolor
1067 448 M
0 4171 V
stroke
LTb
LCb setrgbcolor
1067 448 M
0 31 V
0 4140 R
0 -31 V
stroke
LTa
LCa setrgbcolor
1246 448 M
0 4171 V
stroke
LTb
LCb setrgbcolor
1246 448 M
0 31 V
0 4140 R
0 -31 V
stroke
LTa
LCa setrgbcolor
1374 448 M
0 4171 V
stroke
LTb
LCb setrgbcolor
1374 448 M
0 31 V
0 4140 R
0 -31 V
stroke
LTa
LCa setrgbcolor
1473 448 M
0 4171 V
stroke
LTb
LCb setrgbcolor
1473 448 M
0 31 V
0 4140 R
0 -31 V
stroke
LTa
LCa setrgbcolor
1553 448 M
0 4171 V
stroke
LTb
LCb setrgbcolor
1553 448 M
0 31 V
0 4140 R
0 -31 V
stroke
LTa
LCa setrgbcolor
1622 448 M
0 4171 V
stroke
LTb
LCb setrgbcolor
1622 448 M
0 31 V
0 4140 R
0 -31 V
stroke
LTa
LCa setrgbcolor
1681 448 M
0 4171 V
stroke
LTb
LCb setrgbcolor
1681 448 M
0 31 V
0 4140 R
0 -31 V
stroke
LTa
LCa setrgbcolor
1733 448 M
0 4171 V
stroke
LTb
LCb setrgbcolor
1733 448 M
0 31 V
0 4140 R
0 -31 V
stroke
LTa
LCa setrgbcolor
1780 448 M
0 4171 V
stroke
LTb
LCb setrgbcolor
1780 448 M
0 63 V
0 4108 R
0 -63 V
stroke
1780 308 M
[ [(Helvetica) 140.0 0.0 true true 0 (1e+04)]
] -46.7 MCshow
/Helvetica findfont 140 scalefont setfont
1.000 UL
LTb
LCb setrgbcolor
1.000 UL
LTa
LCa setrgbcolor
2087 448 M
0 4171 V
stroke
LTb
LCb setrgbcolor
2087 448 M
0 31 V
0 4140 R
0 -31 V
stroke
LTa
LCa setrgbcolor
2266 448 M
0 4171 V
stroke
LTb
LCb setrgbcolor
2266 448 M
0 31 V
0 4140 R
0 -31 V
stroke
LTa
LCa setrgbcolor
2394 448 M
0 4171 V
stroke
LTb
LCb setrgbcolor
2394 448 M
0 31 V
0 4140 R
0 -31 V
stroke
LTa
LCa setrgbcolor
2493 448 M
0 4171 V
stroke
LTb
LCb setrgbcolor
2493 448 M
0 31 V
0 4140 R
0 -31 V
stroke
LTa
LCa setrgbcolor
2573 448 M
0 4171 V
stroke
LTb
LCb setrgbcolor
2573 448 M
0 31 V
0 4140 R
0 -31 V
stroke
LTa
LCa setrgbcolor
2642 448 M
0 4171 V
stroke
LTb
LCb setrgbcolor
2642 448 M
0 31 V
0 4140 R
0 -31 V
stroke
LTa
LCa setrgbcolor
2701 448 M
0 4171 V
stroke
LTb
LCb setrgbcolor
2701 448 M
0 31 V
0 4140 R
0 -31 V
stroke
LTa
LCa setrgbcolor
2753 448 M
0 4171 V
stroke
LTb
LCb setrgbcolor
2753 448 M
0 31 V
0 4140 R
0 -31 V
stroke
LTa
LCa setrgbcolor
2800 448 M
0 4171 V
stroke
LTb
LCb setrgbcolor
2800 448 M
0 63 V
0 4108 R
0 -63 V
stroke
2800 308 M
[ [(Helvetica) 140.0 0.0 true true 0 (1e+05)]
] -46.7 MCshow
/Helvetica findfont 140 scalefont setfont
1.000 UL
LTb
LCb setrgbcolor
1.000 UL
LTa
LCa setrgbcolor
3107 448 M
0 4171 V
stroke
LTb
LCb setrgbcolor
3107 448 M
0 31 V
0 4140 R
0 -31 V
stroke
LTa
LCa setrgbcolor
3286 448 M
0 4171 V
stroke
LTb
LCb setrgbcolor
3286 448 M
0 31 V
0 4140 R
0 -31 V
stroke
LTa
LCa setrgbcolor
3414 448 M
0 4171 V
stroke
LTb
LCb setrgbcolor
3414 448 M
0 31 V
0 4140 R
0 -31 V
stroke
LTa
LCa setrgbcolor
3513 448 M
0 4171 V
stroke
LTb
LCb setrgbcolor
3513 448 M
0 31 V
0 4140 R
0 -31 V
stroke
LTa
LCa setrgbcolor
3593 448 M
0 4171 V
stroke
LTb
LCb setrgbcolor
3593 448 M
0 31 V
0 4140 R
0 -31 V
stroke
LTa
LCa setrgbcolor
3662 448 M
0 4171 V
stroke
LTb
LCb setrgbcolor
3662 448 M
0 31 V
0 4140 R
0 -31 V
stroke
LTa
LCa setrgbcolor
3721 448 M
0 4171 V
stroke
LTb
LCb setrgbcolor
3721 448 M
0 31 V
0 4140 R
0 -31 V
stroke
LTa
LCa setrgbcolor
3773 448 M
0 4171 V
stroke
LTb
LCb setrgbcolor
3773 448 M
0 31 V
0 4140 R
0 -31 V
stroke
LTa
LCa setrgbcolor
3820 448 M
0 4171 V
stroke
LTb
LCb setrgbcolor
3820 448 M
0 63 V
0 4108 R
0 -63 V
stroke
3820 308 M
[ [(Helvetica) 140.0 0.0 true true 0 (1e+06)]
] -46.7 MCshow
/Helvetica findfont 140 scalefont setfont
1.000 UL
LTb
LCb setrgbcolor
1.000 UL
LTa
LCa setrgbcolor
4127 448 M
0 4171 V
stroke
LTb
LCb setrgbcolor
4127 448 M
0 31 V
0 4140 R
0 -31 V
stroke
LTa
LCa setrgbcolor
4306 448 M
0 4171 V
stroke
LTb
LCb setrgbcolor
4306 448 M
0 31 V
0 4140 R
0 -31 V
stroke
LTa
LCa setrgbcolor
4434 448 M
0 4171 V
stroke
LTb
LCb setrgbcolor
4434 448 M
0 31 V
0 4140 R
0 -31 V
stroke
LTa
LCa setrgbcolor
4533 448 M
0 4171 V
stroke
LTb
LCb setrgbcolor
4533 448 M
0 31 V
0 4140 R
0 -31 V
stroke
LTa
LCa setrgbcolor
4614 448 M
0 4171 V
stroke
LTb
LCb setrgbcolor
4614 448 M
0 31 V
0 4140 R
0 -31 V
stroke
LTa
LCa setrgbcolor
4682 448 M
0 4171 V
stroke
LTb
LCb setrgbcolor
4682 448 M
0 31 V
0 4140 R
0 -31 V
stroke
LTa
LCa setrgbcolor
4741 448 M
0 4171 V
stroke
LTb
LCb setrgbcolor
4741 448 M
0 31 V
0 4140 R
0 -31 V
stroke
LTa
LCa setrgbcolor
4793 448 M
0 4171 V
stroke
LTb
LCb setrgbcolor
4793 448 M
0 31 V
0 4140 R
0 -31 V
stroke
LTa
LCa setrgbcolor
4840 448 M
0 4171 V
stroke
LTb
LCb setrgbcolor
4840 448 M
0 63 V
0 4108 R
0 -63 V
stroke
4840 308 M
[ [(Helvetica) 140.0 0.0 true true 0 (1e+07)]
] -46.7 MCshow
/Helvetica findfont 140 scalefont setfont
1.000 UL
LTb
LCb setrgbcolor
1.000 UL
LTa
LCa setrgbcolor
5147 448 M
0 4171 V
stroke
LTb
LCb setrgbcolor
5147 448 M
0 31 V
0 4140 R
0 -31 V
stroke
LTa
LCa setrgbcolor
5327 448 M
0 4171 V
stroke
LTb
LCb setrgbcolor
5327 448 M
0 31 V
0 4140 R
0 -31 V
stroke
LTa
LCa setrgbcolor
5454 448 M
0 4171 V
stroke
LTb
LCb setrgbcolor
5454 448 M
0 31 V
0 4140 R
0 -31 V
stroke
LTa
LCa setrgbcolor
5553 448 M
0 4171 V
stroke
LTb
LCb setrgbcolor
5553 448 M
0 31 V
0 4140 R
0 -31 V
stroke
LTa
LCa setrgbcolor
5634 448 M
0 4171 V
stroke
LTb
LCb setrgbcolor
5634 448 M
0 31 V
0 4140 R
0 -31 V
stroke
LTa
LCa setrgbcolor
5702 448 M
0 4171 V
stroke
LTb
LCb setrgbcolor
5702 448 M
0 31 V
0 4140 R
0 -31 V
stroke
LTa
LCa setrgbcolor
5761 448 M
0 4171 V
stroke
LTb
LCb setrgbcolor
5761 448 M
0 31 V
0 4140 R
0 -31 V
stroke
LTa
LCa setrgbcolor
5813 448 M
0 4171 V
stroke
LTb
LCb setrgbcolor
5813 448 M
0 31 V
0 4140 R
0 -31 V
stroke
LTa
LCa setrgbcolor
5860 448 M
0 4171 V
stroke
LTb
LCb setrgbcolor
5860 448 M
0 63 V
0 4108 R
0 -63 V
stroke
5860 308 M
[ [(Helvetica) 140.0 0.0 true true 0 (1e+08)]
] -46.7 MCshow
/Helvetica findfont 140 scalefont setfont
1.000 UL
LTb
LCb setrgbcolor
1.000 UL
LTa
LCa setrgbcolor
6167 448 M
0 4171 V
stroke
LTb
LCb setrgbcolor
6167 448 M
0 31 V
0 4140 R
0 -31 V
stroke
LTa
LCa setrgbcolor
6347 448 M
0 4171 V
stroke
LTb
LCb setrgbcolor
6347 448 M
0 31 V
0 4140 R
0 -31 V
stroke
LTa
LCa setrgbcolor
6474 448 M
0 4171 V
stroke
LTb
LCb setrgbcolor
6474 448 M
0 31 V
0 4140 R
0 -31 V
stroke
LTa
LCa setrgbcolor
6573 448 M
0 4171 V
stroke
LTb
LCb setrgbcolor
6573 448 M
0 31 V
0 4140 R
0 -31 V
stroke
LTa
LCa setrgbcolor
6654 448 M
0 4171 V
stroke
LTb
LCb setrgbcolor
6654 448 M
0 31 V
0 4140 R
0 -31 V
stroke
LTa
LCa setrgbcolor
6722 448 M
0 4171 V
stroke
LTb
LCb setrgbcolor
6722 448 M
0 31 V
0 4140 R
0 -31 V
stroke
LTa
LCa setrgbcolor
6781 448 M
0 4171 V
stroke
LTb
LCb setrgbcolor
6781 448 M
0 31 V
0 4140 R
0 -31 V
stroke
LTa
LCa setrgbcolor
6833 448 M
0 4171 V
stroke
LTb
LCb setrgbcolor
6833 448 M
0 31 V
0 4140 R
0 -31 V
stroke
LTa
LCa setrgbcolor
6880 448 M
0 4171 V
stroke
LTb
LCb setrgbcolor
1.000 UL
LTB
LCb setrgbcolor
770 4619 N
770 448 L
6107 0 V
0 4171 V
-6107 0 V
Z stroke
1.000 UP
1.000 UL
LTb
LCb setrgbcolor
LCb setrgbcolor
196 2533 M
currentpoint gsave translate -270 rotate 0 0 moveto
[ [(Helvetica) 140.0 0.0 true true 0 (Total Bandwidth \(GB/s\))]
] -46.7 MCshow
grestore
/Helvetica findfont 140 scalefont setfont
LTb
LCb setrgbcolor
LTb
LCb setrgbcolor
3823 98 M
[ [(Helvetica) 140.0 0.0 true true 0 (Working Set Size \(bytes\))]
] -46.7 MCshow
/Helvetica findfont 140 scalefont setfont
LTb
LCb setrgbcolor
3823 4829 M
[ [(Helvetica) 140.0 0.0 true true 0 (Graph 2 \(Results.daisy.v100/Run.001/FLOPS.064/GPU)]
[(Helvetica) 112.0 -42.0 true true 0 (B)]
[(Helvetica) 140.0 0.0 true true 0 (locks.0320/GPU)]
[(Helvetica) 112.0 -42.0 true true 0 (T)]
[(Helvetica) 140.0 0.0 true true 0 (hreads.0512\))]
] -32.7 MCshow
/Helvetica findfont 140 scalefont setfont
LTb
LCb setrgbcolor
LTb
LCb setrgbcolor
% Begin plot #1
0.400 UP
1.000 UL
LTb
0.58 0.00 0.83 C
770 1089 M
0 458 V
0 197 V
0 209 V
0 130 V
0 140 V
0 85 V
0 51 V
0 11 V
0 -7 V
0 23 V
0 5 V
0 -3 V
0 3 V
0 1 V
0 5 V
0 9 V
810 1134 M
0 431 V
0 224 V
0 186 V
0 145 V
0 125 V
0 88 V
0 43 V
0 22 V
0 26 V
0 -10 V
0 4 V
0 -2 V
0 3 V
0 -1 V
0 1 V
0 1 V
852 1181 M
0 418 V
0 224 V
0 173 V
0 159 V
0 109 V
0 91 V
0 45 V
0 38 V
0 -4 V
0 -3 V
0 15 V
0 -3 V
0 3 V
0 1 V
893 1188 M
0 437 V
0 221 V
0 174 V
0 143 V
0 138 V
0 80 V
0 52 V
0 34 V
0 -6 V
0 14 V
0 -2 V
0 2 V
0 1 V
0 1 V
0 -1 V
933 1237 M
0 441 V
0 198 V
0 182 V
0 147 V
0 120 V
0 70 V
0 43 V
0 56 V
0 -14 V
0 15 V
0 4 V
0 -2 V
0 5 V
974 1255 M
0 445 V
0 159 V
0 199 V
0 168 V
0 118 V
0 85 V
0 66 V
0 -7 V
0 30 V
0 -3 V
0 14 V
0 -1 V
0 3 V
0 -1 V
0 1 V
0 1 V
42 -1261 R
0 411 V
0 254 V
0 169 V
0 157 V
0 114 V
0 93 V
0 52 V
0 5 V
0 29 V
0 -12 V
0 16 V
0 -1 V
0 -2 V
0 1 V
0 1 V
0 1 V
42 -1233 R
0 403 V
0 225 V
0 189 V
0 155 V
0 97 V
0 99 V
0 54 V
0 23 V
0 -13 V
0 13 V
0 16 V
0 -2 V
0 1 V
0 1 V
41 -1246 R
0 437 V
0 214 V
0 159 V
0 149 V
0 116 V
0 85 V
0 52 V
0 20 V
0 17 V
0 -14 V
0 10 V
0 3 V
0 2 V
0 1 V
0 1 V
0 -1 V
0 1 V
41 -1216 R
0 376 V
0 246 V
0 163 V
0 153 V
0 122 V
0 81 V
0 52 V
0 9 V
0 20 V
0 4 V
0 7 V
0 2 V
41 -1206 R
0 420 V
0 220 V
0 168 V
0 150 V
0 111 V
0 73 V
0 50 V
0 20 V
0 7 V
0 14 V
0 -3 V
0 3 V
0 1 V
0 1 V
42 -1208 R
0 428 V
0 201 V
0 186 V
0 143 V
0 114 V
0 69 V
0 54 V
0 3 V
0 19 V
0 6 V
0 7 V
0 2 V
0 2 V
0 2 V
42 -1214 R
0 431 V
0 195 V
0 171 V
0 107 V
0 142 V
0 61 V
0 46 V
0 19 V
0 9 V
0 8 V
0 3 V
0 -1 V
0 2 V
0 1 V
42 -1177 R
0 439 V
0 185 V
0 186 V
0 139 V
0 108 V
0 67 V
0 42 V
0 24 V
0 -12 V
0 10 V
0 12 V
0 2 V
0 2 V
42 -1139 R
0 420 V
0 189 V
0 155 V
0 154 V
0 108 V
0 61 V
0 41 V
0 25 V
0 11 V
0 -10 V
0 11 V
0 1 V
0 1 V
0 1 V
42 -1155 R
0 423 V
0 198 V
0 173 V
0 138 V
0 104 V
0 71 V
0 38 V
0 7 V
0 8 V
0 9 V
0 11 V
0 1 V
0 1 V
0 1 V
0 1 V
42 -1138 R
0 404 V
stroke 1433 2000 M
0 211 V
0 153 V
0 148 V
0 100 V
0 67 V
0 45 V
0 23 V
0 12 V
0 -9 V
0 9 V
0 1 V
0 1 V
0 1 V
42 -1170 R
0 450 V
0 175 V
0 192 V
0 129 V
0 105 V
0 69 V
0 38 V
0 27 V
0 10 V
0 -9 V
0 10 V
0 2 V
0 1 V
42 -1119 R
0 404 V
0 180 V
0 166 V
0 142 V
0 106 V
0 70 V
0 41 V
0 24 V
0 10 V
0 -10 V
0 11 V
0 1 V
0 1 V
0 1 V
42 -1178 R
0 437 V
0 202 V
0 168 V
0 148 V
0 103 V
0 71 V
0 40 V
0 33 V
0 -10 V
0 11 V
0 1 V
0 2 V
0 1 V
42 -1156 R
0 428 V
0 205 V
0 161 V
0 135 V
0 100 V
0 74 V
0 43 V
0 23 V
0 4 V
0 6 V
0 2 V
0 1 V
0 1 V
0 1 V
0 1 V
42 -1144 R
0 424 V
0 181 V
0 165 V
0 147 V
0 107 V
0 70 V
0 24 V
0 34 V
0 2 V
0 8 V
0 7 V
0 1 V
0 1 V
0 1 V
42 -1151 R
0 429 V
0 140 V
0 212 V
0 140 V
0 105 V
0 73 V
0 42 V
0 1 V
0 32 V
0 -10 V
0 11 V
0 1 V
0 1 V
0 1 V
42 -1144 R
0 421 V
0 183 V
0 161 V
0 156 V
0 102 V
0 67 V
0 30 V
0 31 V
0 3 V
0 9 V
0 5 V
0 3 V
0 1 V
0 1 V
0 -1 V
0 1 V
43 -1156 R
0 419 V
0 187 V
0 182 V
0 143 V
0 106 V
0 65 V
0 44 V
0 5 V
0 32 V
0 -10 V
0 9 V
0 1 V
0 1 V
0 1 V
42 -1151 R
0 422 V
0 208 V
0 162 V
0 133 V
0 106 V
0 69 V
0 30 V
0 28 V
0 3 V
0 3 V
0 12 V
0 2 V
0 1 V
42 -1174 R
0 432 V
0 202 V
0 167 V
0 150 V
0 98 V
0 60 V
0 38 V
0 21 V
0 12 V
0 10 V
0 10 V
0 1 V
0 1 V
0 1 V
42 -1166 R
0 440 V
0 186 V
0 181 V
0 133 V
0 101 V
0 63 V
0 55 V
0 9 V
0 4 V
0 10 V
0 10 V
0 1 V
0 1 V
0 1 V
42 -1140 R
0 417 V
0 200 V
0 164 V
0 138 V
0 99 V
0 61 V
0 31 V
0 26 V
0 7 V
0 12 V
0 11 V
0 1 V
0 -1 V
0 2 V
0 1 V
42 -1169 R
0 441 V
0 192 V
0 115 V
0 194 V
0 104 V
0 76 V
0 23 V
0 15 V
0 14 V
0 8 V
0 12 V
0 2 V
0 -1 V
0 1 V
0 1 V
42 -1173 R
0 438 V
0 198 V
0 174 V
0 140 V
0 99 V
0 62 V
0 37 V
0 22 V
0 9 V
0 7 V
0 10 V
0 4 V
0 1 V
0 1 V
42 -1127 R
0 411 V
0 175 V
0 188 V
0 119 V
0 108 V
0 73 V
0 31 V
0 30 V
0 2 V
0 4 V
0 11 V
0 2 V
0 1 V
0 -1 V
0 1 V
42 -1088 R
0 366 V
0 162 V
0 144 V
0 185 V
0 83 V
0 97 V
0 14 V
stroke 2106 3153 M
0 34 V
0 19 V
0 -1 V
0 11 V
0 1 V
0 1 V
0 1 V
43 -1167 R
0 435 V
0 185 V
0 186 V
0 132 V
0 111 V
0 65 V
0 25 V
0 22 V
0 10 V
0 10 V
0 11 V
0 1 V
0 1 V
0 1 V
0 1 V
42 -1097 R
0 365 V
0 194 V
0 181 V
0 134 V
0 103 V
0 72 V
0 25 V
0 29 V
0 1 V
0 7 V
0 11 V
0 2 V
0 1 V
42 -1088 R
0 346 V
0 205 V
0 179 V
0 139 V
0 99 V
0 65 V
0 42 V
0 18 V
0 3 V
0 7 V
0 12 V
0 1 V
0 1 V
42 -1145 R
0 424 V
0 180 V
0 179 V
0 145 V
0 97 V
0 69 V
0 36 V
0 29 V
0 1 V
0 -3 V
0 13 V
0 3 V
0 1 V
42 -1179 R
0 441 V
0 195 V
0 173 V
0 147 V
0 101 V
0 66 V
0 30 V
0 30 V
0 3 V
0 7 V
0 11 V
0 1 V
0 1 V
0 1 V
42 -1133 R
0 397 V
0 202 V
0 167 V
0 149 V
0 98 V
0 67 V
0 26 V
0 21 V
0 11 V
0 10 V
0 12 V
0 1 V
0 1 V
43 -1098 R
0 382 V
0 190 V
0 159 V
0 140 V
0 95 V
0 73 V
0 32 V
0 22 V
0 11 V
0 9 V
0 10 V
0 2 V
0 1 V
42 -1098 R
0 378 V
0 192 V
0 160 V
0 145 V
0 101 V
0 73 V
0 25 V
0 21 V
0 5 V
0 13 V
0 10 V
0 4 V
0 -1 V
0 2 V
42 -1146 R
0 421 V
0 200 V
0 156 V
0 150 V
0 98 V
0 71 V
0 22 V
0 32 V
0 3 V
0 7 V
0 12 V
0 1 V
0 1 V
42 -1090 R
0 373 V
0 194 V
0 158 V
0 149 V
0 89 V
0 78 V
0 28 V
0 14 V
0 15 V
0 6 V
0 12 V
0 2 V
0 1 V
42 -1069 R
0 344 V
0 195 V
0 162 V
0 145 V
0 102 V
0 56 V
0 53 V
0 9 V
0 6 V
0 11 V
0 9 V
0 4 V
0 2 V
42 -1086 R
0 354 V
0 201 V
0 160 V
0 155 V
0 92 V
0 75 V
0 38 V
0 4 V
0 23 V
0 -2 V
0 10 V
0 4 V
0 -1 V
0 1 V
43 -1177 R
0 450 V
0 188 V
0 183 V
0 37 V
0 193 V
0 58 V
0 47 V
0 18 V
0 11 V
0 7 V
0 11 V
0 1 V
0 1 V
42 -1185 R
0 445 V
0 202 V
0 175 V
0 136 V
0 99 V
0 76 V
0 45 V
0 -1 V
0 22 V
0 1 V
0 10 V
0 4 V
42 -1123 R
0 408 V
0 180 V
0 171 V
0 144 V
0 91 V
0 77 V
0 25 V
0 31 V
0 4 V
0 7 V
0 12 V
0 1 V
42 -1651 R
0 919 V
0 205 V
0 177 V
0 134 V
0 97 V
0 68 V
0 45 V
0 23 V
0 7 V
0 -8 V
0 10 V
0 3 V
0 1 V
43 -1111 R
0 379 V
0 189 V
0 186 V
0 135 V
0 87 V
0 64 V
0 42 V
0 22 V
0 11 V
0 10 V
0 11 V
0 3 V
42 -1108 R
0 384 V
stroke 2866 2982 M
0 196 V
0 170 V
0 140 V
0 101 V
0 67 V
0 22 V
0 22 V
0 11 V
0 10 V
0 11 V
0 2 V
0 1 V
42 -1108 R
0 371 V
0 210 V
0 171 V
0 111 V
0 129 V
0 63 V
0 44 V
0 4 V
0 18 V
0 1 V
0 11 V
0 3 V
0 1 V
42 -1120 R
0 395 V
0 197 V
0 177 V
0 129 V
0 102 V
0 70 V
0 23 V
0 30 V
0 4 V
0 8 V
0 11 V
0 1 V
42 -1129 R
0 415 V
0 176 V
0 174 V
0 100 V
0 146 V
0 65 V
0 25 V
0 24 V
0 11 V
0 9 V
0 12 V
0 1 V
43 -1111 R
0 397 V
0 192 V
0 166 V
0 129 V
0 102 V
0 73 V
0 39 V
0 7 V
0 17 V
0 5 V
0 11 V
0 2 V
42 -1166 R
0 446 V
0 186 V
0 149 V
0 134 V
0 126 V
0 61 V
0 52 V
0 5 V
0 22 V
0 1 V
0 10 V
0 2 V
42 -1139 R
0 418 V
0 202 V
0 139 V
0 155 V
0 96 V
0 78 V
0 30 V
0 19 V
0 11 V
0 8 V
0 10 V
0 2 V
42 -1121 R
0 406 V
0 177 V
0 183 V
0 124 V
0 112 V
0 68 V
0 26 V
0 31 V
0 5 V
0 8 V
0 9 V
43 -1110 R
0 397 V
0 178 V
0 175 V
0 141 V
0 100 V
0 60 V
0 52 V
0 22 V
0 2 V
0 12 V
0 1 V
42 -1116 R
0 403 V
0 190 V
0 152 V
0 149 V
0 103 V
0 65 V
0 23 V
0 32 V
0 3 V
0 11 V
0 10 V
42 -1116 R
0 401 V
0 182 V
0 172 V
0 136 V
0 109 V
0 64 V
0 33 V
0 17 V
0 12 V
0 9 V
0 11 V
42 -1133 R
0 396 V
0 177 V
0 144 V
0 101 V
0 77 V
0 44 V
0 25 V
0 14 V
0 8 V
0 3 V
0 1 V
42 -987 R
0 411 V
0 191 V
0 135 V
0 111 V
0 72 V
0 44 V
0 25 V
0 14 V
0 7 V
0 3 V
0 2 V
43 -1005 R
0 423 V
0 171 V
0 160 V
0 106 V
0 76 V
0 43 V
0 27 V
0 14 V
0 8 V
0 4 V
0 1 V
42 -938 R
0 364 V
0 185 V
0 140 V
0 108 V
0 75 V
0 41 V
0 29 V
0 13 V
0 7 V
0 4 V
42 -944 R
0 371 V
0 185 V
0 146 V
0 98 V
0 76 V
0 47 V
0 25 V
0 13 V
0 8 V
0 3 V
0 1 V
42 -953 R
0 394 V
0 171 V
0 140 V
0 102 V
0 80 V
0 42 V
0 29 V
0 13 V
0 7 V
0 3 V
43 -935 R
0 368 V
0 161 V
0 148 V
0 113 V
0 76 V
0 43 V
0 29 V
0 15 V
0 8 V
0 3 V
42 -950 R
0 340 V
0 208 V
0 145 V
0 112 V
0 76 V
0 43 V
0 30 V
0 14 V
0 7 V
0 4 V
42 -958 R
0 375 V
0 154 V
0 130 V
0 85 V
0 58 V
0 35 V
0 19 V
0 9 V
0 5 V
0 3 V
42 -837 R
0 364 V
0 159 V
0 128 V
0 86 V
0 59 V
0 34 V
stroke 3710 3983 M
0 18 V
0 10 V
0 5 V
0 2 V
42 -837 R
0 312 V
0 212 V
0 130 V
0 80 V
0 58 V
0 38 V
0 19 V
0 9 V
0 5 V
0 3 V
43 -864 R
0 397 V
0 160 V
0 119 V
0 86 V
0 60 V
0 34 V
0 19 V
0 10 V
0 5 V
0 3 V
42 -843 R
0 357 V
0 143 V
0 113 V
0 75 V
0 47 V
0 14 V
0 26 V
0 9 V
0 4 V
0 2 V
42 -755 R
0 347 V
0 149 V
0 110 V
0 75 V
0 47 V
0 27 V
0 14 V
0 9 V
0 3 V
42 -775 R
0 361 V
0 157 V
0 112 V
0 75 V
0 46 V
0 25 V
0 16 V
0 8 V
0 3 V
43 -771 R
0 352 V
0 127 V
0 112 V
0 63 V
0 39 V
0 21 V
0 13 V
0 6 V
0 2 V
42 -1186 R
0 817 V
0 131 V
0 119 V
0 67 V
0 34 V
0 25 V
0 14 V
0 6 V
0 3 V
42 -690 R
0 319 V
0 128 V
0 92 V
0 54 V
0 36 V
0 19 V
0 10 V
0 5 V
0 2 V
42 -646 R
0 330 V
0 122 V
0 97 V
0 53 V
0 28 V
0 28 V
0 10 V
0 5 V
0 2 V
42 -641 R
0 310 V
0 112 V
0 93 V
0 47 V
0 30 V
0 17 V
0 9 V
0 5 V
0 2 V
43 -616 R
0 326 V
0 114 V
0 88 V
0 52 V
0 34 V
0 14 V
0 10 V
0 5 V
42 -617 R
0 306 V
0 113 V
0 82 V
0 51 V
0 28 V
0 15 V
0 7 V
0 4 V
42 -605 R
0 319 V
0 98 V
0 87 V
0 42 V
0 30 V
0 14 V
0 5 V
0 4 V
42 -551 R
0 282 V
0 113 V
0 73 V
0 37 V
0 24 V
0 10 V
0 7 V
0 3 V
43 -562 R
0 332 V
0 105 V
0 63 V
0 47 V
0 24 V
0 11 V
0 6 V
0 3 V
42 -572 R
0 325 V
0 103 V
0 66 V
0 38 V
0 21 V
0 11 V
0 6 V
0 3 V
42 -516 R
0 284 V
0 81 V
0 63 V
0 33 V
0 18 V
0 9 V
0 5 V
0 2 V
42 -534 R
0 331 V
0 89 V
0 54 V
0 34 V
0 17 V
0 10 V
0 4 V
42 -445 R
0 262 V
0 77 V
0 56 V
0 28 V
0 18 V
0 8 V
0 4 V
43 -438 R
0 247 V
0 75 V
0 58 V
0 23 V
0 16 V
0 8 V
0 3 V
42 -407 R
0 244 V
0 78 V
0 48 V
0 24 V
0 13 V
0 9 V
0 3 V
42 -420 R
0 230 V
0 91 V
0 50 V
0 23 V
0 14 V
0 7 V
0 3 V
42 -485 R
0 253 V
0 138 V
0 35 V
0 35 V
0 15 V
0 6 V
0 3 V
43 -481 R
0 244 V
0 133 V
0 54 V
0 30 V
0 14 V
0 6 V
0 3 V
42 -470 R
0 225 V
0 144 V
0 54 V
0 26 V
0 16 V
0 6 V
42 -475 R
0 235 V
0 124 V
0 63 V
0 27 V
0 16 V
0 7 V
42 -450 R
0 199 V
0 132 V
0 67 V
0 31 V
0 13 V
0 6 V
42 -425 R
0 170 V
stroke 4892 3835 M
0 133 V
0 69 V
0 28 V
0 15 V
0 11 V
43 -414 R
0 149 V
0 78 V
0 130 V
0 -59 V
0 83 V
0 35 V
42 -403 R
0 131 V
0 57 V
0 75 V
0 12 V
0 -1 V
0 10 V
42 -265 R
0 109 V
0 56 V
0 70 V
0 24 V
0 7 V
0 -4 V
42 -276 R
0 129 V
0 27 V
0 44 V
0 46 V
0 4 V
0 15 V
43 -232 R
0 95 V
0 23 V
0 19 V
0 35 V
0 30 V
42 -209 R
0 104 V
0 17 V
0 10 V
0 10 V
0 20 V
42 -145 R
0 84 V
0 23 V
0 6 V
0 4 V
0 2 V
42 -103 R
0 78 V
0 11 V
0 8 V
0 2 V
0 3 V
42 -96 R
0 75 V
0 10 V
0 7 V
0 3 V
43 -94 R
0 73 V
0 11 V
0 4 V
0 3 V
42 -83 R
0 71 V
0 8 V
0 2 V
0 1 V
0 1 V
42 -72 R
0 61 V
0 11 V
0 -2 V
0 2 V
42 -75 R
0 66 V
0 6 V
0 1 V
43 -66 R
0 60 V
0 6 V
0 2 V
0 -3 V
42 -51 R
0 45 V
0 9 V
0 -1 V
0 -1 V
42 -47 R
0 44 V
0 2 V
0 1 V
0 -1 V
42 -45 R
0 43 V
0 3 V
0 -1 V
0 -2 V
42 -37 R
0 38 V
0 1 V
0 1 V
0 -3 V
43 -33 R
0 36 V
0 3 V
0 -5 V
42 -27 R
0 27 V
0 3 V
0 -2 V
42 -29 R
0 32 V
0 -3 V
42 -25 R
0 27 V
0 1 V
0 -4 V
43 -22 R
0 25 V
0 -4 V
42 -18 R
0 22 V
0 -1 V
0 -4 V
42 -12 R
0 16 V
0 1 V
0 -4 V
42 -12 R
0 17 V
0 -2 V
0 -5 V
43 -12 R
0 17 V
0 -1 V
42 -9 R
0 12 V
0 -4 V
42 -10 R
0 13 V
0 -2 V
42 -10 R
0 12 V
0 -5 V
42 -4 R
0 8 V
0 -4 V
43 -2 R
0 7 V
0 -4 V
42 -3 R
0 4 V
0 -2 V
42 -31 R
0 34 V
42 -3 R
0 2 V
43 -5 R
0 5 V
42 -1 R
0 2 V
42 -3 R
0 1 V
42 -4 R
0 4 V
42 -2 R
0 2 V
43 -1 R
42 -1 R
42 0 R
42 0 R
43 0 R
42 -1 R
42 -1 R
770 1089 CircleF
770 1547 CircleF
770 1744 CircleF
770 1953 CircleF
770 2083 CircleF
770 2223 CircleF
770 2308 CircleF
770 2359 CircleF
770 2370 CircleF
770 2363 CircleF
770 2386 CircleF
770 2391 CircleF
770 2388 CircleF
770 2391 CircleF
770 2391 CircleF
770 2392 CircleF
770 2392 CircleF
770 2392 CircleF
770 2397 CircleF
770 2406 CircleF
770 2406 CircleF
810 1134 CircleF
810 1565 CircleF
810 1789 CircleF
810 1975 CircleF
810 2120 CircleF
810 2245 CircleF
810 2333 CircleF
810 2376 CircleF
810 2398 CircleF
810 2424 CircleF
810 2414 CircleF
810 2418 CircleF
810 2416 CircleF
810 2419 CircleF
810 2418 CircleF
810 2419 CircleF
810 2419 CircleF
810 2419 CircleF
810 2420 CircleF
810 2420 CircleF
852 1181 CircleF
852 1599 CircleF
852 1823 CircleF
852 1996 CircleF
852 2155 CircleF
852 2264 CircleF
852 2355 CircleF
852 2400 CircleF
852 2438 CircleF
852 2434 CircleF
852 2431 CircleF
852 2446 CircleF
852 2443 CircleF
852 2446 CircleF
852 2447 CircleF
852 2447 CircleF
852 2447 CircleF
852 2447 CircleF
852 2447 CircleF
852 2447 CircleF
893 1188 CircleF
893 1625 CircleF
893 1846 CircleF
893 2020 CircleF
893 2163 CircleF
893 2301 CircleF
893 2381 CircleF
893 2433 CircleF
893 2467 CircleF
893 2461 CircleF
893 2461 CircleF
893 2475 CircleF
893 2473 CircleF
893 2475 CircleF
893 2475 CircleF
893 2476 CircleF
893 2476 CircleF
893 2477 CircleF
893 2476 CircleF
893 2476 CircleF
933 1237 CircleF
933 1678 CircleF
933 1876 CircleF
933 2058 CircleF
933 2205 CircleF
933 2325 CircleF
933 2395 CircleF
933 2438 CircleF
933 2494 CircleF
933 2480 CircleF
933 2495 CircleF
933 2499 CircleF
933 2497 CircleF
933 2502 CircleF
933 2502 CircleF
933 2502 CircleF
933 2502 CircleF
933 2502 CircleF
933 2502 CircleF
933 2502 CircleF
974 1255 CircleF
974 1700 CircleF
974 1859 CircleF
974 2058 CircleF
974 2226 CircleF
974 2344 CircleF
974 2429 CircleF
974 2495 CircleF
974 2488 CircleF
974 2518 CircleF
974 2515 CircleF
974 2529 CircleF
974 2528 CircleF
974 2531 CircleF
974 2530 CircleF
974 2531 CircleF
974 2531 CircleF
974 2532 CircleF
974 2532 CircleF
974 2532 CircleF
1016 1271 CircleF
1016 1682 CircleF
1016 1936 CircleF
1016 2105 CircleF
1016 2262 CircleF
1016 2376 CircleF
1016 2469 CircleF
1016 2521 CircleF
1016 2526 CircleF
1016 2555 CircleF
1016 2543 CircleF
1016 2559 CircleF
1016 2558 CircleF
1016 2556 CircleF
1016 2557 CircleF
1016 2558 CircleF
1016 2558 CircleF
1016 2558 CircleF
1016 2559 CircleF
1016 2559 CircleF
1058 1326 CircleF
1058 1729 CircleF
1058 1954 CircleF
1058 2143 CircleF
1058 2298 CircleF
1058 2395 CircleF
1058 2494 CircleF
1058 2548 CircleF
1058 2571 CircleF
1058 2558 CircleF
1058 2571 CircleF
1058 2587 CircleF
1058 2585 CircleF
1058 2586 CircleF
1058 2586 CircleF
1058 2587 CircleF
1058 2587 CircleF
1058 2587 CircleF
1058 2587 CircleF
1058 2587 CircleF
1099 1341 CircleF
1099 1778 CircleF
1099 1992 CircleF
1099 2151 CircleF
1099 2300 CircleF
1099 2416 CircleF
1099 2501 CircleF
1099 2553 CircleF
1099 2573 CircleF
1099 2590 CircleF
1099 2576 CircleF
1099 2586 CircleF
1099 2589 CircleF
1099 2591 CircleF
1099 2592 CircleF
1099 2593 CircleF
1099 2592 CircleF
1099 2593 CircleF
1099 2593 CircleF
1140 1377 CircleF
1140 1753 CircleF
1140 1999 CircleF
1140 2162 CircleF
1140 2315 CircleF
1140 2437 CircleF
1140 2518 CircleF
1140 2570 CircleF
1140 2579 CircleF
1140 2599 CircleF
1140 2603 CircleF
1140 2610 CircleF
1140 2610 CircleF
1140 2610 CircleF
1140 2612 CircleF
1140 2612 CircleF
1140 2612 CircleF
1140 2612 CircleF
1140 2612 CircleF
1181 1406 CircleF
1181 1826 CircleF
1181 2046 CircleF
1181 2214 CircleF
1181 2364 CircleF
1181 2475 CircleF
1181 2548 CircleF
1181 2598 CircleF
1181 2598 CircleF
1181 2618 CircleF
1181 2625 CircleF
1181 2639 CircleF
1181 2636 CircleF
1181 2639 CircleF
1181 2640 CircleF
1181 2640 CircleF
1181 2640 CircleF
1181 2641 CircleF
1181 2641 CircleF
1223 1433 CircleF
1223 1861 CircleF
1223 2062 CircleF
1223 2248 CircleF
1223 2391 CircleF
1223 2505 CircleF
1223 2574 CircleF
1223 2628 CircleF
1223 2631 CircleF
1223 2650 CircleF
1223 2656 CircleF
1223 2663 CircleF
1223 2665 CircleF
1223 2667 CircleF
1223 2669 CircleF
1223 2669 CircleF
1223 2669 CircleF
1223 2669 CircleF
1223 2669 CircleF
1265 1455 CircleF
1265 1886 CircleF
1265 2081 CircleF
1265 2252 CircleF
1265 2359 CircleF
1265 2501 CircleF
1265 2562 CircleF
1265 2608 CircleF
1265 2627 CircleF
1265 2627 CircleF
1265 2636 CircleF
1265 2644 CircleF
1265 2647 CircleF
1265 2646 CircleF
1265 2648 CircleF
1265 2648 CircleF
1265 2649 CircleF
1265 2649 CircleF
1265 2649 CircleF
1307 1472 CircleF
1307 1911 CircleF
1307 2096 CircleF
1307 2282 CircleF
1307 2421 CircleF
1307 2529 CircleF
1307 2596 CircleF
1307 2638 CircleF
1307 2662 CircleF
1307 2650 CircleF
1307 2660 CircleF
1307 2672 CircleF
1307 2674 CircleF
1307 2674 CircleF
1307 2676 CircleF
1307 2676 CircleF
1307 2676 CircleF
1307 2676 CircleF
1307 2676 CircleF
1349 1537 CircleF
1349 1957 CircleF
1349 2146 CircleF
1349 2301 CircleF
1349 2455 CircleF
1349 2563 CircleF
1349 2624 CircleF
1349 2665 CircleF
1349 2690 CircleF
1349 2701 CircleF
1349 2691 CircleF
1349 2702 CircleF
1349 2703 CircleF
1349 2704 CircleF
1349 2704 CircleF
1349 2705 CircleF
1349 2705 CircleF
1349 2705 CircleF
1349 2705 CircleF
1391 1550 CircleF
1391 1973 CircleF
1391 2171 CircleF
1391 2344 CircleF
1391 2482 CircleF
1391 2586 CircleF
1391 2657 CircleF
1391 2695 CircleF
1391 2702 CircleF
1391 2710 CircleF
1391 2719 CircleF
1391 2730 CircleF
1391 2731 CircleF
1391 2732 CircleF
1391 2733 CircleF
1391 2733 CircleF
1391 2733 CircleF
1391 2734 CircleF
1433 1596 CircleF
1433 2000 CircleF
1433 2211 CircleF
1433 2364 CircleF
1433 2512 CircleF
1433 2612 CircleF
1433 2679 CircleF
1433 2724 CircleF
1433 2747 CircleF
1433 2759 CircleF
1433 2750 CircleF
1433 2759 CircleF
1433 2760 CircleF
1433 2761 CircleF
1433 2762 CircleF
1433 2762 CircleF
1433 2762 CircleF
1433 2762 CircleF
1475 1592 CircleF
1475 2042 CircleF
1475 2217 CircleF
1475 2409 CircleF
1475 2538 CircleF
1475 2643 CircleF
1475 2712 CircleF
1475 2750 CircleF
1475 2777 CircleF
1475 2787 CircleF
1475 2778 CircleF
1475 2788 CircleF
1475 2788 CircleF
1475 2790 CircleF
1475 2790 CircleF
1475 2791 CircleF
1475 2791 CircleF
1475 2791 CircleF
1517 1672 CircleF
1517 2076 CircleF
1517 2256 CircleF
1517 2422 CircleF
1517 2564 CircleF
1517 2670 CircleF
1517 2740 CircleF
1517 2781 CircleF
1517 2805 CircleF
1517 2815 CircleF
1517 2805 CircleF
1517 2816 CircleF
1517 2817 CircleF
1517 2818 CircleF
1517 2818 CircleF
1517 2819 CircleF
1517 2819 CircleF
1517 2819 CircleF
1559 1641 CircleF
1559 2078 CircleF
1559 2280 CircleF
1559 2448 CircleF
1559 2596 CircleF
1559 2699 CircleF
1559 2770 CircleF
1559 2810 CircleF
1559 2810 CircleF
1559 2843 CircleF
1559 2833 CircleF
1559 2844 CircleF
1559 2845 CircleF
1559 2847 CircleF
1559 2847 CircleF
1559 2848 CircleF
1559 2848 CircleF
1559 2848 CircleF
1601 1692 CircleF
1601 2120 CircleF
1601 2325 CircleF
1601 2486 CircleF
1601 2621 CircleF
1601 2721 CircleF
1601 2795 CircleF
1601 2838 CircleF
1601 2861 CircleF
1601 2865 CircleF
1601 2871 CircleF
1601 2873 CircleF
1601 2874 CircleF
1601 2875 CircleF
1601 2876 CircleF
1601 2877 CircleF
1601 2877 CircleF
1601 2877 CircleF
1643 1733 CircleF
1643 2157 CircleF
1643 2338 CircleF
1643 2503 CircleF
1643 2650 CircleF
1643 2757 CircleF
1643 2827 CircleF
1643 2851 CircleF
1643 2885 CircleF
1643 2887 CircleF
1643 2895 CircleF
1643 2902 CircleF
1643 2903 CircleF
1643 2903 CircleF
1643 2904 CircleF
1643 2904 CircleF
1643 2904 CircleF
1643 2905 CircleF
1685 1754 CircleF
1685 2183 CircleF
1685 2323 CircleF
1685 2535 CircleF
1685 2675 CircleF
1685 2780 CircleF
1685 2853 CircleF
1685 2895 CircleF
1685 2896 CircleF
1685 2928 CircleF
1685 2918 CircleF
1685 2929 CircleF
1685 2930 CircleF
1685 2931 CircleF
1685 2931 CircleF
1685 2932 CircleF
1685 2932 CircleF
1685 2932 CircleF
1727 1788 CircleF
1727 2209 CircleF
1727 2392 CircleF
1727 2553 CircleF
1727 2709 CircleF
1727 2811 CircleF
1727 2878 CircleF
1727 2908 CircleF
1727 2939 CircleF
1727 2942 CircleF
1727 2951 CircleF
1727 2956 CircleF
1727 2959 CircleF
1727 2960 CircleF
1727 2961 CircleF
1727 2960 CircleF
1727 2961 CircleF
1770 1805 CircleF
1770 2224 CircleF
1770 2411 CircleF
1770 2593 CircleF
1770 2736 CircleF
1770 2842 CircleF
1770 2907 CircleF
1770 2951 CircleF
1770 2956 CircleF
1770 2988 CircleF
1770 2978 CircleF
1770 2987 CircleF
1770 2988 CircleF
1770 2988 CircleF
1770 2989 CircleF
1770 2989 CircleF
1770 2990 CircleF
1812 1839 CircleF
1812 2261 CircleF
1812 2469 CircleF
1812 2631 CircleF
1812 2764 CircleF
1812 2870 CircleF
1812 2939 CircleF
1812 2969 CircleF
1812 2997 CircleF
1812 3000 CircleF
1812 3003 CircleF
1812 3015 CircleF
1812 3015 CircleF
1812 3017 CircleF
1812 3017 CircleF
1812 3018 CircleF
1812 3018 CircleF
1854 1844 CircleF
1854 2276 CircleF
1854 2478 CircleF
1854 2645 CircleF
1854 2795 CircleF
1854 2893 CircleF
1854 2953 CircleF
1854 2991 CircleF
1854 3012 CircleF
1854 3024 CircleF
1854 3034 CircleF
1854 3044 CircleF
1854 3045 CircleF
1854 3046 CircleF
1854 3047 CircleF
1854 3047 CircleF
1854 3047 CircleF
1896 1881 CircleF
1896 2321 CircleF
1896 2507 CircleF
1896 2688 CircleF
1896 2821 CircleF
1896 2922 CircleF
1896 2985 CircleF
1896 3040 CircleF
1896 3049 CircleF
1896 3053 CircleF
1896 3063 CircleF
1896 3073 CircleF
1896 3074 CircleF
1896 3074 CircleF
1896 3075 CircleF
1896 3075 CircleF
1896 3076 CircleF
1938 1936 CircleF
1938 2353 CircleF
1938 2553 CircleF
1938 2717 CircleF
1938 2855 CircleF
1938 2954 CircleF
1938 3015 CircleF
1938 3046 CircleF
1938 3072 CircleF
1938 3079 CircleF
1938 3091 CircleF
1938 3102 CircleF
1938 3103 CircleF
1938 3102 CircleF
1938 3104 CircleF
1938 3104 CircleF
1938 3105 CircleF
1980 1936 CircleF
1980 2377 CircleF
1980 2569 CircleF
1980 2684 CircleF
1980 2878 CircleF
1980 2982 CircleF
1980 3058 CircleF
1980 3081 CircleF
1980 3096 CircleF
1980 3110 CircleF
1980 3118 CircleF
1980 3130 CircleF
1980 3132 CircleF
1980 3131 CircleF
1980 3132 CircleF
1980 3133 CircleF
1980 3133 CircleF
2022 1960 CircleF
2022 2398 CircleF
2022 2596 CircleF
2022 2770 CircleF
2022 2910 CircleF
2022 3009 CircleF
2022 3071 CircleF
2022 3108 CircleF
2022 3130 CircleF
2022 3139 CircleF
2022 3146 CircleF
2022 3156 CircleF
2022 3160 CircleF
2022 3160 CircleF
2022 3161 CircleF
2022 3162 CircleF
2064 2035 CircleF
2064 2446 CircleF
2064 2621 CircleF
2064 2809 CircleF
2064 2928 CircleF
2064 3036 CircleF
2064 3109 CircleF
2064 3140 CircleF
2064 3170 CircleF
2064 3172 CircleF
2064 3176 CircleF
2064 3187 CircleF
2064 3189 CircleF
2064 3190 CircleF
2064 3189 CircleF
2064 3190 CircleF
2106 2102 CircleF
2106 2468 CircleF
2106 2630 CircleF
2106 2774 CircleF
2106 2959 CircleF
2106 3042 CircleF
2106 3139 CircleF
2106 3153 CircleF
2106 3187 CircleF
2106 3206 CircleF
2106 3205 CircleF
2106 3216 CircleF
2106 3217 CircleF
2106 3218 CircleF
2106 3218 CircleF
2106 3219 CircleF
2149 2052 CircleF
2149 2487 CircleF
2149 2672 CircleF
2149 2858 CircleF
2149 2990 CircleF
2149 3101 CircleF
2149 3166 CircleF
2149 3191 CircleF
2149 3213 CircleF
2149 3223 CircleF
2149 3233 CircleF
2149 3244 CircleF
2149 3245 CircleF
2149 3246 CircleF
2149 3247 CircleF
2149 3248 CircleF
2191 2151 CircleF
2191 2516 CircleF
2191 2710 CircleF
2191 2891 CircleF
2191 3025 CircleF
2191 3128 CircleF
2191 3200 CircleF
2191 3225 CircleF
2191 3254 CircleF
2191 3255 CircleF
2191 3262 CircleF
2191 3273 CircleF
2191 3275 CircleF
2191 3276 CircleF
2191 3276 CircleF
2191 3276 CircleF
2233 2188 CircleF
2233 2534 CircleF
2233 2739 CircleF
2233 2918 CircleF
2233 3057 CircleF
2233 3156 CircleF
2233 3221 CircleF
2233 3263 CircleF
2233 3281 CircleF
2233 3284 CircleF
2233 3291 CircleF
2233 3303 CircleF
2233 3303 CircleF
2233 3304 CircleF
2233 3305 CircleF
2233 3305 CircleF
2275 2160 CircleF
2275 2584 CircleF
2275 2764 CircleF
2275 2943 CircleF
2275 3088 CircleF
2275 3185 CircleF
2275 3254 CircleF
2275 3290 CircleF
2275 3319 CircleF
2275 3320 CircleF
2275 3317 CircleF
2275 3330 CircleF
2275 3333 CircleF
2275 3333 CircleF
2275 3333 CircleF
2275 3334 CircleF
2317 2155 CircleF
2317 2596 CircleF
2317 2791 CircleF
2317 2964 CircleF
2317 3111 CircleF
2317 3212 CircleF
2317 3278 CircleF
2317 3308 CircleF
2317 3338 CircleF
2317 3341 CircleF
2317 3348 CircleF
2317 3359 CircleF
2317 3360 CircleF
2317 3361 CircleF
2317 3362 CircleF
2359 2229 CircleF
2359 2626 CircleF
2359 2828 CircleF
2359 2995 CircleF
2359 3144 CircleF
2359 3242 CircleF
2359 3309 CircleF
2359 3335 CircleF
2359 3356 CircleF
2359 3367 CircleF
2359 3377 CircleF
2359 3389 CircleF
2359 3390 CircleF
2359 3390 CircleF
2359 3391 CircleF
2402 2293 CircleF
2402 2675 CircleF
2402 2865 CircleF
2402 3024 CircleF
2402 3164 CircleF
2402 3259 CircleF
2402 3332 CircleF
2402 3364 CircleF
2402 3386 CircleF
2402 3397 CircleF
2402 3406 CircleF
2402 3416 CircleF
2402 3418 CircleF
2402 3419 CircleF
2402 3419 CircleF
2444 2321 CircleF
2444 2699 CircleF
2444 2891 CircleF
2444 3051 CircleF
2444 3196 CircleF
2444 3297 CircleF
2444 3370 CircleF
2444 3395 CircleF
2444 3416 CircleF
2444 3421 CircleF
2444 3434 CircleF
2444 3444 CircleF
2444 3448 CircleF
2444 3447 CircleF
2444 3449 CircleF
2486 2303 CircleF
2486 2724 CircleF
2486 2924 CircleF
2486 3080 CircleF
2486 3230 CircleF
2486 3328 CircleF
2486 3399 CircleF
2486 3421 CircleF
2486 3453 CircleF
2486 3456 CircleF
2486 3463 CircleF
2486 3475 CircleF
2486 3476 CircleF
2486 3476 CircleF
2486 3477 CircleF
2528 2387 CircleF
2528 2760 CircleF
2528 2954 CircleF
2528 3112 CircleF
2528 3261 CircleF
2528 3350 CircleF
2528 3428 CircleF
2528 3456 CircleF
2528 3470 CircleF
2528 3485 CircleF
2528 3491 CircleF
2528 3503 CircleF
2528 3505 CircleF
2528 3505 CircleF
2528 3506 CircleF
2570 2437 CircleF
2570 2781 CircleF
2570 2976 CircleF
2570 3138 CircleF
2570 3283 CircleF
2570 3385 CircleF
2570 3441 CircleF
2570 3494 CircleF
2570 3503 CircleF
2570 3509 CircleF
2570 3520 CircleF
2570 3529 CircleF
2570 3533 CircleF
2570 3533 CircleF
2570 3535 CircleF
2612 2449 CircleF
2612 2803 CircleF
2612 3004 CircleF
2612 3164 CircleF
2612 3319 CircleF
2612 3411 CircleF
2612 3486 CircleF
2612 3524 CircleF
2612 3528 CircleF
2612 3551 CircleF
2612 3549 CircleF
2612 3559 CircleF
2612 3563 CircleF
2612 3562 CircleF
2612 3563 CircleF
2655 2386 CircleF
2655 2836 CircleF
2655 3024 CircleF
2655 3207 CircleF
2655 3244 CircleF
2655 3437 CircleF
2655 3495 CircleF
2655 3542 CircleF
2655 3560 CircleF
2655 3571 CircleF
2655 3578 CircleF
2655 3589 CircleF
2655 3590 CircleF
2655 3591 CircleF
2697 2406 CircleF
2697 2851 CircleF
2697 3053 CircleF
2697 3228 CircleF
2697 3364 CircleF
2697 3463 CircleF
2697 3539 CircleF
2697 3584 CircleF
2697 3583 CircleF
2697 3605 CircleF
2697 3606 CircleF
2697 3616 CircleF
2697 3620 CircleF
2697 3620 CircleF
2739 2497 CircleF
2739 2905 CircleF
2739 3085 CircleF
2739 3256 CircleF
2739 3400 CircleF
2739 3491 CircleF
2739 3568 CircleF
2739 3593 CircleF
2739 3624 CircleF
2739 3628 CircleF
2739 3635 CircleF
2739 3647 CircleF
2739 3648 CircleF
2739 3648 CircleF
2781 1997 CircleF
2781 2916 CircleF
2781 3121 CircleF
2781 3298 CircleF
2781 3432 CircleF
2781 3529 CircleF
2781 3597 CircleF
2781 3642 CircleF
2781 3665 CircleF
2781 3672 CircleF
2781 3664 CircleF
2781 3674 CircleF
2781 3677 CircleF
2781 3678 CircleF
2824 2567 CircleF
2824 2946 CircleF
2824 3135 CircleF
2824 3321 CircleF
2824 3456 CircleF
2824 3543 CircleF
2824 3607 CircleF
2824 3649 CircleF
2824 3671 CircleF
2824 3682 CircleF
2824 3692 CircleF
2824 3703 CircleF
2824 3706 CircleF
2824 3706 CircleF
2866 2598 CircleF
2866 2982 CircleF
2866 3178 CircleF
2866 3348 CircleF
2866 3488 CircleF
2866 3589 CircleF
2866 3656 CircleF
2866 3678 CircleF
2866 3700 CircleF
2866 3711 CircleF
2866 3721 CircleF
2866 3732 CircleF
2866 3734 CircleF
2866 3735 CircleF
2908 2627 CircleF
2908 2998 CircleF
2908 3208 CircleF
2908 3379 CircleF
2908 3490 CircleF
2908 3619 CircleF
2908 3682 CircleF
2908 3726 CircleF
2908 3730 CircleF
2908 3748 CircleF
2908 3749 CircleF
2908 3760 CircleF
2908 3763 CircleF
2908 3764 CircleF
2950 2644 CircleF
2950 3039 CircleF
2950 3236 CircleF
2950 3413 CircleF
2950 3542 CircleF
2950 3644 CircleF
2950 3714 CircleF
2950 3737 CircleF
2950 3767 CircleF
2950 3771 CircleF
2950 3779 CircleF
2950 3790 CircleF
2950 3791 CircleF
2992 2662 CircleF
2992 3077 CircleF
2992 3253 CircleF
2992 3427 CircleF
2992 3527 CircleF
2992 3673 CircleF
2992 3738 CircleF
2992 3763 CircleF
2992 3787 CircleF
2992 3798 CircleF
2992 3807 CircleF
2992 3819 CircleF
2992 3820 CircleF
3035 2709 CircleF
3035 3106 CircleF
3035 3298 CircleF
3035 3464 CircleF
3035 3593 CircleF
3035 3695 CircleF
3035 3768 CircleF
3035 3807 CircleF
3035 3814 CircleF
3035 3831 CircleF
3035 3836 CircleF
3035 3847 CircleF
3035 3849 CircleF
3077 2683 CircleF
3077 3129 CircleF
3077 3315 CircleF
3077 3464 CircleF
3077 3598 CircleF
3077 3724 CircleF
3077 3785 CircleF
3077 3837 CircleF
3077 3842 CircleF
3077 3864 CircleF
3077 3865 CircleF
3077 3875 CircleF
3077 3877 CircleF
3119 2738 CircleF
3119 3156 CircleF
3119 3358 CircleF
3119 3497 CircleF
3119 3652 CircleF
3119 3748 CircleF
3119 3826 CircleF
3119 3856 CircleF
3119 3875 CircleF
3119 3886 CircleF
3119 3894 CircleF
3119 3904 CircleF
3119 3906 CircleF
3161 2785 CircleF
3161 3191 CircleF
3161 3368 CircleF
3161 3551 CircleF
3161 3675 CircleF
3161 3787 CircleF
3161 3855 CircleF
3161 3881 CircleF
3161 3912 CircleF
3161 3917 CircleF
3161 3925 CircleF
3161 3934 CircleF
3161 3934 CircleF
3204 2824 CircleF
3204 3221 CircleF
3204 3399 CircleF
3204 3574 CircleF
3204 3715 CircleF
3204 3815 CircleF
3204 3875 CircleF
3204 3927 CircleF
3204 3927 CircleF
3204 3949 CircleF
3204 3951 CircleF
3204 3963 CircleF
3204 3964 CircleF
3246 2848 CircleF
3246 3251 CircleF
3246 3441 CircleF
3246 3593 CircleF
3246 3742 CircleF
3246 3845 CircleF
3246 3910 CircleF
3246 3933 CircleF
3246 3965 CircleF
3246 3968 CircleF
3246 3979 CircleF
3246 3989 CircleF
3288 2873 CircleF
3288 3274 CircleF
3288 3456 CircleF
3288 3628 CircleF
3288 3764 CircleF
3288 3873 CircleF
3288 3937 CircleF
3288 3970 CircleF
3288 3987 CircleF
3288 3999 CircleF
3288 4008 CircleF
3288 4019 CircleF
3330 2886 CircleF
3330 3282 CircleF
3330 3459 CircleF
3330 3603 CircleF
3330 3704 CircleF
3330 3781 CircleF
3330 3825 CircleF
3330 3850 CircleF
3330 3864 CircleF
3330 3872 CircleF
3330 3875 CircleF
3330 3876 CircleF
3372 2889 CircleF
3372 3300 CircleF
3372 3491 CircleF
3372 3626 CircleF
3372 3737 CircleF
3372 3809 CircleF
3372 3853 CircleF
3372 3878 CircleF
3372 3892 CircleF
3372 3899 CircleF
3372 3902 CircleF
3372 3904 CircleF
3415 2899 CircleF
3415 3322 CircleF
3415 3493 CircleF
3415 3653 CircleF
3415 3759 CircleF
3415 3835 CircleF
3415 3878 CircleF
3415 3905 CircleF
3415 3919 CircleF
3415 3927 CircleF
3415 3931 CircleF
3415 3932 CircleF
3457 2994 CircleF
3457 3358 CircleF
3457 3543 CircleF
3457 3683 CircleF
3457 3791 CircleF
3457 3866 CircleF
3457 3907 CircleF
3457 3936 CircleF
3457 3949 CircleF
3457 3956 CircleF
3457 3960 CircleF
3457 3960 CircleF
3499 3016 CircleF
3499 3387 CircleF
3499 3572 CircleF
3499 3718 CircleF
3499 3816 CircleF
3499 3892 CircleF
3499 3939 CircleF
3499 3964 CircleF
3499 3977 CircleF
3499 3985 CircleF
3499 3988 CircleF
3499 3989 CircleF
3541 3036 CircleF
3541 3430 CircleF
3541 3601 CircleF
3541 3741 CircleF
3541 3843 CircleF
3541 3923 CircleF
3541 3965 CircleF
3541 3994 CircleF
3541 4007 CircleF
3541 4014 CircleF
3541 4017 CircleF
3584 3082 CircleF
3584 3450 CircleF
3584 3611 CircleF
3584 3759 CircleF
3584 3872 CircleF
3584 3948 CircleF
3584 3991 CircleF
3584 4020 CircleF
3584 4035 CircleF
3584 4043 CircleF
3584 4046 CircleF
3626 3096 CircleF
3626 3436 CircleF
3626 3644 CircleF
3626 3789 CircleF
3626 3901 CircleF
3626 3977 CircleF
3626 4020 CircleF
3626 4050 CircleF
3626 4064 CircleF
3626 4071 CircleF
3626 4075 CircleF
3668 3117 CircleF
3668 3492 CircleF
3668 3646 CircleF
3668 3776 CircleF
3668 3861 CircleF
3668 3919 CircleF
3668 3954 CircleF
3668 3973 CircleF
3668 3982 CircleF
3668 3987 CircleF
3668 3990 CircleF
3710 3153 CircleF
3710 3517 CircleF
3710 3676 CircleF
3710 3804 CircleF
3710 3890 CircleF
3710 3949 CircleF
3710 3983 CircleF
3710 4001 CircleF
3710 4011 CircleF
3710 4016 CircleF
3710 4018 CircleF
3752 3181 CircleF
3752 3493 CircleF
3752 3705 CircleF
3752 3835 CircleF
3752 3915 CircleF
3752 3973 CircleF
3752 4011 CircleF
3752 4030 CircleF
3752 4039 CircleF
3752 4044 CircleF
3752 4047 CircleF
3795 3183 CircleF
3795 3580 CircleF
3795 3740 CircleF
3795 3859 CircleF
3795 3945 CircleF
3795 4005 CircleF
3795 4039 CircleF
3795 4058 CircleF
3795 4068 CircleF
3795 4073 CircleF
3795 4076 CircleF
3837 3233 CircleF
3837 3590 CircleF
3837 3733 CircleF
3837 3846 CircleF
3837 3921 CircleF
3837 3968 CircleF
3837 3982 CircleF
3837 4008 CircleF
3837 4017 CircleF
3837 4021 CircleF
3837 4023 CircleF
3879 3268 CircleF
3879 3615 CircleF
3879 3764 CircleF
3879 3874 CircleF
3879 3949 CircleF
3879 3996 CircleF
3879 4023 CircleF
3879 4037 CircleF
3879 4046 CircleF
3879 4049 CircleF
3921 3274 CircleF
3921 3635 CircleF
3921 3792 CircleF
3921 3904 CircleF
3921 3979 CircleF
3921 4025 CircleF
3921 4050 CircleF
3921 4066 CircleF
3921 4074 CircleF
3921 4077 CircleF
3964 3306 CircleF
3964 3658 CircleF
3964 3785 CircleF
3964 3897 CircleF
3964 3960 CircleF
3964 3999 CircleF
3964 4020 CircleF
3964 4033 CircleF
3964 4039 CircleF
3964 4041 CircleF
4006 2855 CircleF
4006 3672 CircleF
4006 3803 CircleF
4006 3922 CircleF
4006 3989 CircleF
4006 4023 CircleF
4006 4048 CircleF
4006 4062 CircleF
4006 4068 CircleF
4006 4071 CircleF
4048 3381 CircleF
4048 3700 CircleF
4048 3828 CircleF
4048 3920 CircleF
4048 3974 CircleF
4048 4010 CircleF
4048 4029 CircleF
4048 4039 CircleF
4048 4044 CircleF
4048 4046 CircleF
4090 3400 CircleF
4090 3730 CircleF
4090 3852 CircleF
4090 3949 CircleF
4090 4002 CircleF
4090 4030 CircleF
4090 4058 CircleF
4090 4068 CircleF
4090 4073 CircleF
4090 4075 CircleF
4132 3434 CircleF
4132 3744 CircleF
4132 3856 CircleF
4132 3949 CircleF
4132 3996 CircleF
4132 4026 CircleF
4132 4043 CircleF
4132 4052 CircleF
4132 4057 CircleF
4132 4059 CircleF
4175 3443 CircleF
4175 3769 CircleF
4175 3883 CircleF
4175 3971 CircleF
4175 4023 CircleF
4175 4057 CircleF
4175 4071 CircleF
4175 4081 CircleF
4175 4086 CircleF
4217 3469 CircleF
4217 3775 CircleF
4217 3888 CircleF
4217 3970 CircleF
4217 4021 CircleF
4217 4049 CircleF
4217 4064 CircleF
4217 4071 CircleF
4217 4075 CircleF
4259 3470 CircleF
4259 3789 CircleF
4259 3887 CircleF
4259 3974 CircleF
4259 4016 CircleF
4259 4046 CircleF
4259 4060 CircleF
4259 4065 CircleF
4259 4069 CircleF
4301 3518 CircleF
4301 3800 CircleF
4301 3913 CircleF
4301 3986 CircleF
4301 4023 CircleF
4301 4047 CircleF
4301 4057 CircleF
4301 4064 CircleF
4301 4067 CircleF
4344 3505 CircleF
4344 3837 CircleF
4344 3942 CircleF
4344 4005 CircleF
4344 4052 CircleF
4344 4076 CircleF
4344 4087 CircleF
4344 4093 CircleF
4344 4096 CircleF
4386 3524 CircleF
4386 3849 CircleF
4386 3952 CircleF
4386 4018 CircleF
4386 4056 CircleF
4386 4077 CircleF
4386 4088 CircleF
4386 4094 CircleF
4386 4097 CircleF
4428 3581 CircleF
4428 3865 CircleF
4428 3946 CircleF
4428 4009 CircleF
4428 4042 CircleF
4428 4060 CircleF
4428 4069 CircleF
4428 4074 CircleF
4428 4076 CircleF
4470 3542 CircleF
4470 3873 CircleF
4470 3962 CircleF
4470 4016 CircleF
4470 4050 CircleF
4470 4067 CircleF
4470 4077 CircleF
4470 4081 CircleF
4512 3636 CircleF
4512 3898 CircleF
4512 3975 CircleF
4512 4031 CircleF
4512 4059 CircleF
4512 4077 CircleF
4512 4085 CircleF
4512 4089 CircleF
4555 3651 CircleF
4555 3898 CircleF
4555 3973 CircleF
4555 4031 CircleF
4555 4054 CircleF
4555 4070 CircleF
4555 4078 CircleF
4555 4081 CircleF
4597 3674 CircleF
4597 3918 CircleF
4597 3996 CircleF
4597 4044 CircleF
4597 4068 CircleF
4597 4081 CircleF
4597 4090 CircleF
4597 4093 CircleF
4639 3673 CircleF
4639 3903 CircleF
4639 3994 CircleF
4639 4044 CircleF
4639 4067 CircleF
4639 4081 CircleF
4639 4088 CircleF
4639 4091 CircleF
4681 3606 CircleF
4681 3859 CircleF
4681 3997 CircleF
4681 4032 CircleF
4681 4067 CircleF
4681 4082 CircleF
4681 4088 CircleF
4681 4091 CircleF
4724 3610 CircleF
4724 3854 CircleF
4724 3987 CircleF
4724 4041 CircleF
4724 4071 CircleF
4724 4085 CircleF
4724 4091 CircleF
4724 4094 CircleF
4766 3624 CircleF
4766 3849 CircleF
4766 3993 CircleF
4766 4047 CircleF
4766 4073 CircleF
4766 4089 CircleF
4766 4095 CircleF
4808 3620 CircleF
4808 3855 CircleF
4808 3979 CircleF
4808 4042 CircleF
4808 4069 CircleF
4808 4085 CircleF
4808 4092 CircleF
4850 3642 CircleF
4850 3841 CircleF
4850 3973 CircleF
4850 4040 CircleF
4850 4071 CircleF
4850 4084 CircleF
4850 4090 CircleF
4892 3665 CircleF
4892 3835 CircleF
4892 3968 CircleF
4892 4037 CircleF
4892 4065 CircleF
4892 4080 CircleF
4892 4091 CircleF
4935 3677 CircleF
4935 3826 CircleF
4935 3904 CircleF
4935 4034 CircleF
4935 3975 CircleF
4935 4058 CircleF
4935 4093 CircleF
4977 3690 CircleF
4977 3821 CircleF
4977 3878 CircleF
4977 3953 CircleF
4977 3965 CircleF
4977 3964 CircleF
4977 3974 CircleF
5019 3709 CircleF
5019 3818 CircleF
5019 3874 CircleF
5019 3944 CircleF
5019 3968 CircleF
5019 3975 CircleF
5019 3971 CircleF
5061 3695 CircleF
5061 3824 CircleF
5061 3851 CircleF
5061 3895 CircleF
5061 3941 CircleF
5061 3945 CircleF
5061 3960 CircleF
5104 3728 CircleF
5104 3823 CircleF
5104 3846 CircleF
5104 3865 CircleF
5104 3900 CircleF
5104 3930 CircleF
5146 3721 CircleF
5146 3825 CircleF
5146 3842 CircleF
5146 3852 CircleF
5146 3862 CircleF
5146 3882 CircleF
5188 3737 CircleF
5188 3821 CircleF
5188 3844 CircleF
5188 3850 CircleF
5188 3854 CircleF
5188 3856 CircleF
5230 3753 CircleF
5230 3831 CircleF
5230 3842 CircleF
5230 3850 CircleF
5230 3852 CircleF
5230 3855 CircleF
5272 3759 CircleF
5272 3834 CircleF
5272 3844 CircleF
5272 3851 CircleF
5272 3851 CircleF
5272 3854 CircleF
5315 3760 CircleF
5315 3833 CircleF
5315 3844 CircleF
5315 3848 CircleF
5315 3851 CircleF
5315 3851 CircleF
5357 3768 CircleF
5357 3839 CircleF
5357 3847 CircleF
5357 3849 CircleF
5357 3850 CircleF
5357 3851 CircleF
5399 3779 CircleF
5399 3840 CircleF
5399 3851 CircleF
5399 3849 CircleF
5399 3851 CircleF
5441 3776 CircleF
5441 3842 CircleF
5441 3848 CircleF
5441 3848 CircleF
5441 3849 CircleF
5484 3783 CircleF
5484 3843 CircleF
5484 3849 CircleF
5484 3851 CircleF
5484 3848 CircleF
5526 3797 CircleF
5526 3842 CircleF
5526 3851 CircleF
5526 3850 CircleF
5526 3849 CircleF
5568 3802 CircleF
5568 3846 CircleF
5568 3848 CircleF
5568 3849 CircleF
5568 3848 CircleF
5610 3803 CircleF
5610 3846 CircleF
5610 3849 CircleF
5610 3848 CircleF
5610 3846 CircleF
5652 3809 CircleF
5652 3847 CircleF
5652 3848 CircleF
5652 3849 CircleF
5652 3846 CircleF
5695 3813 CircleF
5695 3849 CircleF
5695 3852 CircleF
5695 3847 CircleF
5737 3820 CircleF
5737 3847 CircleF
5737 3850 CircleF
5737 3848 CircleF
5779 3819 CircleF
5779 3851 CircleF
5779 3851 CircleF
5779 3848 CircleF
5821 3823 CircleF
5821 3850 CircleF
5821 3851 CircleF
5821 3847 CircleF
5864 3825 CircleF
5864 3850 CircleF
5864 3850 CircleF
5864 3846 CircleF
5906 3828 CircleF
5906 3850 CircleF
5906 3849 CircleF
5906 3845 CircleF
5948 3833 CircleF
5948 3849 CircleF
5948 3850 CircleF
5948 3846 CircleF
5990 3834 CircleF
5990 3851 CircleF
5990 3849 CircleF
5990 3844 CircleF
6033 3832 CircleF
6033 3849 CircleF
6033 3848 CircleF
6075 3839 CircleF
6075 3851 CircleF
6075 3847 CircleF
6117 3837 CircleF
6117 3850 CircleF
6117 3848 CircleF
6159 3838 CircleF
6159 3850 CircleF
6159 3845 CircleF
6201 3841 CircleF
6201 3849 CircleF
6201 3845 CircleF
6244 3843 CircleF
6244 3850 CircleF
6244 3846 CircleF
6286 3843 CircleF
6286 3847 CircleF
6286 3845 CircleF
6328 3814 CircleF
6328 3848 CircleF
6370 3845 CircleF
6370 3847 CircleF
6413 3842 CircleF
6413 3847 CircleF
6455 3846 CircleF
6455 3848 CircleF
6497 3845 CircleF
6497 3846 CircleF
6539 3842 CircleF
6539 3846 CircleF
6581 3844 CircleF
6581 3846 CircleF
6624 3845 CircleF
6666 3844 CircleF
6708 3844 CircleF
6750 3844 CircleF
6793 3844 CircleF
6835 3843 CircleF
6877 3842 CircleF
% End plot #1
2.000 UL
LTb
LCb setrgbcolor
1.000 UL
LTB
LCb setrgbcolor
770 4619 N
770 448 L
6107 0 V
0 4171 V
-6107 0 V
Z stroke
1.000 UP
1.000 UL
LTb
LCb setrgbcolor
stroke
grestore
end
showpage
%%Trailer
%%DocumentFonts: Helvetica
%%Pages: 1
