%!PS-Adobe-2.0
%%Title: Results.daisy.v100/Run.001/FLOPS.001/GPU_Blocks.0320/GPU_Threads.0512/graph2.ps
%%Creator: gnuplot 5.2 patchlevel 7
%%CreationDate: Sun Jan 19 15:20:28 2020
%%DocumentFonts: (atend)
%%BoundingBox: 50 50 554 770
%%Orientation: Landscape
%%Pages: (atend)
%%EndComments
%%BeginProlog
/gnudict 256 dict def
gnudict begin
%
% The following true/false flags may be edited by hand if desired.
% The unit line width and grayscale image gamma correction may also be changed.
%
/Color true def
/Blacktext false def
/Solid false def
/Dashlength 1 def
/Landscape true def
/Level1 false def
/Level3 false def
/Rounded false def
/ClipToBoundingBox false def
/SuppressPDFMark false def
/TransparentPatterns false def
/gnulinewidth 5.000 def
/userlinewidth gnulinewidth def
/Gamma 1.0 def
/BackgroundColor {-1.000 -1.000 -1.000} def
%
/vshift -46 def
/dl1 {
  10.0 Dashlength userlinewidth gnulinewidth div mul mul mul
  Rounded { currentlinewidth 0.75 mul sub dup 0 le { pop 0.01 } if } if
} def
/dl2 {
  10.0 Dashlength userlinewidth gnulinewidth div mul mul mul
  Rounded { currentlinewidth 0.75 mul add } if
} def
/hpt_ 31.5 def
/vpt_ 31.5 def
/hpt hpt_ def
/vpt vpt_ def
/doclip {
  ClipToBoundingBox {
    newpath 50 50 moveto 554 50 lineto 554 770 lineto 50 770 lineto closepath
    clip
  } if
} def
%
% Gnuplot Prolog Version 5.2 (Dec 2017)
%
%/SuppressPDFMark true def
%
/M {moveto} bind def
/L {lineto} bind def
/R {rmoveto} bind def
/V {rlineto} bind def
/N {newpath moveto} bind def
/Z {closepath} bind def
/C {setrgbcolor} bind def
/f {rlineto fill} bind def
/g {setgray} bind def
/Gshow {show} def   % May be redefined later in the file to support UTF-8
/vpt2 vpt 2 mul def
/hpt2 hpt 2 mul def
/Lshow {currentpoint stroke M 0 vshift R 
	Blacktext {gsave 0 setgray textshow grestore} {textshow} ifelse} def
/Rshow {currentpoint stroke M dup stringwidth pop neg vshift R
	Blacktext {gsave 0 setgray textshow grestore} {textshow} ifelse} def
/Cshow {currentpoint stroke M dup stringwidth pop -2 div vshift R 
	Blacktext {gsave 0 setgray textshow grestore} {textshow} ifelse} def
/UP {dup vpt_ mul /vpt exch def hpt_ mul /hpt exch def
  /hpt2 hpt 2 mul def /vpt2 vpt 2 mul def} def
/DL {Color {setrgbcolor Solid {pop []} if 0 setdash}
 {pop pop pop 0 setgray Solid {pop []} if 0 setdash} ifelse} def
/BL {stroke userlinewidth 2 mul setlinewidth
	Rounded {1 setlinejoin 1 setlinecap} if} def
/AL {stroke userlinewidth 2 div setlinewidth
	Rounded {1 setlinejoin 1 setlinecap} if} def
/UL {dup gnulinewidth mul /userlinewidth exch def
	dup 1 lt {pop 1} if 10 mul /udl exch def} def
/PL {stroke userlinewidth setlinewidth
	Rounded {1 setlinejoin 1 setlinecap} if} def
3.8 setmiterlimit
% Classic Line colors (version 5.0)
/LCw {1 1 1} def
/LCb {0 0 0} def
/LCa {0 0 0} def
/LC0 {1 0 0} def
/LC1 {0 1 0} def
/LC2 {0 0 1} def
/LC3 {1 0 1} def
/LC4 {0 1 1} def
/LC5 {1 1 0} def
/LC6 {0 0 0} def
/LC7 {1 0.3 0} def
/LC8 {0.5 0.5 0.5} def
% Default dash patterns (version 5.0)
/LTB {BL [] LCb DL} def
/LTw {PL [] 1 setgray} def
/LTb {PL [] LCb DL} def
/LTa {AL [1 udl mul 2 udl mul] 0 setdash LCa setrgbcolor} def
/LT0 {PL [] LC0 DL} def
/LT1 {PL [2 dl1 3 dl2] LC1 DL} def
/LT2 {PL [1 dl1 1.5 dl2] LC2 DL} def
/LT3 {PL [6 dl1 2 dl2 1 dl1 2 dl2] LC3 DL} def
/LT4 {PL [1 dl1 2 dl2 6 dl1 2 dl2 1 dl1 2 dl2] LC4 DL} def
/LT5 {PL [4 dl1 2 dl2] LC5 DL} def
/LT6 {PL [1.5 dl1 1.5 dl2 1.5 dl1 1.5 dl2 1.5 dl1 6 dl2] LC6 DL} def
/LT7 {PL [3 dl1 3 dl2 1 dl1 3 dl2] LC7 DL} def
/LT8 {PL [2 dl1 2 dl2 2 dl1 6 dl2] LC8 DL} def
/SL {[] 0 setdash} def
/Pnt {stroke [] 0 setdash gsave 1 setlinecap M 0 0 V stroke grestore} def
/Dia {stroke [] 0 setdash 2 copy vpt add M
  hpt neg vpt neg V hpt vpt neg V
  hpt vpt V hpt neg vpt V closepath stroke
  Pnt} def
/Pls {stroke [] 0 setdash vpt sub M 0 vpt2 V
  currentpoint stroke M
  hpt neg vpt neg R hpt2 0 V stroke
 } def
/Box {stroke [] 0 setdash 2 copy exch hpt sub exch vpt add M
  0 vpt2 neg V hpt2 0 V 0 vpt2 V
  hpt2 neg 0 V closepath stroke
  Pnt} def
/Crs {stroke [] 0 setdash exch hpt sub exch vpt add M
  hpt2 vpt2 neg V currentpoint stroke M
  hpt2 neg 0 R hpt2 vpt2 V stroke} def
/TriU {stroke [] 0 setdash 2 copy vpt 1.12 mul add M
  hpt neg vpt -1.62 mul V
  hpt 2 mul 0 V
  hpt neg vpt 1.62 mul V closepath stroke
  Pnt} def
/Star {2 copy Pls Crs} def
/BoxF {stroke [] 0 setdash exch hpt sub exch vpt add M
  0 vpt2 neg V hpt2 0 V 0 vpt2 V
  hpt2 neg 0 V closepath fill} def
/TriUF {stroke [] 0 setdash vpt 1.12 mul add M
  hpt neg vpt -1.62 mul V
  hpt 2 mul 0 V
  hpt neg vpt 1.62 mul V closepath fill} def
/TriD {stroke [] 0 setdash 2 copy vpt 1.12 mul sub M
  hpt neg vpt 1.62 mul V
  hpt 2 mul 0 V
  hpt neg vpt -1.62 mul V closepath stroke
  Pnt} def
/TriDF {stroke [] 0 setdash vpt 1.12 mul sub M
  hpt neg vpt 1.62 mul V
  hpt 2 mul 0 V
  hpt neg vpt -1.62 mul V closepath fill} def
/DiaF {stroke [] 0 setdash vpt add M
  hpt neg vpt neg V hpt vpt neg V
  hpt vpt V hpt neg vpt V closepath fill} def
/Pent {stroke [] 0 setdash 2 copy gsave
  translate 0 hpt M 4 {72 rotate 0 hpt L} repeat
  closepath stroke grestore Pnt} def
/PentF {stroke [] 0 setdash gsave
  translate 0 hpt M 4 {72 rotate 0 hpt L} repeat
  closepath fill grestore} def
/Circle {stroke [] 0 setdash 2 copy
  hpt 0 360 arc stroke Pnt} def
/CircleF {stroke [] 0 setdash hpt 0 360 arc fill} def
/C0 {BL [] 0 setdash 2 copy moveto vpt 90 450 arc} bind def
/C1 {BL [] 0 setdash 2 copy moveto
	2 copy vpt 0 90 arc closepath fill
	vpt 0 360 arc closepath} bind def
/C2 {BL [] 0 setdash 2 copy moveto
	2 copy vpt 90 180 arc closepath fill
	vpt 0 360 arc closepath} bind def
/C3 {BL [] 0 setdash 2 copy moveto
	2 copy vpt 0 180 arc closepath fill
	vpt 0 360 arc closepath} bind def
/C4 {BL [] 0 setdash 2 copy moveto
	2 copy vpt 180 270 arc closepath fill
	vpt 0 360 arc closepath} bind def
/C5 {BL [] 0 setdash 2 copy moveto
	2 copy vpt 0 90 arc
	2 copy moveto
	2 copy vpt 180 270 arc closepath fill
	vpt 0 360 arc} bind def
/C6 {BL [] 0 setdash 2 copy moveto
	2 copy vpt 90 270 arc closepath fill
	vpt 0 360 arc closepath} bind def
/C7 {BL [] 0 setdash 2 copy moveto
	2 copy vpt 0 270 arc closepath fill
	vpt 0 360 arc closepath} bind def
/C8 {BL [] 0 setdash 2 copy moveto
	2 copy vpt 270 360 arc closepath fill
	vpt 0 360 arc closepath} bind def
/C9 {BL [] 0 setdash 2 copy moveto
	2 copy vpt 270 450 arc closepath fill
	vpt 0 360 arc closepath} bind def
/C10 {BL [] 0 setdash 2 copy 2 copy moveto vpt 270 360 arc closepath fill
	2 copy moveto
	2 copy vpt 90 180 arc closepath fill
	vpt 0 360 arc closepath} bind def
/C11 {BL [] 0 setdash 2 copy moveto
	2 copy vpt 0 180 arc closepath fill
	2 copy moveto
	2 copy vpt 270 360 arc closepath fill
	vpt 0 360 arc closepath} bind def
/C12 {BL [] 0 setdash 2 copy moveto
	2 copy vpt 180 360 arc closepath fill
	vpt 0 360 arc closepath} bind def
/C13 {BL [] 0 setdash 2 copy moveto
	2 copy vpt 0 90 arc closepath fill
	2 copy moveto
	2 copy vpt 180 360 arc closepath fill
	vpt 0 360 arc closepath} bind def
/C14 {BL [] 0 setdash 2 copy moveto
	2 copy vpt 90 360 arc closepath fill
	vpt 0 360 arc} bind def
/C15 {BL [] 0 setdash 2 copy vpt 0 360 arc closepath fill
	vpt 0 360 arc closepath} bind def
/Rec {newpath 4 2 roll moveto 1 index 0 rlineto 0 exch rlineto
	neg 0 rlineto closepath} bind def
/Square {dup Rec} bind def
/Bsquare {vpt sub exch vpt sub exch vpt2 Square} bind def
/S0 {BL [] 0 setdash 2 copy moveto 0 vpt rlineto BL Bsquare} bind def
/S1 {BL [] 0 setdash 2 copy vpt Square fill Bsquare} bind def
/S2 {BL [] 0 setdash 2 copy exch vpt sub exch vpt Square fill Bsquare} bind def
/S3 {BL [] 0 setdash 2 copy exch vpt sub exch vpt2 vpt Rec fill Bsquare} bind def
/S4 {BL [] 0 setdash 2 copy exch vpt sub exch vpt sub vpt Square fill Bsquare} bind def
/S5 {BL [] 0 setdash 2 copy 2 copy vpt Square fill
	exch vpt sub exch vpt sub vpt Square fill Bsquare} bind def
/S6 {BL [] 0 setdash 2 copy exch vpt sub exch vpt sub vpt vpt2 Rec fill Bsquare} bind def
/S7 {BL [] 0 setdash 2 copy exch vpt sub exch vpt sub vpt vpt2 Rec fill
	2 copy vpt Square fill Bsquare} bind def
/S8 {BL [] 0 setdash 2 copy vpt sub vpt Square fill Bsquare} bind def
/S9 {BL [] 0 setdash 2 copy vpt sub vpt vpt2 Rec fill Bsquare} bind def
/S10 {BL [] 0 setdash 2 copy vpt sub vpt Square fill 2 copy exch vpt sub exch vpt Square fill
	Bsquare} bind def
/S11 {BL [] 0 setdash 2 copy vpt sub vpt Square fill 2 copy exch vpt sub exch vpt2 vpt Rec fill
	Bsquare} bind def
/S12 {BL [] 0 setdash 2 copy exch vpt sub exch vpt sub vpt2 vpt Rec fill Bsquare} bind def
/S13 {BL [] 0 setdash 2 copy exch vpt sub exch vpt sub vpt2 vpt Rec fill
	2 copy vpt Square fill Bsquare} bind def
/S14 {BL [] 0 setdash 2 copy exch vpt sub exch vpt sub vpt2 vpt Rec fill
	2 copy exch vpt sub exch vpt Square fill Bsquare} bind def
/S15 {BL [] 0 setdash 2 copy Bsquare fill Bsquare} bind def
/D0 {gsave translate 45 rotate 0 0 S0 stroke grestore} bind def
/D1 {gsave translate 45 rotate 0 0 S1 stroke grestore} bind def
/D2 {gsave translate 45 rotate 0 0 S2 stroke grestore} bind def
/D3 {gsave translate 45 rotate 0 0 S3 stroke grestore} bind def
/D4 {gsave translate 45 rotate 0 0 S4 stroke grestore} bind def
/D5 {gsave translate 45 rotate 0 0 S5 stroke grestore} bind def
/D6 {gsave translate 45 rotate 0 0 S6 stroke grestore} bind def
/D7 {gsave translate 45 rotate 0 0 S7 stroke grestore} bind def
/D8 {gsave translate 45 rotate 0 0 S8 stroke grestore} bind def
/D9 {gsave translate 45 rotate 0 0 S9 stroke grestore} bind def
/D10 {gsave translate 45 rotate 0 0 S10 stroke grestore} bind def
/D11 {gsave translate 45 rotate 0 0 S11 stroke grestore} bind def
/D12 {gsave translate 45 rotate 0 0 S12 stroke grestore} bind def
/D13 {gsave translate 45 rotate 0 0 S13 stroke grestore} bind def
/D14 {gsave translate 45 rotate 0 0 S14 stroke grestore} bind def
/D15 {gsave translate 45 rotate 0 0 S15 stroke grestore} bind def
/DiaE {stroke [] 0 setdash vpt add M
  hpt neg vpt neg V hpt vpt neg V
  hpt vpt V hpt neg vpt V closepath stroke} def
/BoxE {stroke [] 0 setdash exch hpt sub exch vpt add M
  0 vpt2 neg V hpt2 0 V 0 vpt2 V
  hpt2 neg 0 V closepath stroke} def
/TriUE {stroke [] 0 setdash vpt 1.12 mul add M
  hpt neg vpt -1.62 mul V
  hpt 2 mul 0 V
  hpt neg vpt 1.62 mul V closepath stroke} def
/TriDE {stroke [] 0 setdash vpt 1.12 mul sub M
  hpt neg vpt 1.62 mul V
  hpt 2 mul 0 V
  hpt neg vpt -1.62 mul V closepath stroke} def
/PentE {stroke [] 0 setdash gsave
  translate 0 hpt M 4 {72 rotate 0 hpt L} repeat
  closepath stroke grestore} def
/CircE {stroke [] 0 setdash 
  hpt 0 360 arc stroke} def
/Opaque {gsave closepath 1 setgray fill grestore 0 setgray closepath} def
/DiaW {stroke [] 0 setdash vpt add M
  hpt neg vpt neg V hpt vpt neg V
  hpt vpt V hpt neg vpt V Opaque stroke} def
/BoxW {stroke [] 0 setdash exch hpt sub exch vpt add M
  0 vpt2 neg V hpt2 0 V 0 vpt2 V
  hpt2 neg 0 V Opaque stroke} def
/TriUW {stroke [] 0 setdash vpt 1.12 mul add M
  hpt neg vpt -1.62 mul V
  hpt 2 mul 0 V
  hpt neg vpt 1.62 mul V Opaque stroke} def
/TriDW {stroke [] 0 setdash vpt 1.12 mul sub M
  hpt neg vpt 1.62 mul V
  hpt 2 mul 0 V
  hpt neg vpt -1.62 mul V Opaque stroke} def
/PentW {stroke [] 0 setdash gsave
  translate 0 hpt M 4 {72 rotate 0 hpt L} repeat
  Opaque stroke grestore} def
/CircW {stroke [] 0 setdash 
  hpt 0 360 arc Opaque stroke} def
/BoxFill {gsave Rec 1 setgray fill grestore} def
/Density {
  /Fillden exch def
  currentrgbcolor
  /ColB exch def /ColG exch def /ColR exch def
  /ColR ColR Fillden mul Fillden sub 1 add def
  /ColG ColG Fillden mul Fillden sub 1 add def
  /ColB ColB Fillden mul Fillden sub 1 add def
  ColR ColG ColB setrgbcolor} def
/BoxColFill {gsave Rec PolyFill} def
/PolyFill {gsave Density fill grestore grestore} def
/h {rlineto rlineto rlineto closepath gsave fill grestore stroke} bind def
%
% PostScript Level 1 Pattern Fill routine for rectangles
% Usage: x y w h s a XX PatternFill
%	x,y = lower left corner of box to be filled
%	w,h = width and height of box
%	  a = angle in degrees between lines and x-axis
%	 XX = 0/1 for no/yes cross-hatch
%
/PatternFill {gsave /PFa [ 9 2 roll ] def
  PFa 0 get PFa 2 get 2 div add PFa 1 get PFa 3 get 2 div add translate
  PFa 2 get -2 div PFa 3 get -2 div PFa 2 get PFa 3 get Rec
  TransparentPatterns {} {gsave 1 setgray fill grestore} ifelse
  clip
  currentlinewidth 0.5 mul setlinewidth
  /PFs PFa 2 get dup mul PFa 3 get dup mul add sqrt def
  0 0 M PFa 5 get rotate PFs -2 div dup translate
  0 1 PFs PFa 4 get div 1 add floor cvi
	{PFa 4 get mul 0 M 0 PFs V} for
  0 PFa 6 get ne {
	0 1 PFs PFa 4 get div 1 add floor cvi
	{PFa 4 get mul 0 2 1 roll M PFs 0 V} for
 } if
  stroke grestore} def
%
/languagelevel where
 {pop languagelevel} {1} ifelse
dup 2 lt
	{/InterpretLevel1 true def
	 /InterpretLevel3 false def}
	{/InterpretLevel1 Level1 def
	 2 gt
	    {/InterpretLevel3 Level3 def}
	    {/InterpretLevel3 false def}
	 ifelse }
 ifelse
%
% PostScript level 2 pattern fill definitions
%
/Level2PatternFill {
/Tile8x8 {/PaintType 2 /PatternType 1 /TilingType 1 /BBox [0 0 8 8] /XStep 8 /YStep 8}
	bind def
/KeepColor {currentrgbcolor [/Pattern /DeviceRGB] setcolorspace} bind def
<< Tile8x8
 /PaintProc {0.5 setlinewidth pop 0 0 M 8 8 L 0 8 M 8 0 L stroke} 
>> matrix makepattern
/Pat1 exch def
<< Tile8x8
 /PaintProc {0.5 setlinewidth pop 0 0 M 8 8 L 0 8 M 8 0 L stroke
	0 4 M 4 8 L 8 4 L 4 0 L 0 4 L stroke}
>> matrix makepattern
/Pat2 exch def
<< Tile8x8
 /PaintProc {0.5 setlinewidth pop 0 0 M 0 8 L
	8 8 L 8 0 L 0 0 L fill}
>> matrix makepattern
/Pat3 exch def
<< Tile8x8
 /PaintProc {0.5 setlinewidth pop -4 8 M 8 -4 L
	0 12 M 12 0 L stroke}
>> matrix makepattern
/Pat4 exch def
<< Tile8x8
 /PaintProc {0.5 setlinewidth pop -4 0 M 8 12 L
	0 -4 M 12 8 L stroke}
>> matrix makepattern
/Pat5 exch def
<< Tile8x8
 /PaintProc {0.5 setlinewidth pop -2 8 M 4 -4 L
	0 12 M 8 -4 L 4 12 M 10 0 L stroke}
>> matrix makepattern
/Pat6 exch def
<< Tile8x8
 /PaintProc {0.5 setlinewidth pop -2 0 M 4 12 L
	0 -4 M 8 12 L 4 -4 M 10 8 L stroke}
>> matrix makepattern
/Pat7 exch def
<< Tile8x8
 /PaintProc {0.5 setlinewidth pop 8 -2 M -4 4 L
	12 0 M -4 8 L 12 4 M 0 10 L stroke}
>> matrix makepattern
/Pat8 exch def
<< Tile8x8
 /PaintProc {0.5 setlinewidth pop 0 -2 M 12 4 L
	-4 0 M 12 8 L -4 4 M 8 10 L stroke}
>> matrix makepattern
/Pat9 exch def
/Pattern1 {PatternBgnd KeepColor Pat1 setpattern} bind def
/Pattern2 {PatternBgnd KeepColor Pat2 setpattern} bind def
/Pattern3 {PatternBgnd KeepColor Pat3 setpattern} bind def
/Pattern4 {PatternBgnd KeepColor Landscape {Pat5} {Pat4} ifelse setpattern} bind def
/Pattern5 {PatternBgnd KeepColor Landscape {Pat4} {Pat5} ifelse setpattern} bind def
/Pattern6 {PatternBgnd KeepColor Landscape {Pat9} {Pat6} ifelse setpattern} bind def
/Pattern7 {PatternBgnd KeepColor Landscape {Pat8} {Pat7} ifelse setpattern} bind def
} def
%
%
%End of PostScript Level 2 code
%
/PatternBgnd {
  TransparentPatterns {} {gsave 1 setgray fill grestore} ifelse
} def
%
% Substitute for Level 2 pattern fill codes with
% grayscale if Level 2 support is not selected.
%
/Level1PatternFill {
/Pattern1 {0.250 Density} bind def
/Pattern2 {0.500 Density} bind def
/Pattern3 {0.750 Density} bind def
/Pattern4 {0.125 Density} bind def
/Pattern5 {0.375 Density} bind def
/Pattern6 {0.625 Density} bind def
/Pattern7 {0.875 Density} bind def
} def
%
% Now test for support of Level 2 code
%
Level1 {Level1PatternFill} {Level2PatternFill} ifelse
%
/Symbol-Oblique /Symbol findfont [1 0 .167 1 0 0] makefont
dup length dict begin {1 index /FID eq {pop pop} {def} ifelse} forall
currentdict end definefont pop
%
/Metrics {ExtendTextBox Gswidth} def
/Lwidth {currentpoint stroke M 0 vshift R Metrics} def
/Rwidth {currentpoint stroke M dup stringwidth pop neg vshift R Metrics} def
/Cwidth {currentpoint stroke M dup stringwidth pop -2 div vshift R Metrics} def
/GLwidth {currentpoint stroke M 0 vshift R {ExtendTextBox} forall} def
/GRwidth {currentpoint stroke M dup Gwidth vshift R {ExtendTextBox} forall} def
/GCwidth {currentpoint stroke M dup Gwidth 2 div vshift R {ExtendTextBox} forall} def
/GLwidth2 {0 Gwidth AddGlyphWidth} def
/GRwidth2 {Gwidth -1 mul 0 AddGlyphWidth} def
/GCwidth2 {Gwidth 2 div dup -1 mul AddGlyphWidth} def
/AddGlyphWidth { dup TBx2 gt {userdict /TBx2 3 -1 roll put} {pop} ifelse
                 dup TBx1 lt {userdict /TBx1 3 -1 roll put} {pop} ifelse } def
/MFshow {
   { dup 5 get 3 ge
     { 5 get 3 eq {gsave} {grestore} ifelse }
     {dup dup 0 get findfont exch 1 get scalefont setfont
     [ currentpoint ] exch dup 2 get 0 exch R dup 5 get 2 ne {dup dup 6
     get exch 4 get {textshow} {Metrics pop 0 R} ifelse }if dup 5 get 0 eq
     {dup 3 get {2 get neg 0 exch R pop} {pop aload pop M} ifelse} {dup 5
     get 1 eq {dup 2 get exch dup 3 get exch 6 get Gswidth pop -2 div
     dup 0 R} {dup 6 get Gswidth pop -2 div 0 R 6 get
     textshow 2 index {aload pop M neg 3 -1 roll neg R pop pop} {pop pop pop
     pop aload pop M} ifelse }ifelse }ifelse }
     ifelse }
   forall} def
/Gswidth {dup type /stringtype eq {stringwidth} {pop (n) stringwidth} ifelse} def
/MFwidth {0 exch { dup 5 get 3 ge { 5 get 3 eq { 0 } { pop } ifelse }
 {dup 3 get{dup dup 0 get findfont exch 1 get scalefont setfont
     6 get Gswidth pop add} {pop} ifelse} ifelse} forall} def
/MLshow { currentpoint stroke M
  0 exch R
  Blacktext {gsave 0 setgray MFshow grestore} {MFshow} ifelse } bind def
/MRshow { currentpoint stroke M
  exch dup MFwidth neg 3 -1 roll R
  Blacktext {gsave 0 setgray MFshow grestore} {MFshow} ifelse } bind def
/MCshow { currentpoint stroke M
  exch dup MFwidth -2 div 3 -1 roll R
  Blacktext {gsave 0 setgray MFshow grestore} {MFshow} ifelse } bind def
/XYsave    { [( ) 1 2 true false 3 ()] } bind def
/XYrestore { [( ) 1 2 true false 4 ()] } bind def
Level1 SuppressPDFMark or 
{} {
/SDict 10 dict def
systemdict /pdfmark known not {
  userdict /pdfmark systemdict /cleartomark get put
} if
SDict begin [
  /Title (Results.daisy.v100/Run.001/FLOPS.001/GPU_Blocks.0320/GPU_Threads.0512/graph2.ps)
  /Subject (gnuplot plot)
  /Creator (gnuplot 5.2 patchlevel 7)
%  /Producer (gnuplot)
%  /Keywords ()
  /CreationDate (Sun Jan 19 15:20:28 2020)
  /DOCINFO pdfmark
end
} ifelse
%
% Support for boxed text - Ethan A Merritt Sep 2016
%
/InitTextBox { userdict /TBy2 3 -1 roll put userdict /TBx2 3 -1 roll put
           userdict /TBy1 3 -1 roll put userdict /TBx1 3 -1 roll put
	   /Boxing true def } def
/ExtendTextBox { dup type /stringtype eq
    { Boxing { gsave dup false charpath pathbbox
      dup TBy2 gt {userdict /TBy2 3 -1 roll put} {pop} ifelse
      dup TBx2 gt {userdict /TBx2 3 -1 roll put} {pop} ifelse
      dup TBy1 lt {userdict /TBy1 3 -1 roll put} {pop} ifelse
      dup TBx1 lt {userdict /TBx1 3 -1 roll put} {pop} ifelse
      grestore } if }
    {} ifelse} def
/PopTextBox { newpath TBx1 TBxmargin sub TBy1 TBymargin sub M
               TBx1 TBxmargin sub TBy2 TBymargin add L
	       TBx2 TBxmargin add TBy2 TBymargin add L
	       TBx2 TBxmargin add TBy1 TBymargin sub L closepath } def
/DrawTextBox { PopTextBox stroke /Boxing false def} def
/FillTextBox { gsave PopTextBox fill grestore /Boxing false def} def
0 0 0 0 InitTextBox
/TBxmargin 20 def
/TBymargin 20 def
/Boxing false def
/textshow { ExtendTextBox Gshow } def
%
end
%%EndProlog
%%Page: 1 1
gnudict begin
gsave
doclip
50 50 translate
0.100 0.100 scale
90 rotate
0 -5040 translate
0 setgray
newpath
(Helvetica) findfont 140 scalefont setfont
BackgroundColor 0 lt 3 1 roll 0 lt exch 0 lt or or not {gsave BackgroundColor C clippath fill grestore} if
1.000 UL
LTb
LCb setrgbcolor
1.000 UL
LTa
LCa setrgbcolor
770 448 M
6107 0 V
stroke
LTb
LCb setrgbcolor
770 448 M
63 0 V
6044 0 R
-63 0 V
stroke
686 448 M
[ [(Helvetica) 140.0 0.0 true true 0 (1e-02)]
] -46.7 MRshow
/Helvetica findfont 140 scalefont setfont
/vshift -46 def
1.000 UL
LTb
LCb setrgbcolor
1.000 UL
LTa
LCa setrgbcolor
770 657 M
6107 0 V
stroke
LTb
LCb setrgbcolor
770 657 M
31 0 V
6076 0 R
-31 0 V
stroke
LTa
LCa setrgbcolor
770 780 M
6107 0 V
stroke
LTb
LCb setrgbcolor
770 780 M
31 0 V
6076 0 R
-31 0 V
stroke
LTa
LCa setrgbcolor
770 867 M
6107 0 V
stroke
LTb
LCb setrgbcolor
770 867 M
31 0 V
6076 0 R
-31 0 V
stroke
LTa
LCa setrgbcolor
770 934 M
6107 0 V
stroke
LTb
LCb setrgbcolor
770 934 M
31 0 V
6076 0 R
-31 0 V
stroke
LTa
LCa setrgbcolor
770 989 M
6107 0 V
stroke
LTb
LCb setrgbcolor
770 989 M
31 0 V
6076 0 R
-31 0 V
stroke
LTa
LCa setrgbcolor
770 1035 M
6107 0 V
stroke
LTb
LCb setrgbcolor
770 1035 M
31 0 V
6076 0 R
-31 0 V
stroke
LTa
LCa setrgbcolor
770 1076 M
6107 0 V
stroke
LTb
LCb setrgbcolor
770 1076 M
31 0 V
6076 0 R
-31 0 V
stroke
LTa
LCa setrgbcolor
770 1111 M
6107 0 V
stroke
LTb
LCb setrgbcolor
770 1111 M
31 0 V
6076 0 R
-31 0 V
stroke
LTa
LCa setrgbcolor
770 1143 M
6107 0 V
stroke
LTb
LCb setrgbcolor
770 1143 M
63 0 V
6044 0 R
-63 0 V
stroke
686 1143 M
[ [(Helvetica) 140.0 0.0 true true 0 (1e-01)]
] -46.7 MRshow
/Helvetica findfont 140 scalefont setfont
1.000 UL
LTb
LCb setrgbcolor
1.000 UL
LTa
LCa setrgbcolor
770 1352 M
6107 0 V
stroke
LTb
LCb setrgbcolor
770 1352 M
31 0 V
6076 0 R
-31 0 V
stroke
LTa
LCa setrgbcolor
770 1475 M
6107 0 V
stroke
LTb
LCb setrgbcolor
770 1475 M
31 0 V
6076 0 R
-31 0 V
stroke
LTa
LCa setrgbcolor
770 1562 M
6107 0 V
stroke
LTb
LCb setrgbcolor
770 1562 M
31 0 V
6076 0 R
-31 0 V
stroke
LTa
LCa setrgbcolor
770 1629 M
6107 0 V
stroke
LTb
LCb setrgbcolor
770 1629 M
31 0 V
6076 0 R
-31 0 V
stroke
LTa
LCa setrgbcolor
770 1684 M
6107 0 V
stroke
LTb
LCb setrgbcolor
770 1684 M
31 0 V
6076 0 R
-31 0 V
stroke
LTa
LCa setrgbcolor
770 1731 M
6107 0 V
stroke
LTb
LCb setrgbcolor
770 1731 M
31 0 V
6076 0 R
-31 0 V
stroke
LTa
LCa setrgbcolor
770 1771 M
6107 0 V
stroke
LTb
LCb setrgbcolor
770 1771 M
31 0 V
6076 0 R
-31 0 V
stroke
LTa
LCa setrgbcolor
770 1807 M
6107 0 V
stroke
LTb
LCb setrgbcolor
770 1807 M
31 0 V
6076 0 R
-31 0 V
stroke
LTa
LCa setrgbcolor
770 1838 M
6107 0 V
stroke
LTb
LCb setrgbcolor
770 1838 M
63 0 V
6044 0 R
-63 0 V
stroke
686 1838 M
[ [(Helvetica) 140.0 0.0 true true 0 (1e+00)]
] -46.7 MRshow
/Helvetica findfont 140 scalefont setfont
1.000 UL
LTb
LCb setrgbcolor
1.000 UL
LTa
LCa setrgbcolor
770 2048 M
6107 0 V
stroke
LTb
LCb setrgbcolor
770 2048 M
31 0 V
6076 0 R
-31 0 V
stroke
LTa
LCa setrgbcolor
770 2170 M
6107 0 V
stroke
LTb
LCb setrgbcolor
770 2170 M
31 0 V
6076 0 R
-31 0 V
stroke
LTa
LCa setrgbcolor
770 2257 M
6107 0 V
stroke
LTb
LCb setrgbcolor
770 2257 M
31 0 V
6076 0 R
-31 0 V
stroke
LTa
LCa setrgbcolor
770 2324 M
6107 0 V
stroke
LTb
LCb setrgbcolor
770 2324 M
31 0 V
6076 0 R
-31 0 V
stroke
LTa
LCa setrgbcolor
770 2379 M
6107 0 V
stroke
LTb
LCb setrgbcolor
770 2379 M
31 0 V
6076 0 R
-31 0 V
stroke
LTa
LCa setrgbcolor
770 2426 M
6107 0 V
stroke
LTb
LCb setrgbcolor
770 2426 M
31 0 V
6076 0 R
-31 0 V
stroke
LTa
LCa setrgbcolor
770 2466 M
6107 0 V
stroke
LTb
LCb setrgbcolor
770 2466 M
31 0 V
6076 0 R
-31 0 V
stroke
LTa
LCa setrgbcolor
770 2502 M
6107 0 V
stroke
LTb
LCb setrgbcolor
770 2502 M
31 0 V
6076 0 R
-31 0 V
stroke
LTa
LCa setrgbcolor
770 2534 M
6107 0 V
stroke
LTb
LCb setrgbcolor
770 2534 M
63 0 V
6044 0 R
-63 0 V
stroke
686 2534 M
[ [(Helvetica) 140.0 0.0 true true 0 (1e+01)]
] -46.7 MRshow
/Helvetica findfont 140 scalefont setfont
1.000 UL
LTb
LCb setrgbcolor
1.000 UL
LTa
LCa setrgbcolor
770 2743 M
6107 0 V
stroke
LTb
LCb setrgbcolor
770 2743 M
31 0 V
6076 0 R
-31 0 V
stroke
LTa
LCa setrgbcolor
770 2865 M
6107 0 V
stroke
LTb
LCb setrgbcolor
770 2865 M
31 0 V
6076 0 R
-31 0 V
stroke
LTa
LCa setrgbcolor
770 2952 M
6107 0 V
stroke
LTb
LCb setrgbcolor
770 2952 M
31 0 V
6076 0 R
-31 0 V
stroke
LTa
LCa setrgbcolor
770 3019 M
6107 0 V
stroke
LTb
LCb setrgbcolor
770 3019 M
31 0 V
6076 0 R
-31 0 V
stroke
LTa
LCa setrgbcolor
770 3074 M
6107 0 V
stroke
LTb
LCb setrgbcolor
770 3074 M
31 0 V
6076 0 R
-31 0 V
stroke
LTa
LCa setrgbcolor
770 3121 M
6107 0 V
stroke
LTb
LCb setrgbcolor
770 3121 M
31 0 V
6076 0 R
-31 0 V
stroke
LTa
LCa setrgbcolor
770 3161 M
6107 0 V
stroke
LTb
LCb setrgbcolor
770 3161 M
31 0 V
6076 0 R
-31 0 V
stroke
LTa
LCa setrgbcolor
770 3197 M
6107 0 V
stroke
LTb
LCb setrgbcolor
770 3197 M
31 0 V
6076 0 R
-31 0 V
stroke
LTa
LCa setrgbcolor
770 3229 M
6107 0 V
stroke
LTb
LCb setrgbcolor
770 3229 M
63 0 V
6044 0 R
-63 0 V
stroke
686 3229 M
[ [(Helvetica) 140.0 0.0 true true 0 (1e+02)]
] -46.7 MRshow
/Helvetica findfont 140 scalefont setfont
1.000 UL
LTb
LCb setrgbcolor
1.000 UL
LTa
LCa setrgbcolor
770 3438 M
6107 0 V
stroke
LTb
LCb setrgbcolor
770 3438 M
31 0 V
6076 0 R
-31 0 V
stroke
LTa
LCa setrgbcolor
770 3560 M
6107 0 V
stroke
LTb
LCb setrgbcolor
770 3560 M
31 0 V
6076 0 R
-31 0 V
stroke
LTa
LCa setrgbcolor
770 3647 M
6107 0 V
stroke
LTb
LCb setrgbcolor
770 3647 M
31 0 V
6076 0 R
-31 0 V
stroke
LTa
LCa setrgbcolor
770 3715 M
6107 0 V
stroke
LTb
LCb setrgbcolor
770 3715 M
31 0 V
6076 0 R
-31 0 V
stroke
LTa
LCa setrgbcolor
770 3770 M
6107 0 V
stroke
LTb
LCb setrgbcolor
770 3770 M
31 0 V
6076 0 R
-31 0 V
stroke
LTa
LCa setrgbcolor
770 3816 M
6107 0 V
stroke
LTb
LCb setrgbcolor
770 3816 M
31 0 V
6076 0 R
-31 0 V
stroke
LTa
LCa setrgbcolor
770 3856 M
6107 0 V
stroke
LTb
LCb setrgbcolor
770 3856 M
31 0 V
6076 0 R
-31 0 V
stroke
LTa
LCa setrgbcolor
770 3892 M
6107 0 V
stroke
LTb
LCb setrgbcolor
770 3892 M
31 0 V
6076 0 R
-31 0 V
stroke
LTa
LCa setrgbcolor
770 3924 M
6107 0 V
stroke
LTb
LCb setrgbcolor
770 3924 M
63 0 V
6044 0 R
-63 0 V
stroke
686 3924 M
[ [(Helvetica) 140.0 0.0 true true 0 (1e+03)]
] -46.7 MRshow
/Helvetica findfont 140 scalefont setfont
1.000 UL
LTb
LCb setrgbcolor
1.000 UL
LTa
LCa setrgbcolor
770 4133 M
6107 0 V
stroke
LTb
LCb setrgbcolor
770 4133 M
31 0 V
6076 0 R
-31 0 V
stroke
LTa
LCa setrgbcolor
770 4256 M
6107 0 V
stroke
LTb
LCb setrgbcolor
770 4256 M
31 0 V
6076 0 R
-31 0 V
stroke
LTa
LCa setrgbcolor
770 4342 M
6107 0 V
stroke
LTb
LCb setrgbcolor
770 4342 M
31 0 V
6076 0 R
-31 0 V
stroke
LTa
LCa setrgbcolor
770 4410 M
6107 0 V
stroke
LTb
LCb setrgbcolor
770 4410 M
31 0 V
6076 0 R
-31 0 V
stroke
LTa
LCa setrgbcolor
770 4465 M
6107 0 V
stroke
LTb
LCb setrgbcolor
770 4465 M
31 0 V
6076 0 R
-31 0 V
stroke
LTa
LCa setrgbcolor
770 4511 M
6107 0 V
stroke
LTb
LCb setrgbcolor
770 4511 M
31 0 V
6076 0 R
-31 0 V
stroke
LTa
LCa setrgbcolor
770 4552 M
6107 0 V
stroke
LTb
LCb setrgbcolor
770 4552 M
31 0 V
6076 0 R
-31 0 V
stroke
LTa
LCa setrgbcolor
770 4587 M
6107 0 V
stroke
LTb
LCb setrgbcolor
770 4587 M
31 0 V
6076 0 R
-31 0 V
stroke
LTa
LCa setrgbcolor
770 4619 M
6107 0 V
stroke
LTb
LCb setrgbcolor
770 4619 M
63 0 V
6044 0 R
-63 0 V
stroke
686 4619 M
[ [(Helvetica) 140.0 0.0 true true 0 (1e+04)]
] -46.7 MRshow
/Helvetica findfont 140 scalefont setfont
1.000 UL
LTb
LCb setrgbcolor
1.000 UL
LTa
LCa setrgbcolor
1067 448 M
0 4171 V
stroke
LTb
LCb setrgbcolor
1067 448 M
0 31 V
0 4140 R
0 -31 V
stroke
LTa
LCa setrgbcolor
1246 448 M
0 4171 V
stroke
LTb
LCb setrgbcolor
1246 448 M
0 31 V
0 4140 R
0 -31 V
stroke
LTa
LCa setrgbcolor
1374 448 M
0 4171 V
stroke
LTb
LCb setrgbcolor
1374 448 M
0 31 V
0 4140 R
0 -31 V
stroke
LTa
LCa setrgbcolor
1473 448 M
0 4171 V
stroke
LTb
LCb setrgbcolor
1473 448 M
0 31 V
0 4140 R
0 -31 V
stroke
LTa
LCa setrgbcolor
1553 448 M
0 4171 V
stroke
LTb
LCb setrgbcolor
1553 448 M
0 31 V
0 4140 R
0 -31 V
stroke
LTa
LCa setrgbcolor
1622 448 M
0 4171 V
stroke
LTb
LCb setrgbcolor
1622 448 M
0 31 V
0 4140 R
0 -31 V
stroke
LTa
LCa setrgbcolor
1681 448 M
0 4171 V
stroke
LTb
LCb setrgbcolor
1681 448 M
0 31 V
0 4140 R
0 -31 V
stroke
LTa
LCa setrgbcolor
1733 448 M
0 4171 V
stroke
LTb
LCb setrgbcolor
1733 448 M
0 31 V
0 4140 R
0 -31 V
stroke
LTa
LCa setrgbcolor
1780 448 M
0 4171 V
stroke
LTb
LCb setrgbcolor
1780 448 M
0 63 V
0 4108 R
0 -63 V
stroke
1780 308 M
[ [(Helvetica) 140.0 0.0 true true 0 (1e+04)]
] -46.7 MCshow
/Helvetica findfont 140 scalefont setfont
1.000 UL
LTb
LCb setrgbcolor
1.000 UL
LTa
LCa setrgbcolor
2087 448 M
0 4171 V
stroke
LTb
LCb setrgbcolor
2087 448 M
0 31 V
0 4140 R
0 -31 V
stroke
LTa
LCa setrgbcolor
2266 448 M
0 4171 V
stroke
LTb
LCb setrgbcolor
2266 448 M
0 31 V
0 4140 R
0 -31 V
stroke
LTa
LCa setrgbcolor
2394 448 M
0 4171 V
stroke
LTb
LCb setrgbcolor
2394 448 M
0 31 V
0 4140 R
0 -31 V
stroke
LTa
LCa setrgbcolor
2493 448 M
0 4171 V
stroke
LTb
LCb setrgbcolor
2493 448 M
0 31 V
0 4140 R
0 -31 V
stroke
LTa
LCa setrgbcolor
2573 448 M
0 4171 V
stroke
LTb
LCb setrgbcolor
2573 448 M
0 31 V
0 4140 R
0 -31 V
stroke
LTa
LCa setrgbcolor
2642 448 M
0 4171 V
stroke
LTb
LCb setrgbcolor
2642 448 M
0 31 V
0 4140 R
0 -31 V
stroke
LTa
LCa setrgbcolor
2701 448 M
0 4171 V
stroke
LTb
LCb setrgbcolor
2701 448 M
0 31 V
0 4140 R
0 -31 V
stroke
LTa
LCa setrgbcolor
2753 448 M
0 4171 V
stroke
LTb
LCb setrgbcolor
2753 448 M
0 31 V
0 4140 R
0 -31 V
stroke
LTa
LCa setrgbcolor
2800 448 M
0 4171 V
stroke
LTb
LCb setrgbcolor
2800 448 M
0 63 V
0 4108 R
0 -63 V
stroke
2800 308 M
[ [(Helvetica) 140.0 0.0 true true 0 (1e+05)]
] -46.7 MCshow
/Helvetica findfont 140 scalefont setfont
1.000 UL
LTb
LCb setrgbcolor
1.000 UL
LTa
LCa setrgbcolor
3107 448 M
0 4171 V
stroke
LTb
LCb setrgbcolor
3107 448 M
0 31 V
0 4140 R
0 -31 V
stroke
LTa
LCa setrgbcolor
3286 448 M
0 4171 V
stroke
LTb
LCb setrgbcolor
3286 448 M
0 31 V
0 4140 R
0 -31 V
stroke
LTa
LCa setrgbcolor
3414 448 M
0 4171 V
stroke
LTb
LCb setrgbcolor
3414 448 M
0 31 V
0 4140 R
0 -31 V
stroke
LTa
LCa setrgbcolor
3513 448 M
0 4171 V
stroke
LTb
LCb setrgbcolor
3513 448 M
0 31 V
0 4140 R
0 -31 V
stroke
LTa
LCa setrgbcolor
3593 448 M
0 4171 V
stroke
LTb
LCb setrgbcolor
3593 448 M
0 31 V
0 4140 R
0 -31 V
stroke
LTa
LCa setrgbcolor
3662 448 M
0 4171 V
stroke
LTb
LCb setrgbcolor
3662 448 M
0 31 V
0 4140 R
0 -31 V
stroke
LTa
LCa setrgbcolor
3721 448 M
0 4171 V
stroke
LTb
LCb setrgbcolor
3721 448 M
0 31 V
0 4140 R
0 -31 V
stroke
LTa
LCa setrgbcolor
3773 448 M
0 4171 V
stroke
LTb
LCb setrgbcolor
3773 448 M
0 31 V
0 4140 R
0 -31 V
stroke
LTa
LCa setrgbcolor
3820 448 M
0 4171 V
stroke
LTb
LCb setrgbcolor
3820 448 M
0 63 V
0 4108 R
0 -63 V
stroke
3820 308 M
[ [(Helvetica) 140.0 0.0 true true 0 (1e+06)]
] -46.7 MCshow
/Helvetica findfont 140 scalefont setfont
1.000 UL
LTb
LCb setrgbcolor
1.000 UL
LTa
LCa setrgbcolor
4127 448 M
0 4171 V
stroke
LTb
LCb setrgbcolor
4127 448 M
0 31 V
0 4140 R
0 -31 V
stroke
LTa
LCa setrgbcolor
4306 448 M
0 4171 V
stroke
LTb
LCb setrgbcolor
4306 448 M
0 31 V
0 4140 R
0 -31 V
stroke
LTa
LCa setrgbcolor
4434 448 M
0 4171 V
stroke
LTb
LCb setrgbcolor
4434 448 M
0 31 V
0 4140 R
0 -31 V
stroke
LTa
LCa setrgbcolor
4533 448 M
0 4171 V
stroke
LTb
LCb setrgbcolor
4533 448 M
0 31 V
0 4140 R
0 -31 V
stroke
LTa
LCa setrgbcolor
4614 448 M
0 4171 V
stroke
LTb
LCb setrgbcolor
4614 448 M
0 31 V
0 4140 R
0 -31 V
stroke
LTa
LCa setrgbcolor
4682 448 M
0 4171 V
stroke
LTb
LCb setrgbcolor
4682 448 M
0 31 V
0 4140 R
0 -31 V
stroke
LTa
LCa setrgbcolor
4741 448 M
0 4171 V
stroke
LTb
LCb setrgbcolor
4741 448 M
0 31 V
0 4140 R
0 -31 V
stroke
LTa
LCa setrgbcolor
4793 448 M
0 4171 V
stroke
LTb
LCb setrgbcolor
4793 448 M
0 31 V
0 4140 R
0 -31 V
stroke
LTa
LCa setrgbcolor
4840 448 M
0 4171 V
stroke
LTb
LCb setrgbcolor
4840 448 M
0 63 V
0 4108 R
0 -63 V
stroke
4840 308 M
[ [(Helvetica) 140.0 0.0 true true 0 (1e+07)]
] -46.7 MCshow
/Helvetica findfont 140 scalefont setfont
1.000 UL
LTb
LCb setrgbcolor
1.000 UL
LTa
LCa setrgbcolor
5147 448 M
0 4171 V
stroke
LTb
LCb setrgbcolor
5147 448 M
0 31 V
0 4140 R
0 -31 V
stroke
LTa
LCa setrgbcolor
5327 448 M
0 4171 V
stroke
LTb
LCb setrgbcolor
5327 448 M
0 31 V
0 4140 R
0 -31 V
stroke
LTa
LCa setrgbcolor
5454 448 M
0 4171 V
stroke
LTb
LCb setrgbcolor
5454 448 M
0 31 V
0 4140 R
0 -31 V
stroke
LTa
LCa setrgbcolor
5553 448 M
0 4171 V
stroke
LTb
LCb setrgbcolor
5553 448 M
0 31 V
0 4140 R
0 -31 V
stroke
LTa
LCa setrgbcolor
5634 448 M
0 4171 V
stroke
LTb
LCb setrgbcolor
5634 448 M
0 31 V
0 4140 R
0 -31 V
stroke
LTa
LCa setrgbcolor
5702 448 M
0 4171 V
stroke
LTb
LCb setrgbcolor
5702 448 M
0 31 V
0 4140 R
0 -31 V
stroke
LTa
LCa setrgbcolor
5761 448 M
0 4171 V
stroke
LTb
LCb setrgbcolor
5761 448 M
0 31 V
0 4140 R
0 -31 V
stroke
LTa
LCa setrgbcolor
5813 448 M
0 4171 V
stroke
LTb
LCb setrgbcolor
5813 448 M
0 31 V
0 4140 R
0 -31 V
stroke
LTa
LCa setrgbcolor
5860 448 M
0 4171 V
stroke
LTb
LCb setrgbcolor
5860 448 M
0 63 V
0 4108 R
0 -63 V
stroke
5860 308 M
[ [(Helvetica) 140.0 0.0 true true 0 (1e+08)]
] -46.7 MCshow
/Helvetica findfont 140 scalefont setfont
1.000 UL
LTb
LCb setrgbcolor
1.000 UL
LTa
LCa setrgbcolor
6167 448 M
0 4171 V
stroke
LTb
LCb setrgbcolor
6167 448 M
0 31 V
0 4140 R
0 -31 V
stroke
LTa
LCa setrgbcolor
6347 448 M
0 4171 V
stroke
LTb
LCb setrgbcolor
6347 448 M
0 31 V
0 4140 R
0 -31 V
stroke
LTa
LCa setrgbcolor
6474 448 M
0 4171 V
stroke
LTb
LCb setrgbcolor
6474 448 M
0 31 V
0 4140 R
0 -31 V
stroke
LTa
LCa setrgbcolor
6573 448 M
0 4171 V
stroke
LTb
LCb setrgbcolor
6573 448 M
0 31 V
0 4140 R
0 -31 V
stroke
LTa
LCa setrgbcolor
6654 448 M
0 4171 V
stroke
LTb
LCb setrgbcolor
6654 448 M
0 31 V
0 4140 R
0 -31 V
stroke
LTa
LCa setrgbcolor
6722 448 M
0 4171 V
stroke
LTb
LCb setrgbcolor
6722 448 M
0 31 V
0 4140 R
0 -31 V
stroke
LTa
LCa setrgbcolor
6781 448 M
0 4171 V
stroke
LTb
LCb setrgbcolor
6781 448 M
0 31 V
0 4140 R
0 -31 V
stroke
LTa
LCa setrgbcolor
6833 448 M
0 4171 V
stroke
LTb
LCb setrgbcolor
6833 448 M
0 31 V
0 4140 R
0 -31 V
stroke
LTa
LCa setrgbcolor
6880 448 M
0 4171 V
stroke
LTb
LCb setrgbcolor
1.000 UL
LTB
LCb setrgbcolor
770 4619 N
770 448 L
6107 0 V
0 4171 V
-6107 0 V
Z stroke
1.000 UP
1.000 UL
LTb
LCb setrgbcolor
LCb setrgbcolor
196 2533 M
currentpoint gsave translate -270 rotate 0 0 moveto
[ [(Helvetica) 140.0 0.0 true true 0 (Total Bandwidth \(GB/s\))]
] -46.7 MCshow
grestore
/Helvetica findfont 140 scalefont setfont
LTb
LCb setrgbcolor
LTb
LCb setrgbcolor
3823 98 M
[ [(Helvetica) 140.0 0.0 true true 0 (Working Set Size \(bytes\))]
] -46.7 MCshow
/Helvetica findfont 140 scalefont setfont
LTb
LCb setrgbcolor
3823 4829 M
[ [(Helvetica) 140.0 0.0 true true 0 (Graph 2 \(Results.daisy.v100/Run.001/FLOPS.001/GPU)]
[(Helvetica) 112.0 -42.0 true true 0 (B)]
[(Helvetica) 140.0 0.0 true true 0 (locks.0320/GPU)]
[(Helvetica) 112.0 -42.0 true true 0 (T)]
[(Helvetica) 140.0 0.0 true true 0 (hreads.0512\))]
] -32.7 MCshow
/Helvetica findfont 140 scalefont setfont
LTb
LCb setrgbcolor
LTb
LCb setrgbcolor
% Begin plot #1
0.400 UP
1.000 UL
LTb
0.58 0.00 0.83 C
770 1094 M
0 441 V
0 236 V
0 206 V
0 186 V
0 159 V
0 117 V
0 93 V
0 64 V
0 -14 V
0 23 V
0 -9 V
0 3 V
0 5 V
0 -1 V
0 2 V
0 -1 V
0 1 V
810 1194 M
0 391 V
0 242 V
0 179 V
0 178 V
0 152 V
0 131 V
0 56 V
0 39 V
0 50 V
0 -19 V
0 20 V
0 -7 V
0 3 V
0 4 V
0 1 V
852 1217 M
0 410 V
0 209 V
0 214 V
0 156 V
0 162 V
0 130 V
0 89 V
0 -17 V
0 49 V
0 -2 V
0 12 V
0 4 V
0 2 V
0 4 V
0 1 V
0 1 V
893 1186 M
0 451 V
0 225 V
0 199 V
0 175 V
0 171 V
0 116 V
0 74 V
0 35 V
0 44 V
0 -12 V
0 -6 V
0 5 V
0 3 V
0 4 V
0 1 V
933 1256 M
0 422 V
0 207 V
0 209 V
0 183 V
0 149 V
0 125 V
0 91 V
0 50 V
0 -31 V
0 27 V
0 -4 V
0 4 V
0 3 V
0 5 V
0 -1 V
0 1 V
974 1274 M
0 416 V
0 246 V
0 184 V
0 181 V
0 148 V
0 134 V
0 64 V
0 29 V
0 54 V
0 -24 V
0 21 V
0 -9 V
0 3 V
0 4 V
0 1 V
42 -1447 R
0 417 V
0 263 V
0 193 V
0 177 V
0 154 V
0 128 V
0 85 V
0 53 V
0 -25 V
0 23 V
0 -4 V
0 2 V
0 3 V
0 3 V
0 1 V
42 -1412 R
0 392 V
0 244 V
0 196 V
0 171 V
0 163 V
0 121 V
0 80 V
0 29 V
0 53 V
0 -19 V
0 -3 V
0 5 V
0 7 V
0 -1 V
0 2 V
41 -1411 R
0 408 V
0 218 V
0 213 V
0 178 V
0 159 V
0 111 V
0 74 V
0 33 V
0 49 V
0 -11 V
0 12 V
0 -7 V
0 4 V
0 1 V
0 1 V
41 -1396 R
0 353 V
0 243 V
0 225 V
0 176 V
0 151 V
0 127 V
0 81 V
0 33 V
0 46 V
0 -19 V
0 -3 V
0 6 V
0 3 V
0 1 V
0 1 V
41 -1436 R
0 450 V
0 202 V
0 199 V
0 196 V
0 150 V
0 125 V
0 80 V
0 58 V
0 -25 V
0 23 V
0 -2 V
0 8 V
0 -3 V
0 2 V
0 1 V
0 1 V
42 -1408 R
0 396 V
0 233 V
0 190 V
0 182 V
0 163 V
0 123 V
0 84 V
0 62 V
0 -8 V
0 -13 V
0 18 V
0 5 V
0 -3 V
0 4 V
42 -1378 R
0 399 V
0 191 V
0 199 V
0 134 V
0 210 V
0 118 V
0 82 V
0 56 V
0 -2 V
0 -8 V
0 18 V
0 6 V
0 2 V
0 1 V
42 -1442 R
0 445 V
0 226 V
0 184 V
0 196 V
0 145 V
0 124 V
0 81 V
0 61 V
0 -25 V
0 25 V
0 1 V
0 5 V
0 1 V
0 1 V
0 1 V
42 -1438 R
0 444 V
0 219 V
0 178 V
0 197 V
0 160 V
0 117 V
0 79 V
0 -3 V
0 47 V
0 19 V
0 1 V
0 3 V
0 2 V
0 1 V
42 -1425 R
0 433 V
0 220 V
0 190 V
0 185 V
0 159 V
0 113 V
0 79 V
stroke 1391 2934 M
0 32 V
0 27 V
0 -5 V
0 11 V
0 2 V
0 2 V
0 3 V
0 1 V
42 -1420 R
0 424 V
0 223 V
0 187 V
0 188 V
0 151 V
0 134 V
0 81 V
0 24 V
0 22 V
0 -7 V
0 18 V
0 -5 V
0 2 V
0 2 V
0 1 V
42 -1422 R
0 446 V
0 218 V
0 173 V
0 187 V
0 165 V
0 108 V
0 100 V
0 49 V
0 -30 V
0 29 V
0 -6 V
0 6 V
0 2 V
0 2 V
0 2 V
42 -1411 R
0 410 V
0 213 V
0 187 V
0 183 V
0 160 V
0 125 V
0 86 V
0 56 V
0 -21 V
0 22 V
0 13 V
0 2 V
0 2 V
0 3 V
0 1 V
42 -1415 R
0 433 V
0 204 V
0 197 V
0 193 V
0 150 V
0 85 V
0 93 V
0 46 V
0 51 V
0 -16 V
0 -5 V
0 4 V
0 7 V
0 1 V
42 -1386 R
0 408 V
0 221 V
0 191 V
0 178 V
0 120 V
0 156 V
0 81 V
0 58 V
0 -13 V
0 -6 V
0 17 V
0 6 V
0 -2 V
0 2 V
0 1 V
42 -1426 R
0 445 V
0 220 V
0 179 V
0 186 V
0 154 V
0 88 V
0 116 V
0 37 V
0 -19 V
0 22 V
0 21 V
0 -5 V
0 7 V
0 1 V
0 1 V
42 -1388 R
0 392 V
0 169 V
0 254 V
0 174 V
0 143 V
0 129 V
0 49 V
0 39 V
0 39 V
0 19 V
0 5 V
0 2 V
0 2 V
0 1 V
42 -1409 R
0 418 V
0 228 V
0 182 V
0 194 V
0 134 V
0 133 V
0 90 V
0 56 V
0 -30 V
0 17 V
0 1 V
0 6 V
0 3 V
0 2 V
0 1 V
43 -1411 R
0 427 V
0 190 V
0 233 V
0 172 V
0 146 V
0 86 V
0 130 V
0 -6 V
0 40 V
0 6 V
0 19 V
0 -6 V
0 8 V
42 -1399 R
0 414 V
0 220 V
0 198 V
0 156 V
0 162 V
0 124 V
0 86 V
0 40 V
0 -3 V
0 19 V
0 12 V
0 8 V
0 2 V
0 1 V
0 1 V
42 -1424 R
0 418 V
0 224 V
0 189 V
0 182 V
0 134 V
0 144 V
0 77 V
0 4 V
0 47 V
0 -5 V
0 18 V
0 7 V
0 1 V
0 1 V
0 1 V
42 -1403 R
0 423 V
0 203 V
0 209 V
0 162 V
0 159 V
0 84 V
0 104 V
0 41 V
0 13 V
0 17 V
0 4 V
0 3 V
0 2 V
0 1 V
42 -1391 R
0 400 V
0 215 V
0 206 V
0 156 V
0 164 V
0 123 V
0 78 V
0 42 V
0 -6 V
0 22 V
0 20 V
0 -6 V
0 6 V
0 2 V
42 -1396 R
0 411 V
0 220 V
0 114 V
0 243 V
0 174 V
0 120 V
0 65 V
0 13 V
0 41 V
0 8 V
0 11 V
0 5 V
0 3 V
0 -1 V
0 1 V
42 -1420 R
0 412 V
0 229 V
0 208 V
0 155 V
0 159 V
0 125 V
0 50 V
0 47 V
0 17 V
0 20 V
0 13 V
0 1 V
0 1 V
0 2 V
0 2 V
42 -1431 R
0 442 V
0 180 V
0 240 V
0 179 V
0 147 V
0 124 V
stroke 2064 3314 M
0 47 V
0 44 V
0 38 V
0 9 V
0 8 V
0 7 V
0 1 V
0 -1 V
0 1 V
42 -1422 R
0 438 V
0 209 V
0 173 V
0 192 V
0 167 V
0 108 V
0 85 V
0 6 V
0 43 V
0 13 V
0 1 V
0 5 V
0 1 V
0 2 V
0 1 V
43 -1386 R
0 409 V
0 197 V
0 219 V
0 179 V
0 139 V
0 125 V
0 89 V
0 -6 V
0 36 V
0 28 V
0 -1 V
0 4 V
0 -3 V
0 2 V
0 1 V
42 -1418 R
0 433 V
0 207 V
0 190 V
0 186 V
0 142 V
0 139 V
0 93 V
0 56 V
0 -24 V
0 2 V
0 11 V
0 5 V
0 2 V
0 2 V
0 1 V
42 -1418 R
0 427 V
0 216 V
0 199 V
0 192 V
0 149 V
0 78 V
0 78 V
0 39 V
0 36 V
0 23 V
0 6 V
0 6 V
0 2 V
42 -1389 R
0 395 V
0 209 V
0 201 V
0 199 V
0 143 V
0 83 V
0 109 V
0 40 V
0 -2 V
0 11 V
0 21 V
0 1 V
0 3 V
0 2 V
0 -1 V
42 -1398 R
0 418 V
0 211 V
0 194 V
0 193 V
0 152 V
0 117 V
0 40 V
0 42 V
0 36 V
0 8 V
0 12 V
0 3 V
0 2 V
0 2 V
42 -1382 R
0 388 V
0 228 V
0 190 V
0 174 V
0 141 V
0 107 V
0 69 V
0 49 V
0 36 V
0 6 V
0 13 V
0 2 V
0 2 V
0 1 V
43 -1381 R
0 383 V
0 229 V
0 191 V
0 189 V
0 133 V
0 144 V
0 82 V
0 23 V
0 30 V
0 12 V
0 -3 V
0 3 V
0 1 V
42 -1375 R
0 378 V
0 230 V
0 182 V
0 186 V
0 145 V
0 107 V
0 73 V
0 46 V
0 2 V
0 26 V
0 22 V
0 2 V
0 -2 V
0 2 V
42 -1412 R
0 439 V
0 205 V
0 186 V
0 194 V
0 149 V
0 125 V
0 33 V
0 48 V
0 26 V
0 21 V
0 18 V
0 -6 V
0 2 V
0 2 V
42 -1400 R
0 413 V
0 225 V
0 191 V
0 186 V
0 150 V
0 116 V
0 40 V
0 47 V
0 20 V
0 17 V
0 17 V
0 -3 V
0 2 V
0 2 V
42 -1406 R
0 428 V
0 217 V
0 184 V
0 194 V
0 148 V
0 123 V
0 48 V
0 45 V
0 18 V
0 21 V
0 2 V
0 5 V
0 9 V
0 -1 V
42 -1368 R
0 373 V
0 231 V
0 182 V
0 196 V
0 137 V
0 121 V
0 46 V
0 45 V
0 30 V
0 23 V
0 15 V
0 9 V
0 2 V
0 1 V
43 -1450 R
0 438 V
0 190 V
0 202 V
0 180 V
0 168 V
0 138 V
0 42 V
0 42 V
0 32 V
0 6 V
0 17 V
0 3 V
0 3 V
42 -1399 R
0 418 V
0 200 V
0 204 V
0 181 V
0 167 V
0 107 V
0 42 V
0 43 V
0 47 V
0 -3 V
0 12 V
0 4 V
0 2 V
42 -1412 R
0 409 V
0 235 V
0 195 V
0 181 V
0 147 V
0 123 V
0 44 V
0 49 V
0 31 V
0 10 V
0 13 V
0 4 V
0 2 V
42 -1397 R
0 409 V
stroke 2781 2933 M
0 226 V
0 191 V
0 187 V
0 118 V
0 147 V
0 43 V
0 46 V
0 38 V
0 3 V
0 20 V
0 -6 V
0 5 V
43 -1407 R
0 412 V
0 223 V
0 194 V
0 193 V
0 141 V
0 125 V
0 68 V
0 23 V
0 25 V
0 10 V
0 21 V
0 4 V
0 2 V
42 -1393 R
0 400 V
0 222 V
0 191 V
0 183 V
0 136 V
0 103 V
0 83 V
0 47 V
0 30 V
0 5 V
0 18 V
0 -5 V
0 8 V
42 -1422 R
0 428 V
0 223 V
0 193 V
0 183 V
0 154 V
0 93 V
0 114 V
0 6 V
0 23 V
0 10 V
0 16 V
0 -3 V
0 2 V
42 -1390 R
0 389 V
0 237 V
0 196 V
0 182 V
0 131 V
0 140 V
0 48 V
0 46 V
0 18 V
0 18 V
0 21 V
0 -8 V
42 -1421 R
0 441 V
0 207 V
0 201 V
0 122 V
0 209 V
0 124 V
0 29 V
0 52 V
0 48 V
0 11 V
0 4 V
0 7 V
43 -1421 R
0 431 V
0 206 V
0 216 V
0 154 V
0 156 V
0 116 V
0 72 V
0 5 V
0 27 V
0 -2 V
0 3 V
42 -1336 R
0 423 V
0 210 V
0 195 V
0 167 V
0 146 V
0 98 V
0 71 V
0 8 V
0 -2 V
0 18 V
0 22 V
0 8 V
42 -1353 R
0 411 V
0 250 V
0 172 V
0 21 V
0 279 V
0 88 V
0 105 V
0 8 V
0 16 V
0 22 V
0 10 V
42 -1333 R
0 415 V
0 206 V
0 195 V
0 165 V
0 166 V
0 47 V
0 112 V
0 6 V
0 6 V
0 13 V
0 25 V
0 3 V
43 -1339 R
0 412 V
0 218 V
0 202 V
0 179 V
0 99 V
0 142 V
0 61 V
0 7 V
0 -3 V
0 24 V
0 23 V
0 -2 V
42 -1325 R
0 409 V
0 214 V
0 200 V
0 174 V
0 144 V
0 107 V
0 72 V
0 30 V
0 -46 V
0 26 V
0 24 V
42 -1341 R
0 424 V
0 210 V
0 210 V
0 140 V
0 171 V
0 57 V
0 62 V
0 38 V
0 25 V
0 13 V
0 23 V
42 -1343 R
0 421 V
0 204 V
0 186 V
0 148 V
0 129 V
0 95 V
0 62 V
0 16 V
0 36 V
0 -12 V
0 10 V
42 -1277 R
0 426 V
0 216 V
0 191 V
0 146 V
0 123 V
0 81 V
0 60 V
0 27 V
0 10 V
0 6 V
0 13 V
43 -1265 R
0 429 V
0 182 V
0 207 V
0 141 V
0 139 V
0 84 V
0 56 V
0 29 V
0 10 V
0 6 V
0 10 V
42 -1267 R
0 437 V
0 177 V
0 163 V
0 199 V
0 113 V
0 98 V
0 42 V
0 34 V
0 14 V
0 7 V
0 10 V
42 -1244 R
0 417 V
0 173 V
0 211 V
0 142 V
0 118 V
0 91 V
0 44 V
0 52 V
0 8 V
0 5 V
0 7 V
42 -1235 R
0 412 V
0 152 V
0 196 V
0 148 V
0 107 V
0 86 V
0 47 V
0 28 V
0 13 V
0 8 V
43 -1181 R
0 404 V
0 215 V
0 186 V
0 132 V
0 102 V
0 78 V
0 44 V
0 27 V
0 15 V
0 6 V
stroke 3584 4268 M
42 -1168 R
0 365 V
0 236 V
0 173 V
0 142 V
0 111 V
0 65 V
0 53 V
0 25 V
0 14 V
0 2 V
42 -1177 R
0 416 V
0 184 V
0 180 V
0 4 V
0 214 V
0 72 V
0 41 V
0 21 V
0 12 V
0 6 V
42 -1084 R
0 377 V
0 189 V
0 178 V
0 125 V
0 89 V
0 72 V
0 40 V
0 23 V
0 12 V
0 5 V
42 -1103 R
0 391 V
0 191 V
0 169 V
0 116 V
0 87 V
0 57 V
0 32 V
0 22 V
0 11 V
0 4 V
43 -1080 R
0 413 V
0 196 V
0 172 V
0 116 V
0 87 V
0 53 V
0 37 V
0 18 V
0 10 V
0 5 V
42 -1098 R
0 437 V
0 183 V
0 152 V
0 114 V
0 85 V
0 38 V
0 41 V
0 18 V
0 10 V
0 4 V
42 -1019 R
0 409 V
0 176 V
0 157 V
0 112 V
0 82 V
0 49 V
0 29 V
0 18 V
0 8 V
42 -1006 R
0 388 V
0 185 V
0 155 V
0 107 V
0 69 V
0 47 V
0 26 V
0 13 V
0 8 V
43 -964 R
0 375 V
0 186 V
0 147 V
0 96 V
0 65 V
0 44 V
0 26 V
0 12 V
0 7 V
42 -905 R
0 359 V
0 160 V
0 149 V
0 92 V
0 67 V
0 35 V
0 22 V
0 12 V
0 6 V
42 -899 R
0 373 V
0 165 V
0 140 V
0 88 V
0 62 V
0 35 V
0 20 V
0 10 V
0 6 V
42 -888 R
0 376 V
0 172 V
0 138 V
0 78 V
0 49 V
0 40 V
0 22 V
0 8 V
0 7 V
42 -854 R
0 381 V
0 151 V
0 104 V
0 100 V
0 60 V
0 28 V
0 19 V
0 10 V
0 5 V
43 -864 R
0 400 V
0 157 V
0 123 V
0 81 V
0 50 V
0 29 V
0 18 V
0 8 V
42 -814 R
0 368 V
0 166 V
0 113 V
0 75 V
0 46 V
0 29 V
0 15 V
0 7 V
42 -772 R
0 348 V
0 153 V
0 107 V
0 65 V
0 49 V
0 25 V
0 13 V
0 7 V
42 -751 R
0 340 V
0 152 V
0 110 V
0 59 V
0 41 V
0 26 V
0 13 V
0 6 V
43 -713 R
0 344 V
0 140 V
0 96 V
0 66 V
0 36 V
0 25 V
0 11 V
0 7 V
42 -732 R
0 355 V
0 154 V
0 95 V
0 55 V
0 35 V
0 21 V
0 11 V
0 5 V
42 -690 R
0 341 V
0 125 V
0 92 V
0 57 V
0 35 V
0 17 V
0 10 V
0 5 V
42 -715 R
0 387 V
0 133 V
0 82 V
0 56 V
0 33 V
0 16 V
0 9 V
42 -643 R
0 333 V
0 125 V
0 85 V
0 43 V
0 30 V
0 16 V
0 8 V
43 -611 R
0 322 V
0 122 V
0 76 V
0 41 V
0 29 V
0 14 V
0 7 V
42 -576 R
0 297 V
0 93 V
0 94 V
0 52 V
0 21 V
0 14 V
0 7 V
42 -1042 R
0 667 V
0 226 V
0 62 V
0 46 V
0 25 V
0 14 V
0 6 V
42 -656 R
0 243 V
0 195 V
0 97 V
0 66 V
0 27 V
0 16 V
0 10 V
43 -649 R
0 228 V
stroke 4724 3865 M
0 194 V
0 108 V
0 55 V
0 39 V
0 15 V
0 9 V
42 -653 R
0 214 V
0 184 V
0 113 V
0 65 V
0 43 V
0 15 V
42 -620 R
0 198 V
0 169 V
0 104 V
0 79 V
0 36 V
0 22 V
42 -607 R
0 191 V
0 136 V
0 118 V
0 60 V
0 31 V
0 23 V
42 -542 R
0 170 V
0 113 V
0 108 V
0 63 V
0 13 V
0 23 V
43 -477 R
0 156 V
0 89 V
0 93 V
0 40 V
0 21 V
0 15 V
42 -408 R
0 142 V
0 62 V
0 92 V
0 17 V
0 9 V
0 5 V
42 -313 R
0 129 V
0 47 V
0 105 V
0 11 V
0 5 V
0 4 V
42 -288 R
0 117 V
0 26 V
0 44 V
0 101 V
0 12 V
0 -7 V
43 -278 R
0 101 V
0 24 V
0 15 V
0 34 V
0 57 V
42 -224 R
0 99 V
0 15 V
0 8 V
0 6 V
0 10 V
42 -128 R
0 91 V
0 14 V
0 6 V
0 3 V
0 1 V
42 -109 R
0 86 V
0 10 V
0 7 V
0 3 V
0 2 V
42 -95 R
0 75 V
0 10 V
0 5 V
0 3 V
0 2 V
43 -93 R
0 79 V
0 7 V
0 2 V
0 1 V
0 2 V
42 -77 R
0 61 V
0 12 V
0 1 V
0 2 V
42 -76 R
0 66 V
0 7 V
0 4 V
42 -66 R
0 58 V
0 5 V
43 -61 R
0 56 V
0 6 V
0 -1 V
42 -58 R
0 50 V
0 10 V
0 -1 V
42 -53 R
0 49 V
0 3 V
0 -1 V
0 -1 V
42 -43 R
0 42 V
0 5 V
0 -2 V
0 -2 V
42 -43 R
0 44 V
0 4 V
0 -3 V
0 -2 V
43 -30 R
0 33 V
42 -35 R
0 36 V
0 1 V
0 -1 V
42 -28 R
0 27 V
0 1 V
0 -3 V
42 -23 R
0 24 V
43 -24 R
0 26 V
0 -2 V
0 -1 V
42 -18 R
0 20 V
0 -2 V
42 -14 R
0 17 V
0 -3 V
0 2 V
42 -17 R
0 19 V
0 -2 V
0 -2 V
43 -11 R
0 14 V
0 -2 V
42 -10 R
0 12 V
0 -1 V
42 -11 R
0 13 V
0 -3 V
42 -9 R
0 10 V
0 -3 V
42 -4 R
0 4 V
0 1 V
43 -7 R
0 10 V
0 -4 V
42 -5 R
0 7 V
0 -3 V
42 -2 R
0 6 V
42 -5 R
0 5 V
43 -5 R
0 5 V
42 -4 R
0 3 V
42 -3 R
0 2 V
42 -3 R
0 2 V
42 -3 R
0 3 V
43 -1 R
42 0 R
42 1 R
42 -2 R
43 1 R
42 0 R
42 -1 R
770 1094 CircleF
770 1535 CircleF
770 1771 CircleF
770 1977 CircleF
770 2163 CircleF
770 2322 CircleF
770 2439 CircleF
770 2532 CircleF
770 2596 CircleF
770 2582 CircleF
770 2582 CircleF
770 2605 CircleF
770 2596 CircleF
770 2599 CircleF
770 2604 CircleF
770 2603 CircleF
770 2605 CircleF
770 2604 CircleF
770 2604 CircleF
770 2605 CircleF
770 2605 CircleF
810 1194 CircleF
810 1585 CircleF
810 1827 CircleF
810 2006 CircleF
810 2184 CircleF
810 2336 CircleF
810 2467 CircleF
810 2523 CircleF
810 2562 CircleF
810 2612 CircleF
810 2593 CircleF
810 2613 CircleF
810 2606 CircleF
810 2609 CircleF
810 2613 CircleF
810 2614 CircleF
810 2614 CircleF
810 2614 CircleF
810 2614 CircleF
810 2614 CircleF
852 1217 CircleF
852 1627 CircleF
852 1836 CircleF
852 2050 CircleF
852 2206 CircleF
852 2368 CircleF
852 2498 CircleF
852 2587 CircleF
852 2570 CircleF
852 2619 CircleF
852 2617 CircleF
852 2629 CircleF
852 2633 CircleF
852 2635 CircleF
852 2639 CircleF
852 2639 CircleF
852 2640 CircleF
852 2640 CircleF
852 2641 CircleF
852 2641 CircleF
893 1186 CircleF
893 1637 CircleF
893 1862 CircleF
893 2061 CircleF
893 2236 CircleF
893 2407 CircleF
893 2523 CircleF
893 2597 CircleF
893 2632 CircleF
893 2676 CircleF
893 2664 CircleF
893 2658 CircleF
893 2663 CircleF
893 2666 CircleF
893 2670 CircleF
893 2670 CircleF
893 2671 CircleF
893 2671 CircleF
893 2671 CircleF
893 2671 CircleF
933 1256 CircleF
933 1678 CircleF
933 1885 CircleF
933 2094 CircleF
933 2277 CircleF
933 2426 CircleF
933 2551 CircleF
933 2642 CircleF
933 2692 CircleF
933 2661 CircleF
933 2688 CircleF
933 2684 CircleF
933 2688 CircleF
933 2691 CircleF
933 2696 CircleF
933 2695 CircleF
933 2695 CircleF
933 2695 CircleF
933 2696 CircleF
933 2696 CircleF
974 1274 CircleF
974 1690 CircleF
974 1936 CircleF
974 2120 CircleF
974 2301 CircleF
974 2449 CircleF
974 2583 CircleF
974 2647 CircleF
974 2676 CircleF
974 2730 CircleF
974 2706 CircleF
974 2727 CircleF
974 2718 CircleF
974 2721 CircleF
974 2725 CircleF
974 2725 CircleF
974 2726 CircleF
974 2726 CircleF
974 2726 CircleF
974 2726 CircleF
1016 1279 CircleF
1016 1696 CircleF
1016 1959 CircleF
1016 2152 CircleF
1016 2329 CircleF
1016 2483 CircleF
1016 2611 CircleF
1016 2696 CircleF
1016 2749 CircleF
1016 2724 CircleF
1016 2747 CircleF
1016 2743 CircleF
1016 2745 CircleF
1016 2748 CircleF
1016 2751 CircleF
1016 2751 CircleF
1016 2752 CircleF
1016 2752 CircleF
1016 2752 CircleF
1016 2752 CircleF
1058 1340 CircleF
1058 1732 CircleF
1058 1976 CircleF
1058 2172 CircleF
1058 2343 CircleF
1058 2506 CircleF
1058 2627 CircleF
1058 2707 CircleF
1058 2736 CircleF
1058 2789 CircleF
1058 2770 CircleF
1058 2767 CircleF
1058 2772 CircleF
1058 2779 CircleF
1058 2778 CircleF
1058 2780 CircleF
1058 2780 CircleF
1058 2780 CircleF
1058 2780 CircleF
1058 2780 CircleF
1099 1369 CircleF
1099 1777 CircleF
1099 1995 CircleF
1099 2208 CircleF
1099 2386 CircleF
1099 2545 CircleF
1099 2656 CircleF
1099 2730 CircleF
1099 2763 CircleF
1099 2812 CircleF
1099 2801 CircleF
1099 2813 CircleF
1099 2806 CircleF
1099 2810 CircleF
1099 2810 CircleF
1099 2811 CircleF
1099 2812 CircleF
1099 2812 CircleF
1099 2812 CircleF
1140 1416 CircleF
1140 1769 CircleF
1140 2012 CircleF
1140 2237 CircleF
1140 2413 CircleF
1140 2564 CircleF
1140 2691 CircleF
1140 2772 CircleF
1140 2805 CircleF
1140 2851 CircleF
1140 2832 CircleF
1140 2829 CircleF
1140 2835 CircleF
1140 2838 CircleF
1140 2838 CircleF
1140 2839 CircleF
1140 2840 CircleF
1140 2840 CircleF
1140 2840 CircleF
1181 1404 CircleF
1181 1854 CircleF
1181 2056 CircleF
1181 2255 CircleF
1181 2451 CircleF
1181 2601 CircleF
1181 2726 CircleF
1181 2806 CircleF
1181 2864 CircleF
1181 2839 CircleF
1181 2862 CircleF
1181 2860 CircleF
1181 2868 CircleF
1181 2865 CircleF
1181 2867 CircleF
1181 2868 CircleF
1181 2869 CircleF
1181 2869 CircleF
1181 2869 CircleF
1223 1461 CircleF
1223 1857 CircleF
1223 2090 CircleF
1223 2280 CircleF
1223 2462 CircleF
1223 2625 CircleF
1223 2748 CircleF
1223 2832 CircleF
1223 2894 CircleF
1223 2886 CircleF
1223 2873 CircleF
1223 2891 CircleF
1223 2896 CircleF
1223 2893 CircleF
1223 2897 CircleF
1223 2897 CircleF
1223 2897 CircleF
1223 2897 CircleF
1223 2897 CircleF
1265 1519 CircleF
1265 1918 CircleF
1265 2109 CircleF
1265 2308 CircleF
1265 2442 CircleF
1265 2652 CircleF
1265 2770 CircleF
1265 2852 CircleF
1265 2908 CircleF
1265 2906 CircleF
1265 2898 CircleF
1265 2916 CircleF
1265 2922 CircleF
1265 2924 CircleF
1265 2924 CircleF
1265 2925 CircleF
1265 2925 CircleF
1265 2925 CircleF
1265 2925 CircleF
1307 1483 CircleF
1307 1928 CircleF
1307 2154 CircleF
1307 2338 CircleF
1307 2534 CircleF
1307 2679 CircleF
1307 2803 CircleF
1307 2884 CircleF
1307 2945 CircleF
1307 2920 CircleF
1307 2945 CircleF
1307 2946 CircleF
1307 2951 CircleF
1307 2952 CircleF
1307 2953 CircleF
1307 2953 CircleF
1307 2953 CircleF
1307 2954 CircleF
1307 2954 CircleF
1349 1516 CircleF
1349 1960 CircleF
1349 2179 CircleF
1349 2357 CircleF
1349 2554 CircleF
1349 2714 CircleF
1349 2831 CircleF
1349 2910 CircleF
1349 2907 CircleF
1349 2954 CircleF
1349 2973 CircleF
1349 2974 CircleF
1349 2977 CircleF
1349 2979 CircleF
1349 2979 CircleF
1349 2980 CircleF
1349 2980 CircleF
1349 2980 CircleF
1349 2980 CircleF
1391 1555 CircleF
1391 1988 CircleF
1391 2208 CircleF
1391 2398 CircleF
1391 2583 CircleF
1391 2742 CircleF
1391 2855 CircleF
1391 2934 CircleF
1391 2966 CircleF
1391 2993 CircleF
1391 2988 CircleF
1391 2999 CircleF
1391 3001 CircleF
1391 3003 CircleF
1391 3006 CircleF
1391 3006 CircleF
1391 3006 CircleF
1391 3007 CircleF
1433 1587 CircleF
1433 2011 CircleF
1433 2234 CircleF
1433 2421 CircleF
1433 2609 CircleF
1433 2760 CircleF
1433 2894 CircleF
1433 2975 CircleF
1433 2999 CircleF
1433 3021 CircleF
1433 3014 CircleF
1433 3032 CircleF
1433 3027 CircleF
1433 3029 CircleF
1433 3031 CircleF
1433 3031 CircleF
1433 3032 CircleF
1433 3032 CircleF
1475 1610 CircleF
1475 2056 CircleF
1475 2274 CircleF
1475 2447 CircleF
1475 2634 CircleF
1475 2799 CircleF
1475 2907 CircleF
1475 3007 CircleF
1475 3056 CircleF
1475 3026 CircleF
1475 3055 CircleF
1475 3049 CircleF
1475 3055 CircleF
1475 3057 CircleF
1475 3059 CircleF
1475 3059 CircleF
1475 3059 CircleF
1475 3061 CircleF
1517 1650 CircleF
1517 2060 CircleF
1517 2273 CircleF
1517 2460 CircleF
1517 2643 CircleF
1517 2803 CircleF
1517 2928 CircleF
1517 3014 CircleF
1517 3070 CircleF
1517 3049 CircleF
1517 3071 CircleF
1517 3084 CircleF
1517 3086 CircleF
1517 3088 CircleF
1517 3091 CircleF
1517 3091 CircleF
1517 3091 CircleF
1517 3092 CircleF
1559 1677 CircleF
1559 2110 CircleF
1559 2314 CircleF
1559 2511 CircleF
1559 2704 CircleF
1559 2854 CircleF
1559 2939 CircleF
1559 3032 CircleF
1559 3078 CircleF
1559 3129 CircleF
1559 3113 CircleF
1559 3108 CircleF
1559 3112 CircleF
1559 3119 CircleF
1559 3119 CircleF
1559 3119 CircleF
1559 3120 CircleF
1559 3120 CircleF
1601 1734 CircleF
1601 2142 CircleF
1601 2363 CircleF
1601 2554 CircleF
1601 2732 CircleF
1601 2852 CircleF
1601 3008 CircleF
1601 3089 CircleF
1601 3147 CircleF
1601 3134 CircleF
1601 3128 CircleF
1601 3145 CircleF
1601 3151 CircleF
1601 3149 CircleF
1601 3151 CircleF
1601 3151 CircleF
1601 3152 CircleF
1601 3152 CircleF
1643 1726 CircleF
1643 2171 CircleF
1643 2391 CircleF
1643 2570 CircleF
1643 2756 CircleF
1643 2910 CircleF
1643 2998 CircleF
1643 3114 CircleF
1643 3151 CircleF
1643 3132 CircleF
1643 3154 CircleF
1643 3175 CircleF
1643 3170 CircleF
1643 3177 CircleF
1643 3178 CircleF
1643 3178 CircleF
1643 3179 CircleF
1643 3179 CircleF
1685 1791 CircleF
1685 2183 CircleF
1685 2352 CircleF
1685 2606 CircleF
1685 2780 CircleF
1685 2923 CircleF
1685 3052 CircleF
1685 3101 CircleF
1685 3140 CircleF
1685 3179 CircleF
1685 3179 CircleF
1685 3198 CircleF
1685 3203 CircleF
1685 3205 CircleF
1685 3207 CircleF
1685 3207 CircleF
1685 3207 CircleF
1685 3208 CircleF
1727 1799 CircleF
1727 2217 CircleF
1727 2445 CircleF
1727 2627 CircleF
1727 2821 CircleF
1727 2955 CircleF
1727 3088 CircleF
1727 3178 CircleF
1727 3234 CircleF
1727 3204 CircleF
1727 3221 CircleF
1727 3222 CircleF
1727 3228 CircleF
1727 3231 CircleF
1727 3233 CircleF
1727 3233 CircleF
1727 3234 CircleF
1770 1823 CircleF
1770 2250 CircleF
1770 2440 CircleF
1770 2673 CircleF
1770 2845 CircleF
1770 2991 CircleF
1770 3077 CircleF
1770 3207 CircleF
1770 3201 CircleF
1770 3241 CircleF
1770 3247 CircleF
1770 3266 CircleF
1770 3260 CircleF
1770 3268 CircleF
1770 3268 CircleF
1770 3268 CircleF
1770 3268 CircleF
1812 1869 CircleF
1812 2283 CircleF
1812 2503 CircleF
1812 2701 CircleF
1812 2857 CircleF
1812 3019 CircleF
1812 3143 CircleF
1812 3229 CircleF
1812 3269 CircleF
1812 3266 CircleF
1812 3285 CircleF
1812 3297 CircleF
1812 3305 CircleF
1812 3307 CircleF
1812 3308 CircleF
1812 3308 CircleF
1812 3309 CircleF
1854 1885 CircleF
1854 2303 CircleF
1854 2527 CircleF
1854 2716 CircleF
1854 2898 CircleF
1854 3032 CircleF
1854 3176 CircleF
1854 3253 CircleF
1854 3257 CircleF
1854 3304 CircleF
1854 3299 CircleF
1854 3317 CircleF
1854 3324 CircleF
1854 3325 CircleF
1854 3325 CircleF
1854 3326 CircleF
1854 3327 CircleF
1896 1924 CircleF
1896 2347 CircleF
1896 2550 CircleF
1896 2759 CircleF
1896 2921 CircleF
1896 3080 CircleF
1896 3164 CircleF
1896 3268 CircleF
1896 3309 CircleF
1896 3322 CircleF
1896 3339 CircleF
1896 3339 CircleF
1896 3343 CircleF
1896 3346 CircleF
1896 3348 CircleF
1896 3348 CircleF
1896 3349 CircleF
1938 1958 CircleF
1938 2358 CircleF
1938 2573 CircleF
1938 2779 CircleF
1938 2935 CircleF
1938 3099 CircleF
1938 3222 CircleF
1938 3300 CircleF
1938 3342 CircleF
1938 3336 CircleF
1938 3358 CircleF
1938 3378 CircleF
1938 3372 CircleF
1938 3378 CircleF
1938 3378 CircleF
1938 3380 CircleF
1938 3380 CircleF
1980 1984 CircleF
1980 2395 CircleF
1980 2615 CircleF
1980 2729 CircleF
1980 2972 CircleF
1980 3146 CircleF
1980 3266 CircleF
1980 3331 CircleF
1980 3344 CircleF
1980 3385 CircleF
1980 3393 CircleF
1980 3404 CircleF
1980 3409 CircleF
1980 3412 CircleF
1980 3411 CircleF
1980 3411 CircleF
1980 3412 CircleF
2022 1992 CircleF
2022 2404 CircleF
2022 2633 CircleF
2022 2841 CircleF
2022 2996 CircleF
2022 3155 CircleF
2022 3280 CircleF
2022 3330 CircleF
2022 3377 CircleF
2022 3394 CircleF
2022 3414 CircleF
2022 3427 CircleF
2022 3428 CircleF
2022 3429 CircleF
2022 3431 CircleF
2022 3433 CircleF
2064 2002 CircleF
2064 2444 CircleF
2064 2624 CircleF
2064 2864 CircleF
2064 3043 CircleF
2064 3190 CircleF
2064 3314 CircleF
2064 3361 CircleF
2064 3405 CircleF
2064 3443 CircleF
2064 3452 CircleF
2064 3460 CircleF
2064 3467 CircleF
2064 3468 CircleF
2064 3467 CircleF
2064 3468 CircleF
2106 2046 CircleF
2106 2484 CircleF
2106 2693 CircleF
2106 2866 CircleF
2106 3058 CircleF
2106 3225 CircleF
2106 3333 CircleF
2106 3418 CircleF
2106 3424 CircleF
2106 3467 CircleF
2106 3480 CircleF
2106 3481 CircleF
2106 3486 CircleF
2106 3487 CircleF
2106 3489 CircleF
2106 3490 CircleF
2149 2104 CircleF
2149 2513 CircleF
2149 2710 CircleF
2149 2929 CircleF
2149 3108 CircleF
2149 3247 CircleF
2149 3372 CircleF
2149 3461 CircleF
2149 3455 CircleF
2149 3491 CircleF
2149 3519 CircleF
2149 3518 CircleF
2149 3522 CircleF
2149 3519 CircleF
2149 3521 CircleF
2149 3522 CircleF
2191 2104 CircleF
2191 2537 CircleF
2191 2744 CircleF
2191 2934 CircleF
2191 3120 CircleF
2191 3262 CircleF
2191 3401 CircleF
2191 3494 CircleF
2191 3550 CircleF
2191 3526 CircleF
2191 3528 CircleF
2191 3539 CircleF
2191 3544 CircleF
2191 3546 CircleF
2191 3548 CircleF
2191 3549 CircleF
2233 2131 CircleF
2233 2558 CircleF
2233 2774 CircleF
2233 2973 CircleF
2233 3165 CircleF
2233 3314 CircleF
2233 3392 CircleF
2233 3470 CircleF
2233 3509 CircleF
2233 3545 CircleF
2233 3568 CircleF
2233 3574 CircleF
2233 3580 CircleF
2233 3582 CircleF
2233 3582 CircleF
2233 3582 CircleF
2275 2193 CircleF
2275 2588 CircleF
2275 2797 CircleF
2275 2998 CircleF
2275 3197 CircleF
2275 3340 CircleF
2275 3423 CircleF
2275 3532 CircleF
2275 3572 CircleF
2275 3570 CircleF
2275 3581 CircleF
2275 3602 CircleF
2275 3603 CircleF
2275 3606 CircleF
2275 3608 CircleF
2275 3607 CircleF
2317 2209 CircleF
2317 2627 CircleF
2317 2838 CircleF
2317 3032 CircleF
2317 3225 CircleF
2317 3377 CircleF
2317 3494 CircleF
2317 3534 CircleF
2317 3576 CircleF
2317 3612 CircleF
2317 3620 CircleF
2317 3632 CircleF
2317 3635 CircleF
2317 3637 CircleF
2317 3639 CircleF
2359 2257 CircleF
2359 2645 CircleF
2359 2873 CircleF
2359 3063 CircleF
2359 3237 CircleF
2359 3378 CircleF
2359 3485 CircleF
2359 3554 CircleF
2359 3603 CircleF
2359 3639 CircleF
2359 3645 CircleF
2359 3658 CircleF
2359 3660 CircleF
2359 3662 CircleF
2359 3663 CircleF
2402 2282 CircleF
2402 2665 CircleF
2402 2894 CircleF
2402 3085 CircleF
2402 3274 CircleF
2402 3407 CircleF
2402 3551 CircleF
2402 3633 CircleF
2402 3633 CircleF
2402 3656 CircleF
2402 3686 CircleF
2402 3698 CircleF
2402 3695 CircleF
2402 3698 CircleF
2402 3699 CircleF
2444 2324 CircleF
2444 2702 CircleF
2444 2932 CircleF
2444 3114 CircleF
2444 3300 CircleF
2444 3445 CircleF
2444 3552 CircleF
2444 3625 CircleF
2444 3671 CircleF
2444 3673 CircleF
2444 3699 CircleF
2444 3721 CircleF
2444 3723 CircleF
2444 3721 CircleF
2444 3723 CircleF
2486 2311 CircleF
2486 2750 CircleF
2486 2955 CircleF
2486 3141 CircleF
2486 3335 CircleF
2486 3484 CircleF
2486 3609 CircleF
2486 3642 CircleF
2486 3690 CircleF
2486 3716 CircleF
2486 3737 CircleF
2486 3755 CircleF
2486 3749 CircleF
2486 3751 CircleF
2486 3753 CircleF
2528 2353 CircleF
2528 2766 CircleF
2528 2991 CircleF
2528 3182 CircleF
2528 3368 CircleF
2528 3518 CircleF
2528 3634 CircleF
2528 3674 CircleF
2528 3721 CircleF
2528 3741 CircleF
2528 3758 CircleF
2528 3775 CircleF
2528 3772 CircleF
2528 3774 CircleF
2528 3776 CircleF
2570 2370 CircleF
2570 2798 CircleF
2570 3015 CircleF
2570 3199 CircleF
2570 3393 CircleF
2570 3541 CircleF
2570 3664 CircleF
2570 3712 CircleF
2570 3757 CircleF
2570 3775 CircleF
2570 3796 CircleF
2570 3798 CircleF
2570 3803 CircleF
2570 3812 CircleF
2570 3811 CircleF
2612 2443 CircleF
2612 2816 CircleF
2612 3047 CircleF
2612 3229 CircleF
2612 3425 CircleF
2612 3562 CircleF
2612 3683 CircleF
2612 3729 CircleF
2612 3774 CircleF
2612 3804 CircleF
2612 3827 CircleF
2612 3842 CircleF
2612 3851 CircleF
2612 3853 CircleF
2612 3854 CircleF
2655 2404 CircleF
2655 2842 CircleF
2655 3032 CircleF
2655 3234 CircleF
2655 3414 CircleF
2655 3582 CircleF
2655 3720 CircleF
2655 3762 CircleF
2655 3804 CircleF
2655 3836 CircleF
2655 3842 CircleF
2655 3859 CircleF
2655 3862 CircleF
2655 3865 CircleF
2697 2466 CircleF
2697 2884 CircleF
2697 3084 CircleF
2697 3288 CircleF
2697 3469 CircleF
2697 3636 CircleF
2697 3743 CircleF
2697 3785 CircleF
2697 3828 CircleF
2697 3875 CircleF
2697 3872 CircleF
2697 3884 CircleF
2697 3888 CircleF
2697 3890 CircleF
2739 2478 CircleF
2739 2887 CircleF
2739 3122 CircleF
2739 3317 CircleF
2739 3498 CircleF
2739 3645 CircleF
2739 3768 CircleF
2739 3812 CircleF
2739 3861 CircleF
2739 3892 CircleF
2739 3902 CircleF
2739 3915 CircleF
2739 3919 CircleF
2739 3921 CircleF
2781 2524 CircleF
2781 2933 CircleF
2781 3159 CircleF
2781 3350 CircleF
2781 3537 CircleF
2781 3655 CircleF
2781 3802 CircleF
2781 3845 CircleF
2781 3891 CircleF
2781 3929 CircleF
2781 3932 CircleF
2781 3952 CircleF
2781 3946 CircleF
2781 3951 CircleF
2824 2544 CircleF
2824 2956 CircleF
2824 3179 CircleF
2824 3373 CircleF
2824 3566 CircleF
2824 3707 CircleF
2824 3832 CircleF
2824 3900 CircleF
2824 3923 CircleF
2824 3948 CircleF
2824 3958 CircleF
2824 3979 CircleF
2824 3983 CircleF
2824 3985 CircleF
2866 2592 CircleF
2866 2992 CircleF
2866 3214 CircleF
2866 3405 CircleF
2866 3588 CircleF
2866 3724 CircleF
2866 3827 CircleF
2866 3910 CircleF
2866 3957 CircleF
2866 3987 CircleF
2866 3992 CircleF
2866 4010 CircleF
2866 4005 CircleF
2866 4013 CircleF
2908 2591 CircleF
2908 3019 CircleF
2908 3242 CircleF
2908 3435 CircleF
2908 3618 CircleF
2908 3772 CircleF
2908 3865 CircleF
2908 3979 CircleF
2908 3985 CircleF
2908 4008 CircleF
2908 4018 CircleF
2908 4034 CircleF
2908 4031 CircleF
2908 4033 CircleF
2950 2643 CircleF
2950 3032 CircleF
2950 3269 CircleF
2950 3465 CircleF
2950 3647 CircleF
2950 3778 CircleF
2950 3918 CircleF
2950 3966 CircleF
2950 4012 CircleF
2950 4030 CircleF
2950 4048 CircleF
2950 4069 CircleF
2950 4061 CircleF
2992 2640 CircleF
2992 3081 CircleF
2992 3288 CircleF
2992 3489 CircleF
2992 3611 CircleF
2992 3820 CircleF
2992 3944 CircleF
2992 3973 CircleF
2992 4025 CircleF
2992 4073 CircleF
2992 4084 CircleF
2992 4088 CircleF
2992 4095 CircleF
3035 2674 CircleF
3035 3105 CircleF
3035 3311 CircleF
3035 3527 CircleF
3035 3681 CircleF
3035 3837 CircleF
3035 3953 CircleF
3035 4025 CircleF
3035 4030 CircleF
3035 4057 CircleF
3035 4057 CircleF
3035 4055 CircleF
3035 4058 CircleF
3077 2722 CircleF
3077 3145 CircleF
3077 3355 CircleF
3077 3550 CircleF
3077 3717 CircleF
3077 3863 CircleF
3077 3961 CircleF
3077 4032 CircleF
3077 4040 CircleF
3077 4038 CircleF
3077 4056 CircleF
3077 4078 CircleF
3077 4086 CircleF
3119 2733 CircleF
3119 3144 CircleF
3119 3394 CircleF
3119 3566 CircleF
3119 3587 CircleF
3119 3866 CircleF
3119 3954 CircleF
3119 4059 CircleF
3119 4067 CircleF
3119 4067 CircleF
3119 4083 CircleF
3119 4105 CircleF
3119 4115 CircleF
3161 2782 CircleF
3161 3197 CircleF
3161 3403 CircleF
3161 3598 CircleF
3161 3763 CircleF
3161 3929 CircleF
3161 3976 CircleF
3161 4088 CircleF
3161 4094 CircleF
3161 4100 CircleF
3161 4113 CircleF
3161 4138 CircleF
3161 4141 CircleF
3204 2802 CircleF
3204 3214 CircleF
3204 3432 CircleF
3204 3634 CircleF
3204 3813 CircleF
3204 3912 CircleF
3204 4054 CircleF
3204 4115 CircleF
3204 4122 CircleF
3204 4119 CircleF
3204 4143 CircleF
3204 4166 CircleF
3204 4164 CircleF
3246 2839 CircleF
3246 3248 CircleF
3246 3462 CircleF
3246 3662 CircleF
3246 3836 CircleF
3246 3980 CircleF
3246 4087 CircleF
3246 4159 CircleF
3246 4189 CircleF
3246 4143 CircleF
3246 4169 CircleF
3246 4193 CircleF
3288 2852 CircleF
3288 3276 CircleF
3288 3486 CircleF
3288 3696 CircleF
3288 3836 CircleF
3288 4007 CircleF
3288 4064 CircleF
3288 4126 CircleF
3288 4164 CircleF
3288 4189 CircleF
3288 4202 CircleF
3288 4225 CircleF
3330 2882 CircleF
3330 3303 CircleF
3330 3507 CircleF
3330 3693 CircleF
3330 3841 CircleF
3330 3970 CircleF
3330 4065 CircleF
3330 4127 CircleF
3330 4143 CircleF
3330 4179 CircleF
3330 4167 CircleF
3330 4177 CircleF
3372 2900 CircleF
3372 3326 CircleF
3372 3542 CircleF
3372 3733 CircleF
3372 3879 CircleF
3372 4002 CircleF
3372 4083 CircleF
3372 4143 CircleF
3372 4170 CircleF
3372 4180 CircleF
3372 4186 CircleF
3372 4199 CircleF
3415 2934 CircleF
3415 3363 CircleF
3415 3545 CircleF
3415 3752 CircleF
3415 3893 CircleF
3415 4032 CircleF
3415 4116 CircleF
3415 4172 CircleF
3415 4201 CircleF
3415 4211 CircleF
3415 4217 CircleF
3415 4227 CircleF
3457 2960 CircleF
3457 3397 CircleF
3457 3574 CircleF
3457 3737 CircleF
3457 3936 CircleF
3457 4049 CircleF
3457 4147 CircleF
3457 4189 CircleF
3457 4223 CircleF
3457 4237 CircleF
3457 4244 CircleF
3457 4254 CircleF
3499 3010 CircleF
3499 3427 CircleF
3499 3600 CircleF
3499 3811 CircleF
3499 3953 CircleF
3499 4071 CircleF
3499 4162 CircleF
3499 4206 CircleF
3499 4258 CircleF
3499 4266 CircleF
3499 4271 CircleF
3499 4278 CircleF
3541 3043 CircleF
3541 3455 CircleF
3541 3607 CircleF
3541 3803 CircleF
3541 3951 CircleF
3541 4058 CircleF
3541 4144 CircleF
3541 4191 CircleF
3541 4219 CircleF
3541 4232 CircleF
3541 4240 CircleF
3584 3059 CircleF
3584 3463 CircleF
3584 3678 CircleF
3584 3864 CircleF
3584 3996 CircleF
3584 4098 CircleF
3584 4176 CircleF
3584 4220 CircleF
3584 4247 CircleF
3584 4262 CircleF
3584 4268 CircleF
3626 3100 CircleF
3626 3465 CircleF
3626 3701 CircleF
3626 3874 CircleF
3626 4016 CircleF
3626 4127 CircleF
3626 4192 CircleF
3626 4245 CircleF
3626 4270 CircleF
3626 4284 CircleF
3626 4286 CircleF
3668 3109 CircleF
3668 3525 CircleF
3668 3709 CircleF
3668 3889 CircleF
3668 3893 CircleF
3668 4107 CircleF
3668 4179 CircleF
3668 4220 CircleF
3668 4241 CircleF
3668 4253 CircleF
3668 4259 CircleF
3710 3175 CircleF
3710 3552 CircleF
3710 3741 CircleF
3710 3919 CircleF
3710 4044 CircleF
3710 4133 CircleF
3710 4205 CircleF
3710 4245 CircleF
3710 4268 CircleF
3710 4280 CircleF
3710 4285 CircleF
3752 3182 CircleF
3752 3573 CircleF
3752 3764 CircleF
3752 3933 CircleF
3752 4049 CircleF
3752 4136 CircleF
3752 4193 CircleF
3752 4225 CircleF
3752 4247 CircleF
3752 4258 CircleF
3752 4262 CircleF
3795 3182 CircleF
3795 3595 CircleF
3795 3791 CircleF
3795 3963 CircleF
3795 4079 CircleF
3795 4166 CircleF
3795 4219 CircleF
3795 4256 CircleF
3795 4274 CircleF
3795 4284 CircleF
3795 4289 CircleF
3837 3191 CircleF
3837 3628 CircleF
3837 3811 CircleF
3837 3963 CircleF
3837 4077 CircleF
3837 4162 CircleF
3837 4200 CircleF
3837 4241 CircleF
3837 4259 CircleF
3837 4269 CircleF
3837 4273 CircleF
3879 3254 CircleF
3879 3663 CircleF
3879 3839 CircleF
3879 3996 CircleF
3879 4108 CircleF
3879 4190 CircleF
3879 4239 CircleF
3879 4268 CircleF
3879 4286 CircleF
3879 4294 CircleF
3921 3288 CircleF
3921 3676 CircleF
3921 3861 CircleF
3921 4016 CircleF
3921 4123 CircleF
3921 4192 CircleF
3921 4239 CircleF
3921 4265 CircleF
3921 4278 CircleF
3921 4286 CircleF
3964 3322 CircleF
3964 3697 CircleF
3964 3883 CircleF
3964 4030 CircleF
3964 4126 CircleF
3964 4191 CircleF
3964 4235 CircleF
3964 4261 CircleF
3964 4273 CircleF
3964 4280 CircleF
4006 3375 CircleF
4006 3734 CircleF
4006 3894 CircleF
4006 4043 CircleF
4006 4135 CircleF
4006 4202 CircleF
4006 4237 CircleF
4006 4259 CircleF
4006 4271 CircleF
4006 4277 CircleF
4048 3378 CircleF
4048 3751 CircleF
4048 3916 CircleF
4048 4056 CircleF
4048 4144 CircleF
4048 4206 CircleF
4048 4241 CircleF
4048 4261 CircleF
4048 4271 CircleF
4048 4277 CircleF
4090 3389 CircleF
4090 3765 CircleF
4090 3937 CircleF
4090 4075 CircleF
4090 4153 CircleF
4090 4202 CircleF
4090 4242 CircleF
4090 4264 CircleF
4090 4272 CircleF
4090 4279 CircleF
4132 3425 CircleF
4132 3806 CircleF
4132 3957 CircleF
4132 4061 CircleF
4132 4161 CircleF
4132 4221 CircleF
4132 4249 CircleF
4132 4268 CircleF
4132 4278 CircleF
4132 4283 CircleF
4175 3419 CircleF
4175 3819 CircleF
4175 3976 CircleF
4175 4099 CircleF
4175 4180 CircleF
4175 4230 CircleF
4175 4259 CircleF
4175 4277 CircleF
4175 4285 CircleF
4217 3471 CircleF
4217 3839 CircleF
4217 4005 CircleF
4217 4118 CircleF
4217 4193 CircleF
4217 4239 CircleF
4217 4268 CircleF
4217 4283 CircleF
4217 4290 CircleF
4259 3518 CircleF
4259 3866 CircleF
4259 4019 CircleF
4259 4126 CircleF
4259 4191 CircleF
4259 4240 CircleF
4259 4265 CircleF
4259 4278 CircleF
4259 4285 CircleF
4301 3534 CircleF
4301 3874 CircleF
4301 4026 CircleF
4301 4136 CircleF
4301 4195 CircleF
4301 4236 CircleF
4301 4262 CircleF
4301 4275 CircleF
4301 4281 CircleF
4344 3568 CircleF
4344 3912 CircleF
4344 4052 CircleF
4344 4148 CircleF
4344 4214 CircleF
4344 4250 CircleF
4344 4275 CircleF
4344 4286 CircleF
4344 4293 CircleF
4386 3561 CircleF
4386 3916 CircleF
4386 4070 CircleF
4386 4165 CircleF
4386 4220 CircleF
4386 4255 CircleF
4386 4276 CircleF
4386 4287 CircleF
4386 4292 CircleF
4428 3602 CircleF
4428 3943 CircleF
4428 4068 CircleF
4428 4160 CircleF
4428 4217 CircleF
4428 4252 CircleF
4428 4269 CircleF
4428 4279 CircleF
4428 4284 CircleF
4470 3569 CircleF
4470 3956 CircleF
4470 4089 CircleF
4470 4171 CircleF
4470 4227 CircleF
4470 4260 CircleF
4470 4276 CircleF
4470 4285 CircleF
4512 3642 CircleF
4512 3975 CircleF
4512 4100 CircleF
4512 4185 CircleF
4512 4228 CircleF
4512 4258 CircleF
4512 4274 CircleF
4512 4282 CircleF
4555 3671 CircleF
4555 3993 CircleF
4555 4115 CircleF
4555 4191 CircleF
4555 4232 CircleF
4555 4261 CircleF
4555 4275 CircleF
4555 4282 CircleF
4597 3706 CircleF
4597 4003 CircleF
4597 4096 CircleF
4597 4190 CircleF
4597 4242 CircleF
4597 4263 CircleF
4597 4277 CircleF
4597 4284 CircleF
4639 3242 CircleF
4639 3909 CircleF
4639 4135 CircleF
4639 4197 CircleF
4639 4243 CircleF
4639 4268 CircleF
4639 4282 CircleF
4639 4288 CircleF
4681 3632 CircleF
4681 3875 CircleF
4681 4070 CircleF
4681 4167 CircleF
4681 4233 CircleF
4681 4260 CircleF
4681 4276 CircleF
4681 4286 CircleF
4724 3637 CircleF
4724 3865 CircleF
4724 4059 CircleF
4724 4167 CircleF
4724 4222 CircleF
4724 4261 CircleF
4724 4276 CircleF
4724 4285 CircleF
4766 3632 CircleF
4766 3846 CircleF
4766 4030 CircleF
4766 4143 CircleF
4766 4208 CircleF
4766 4251 CircleF
4766 4266 CircleF
4808 3646 CircleF
4808 3844 CircleF
4808 4013 CircleF
4808 4117 CircleF
4808 4196 CircleF
4808 4232 CircleF
4808 4254 CircleF
4850 3647 CircleF
4850 3838 CircleF
4850 3974 CircleF
4850 4092 CircleF
4850 4152 CircleF
4850 4183 CircleF
4850 4206 CircleF
4892 3664 CircleF
4892 3834 CircleF
4892 3947 CircleF
4892 4055 CircleF
4892 4118 CircleF
4892 4131 CircleF
4892 4154 CircleF
4935 3677 CircleF
4935 3833 CircleF
4935 3922 CircleF
4935 4015 CircleF
4935 4055 CircleF
4935 4076 CircleF
4935 4091 CircleF
4977 3683 CircleF
4977 3825 CircleF
4977 3887 CircleF
4977 3979 CircleF
4977 3996 CircleF
4977 4005 CircleF
4977 4010 CircleF
5019 3697 CircleF
5019 3826 CircleF
5019 3873 CircleF
5019 3978 CircleF
5019 3989 CircleF
5019 3994 CircleF
5019 3998 CircleF
5061 3710 CircleF
5061 3827 CircleF
5061 3853 CircleF
5061 3897 CircleF
5061 3998 CircleF
5061 4010 CircleF
5061 4003 CircleF
5104 3725 CircleF
5104 3826 CircleF
5104 3850 CircleF
5104 3865 CircleF
5104 3899 CircleF
5104 3956 CircleF
5146 3732 CircleF
5146 3831 CircleF
5146 3846 CircleF
5146 3854 CircleF
5146 3860 CircleF
5146 3870 CircleF
5188 3742 CircleF
5188 3833 CircleF
5188 3847 CircleF
5188 3853 CircleF
5188 3856 CircleF
5188 3857 CircleF
5230 3748 CircleF
5230 3834 CircleF
5230 3844 CircleF
5230 3851 CircleF
5230 3854 CircleF
5230 3856 CircleF
5272 3761 CircleF
5272 3836 CircleF
5272 3846 CircleF
5272 3851 CircleF
5272 3854 CircleF
5272 3856 CircleF
5315 3763 CircleF
5315 3842 CircleF
5315 3849 CircleF
5315 3851 CircleF
5315 3852 CircleF
5315 3854 CircleF
5357 3777 CircleF
5357 3838 CircleF
5357 3850 CircleF
5357 3851 CircleF
5357 3851 CircleF
5357 3853 CircleF
5399 3777 CircleF
5399 3843 CircleF
5399 3850 CircleF
5399 3854 CircleF
5399 3854 CircleF
5441 3788 CircleF
5441 3846 CircleF
5441 3851 CircleF
5441 3851 CircleF
5441 3851 CircleF
5484 3790 CircleF
5484 3846 CircleF
5484 3852 CircleF
5484 3852 CircleF
5484 3851 CircleF
5526 3793 CircleF
5526 3843 CircleF
5526 3853 CircleF
5526 3853 CircleF
5526 3852 CircleF
5568 3799 CircleF
5568 3848 CircleF
5568 3851 CircleF
5568 3850 CircleF
5568 3849 CircleF
5610 3806 CircleF
5610 3848 CircleF
5610 3853 CircleF
5610 3851 CircleF
5610 3849 CircleF
5652 3806 CircleF
5652 3850 CircleF
5652 3854 CircleF
5652 3851 CircleF
5652 3849 CircleF
5695 3819 CircleF
5695 3852 CircleF
5695 3852 CircleF
5695 3852 CircleF
5737 3817 CircleF
5737 3853 CircleF
5737 3854 CircleF
5737 3853 CircleF
5779 3825 CircleF
5779 3852 CircleF
5779 3853 CircleF
5779 3850 CircleF
5821 3827 CircleF
5821 3851 CircleF
5821 3851 CircleF
5821 3851 CircleF
5864 3827 CircleF
5864 3853 CircleF
5864 3851 CircleF
5864 3850 CircleF
5906 3832 CircleF
5906 3852 CircleF
5906 3852 CircleF
5906 3850 CircleF
5948 3836 CircleF
5948 3853 CircleF
5948 3850 CircleF
5948 3852 CircleF
5990 3835 CircleF
5990 3854 CircleF
5990 3852 CircleF
5990 3850 CircleF
6033 3839 CircleF
6033 3853 CircleF
6033 3851 CircleF
6075 3841 CircleF
6075 3853 CircleF
6075 3852 CircleF
6117 3841 CircleF
6117 3854 CircleF
6117 3851 CircleF
6159 3842 CircleF
6159 3852 CircleF
6159 3849 CircleF
6201 3845 CircleF
6201 3849 CircleF
6201 3850 CircleF
6244 3843 CircleF
6244 3853 CircleF
6244 3849 CircleF
6286 3844 CircleF
6286 3851 CircleF
6286 3848 CircleF
6328 3846 CircleF
6328 3852 CircleF
6370 3847 CircleF
6370 3852 CircleF
6413 3847 CircleF
6413 3852 CircleF
6455 3848 CircleF
6455 3851 CircleF
6497 3848 CircleF
6497 3850 CircleF
6539 3847 CircleF
6539 3849 CircleF
6581 3846 CircleF
6581 3849 CircleF
6624 3848 CircleF
6666 3848 CircleF
6708 3849 CircleF
6750 3847 CircleF
6793 3848 CircleF
6835 3848 CircleF
6877 3847 CircleF
% End plot #1
2.000 UL
LTb
LCb setrgbcolor
1.000 UL
LTB
LCb setrgbcolor
770 4619 N
770 448 L
6107 0 V
0 4171 V
-6107 0 V
Z stroke
1.000 UP
1.000 UL
LTb
LCb setrgbcolor
stroke
grestore
end
showpage
%%Trailer
%%DocumentFonts: Helvetica
%%Pages: 1
