%!PS-Adobe-2.0
%%Title: Results.daisy.v100/Run.001/FLOPS.002/GPU_Blocks.0320/GPU_Threads.0512/graph2.ps
%%Creator: gnuplot 5.2 patchlevel 7
%%CreationDate: Sun Jan 19 15:21:17 2020
%%DocumentFonts: (atend)
%%BoundingBox: 50 50 554 770
%%Orientation: Landscape
%%Pages: (atend)
%%EndComments
%%BeginProlog
/gnudict 256 dict def
gnudict begin
%
% The following true/false flags may be edited by hand if desired.
% The unit line width and grayscale image gamma correction may also be changed.
%
/Color true def
/Blacktext false def
/Solid false def
/Dashlength 1 def
/Landscape true def
/Level1 false def
/Level3 false def
/Rounded false def
/ClipToBoundingBox false def
/SuppressPDFMark false def
/TransparentPatterns false def
/gnulinewidth 5.000 def
/userlinewidth gnulinewidth def
/Gamma 1.0 def
/BackgroundColor {-1.000 -1.000 -1.000} def
%
/vshift -46 def
/dl1 {
  10.0 Dashlength userlinewidth gnulinewidth div mul mul mul
  Rounded { currentlinewidth 0.75 mul sub dup 0 le { pop 0.01 } if } if
} def
/dl2 {
  10.0 Dashlength userlinewidth gnulinewidth div mul mul mul
  Rounded { currentlinewidth 0.75 mul add } if
} def
/hpt_ 31.5 def
/vpt_ 31.5 def
/hpt hpt_ def
/vpt vpt_ def
/doclip {
  ClipToBoundingBox {
    newpath 50 50 moveto 554 50 lineto 554 770 lineto 50 770 lineto closepath
    clip
  } if
} def
%
% Gnuplot Prolog Version 5.2 (Dec 2017)
%
%/SuppressPDFMark true def
%
/M {moveto} bind def
/L {lineto} bind def
/R {rmoveto} bind def
/V {rlineto} bind def
/N {newpath moveto} bind def
/Z {closepath} bind def
/C {setrgbcolor} bind def
/f {rlineto fill} bind def
/g {setgray} bind def
/Gshow {show} def   % May be redefined later in the file to support UTF-8
/vpt2 vpt 2 mul def
/hpt2 hpt 2 mul def
/Lshow {currentpoint stroke M 0 vshift R 
	Blacktext {gsave 0 setgray textshow grestore} {textshow} ifelse} def
/Rshow {currentpoint stroke M dup stringwidth pop neg vshift R
	Blacktext {gsave 0 setgray textshow grestore} {textshow} ifelse} def
/Cshow {currentpoint stroke M dup stringwidth pop -2 div vshift R 
	Blacktext {gsave 0 setgray textshow grestore} {textshow} ifelse} def
/UP {dup vpt_ mul /vpt exch def hpt_ mul /hpt exch def
  /hpt2 hpt 2 mul def /vpt2 vpt 2 mul def} def
/DL {Color {setrgbcolor Solid {pop []} if 0 setdash}
 {pop pop pop 0 setgray Solid {pop []} if 0 setdash} ifelse} def
/BL {stroke userlinewidth 2 mul setlinewidth
	Rounded {1 setlinejoin 1 setlinecap} if} def
/AL {stroke userlinewidth 2 div setlinewidth
	Rounded {1 setlinejoin 1 setlinecap} if} def
/UL {dup gnulinewidth mul /userlinewidth exch def
	dup 1 lt {pop 1} if 10 mul /udl exch def} def
/PL {stroke userlinewidth setlinewidth
	Rounded {1 setlinejoin 1 setlinecap} if} def
3.8 setmiterlimit
% Classic Line colors (version 5.0)
/LCw {1 1 1} def
/LCb {0 0 0} def
/LCa {0 0 0} def
/LC0 {1 0 0} def
/LC1 {0 1 0} def
/LC2 {0 0 1} def
/LC3 {1 0 1} def
/LC4 {0 1 1} def
/LC5 {1 1 0} def
/LC6 {0 0 0} def
/LC7 {1 0.3 0} def
/LC8 {0.5 0.5 0.5} def
% Default dash patterns (version 5.0)
/LTB {BL [] LCb DL} def
/LTw {PL [] 1 setgray} def
/LTb {PL [] LCb DL} def
/LTa {AL [1 udl mul 2 udl mul] 0 setdash LCa setrgbcolor} def
/LT0 {PL [] LC0 DL} def
/LT1 {PL [2 dl1 3 dl2] LC1 DL} def
/LT2 {PL [1 dl1 1.5 dl2] LC2 DL} def
/LT3 {PL [6 dl1 2 dl2 1 dl1 2 dl2] LC3 DL} def
/LT4 {PL [1 dl1 2 dl2 6 dl1 2 dl2 1 dl1 2 dl2] LC4 DL} def
/LT5 {PL [4 dl1 2 dl2] LC5 DL} def
/LT6 {PL [1.5 dl1 1.5 dl2 1.5 dl1 1.5 dl2 1.5 dl1 6 dl2] LC6 DL} def
/LT7 {PL [3 dl1 3 dl2 1 dl1 3 dl2] LC7 DL} def
/LT8 {PL [2 dl1 2 dl2 2 dl1 6 dl2] LC8 DL} def
/SL {[] 0 setdash} def
/Pnt {stroke [] 0 setdash gsave 1 setlinecap M 0 0 V stroke grestore} def
/Dia {stroke [] 0 setdash 2 copy vpt add M
  hpt neg vpt neg V hpt vpt neg V
  hpt vpt V hpt neg vpt V closepath stroke
  Pnt} def
/Pls {stroke [] 0 setdash vpt sub M 0 vpt2 V
  currentpoint stroke M
  hpt neg vpt neg R hpt2 0 V stroke
 } def
/Box {stroke [] 0 setdash 2 copy exch hpt sub exch vpt add M
  0 vpt2 neg V hpt2 0 V 0 vpt2 V
  hpt2 neg 0 V closepath stroke
  Pnt} def
/Crs {stroke [] 0 setdash exch hpt sub exch vpt add M
  hpt2 vpt2 neg V currentpoint stroke M
  hpt2 neg 0 R hpt2 vpt2 V stroke} def
/TriU {stroke [] 0 setdash 2 copy vpt 1.12 mul add M
  hpt neg vpt -1.62 mul V
  hpt 2 mul 0 V
  hpt neg vpt 1.62 mul V closepath stroke
  Pnt} def
/Star {2 copy Pls Crs} def
/BoxF {stroke [] 0 setdash exch hpt sub exch vpt add M
  0 vpt2 neg V hpt2 0 V 0 vpt2 V
  hpt2 neg 0 V closepath fill} def
/TriUF {stroke [] 0 setdash vpt 1.12 mul add M
  hpt neg vpt -1.62 mul V
  hpt 2 mul 0 V
  hpt neg vpt 1.62 mul V closepath fill} def
/TriD {stroke [] 0 setdash 2 copy vpt 1.12 mul sub M
  hpt neg vpt 1.62 mul V
  hpt 2 mul 0 V
  hpt neg vpt -1.62 mul V closepath stroke
  Pnt} def
/TriDF {stroke [] 0 setdash vpt 1.12 mul sub M
  hpt neg vpt 1.62 mul V
  hpt 2 mul 0 V
  hpt neg vpt -1.62 mul V closepath fill} def
/DiaF {stroke [] 0 setdash vpt add M
  hpt neg vpt neg V hpt vpt neg V
  hpt vpt V hpt neg vpt V closepath fill} def
/Pent {stroke [] 0 setdash 2 copy gsave
  translate 0 hpt M 4 {72 rotate 0 hpt L} repeat
  closepath stroke grestore Pnt} def
/PentF {stroke [] 0 setdash gsave
  translate 0 hpt M 4 {72 rotate 0 hpt L} repeat
  closepath fill grestore} def
/Circle {stroke [] 0 setdash 2 copy
  hpt 0 360 arc stroke Pnt} def
/CircleF {stroke [] 0 setdash hpt 0 360 arc fill} def
/C0 {BL [] 0 setdash 2 copy moveto vpt 90 450 arc} bind def
/C1 {BL [] 0 setdash 2 copy moveto
	2 copy vpt 0 90 arc closepath fill
	vpt 0 360 arc closepath} bind def
/C2 {BL [] 0 setdash 2 copy moveto
	2 copy vpt 90 180 arc closepath fill
	vpt 0 360 arc closepath} bind def
/C3 {BL [] 0 setdash 2 copy moveto
	2 copy vpt 0 180 arc closepath fill
	vpt 0 360 arc closepath} bind def
/C4 {BL [] 0 setdash 2 copy moveto
	2 copy vpt 180 270 arc closepath fill
	vpt 0 360 arc closepath} bind def
/C5 {BL [] 0 setdash 2 copy moveto
	2 copy vpt 0 90 arc
	2 copy moveto
	2 copy vpt 180 270 arc closepath fill
	vpt 0 360 arc} bind def
/C6 {BL [] 0 setdash 2 copy moveto
	2 copy vpt 90 270 arc closepath fill
	vpt 0 360 arc closepath} bind def
/C7 {BL [] 0 setdash 2 copy moveto
	2 copy vpt 0 270 arc closepath fill
	vpt 0 360 arc closepath} bind def
/C8 {BL [] 0 setdash 2 copy moveto
	2 copy vpt 270 360 arc closepath fill
	vpt 0 360 arc closepath} bind def
/C9 {BL [] 0 setdash 2 copy moveto
	2 copy vpt 270 450 arc closepath fill
	vpt 0 360 arc closepath} bind def
/C10 {BL [] 0 setdash 2 copy 2 copy moveto vpt 270 360 arc closepath fill
	2 copy moveto
	2 copy vpt 90 180 arc closepath fill
	vpt 0 360 arc closepath} bind def
/C11 {BL [] 0 setdash 2 copy moveto
	2 copy vpt 0 180 arc closepath fill
	2 copy moveto
	2 copy vpt 270 360 arc closepath fill
	vpt 0 360 arc closepath} bind def
/C12 {BL [] 0 setdash 2 copy moveto
	2 copy vpt 180 360 arc closepath fill
	vpt 0 360 arc closepath} bind def
/C13 {BL [] 0 setdash 2 copy moveto
	2 copy vpt 0 90 arc closepath fill
	2 copy moveto
	2 copy vpt 180 360 arc closepath fill
	vpt 0 360 arc closepath} bind def
/C14 {BL [] 0 setdash 2 copy moveto
	2 copy vpt 90 360 arc closepath fill
	vpt 0 360 arc} bind def
/C15 {BL [] 0 setdash 2 copy vpt 0 360 arc closepath fill
	vpt 0 360 arc closepath} bind def
/Rec {newpath 4 2 roll moveto 1 index 0 rlineto 0 exch rlineto
	neg 0 rlineto closepath} bind def
/Square {dup Rec} bind def
/Bsquare {vpt sub exch vpt sub exch vpt2 Square} bind def
/S0 {BL [] 0 setdash 2 copy moveto 0 vpt rlineto BL Bsquare} bind def
/S1 {BL [] 0 setdash 2 copy vpt Square fill Bsquare} bind def
/S2 {BL [] 0 setdash 2 copy exch vpt sub exch vpt Square fill Bsquare} bind def
/S3 {BL [] 0 setdash 2 copy exch vpt sub exch vpt2 vpt Rec fill Bsquare} bind def
/S4 {BL [] 0 setdash 2 copy exch vpt sub exch vpt sub vpt Square fill Bsquare} bind def
/S5 {BL [] 0 setdash 2 copy 2 copy vpt Square fill
	exch vpt sub exch vpt sub vpt Square fill Bsquare} bind def
/S6 {BL [] 0 setdash 2 copy exch vpt sub exch vpt sub vpt vpt2 Rec fill Bsquare} bind def
/S7 {BL [] 0 setdash 2 copy exch vpt sub exch vpt sub vpt vpt2 Rec fill
	2 copy vpt Square fill Bsquare} bind def
/S8 {BL [] 0 setdash 2 copy vpt sub vpt Square fill Bsquare} bind def
/S9 {BL [] 0 setdash 2 copy vpt sub vpt vpt2 Rec fill Bsquare} bind def
/S10 {BL [] 0 setdash 2 copy vpt sub vpt Square fill 2 copy exch vpt sub exch vpt Square fill
	Bsquare} bind def
/S11 {BL [] 0 setdash 2 copy vpt sub vpt Square fill 2 copy exch vpt sub exch vpt2 vpt Rec fill
	Bsquare} bind def
/S12 {BL [] 0 setdash 2 copy exch vpt sub exch vpt sub vpt2 vpt Rec fill Bsquare} bind def
/S13 {BL [] 0 setdash 2 copy exch vpt sub exch vpt sub vpt2 vpt Rec fill
	2 copy vpt Square fill Bsquare} bind def
/S14 {BL [] 0 setdash 2 copy exch vpt sub exch vpt sub vpt2 vpt Rec fill
	2 copy exch vpt sub exch vpt Square fill Bsquare} bind def
/S15 {BL [] 0 setdash 2 copy Bsquare fill Bsquare} bind def
/D0 {gsave translate 45 rotate 0 0 S0 stroke grestore} bind def
/D1 {gsave translate 45 rotate 0 0 S1 stroke grestore} bind def
/D2 {gsave translate 45 rotate 0 0 S2 stroke grestore} bind def
/D3 {gsave translate 45 rotate 0 0 S3 stroke grestore} bind def
/D4 {gsave translate 45 rotate 0 0 S4 stroke grestore} bind def
/D5 {gsave translate 45 rotate 0 0 S5 stroke grestore} bind def
/D6 {gsave translate 45 rotate 0 0 S6 stroke grestore} bind def
/D7 {gsave translate 45 rotate 0 0 S7 stroke grestore} bind def
/D8 {gsave translate 45 rotate 0 0 S8 stroke grestore} bind def
/D9 {gsave translate 45 rotate 0 0 S9 stroke grestore} bind def
/D10 {gsave translate 45 rotate 0 0 S10 stroke grestore} bind def
/D11 {gsave translate 45 rotate 0 0 S11 stroke grestore} bind def
/D12 {gsave translate 45 rotate 0 0 S12 stroke grestore} bind def
/D13 {gsave translate 45 rotate 0 0 S13 stroke grestore} bind def
/D14 {gsave translate 45 rotate 0 0 S14 stroke grestore} bind def
/D15 {gsave translate 45 rotate 0 0 S15 stroke grestore} bind def
/DiaE {stroke [] 0 setdash vpt add M
  hpt neg vpt neg V hpt vpt neg V
  hpt vpt V hpt neg vpt V closepath stroke} def
/BoxE {stroke [] 0 setdash exch hpt sub exch vpt add M
  0 vpt2 neg V hpt2 0 V 0 vpt2 V
  hpt2 neg 0 V closepath stroke} def
/TriUE {stroke [] 0 setdash vpt 1.12 mul add M
  hpt neg vpt -1.62 mul V
  hpt 2 mul 0 V
  hpt neg vpt 1.62 mul V closepath stroke} def
/TriDE {stroke [] 0 setdash vpt 1.12 mul sub M
  hpt neg vpt 1.62 mul V
  hpt 2 mul 0 V
  hpt neg vpt -1.62 mul V closepath stroke} def
/PentE {stroke [] 0 setdash gsave
  translate 0 hpt M 4 {72 rotate 0 hpt L} repeat
  closepath stroke grestore} def
/CircE {stroke [] 0 setdash 
  hpt 0 360 arc stroke} def
/Opaque {gsave closepath 1 setgray fill grestore 0 setgray closepath} def
/DiaW {stroke [] 0 setdash vpt add M
  hpt neg vpt neg V hpt vpt neg V
  hpt vpt V hpt neg vpt V Opaque stroke} def
/BoxW {stroke [] 0 setdash exch hpt sub exch vpt add M
  0 vpt2 neg V hpt2 0 V 0 vpt2 V
  hpt2 neg 0 V Opaque stroke} def
/TriUW {stroke [] 0 setdash vpt 1.12 mul add M
  hpt neg vpt -1.62 mul V
  hpt 2 mul 0 V
  hpt neg vpt 1.62 mul V Opaque stroke} def
/TriDW {stroke [] 0 setdash vpt 1.12 mul sub M
  hpt neg vpt 1.62 mul V
  hpt 2 mul 0 V
  hpt neg vpt -1.62 mul V Opaque stroke} def
/PentW {stroke [] 0 setdash gsave
  translate 0 hpt M 4 {72 rotate 0 hpt L} repeat
  Opaque stroke grestore} def
/CircW {stroke [] 0 setdash 
  hpt 0 360 arc Opaque stroke} def
/BoxFill {gsave Rec 1 setgray fill grestore} def
/Density {
  /Fillden exch def
  currentrgbcolor
  /ColB exch def /ColG exch def /ColR exch def
  /ColR ColR Fillden mul Fillden sub 1 add def
  /ColG ColG Fillden mul Fillden sub 1 add def
  /ColB ColB Fillden mul Fillden sub 1 add def
  ColR ColG ColB setrgbcolor} def
/BoxColFill {gsave Rec PolyFill} def
/PolyFill {gsave Density fill grestore grestore} def
/h {rlineto rlineto rlineto closepath gsave fill grestore stroke} bind def
%
% PostScript Level 1 Pattern Fill routine for rectangles
% Usage: x y w h s a XX PatternFill
%	x,y = lower left corner of box to be filled
%	w,h = width and height of box
%	  a = angle in degrees between lines and x-axis
%	 XX = 0/1 for no/yes cross-hatch
%
/PatternFill {gsave /PFa [ 9 2 roll ] def
  PFa 0 get PFa 2 get 2 div add PFa 1 get PFa 3 get 2 div add translate
  PFa 2 get -2 div PFa 3 get -2 div PFa 2 get PFa 3 get Rec
  TransparentPatterns {} {gsave 1 setgray fill grestore} ifelse
  clip
  currentlinewidth 0.5 mul setlinewidth
  /PFs PFa 2 get dup mul PFa 3 get dup mul add sqrt def
  0 0 M PFa 5 get rotate PFs -2 div dup translate
  0 1 PFs PFa 4 get div 1 add floor cvi
	{PFa 4 get mul 0 M 0 PFs V} for
  0 PFa 6 get ne {
	0 1 PFs PFa 4 get div 1 add floor cvi
	{PFa 4 get mul 0 2 1 roll M PFs 0 V} for
 } if
  stroke grestore} def
%
/languagelevel where
 {pop languagelevel} {1} ifelse
dup 2 lt
	{/InterpretLevel1 true def
	 /InterpretLevel3 false def}
	{/InterpretLevel1 Level1 def
	 2 gt
	    {/InterpretLevel3 Level3 def}
	    {/InterpretLevel3 false def}
	 ifelse }
 ifelse
%
% PostScript level 2 pattern fill definitions
%
/Level2PatternFill {
/Tile8x8 {/PaintType 2 /PatternType 1 /TilingType 1 /BBox [0 0 8 8] /XStep 8 /YStep 8}
	bind def
/KeepColor {currentrgbcolor [/Pattern /DeviceRGB] setcolorspace} bind def
<< Tile8x8
 /PaintProc {0.5 setlinewidth pop 0 0 M 8 8 L 0 8 M 8 0 L stroke} 
>> matrix makepattern
/Pat1 exch def
<< Tile8x8
 /PaintProc {0.5 setlinewidth pop 0 0 M 8 8 L 0 8 M 8 0 L stroke
	0 4 M 4 8 L 8 4 L 4 0 L 0 4 L stroke}
>> matrix makepattern
/Pat2 exch def
<< Tile8x8
 /PaintProc {0.5 setlinewidth pop 0 0 M 0 8 L
	8 8 L 8 0 L 0 0 L fill}
>> matrix makepattern
/Pat3 exch def
<< Tile8x8
 /PaintProc {0.5 setlinewidth pop -4 8 M 8 -4 L
	0 12 M 12 0 L stroke}
>> matrix makepattern
/Pat4 exch def
<< Tile8x8
 /PaintProc {0.5 setlinewidth pop -4 0 M 8 12 L
	0 -4 M 12 8 L stroke}
>> matrix makepattern
/Pat5 exch def
<< Tile8x8
 /PaintProc {0.5 setlinewidth pop -2 8 M 4 -4 L
	0 12 M 8 -4 L 4 12 M 10 0 L stroke}
>> matrix makepattern
/Pat6 exch def
<< Tile8x8
 /PaintProc {0.5 setlinewidth pop -2 0 M 4 12 L
	0 -4 M 8 12 L 4 -4 M 10 8 L stroke}
>> matrix makepattern
/Pat7 exch def
<< Tile8x8
 /PaintProc {0.5 setlinewidth pop 8 -2 M -4 4 L
	12 0 M -4 8 L 12 4 M 0 10 L stroke}
>> matrix makepattern
/Pat8 exch def
<< Tile8x8
 /PaintProc {0.5 setlinewidth pop 0 -2 M 12 4 L
	-4 0 M 12 8 L -4 4 M 8 10 L stroke}
>> matrix makepattern
/Pat9 exch def
/Pattern1 {PatternBgnd KeepColor Pat1 setpattern} bind def
/Pattern2 {PatternBgnd KeepColor Pat2 setpattern} bind def
/Pattern3 {PatternBgnd KeepColor Pat3 setpattern} bind def
/Pattern4 {PatternBgnd KeepColor Landscape {Pat5} {Pat4} ifelse setpattern} bind def
/Pattern5 {PatternBgnd KeepColor Landscape {Pat4} {Pat5} ifelse setpattern} bind def
/Pattern6 {PatternBgnd KeepColor Landscape {Pat9} {Pat6} ifelse setpattern} bind def
/Pattern7 {PatternBgnd KeepColor Landscape {Pat8} {Pat7} ifelse setpattern} bind def
} def
%
%
%End of PostScript Level 2 code
%
/PatternBgnd {
  TransparentPatterns {} {gsave 1 setgray fill grestore} ifelse
} def
%
% Substitute for Level 2 pattern fill codes with
% grayscale if Level 2 support is not selected.
%
/Level1PatternFill {
/Pattern1 {0.250 Density} bind def
/Pattern2 {0.500 Density} bind def
/Pattern3 {0.750 Density} bind def
/Pattern4 {0.125 Density} bind def
/Pattern5 {0.375 Density} bind def
/Pattern6 {0.625 Density} bind def
/Pattern7 {0.875 Density} bind def
} def
%
% Now test for support of Level 2 code
%
Level1 {Level1PatternFill} {Level2PatternFill} ifelse
%
/Symbol-Oblique /Symbol findfont [1 0 .167 1 0 0] makefont
dup length dict begin {1 index /FID eq {pop pop} {def} ifelse} forall
currentdict end definefont pop
%
/Metrics {ExtendTextBox Gswidth} def
/Lwidth {currentpoint stroke M 0 vshift R Metrics} def
/Rwidth {currentpoint stroke M dup stringwidth pop neg vshift R Metrics} def
/Cwidth {currentpoint stroke M dup stringwidth pop -2 div vshift R Metrics} def
/GLwidth {currentpoint stroke M 0 vshift R {ExtendTextBox} forall} def
/GRwidth {currentpoint stroke M dup Gwidth vshift R {ExtendTextBox} forall} def
/GCwidth {currentpoint stroke M dup Gwidth 2 div vshift R {ExtendTextBox} forall} def
/GLwidth2 {0 Gwidth AddGlyphWidth} def
/GRwidth2 {Gwidth -1 mul 0 AddGlyphWidth} def
/GCwidth2 {Gwidth 2 div dup -1 mul AddGlyphWidth} def
/AddGlyphWidth { dup TBx2 gt {userdict /TBx2 3 -1 roll put} {pop} ifelse
                 dup TBx1 lt {userdict /TBx1 3 -1 roll put} {pop} ifelse } def
/MFshow {
   { dup 5 get 3 ge
     { 5 get 3 eq {gsave} {grestore} ifelse }
     {dup dup 0 get findfont exch 1 get scalefont setfont
     [ currentpoint ] exch dup 2 get 0 exch R dup 5 get 2 ne {dup dup 6
     get exch 4 get {textshow} {Metrics pop 0 R} ifelse }if dup 5 get 0 eq
     {dup 3 get {2 get neg 0 exch R pop} {pop aload pop M} ifelse} {dup 5
     get 1 eq {dup 2 get exch dup 3 get exch 6 get Gswidth pop -2 div
     dup 0 R} {dup 6 get Gswidth pop -2 div 0 R 6 get
     textshow 2 index {aload pop M neg 3 -1 roll neg R pop pop} {pop pop pop
     pop aload pop M} ifelse }ifelse }ifelse }
     ifelse }
   forall} def
/Gswidth {dup type /stringtype eq {stringwidth} {pop (n) stringwidth} ifelse} def
/MFwidth {0 exch { dup 5 get 3 ge { 5 get 3 eq { 0 } { pop } ifelse }
 {dup 3 get{dup dup 0 get findfont exch 1 get scalefont setfont
     6 get Gswidth pop add} {pop} ifelse} ifelse} forall} def
/MLshow { currentpoint stroke M
  0 exch R
  Blacktext {gsave 0 setgray MFshow grestore} {MFshow} ifelse } bind def
/MRshow { currentpoint stroke M
  exch dup MFwidth neg 3 -1 roll R
  Blacktext {gsave 0 setgray MFshow grestore} {MFshow} ifelse } bind def
/MCshow { currentpoint stroke M
  exch dup MFwidth -2 div 3 -1 roll R
  Blacktext {gsave 0 setgray MFshow grestore} {MFshow} ifelse } bind def
/XYsave    { [( ) 1 2 true false 3 ()] } bind def
/XYrestore { [( ) 1 2 true false 4 ()] } bind def
Level1 SuppressPDFMark or 
{} {
/SDict 10 dict def
systemdict /pdfmark known not {
  userdict /pdfmark systemdict /cleartomark get put
} if
SDict begin [
  /Title (Results.daisy.v100/Run.001/FLOPS.002/GPU_Blocks.0320/GPU_Threads.0512/graph2.ps)
  /Subject (gnuplot plot)
  /Creator (gnuplot 5.2 patchlevel 7)
%  /Producer (gnuplot)
%  /Keywords ()
  /CreationDate (Sun Jan 19 15:21:17 2020)
  /DOCINFO pdfmark
end
} ifelse
%
% Support for boxed text - Ethan A Merritt Sep 2016
%
/InitTextBox { userdict /TBy2 3 -1 roll put userdict /TBx2 3 -1 roll put
           userdict /TBy1 3 -1 roll put userdict /TBx1 3 -1 roll put
	   /Boxing true def } def
/ExtendTextBox { dup type /stringtype eq
    { Boxing { gsave dup false charpath pathbbox
      dup TBy2 gt {userdict /TBy2 3 -1 roll put} {pop} ifelse
      dup TBx2 gt {userdict /TBx2 3 -1 roll put} {pop} ifelse
      dup TBy1 lt {userdict /TBy1 3 -1 roll put} {pop} ifelse
      dup TBx1 lt {userdict /TBx1 3 -1 roll put} {pop} ifelse
      grestore } if }
    {} ifelse} def
/PopTextBox { newpath TBx1 TBxmargin sub TBy1 TBymargin sub M
               TBx1 TBxmargin sub TBy2 TBymargin add L
	       TBx2 TBxmargin add TBy2 TBymargin add L
	       TBx2 TBxmargin add TBy1 TBymargin sub L closepath } def
/DrawTextBox { PopTextBox stroke /Boxing false def} def
/FillTextBox { gsave PopTextBox fill grestore /Boxing false def} def
0 0 0 0 InitTextBox
/TBxmargin 20 def
/TBymargin 20 def
/Boxing false def
/textshow { ExtendTextBox Gshow } def
%
end
%%EndProlog
%%Page: 1 1
gnudict begin
gsave
doclip
50 50 translate
0.100 0.100 scale
90 rotate
0 -5040 translate
0 setgray
newpath
(Helvetica) findfont 140 scalefont setfont
BackgroundColor 0 lt 3 1 roll 0 lt exch 0 lt or or not {gsave BackgroundColor C clippath fill grestore} if
1.000 UL
LTb
LCb setrgbcolor
1.000 UL
LTa
LCa setrgbcolor
770 448 M
6107 0 V
stroke
LTb
LCb setrgbcolor
770 448 M
63 0 V
6044 0 R
-63 0 V
stroke
686 448 M
[ [(Helvetica) 140.0 0.0 true true 0 (1e-02)]
] -46.7 MRshow
/Helvetica findfont 140 scalefont setfont
/vshift -46 def
1.000 UL
LTb
LCb setrgbcolor
1.000 UL
LTa
LCa setrgbcolor
770 657 M
6107 0 V
stroke
LTb
LCb setrgbcolor
770 657 M
31 0 V
6076 0 R
-31 0 V
stroke
LTa
LCa setrgbcolor
770 780 M
6107 0 V
stroke
LTb
LCb setrgbcolor
770 780 M
31 0 V
6076 0 R
-31 0 V
stroke
LTa
LCa setrgbcolor
770 867 M
6107 0 V
stroke
LTb
LCb setrgbcolor
770 867 M
31 0 V
6076 0 R
-31 0 V
stroke
LTa
LCa setrgbcolor
770 934 M
6107 0 V
stroke
LTb
LCb setrgbcolor
770 934 M
31 0 V
6076 0 R
-31 0 V
stroke
LTa
LCa setrgbcolor
770 989 M
6107 0 V
stroke
LTb
LCb setrgbcolor
770 989 M
31 0 V
6076 0 R
-31 0 V
stroke
LTa
LCa setrgbcolor
770 1035 M
6107 0 V
stroke
LTb
LCb setrgbcolor
770 1035 M
31 0 V
6076 0 R
-31 0 V
stroke
LTa
LCa setrgbcolor
770 1076 M
6107 0 V
stroke
LTb
LCb setrgbcolor
770 1076 M
31 0 V
6076 0 R
-31 0 V
stroke
LTa
LCa setrgbcolor
770 1111 M
6107 0 V
stroke
LTb
LCb setrgbcolor
770 1111 M
31 0 V
6076 0 R
-31 0 V
stroke
LTa
LCa setrgbcolor
770 1143 M
6107 0 V
stroke
LTb
LCb setrgbcolor
770 1143 M
63 0 V
6044 0 R
-63 0 V
stroke
686 1143 M
[ [(Helvetica) 140.0 0.0 true true 0 (1e-01)]
] -46.7 MRshow
/Helvetica findfont 140 scalefont setfont
1.000 UL
LTb
LCb setrgbcolor
1.000 UL
LTa
LCa setrgbcolor
770 1352 M
6107 0 V
stroke
LTb
LCb setrgbcolor
770 1352 M
31 0 V
6076 0 R
-31 0 V
stroke
LTa
LCa setrgbcolor
770 1475 M
6107 0 V
stroke
LTb
LCb setrgbcolor
770 1475 M
31 0 V
6076 0 R
-31 0 V
stroke
LTa
LCa setrgbcolor
770 1562 M
6107 0 V
stroke
LTb
LCb setrgbcolor
770 1562 M
31 0 V
6076 0 R
-31 0 V
stroke
LTa
LCa setrgbcolor
770 1629 M
6107 0 V
stroke
LTb
LCb setrgbcolor
770 1629 M
31 0 V
6076 0 R
-31 0 V
stroke
LTa
LCa setrgbcolor
770 1684 M
6107 0 V
stroke
LTb
LCb setrgbcolor
770 1684 M
31 0 V
6076 0 R
-31 0 V
stroke
LTa
LCa setrgbcolor
770 1731 M
6107 0 V
stroke
LTb
LCb setrgbcolor
770 1731 M
31 0 V
6076 0 R
-31 0 V
stroke
LTa
LCa setrgbcolor
770 1771 M
6107 0 V
stroke
LTb
LCb setrgbcolor
770 1771 M
31 0 V
6076 0 R
-31 0 V
stroke
LTa
LCa setrgbcolor
770 1807 M
6107 0 V
stroke
LTb
LCb setrgbcolor
770 1807 M
31 0 V
6076 0 R
-31 0 V
stroke
LTa
LCa setrgbcolor
770 1838 M
6107 0 V
stroke
LTb
LCb setrgbcolor
770 1838 M
63 0 V
6044 0 R
-63 0 V
stroke
686 1838 M
[ [(Helvetica) 140.0 0.0 true true 0 (1e+00)]
] -46.7 MRshow
/Helvetica findfont 140 scalefont setfont
1.000 UL
LTb
LCb setrgbcolor
1.000 UL
LTa
LCa setrgbcolor
770 2048 M
6107 0 V
stroke
LTb
LCb setrgbcolor
770 2048 M
31 0 V
6076 0 R
-31 0 V
stroke
LTa
LCa setrgbcolor
770 2170 M
6107 0 V
stroke
LTb
LCb setrgbcolor
770 2170 M
31 0 V
6076 0 R
-31 0 V
stroke
LTa
LCa setrgbcolor
770 2257 M
6107 0 V
stroke
LTb
LCb setrgbcolor
770 2257 M
31 0 V
6076 0 R
-31 0 V
stroke
LTa
LCa setrgbcolor
770 2324 M
6107 0 V
stroke
LTb
LCb setrgbcolor
770 2324 M
31 0 V
6076 0 R
-31 0 V
stroke
LTa
LCa setrgbcolor
770 2379 M
6107 0 V
stroke
LTb
LCb setrgbcolor
770 2379 M
31 0 V
6076 0 R
-31 0 V
stroke
LTa
LCa setrgbcolor
770 2426 M
6107 0 V
stroke
LTb
LCb setrgbcolor
770 2426 M
31 0 V
6076 0 R
-31 0 V
stroke
LTa
LCa setrgbcolor
770 2466 M
6107 0 V
stroke
LTb
LCb setrgbcolor
770 2466 M
31 0 V
6076 0 R
-31 0 V
stroke
LTa
LCa setrgbcolor
770 2502 M
6107 0 V
stroke
LTb
LCb setrgbcolor
770 2502 M
31 0 V
6076 0 R
-31 0 V
stroke
LTa
LCa setrgbcolor
770 2534 M
6107 0 V
stroke
LTb
LCb setrgbcolor
770 2534 M
63 0 V
6044 0 R
-63 0 V
stroke
686 2534 M
[ [(Helvetica) 140.0 0.0 true true 0 (1e+01)]
] -46.7 MRshow
/Helvetica findfont 140 scalefont setfont
1.000 UL
LTb
LCb setrgbcolor
1.000 UL
LTa
LCa setrgbcolor
770 2743 M
6107 0 V
stroke
LTb
LCb setrgbcolor
770 2743 M
31 0 V
6076 0 R
-31 0 V
stroke
LTa
LCa setrgbcolor
770 2865 M
6107 0 V
stroke
LTb
LCb setrgbcolor
770 2865 M
31 0 V
6076 0 R
-31 0 V
stroke
LTa
LCa setrgbcolor
770 2952 M
6107 0 V
stroke
LTb
LCb setrgbcolor
770 2952 M
31 0 V
6076 0 R
-31 0 V
stroke
LTa
LCa setrgbcolor
770 3019 M
6107 0 V
stroke
LTb
LCb setrgbcolor
770 3019 M
31 0 V
6076 0 R
-31 0 V
stroke
LTa
LCa setrgbcolor
770 3074 M
6107 0 V
stroke
LTb
LCb setrgbcolor
770 3074 M
31 0 V
6076 0 R
-31 0 V
stroke
LTa
LCa setrgbcolor
770 3121 M
6107 0 V
stroke
LTb
LCb setrgbcolor
770 3121 M
31 0 V
6076 0 R
-31 0 V
stroke
LTa
LCa setrgbcolor
770 3161 M
6107 0 V
stroke
LTb
LCb setrgbcolor
770 3161 M
31 0 V
6076 0 R
-31 0 V
stroke
LTa
LCa setrgbcolor
770 3197 M
6107 0 V
stroke
LTb
LCb setrgbcolor
770 3197 M
31 0 V
6076 0 R
-31 0 V
stroke
LTa
LCa setrgbcolor
770 3229 M
6107 0 V
stroke
LTb
LCb setrgbcolor
770 3229 M
63 0 V
6044 0 R
-63 0 V
stroke
686 3229 M
[ [(Helvetica) 140.0 0.0 true true 0 (1e+02)]
] -46.7 MRshow
/Helvetica findfont 140 scalefont setfont
1.000 UL
LTb
LCb setrgbcolor
1.000 UL
LTa
LCa setrgbcolor
770 3438 M
6107 0 V
stroke
LTb
LCb setrgbcolor
770 3438 M
31 0 V
6076 0 R
-31 0 V
stroke
LTa
LCa setrgbcolor
770 3560 M
6107 0 V
stroke
LTb
LCb setrgbcolor
770 3560 M
31 0 V
6076 0 R
-31 0 V
stroke
LTa
LCa setrgbcolor
770 3647 M
6107 0 V
stroke
LTb
LCb setrgbcolor
770 3647 M
31 0 V
6076 0 R
-31 0 V
stroke
LTa
LCa setrgbcolor
770 3715 M
6107 0 V
stroke
LTb
LCb setrgbcolor
770 3715 M
31 0 V
6076 0 R
-31 0 V
stroke
LTa
LCa setrgbcolor
770 3770 M
6107 0 V
stroke
LTb
LCb setrgbcolor
770 3770 M
31 0 V
6076 0 R
-31 0 V
stroke
LTa
LCa setrgbcolor
770 3816 M
6107 0 V
stroke
LTb
LCb setrgbcolor
770 3816 M
31 0 V
6076 0 R
-31 0 V
stroke
LTa
LCa setrgbcolor
770 3856 M
6107 0 V
stroke
LTb
LCb setrgbcolor
770 3856 M
31 0 V
6076 0 R
-31 0 V
stroke
LTa
LCa setrgbcolor
770 3892 M
6107 0 V
stroke
LTb
LCb setrgbcolor
770 3892 M
31 0 V
6076 0 R
-31 0 V
stroke
LTa
LCa setrgbcolor
770 3924 M
6107 0 V
stroke
LTb
LCb setrgbcolor
770 3924 M
63 0 V
6044 0 R
-63 0 V
stroke
686 3924 M
[ [(Helvetica) 140.0 0.0 true true 0 (1e+03)]
] -46.7 MRshow
/Helvetica findfont 140 scalefont setfont
1.000 UL
LTb
LCb setrgbcolor
1.000 UL
LTa
LCa setrgbcolor
770 4133 M
6107 0 V
stroke
LTb
LCb setrgbcolor
770 4133 M
31 0 V
6076 0 R
-31 0 V
stroke
LTa
LCa setrgbcolor
770 4256 M
6107 0 V
stroke
LTb
LCb setrgbcolor
770 4256 M
31 0 V
6076 0 R
-31 0 V
stroke
LTa
LCa setrgbcolor
770 4342 M
6107 0 V
stroke
LTb
LCb setrgbcolor
770 4342 M
31 0 V
6076 0 R
-31 0 V
stroke
LTa
LCa setrgbcolor
770 4410 M
6107 0 V
stroke
LTb
LCb setrgbcolor
770 4410 M
31 0 V
6076 0 R
-31 0 V
stroke
LTa
LCa setrgbcolor
770 4465 M
6107 0 V
stroke
LTb
LCb setrgbcolor
770 4465 M
31 0 V
6076 0 R
-31 0 V
stroke
LTa
LCa setrgbcolor
770 4511 M
6107 0 V
stroke
LTb
LCb setrgbcolor
770 4511 M
31 0 V
6076 0 R
-31 0 V
stroke
LTa
LCa setrgbcolor
770 4552 M
6107 0 V
stroke
LTb
LCb setrgbcolor
770 4552 M
31 0 V
6076 0 R
-31 0 V
stroke
LTa
LCa setrgbcolor
770 4587 M
6107 0 V
stroke
LTb
LCb setrgbcolor
770 4587 M
31 0 V
6076 0 R
-31 0 V
stroke
LTa
LCa setrgbcolor
770 4619 M
6107 0 V
stroke
LTb
LCb setrgbcolor
770 4619 M
63 0 V
6044 0 R
-63 0 V
stroke
686 4619 M
[ [(Helvetica) 140.0 0.0 true true 0 (1e+04)]
] -46.7 MRshow
/Helvetica findfont 140 scalefont setfont
1.000 UL
LTb
LCb setrgbcolor
1.000 UL
LTa
LCa setrgbcolor
1067 448 M
0 4171 V
stroke
LTb
LCb setrgbcolor
1067 448 M
0 31 V
0 4140 R
0 -31 V
stroke
LTa
LCa setrgbcolor
1246 448 M
0 4171 V
stroke
LTb
LCb setrgbcolor
1246 448 M
0 31 V
0 4140 R
0 -31 V
stroke
LTa
LCa setrgbcolor
1374 448 M
0 4171 V
stroke
LTb
LCb setrgbcolor
1374 448 M
0 31 V
0 4140 R
0 -31 V
stroke
LTa
LCa setrgbcolor
1473 448 M
0 4171 V
stroke
LTb
LCb setrgbcolor
1473 448 M
0 31 V
0 4140 R
0 -31 V
stroke
LTa
LCa setrgbcolor
1553 448 M
0 4171 V
stroke
LTb
LCb setrgbcolor
1553 448 M
0 31 V
0 4140 R
0 -31 V
stroke
LTa
LCa setrgbcolor
1622 448 M
0 4171 V
stroke
LTb
LCb setrgbcolor
1622 448 M
0 31 V
0 4140 R
0 -31 V
stroke
LTa
LCa setrgbcolor
1681 448 M
0 4171 V
stroke
LTb
LCb setrgbcolor
1681 448 M
0 31 V
0 4140 R
0 -31 V
stroke
LTa
LCa setrgbcolor
1733 448 M
0 4171 V
stroke
LTb
LCb setrgbcolor
1733 448 M
0 31 V
0 4140 R
0 -31 V
stroke
LTa
LCa setrgbcolor
1780 448 M
0 4171 V
stroke
LTb
LCb setrgbcolor
1780 448 M
0 63 V
0 4108 R
0 -63 V
stroke
1780 308 M
[ [(Helvetica) 140.0 0.0 true true 0 (1e+04)]
] -46.7 MCshow
/Helvetica findfont 140 scalefont setfont
1.000 UL
LTb
LCb setrgbcolor
1.000 UL
LTa
LCa setrgbcolor
2087 448 M
0 4171 V
stroke
LTb
LCb setrgbcolor
2087 448 M
0 31 V
0 4140 R
0 -31 V
stroke
LTa
LCa setrgbcolor
2266 448 M
0 4171 V
stroke
LTb
LCb setrgbcolor
2266 448 M
0 31 V
0 4140 R
0 -31 V
stroke
LTa
LCa setrgbcolor
2394 448 M
0 4171 V
stroke
LTb
LCb setrgbcolor
2394 448 M
0 31 V
0 4140 R
0 -31 V
stroke
LTa
LCa setrgbcolor
2493 448 M
0 4171 V
stroke
LTb
LCb setrgbcolor
2493 448 M
0 31 V
0 4140 R
0 -31 V
stroke
LTa
LCa setrgbcolor
2573 448 M
0 4171 V
stroke
LTb
LCb setrgbcolor
2573 448 M
0 31 V
0 4140 R
0 -31 V
stroke
LTa
LCa setrgbcolor
2642 448 M
0 4171 V
stroke
LTb
LCb setrgbcolor
2642 448 M
0 31 V
0 4140 R
0 -31 V
stroke
LTa
LCa setrgbcolor
2701 448 M
0 4171 V
stroke
LTb
LCb setrgbcolor
2701 448 M
0 31 V
0 4140 R
0 -31 V
stroke
LTa
LCa setrgbcolor
2753 448 M
0 4171 V
stroke
LTb
LCb setrgbcolor
2753 448 M
0 31 V
0 4140 R
0 -31 V
stroke
LTa
LCa setrgbcolor
2800 448 M
0 4171 V
stroke
LTb
LCb setrgbcolor
2800 448 M
0 63 V
0 4108 R
0 -63 V
stroke
2800 308 M
[ [(Helvetica) 140.0 0.0 true true 0 (1e+05)]
] -46.7 MCshow
/Helvetica findfont 140 scalefont setfont
1.000 UL
LTb
LCb setrgbcolor
1.000 UL
LTa
LCa setrgbcolor
3107 448 M
0 4171 V
stroke
LTb
LCb setrgbcolor
3107 448 M
0 31 V
0 4140 R
0 -31 V
stroke
LTa
LCa setrgbcolor
3286 448 M
0 4171 V
stroke
LTb
LCb setrgbcolor
3286 448 M
0 31 V
0 4140 R
0 -31 V
stroke
LTa
LCa setrgbcolor
3414 448 M
0 4171 V
stroke
LTb
LCb setrgbcolor
3414 448 M
0 31 V
0 4140 R
0 -31 V
stroke
LTa
LCa setrgbcolor
3513 448 M
0 4171 V
stroke
LTb
LCb setrgbcolor
3513 448 M
0 31 V
0 4140 R
0 -31 V
stroke
LTa
LCa setrgbcolor
3593 448 M
0 4171 V
stroke
LTb
LCb setrgbcolor
3593 448 M
0 31 V
0 4140 R
0 -31 V
stroke
LTa
LCa setrgbcolor
3662 448 M
0 4171 V
stroke
LTb
LCb setrgbcolor
3662 448 M
0 31 V
0 4140 R
0 -31 V
stroke
LTa
LCa setrgbcolor
3721 448 M
0 4171 V
stroke
LTb
LCb setrgbcolor
3721 448 M
0 31 V
0 4140 R
0 -31 V
stroke
LTa
LCa setrgbcolor
3773 448 M
0 4171 V
stroke
LTb
LCb setrgbcolor
3773 448 M
0 31 V
0 4140 R
0 -31 V
stroke
LTa
LCa setrgbcolor
3820 448 M
0 4171 V
stroke
LTb
LCb setrgbcolor
3820 448 M
0 63 V
0 4108 R
0 -63 V
stroke
3820 308 M
[ [(Helvetica) 140.0 0.0 true true 0 (1e+06)]
] -46.7 MCshow
/Helvetica findfont 140 scalefont setfont
1.000 UL
LTb
LCb setrgbcolor
1.000 UL
LTa
LCa setrgbcolor
4127 448 M
0 4171 V
stroke
LTb
LCb setrgbcolor
4127 448 M
0 31 V
0 4140 R
0 -31 V
stroke
LTa
LCa setrgbcolor
4306 448 M
0 4171 V
stroke
LTb
LCb setrgbcolor
4306 448 M
0 31 V
0 4140 R
0 -31 V
stroke
LTa
LCa setrgbcolor
4434 448 M
0 4171 V
stroke
LTb
LCb setrgbcolor
4434 448 M
0 31 V
0 4140 R
0 -31 V
stroke
LTa
LCa setrgbcolor
4533 448 M
0 4171 V
stroke
LTb
LCb setrgbcolor
4533 448 M
0 31 V
0 4140 R
0 -31 V
stroke
LTa
LCa setrgbcolor
4614 448 M
0 4171 V
stroke
LTb
LCb setrgbcolor
4614 448 M
0 31 V
0 4140 R
0 -31 V
stroke
LTa
LCa setrgbcolor
4682 448 M
0 4171 V
stroke
LTb
LCb setrgbcolor
4682 448 M
0 31 V
0 4140 R
0 -31 V
stroke
LTa
LCa setrgbcolor
4741 448 M
0 4171 V
stroke
LTb
LCb setrgbcolor
4741 448 M
0 31 V
0 4140 R
0 -31 V
stroke
LTa
LCa setrgbcolor
4793 448 M
0 4171 V
stroke
LTb
LCb setrgbcolor
4793 448 M
0 31 V
0 4140 R
0 -31 V
stroke
LTa
LCa setrgbcolor
4840 448 M
0 4171 V
stroke
LTb
LCb setrgbcolor
4840 448 M
0 63 V
0 4108 R
0 -63 V
stroke
4840 308 M
[ [(Helvetica) 140.0 0.0 true true 0 (1e+07)]
] -46.7 MCshow
/Helvetica findfont 140 scalefont setfont
1.000 UL
LTb
LCb setrgbcolor
1.000 UL
LTa
LCa setrgbcolor
5147 448 M
0 4171 V
stroke
LTb
LCb setrgbcolor
5147 448 M
0 31 V
0 4140 R
0 -31 V
stroke
LTa
LCa setrgbcolor
5327 448 M
0 4171 V
stroke
LTb
LCb setrgbcolor
5327 448 M
0 31 V
0 4140 R
0 -31 V
stroke
LTa
LCa setrgbcolor
5454 448 M
0 4171 V
stroke
LTb
LCb setrgbcolor
5454 448 M
0 31 V
0 4140 R
0 -31 V
stroke
LTa
LCa setrgbcolor
5553 448 M
0 4171 V
stroke
LTb
LCb setrgbcolor
5553 448 M
0 31 V
0 4140 R
0 -31 V
stroke
LTa
LCa setrgbcolor
5634 448 M
0 4171 V
stroke
LTb
LCb setrgbcolor
5634 448 M
0 31 V
0 4140 R
0 -31 V
stroke
LTa
LCa setrgbcolor
5702 448 M
0 4171 V
stroke
LTb
LCb setrgbcolor
5702 448 M
0 31 V
0 4140 R
0 -31 V
stroke
LTa
LCa setrgbcolor
5761 448 M
0 4171 V
stroke
LTb
LCb setrgbcolor
5761 448 M
0 31 V
0 4140 R
0 -31 V
stroke
LTa
LCa setrgbcolor
5813 448 M
0 4171 V
stroke
LTb
LCb setrgbcolor
5813 448 M
0 31 V
0 4140 R
0 -31 V
stroke
LTa
LCa setrgbcolor
5860 448 M
0 4171 V
stroke
LTb
LCb setrgbcolor
5860 448 M
0 63 V
0 4108 R
0 -63 V
stroke
5860 308 M
[ [(Helvetica) 140.0 0.0 true true 0 (1e+08)]
] -46.7 MCshow
/Helvetica findfont 140 scalefont setfont
1.000 UL
LTb
LCb setrgbcolor
1.000 UL
LTa
LCa setrgbcolor
6167 448 M
0 4171 V
stroke
LTb
LCb setrgbcolor
6167 448 M
0 31 V
0 4140 R
0 -31 V
stroke
LTa
LCa setrgbcolor
6347 448 M
0 4171 V
stroke
LTb
LCb setrgbcolor
6347 448 M
0 31 V
0 4140 R
0 -31 V
stroke
LTa
LCa setrgbcolor
6474 448 M
0 4171 V
stroke
LTb
LCb setrgbcolor
6474 448 M
0 31 V
0 4140 R
0 -31 V
stroke
LTa
LCa setrgbcolor
6573 448 M
0 4171 V
stroke
LTb
LCb setrgbcolor
6573 448 M
0 31 V
0 4140 R
0 -31 V
stroke
LTa
LCa setrgbcolor
6654 448 M
0 4171 V
stroke
LTb
LCb setrgbcolor
6654 448 M
0 31 V
0 4140 R
0 -31 V
stroke
LTa
LCa setrgbcolor
6722 448 M
0 4171 V
stroke
LTb
LCb setrgbcolor
6722 448 M
0 31 V
0 4140 R
0 -31 V
stroke
LTa
LCa setrgbcolor
6781 448 M
0 4171 V
stroke
LTb
LCb setrgbcolor
6781 448 M
0 31 V
0 4140 R
0 -31 V
stroke
LTa
LCa setrgbcolor
6833 448 M
0 4171 V
stroke
LTb
LCb setrgbcolor
6833 448 M
0 31 V
0 4140 R
0 -31 V
stroke
LTa
LCa setrgbcolor
6880 448 M
0 4171 V
stroke
LTb
LCb setrgbcolor
1.000 UL
LTB
LCb setrgbcolor
770 4619 N
770 448 L
6107 0 V
0 4171 V
-6107 0 V
Z stroke
1.000 UP
1.000 UL
LTb
LCb setrgbcolor
LCb setrgbcolor
196 2533 M
currentpoint gsave translate -270 rotate 0 0 moveto
[ [(Helvetica) 140.0 0.0 true true 0 (Total Bandwidth \(GB/s\))]
] -46.7 MCshow
grestore
/Helvetica findfont 140 scalefont setfont
LTb
LCb setrgbcolor
LTb
LCb setrgbcolor
3823 98 M
[ [(Helvetica) 140.0 0.0 true true 0 (Working Set Size \(bytes\))]
] -46.7 MCshow
/Helvetica findfont 140 scalefont setfont
LTb
LCb setrgbcolor
3823 4829 M
[ [(Helvetica) 140.0 0.0 true true 0 (Graph 2 \(Results.daisy.v100/Run.001/FLOPS.002/GPU)]
[(Helvetica) 112.0 -42.0 true true 0 (B)]
[(Helvetica) 140.0 0.0 true true 0 (locks.0320/GPU)]
[(Helvetica) 112.0 -42.0 true true 0 (T)]
[(Helvetica) 140.0 0.0 true true 0 (hreads.0512\))]
] -32.7 MCshow
/Helvetica findfont 140 scalefont setfont
LTb
LCb setrgbcolor
LTb
LCb setrgbcolor
% Begin plot #1
0.400 UP
1.000 UL
LTb
0.58 0.00 0.83 C
770 1112 M
0 438 V
0 224 V
0 190 V
0 198 V
0 158 V
0 127 V
0 84 V
0 49 V
0 -16 V
0 33 V
0 -3 V
0 9 V
0 -3 V
0 4 V
0 1 V
810 1205 M
0 394 V
0 228 V
0 166 V
0 186 V
0 137 V
0 151 V
0 85 V
0 63 V
0 -29 V
0 25 V
0 -4 V
0 1 V
0 4 V
0 1 V
0 1 V
852 1225 M
0 406 V
0 215 V
0 196 V
0 162 V
0 166 V
0 118 V
0 98 V
0 52 V
0 -6 V
0 -14 V
0 14 V
0 3 V
0 2 V
0 3 V
893 1213 M
0 430 V
0 232 V
0 189 V
0 162 V
0 176 V
0 122 V
0 96 V
0 -18 V
0 43 V
0 25 V
0 -4 V
0 2 V
0 -2 V
0 4 V
0 1 V
933 1285 M
0 374 V
0 242 V
0 192 V
0 180 V
0 150 V
0 125 V
0 87 V
0 49 V
0 -27 V
0 30 V
0 -3 V
0 4 V
0 7 V
0 1 V
0 -1 V
0 1 V
974 1313 M
0 387 V
0 223 V
0 203 V
0 172 V
0 151 V
0 139 V
0 85 V
0 -21 V
0 49 V
0 22 V
0 -2 V
0 2 V
0 3 V
0 -1 V
0 1 V
42 -1406 R
0 404 V
0 231 V
0 197 V
0 173 V
0 122 V
0 149 V
0 103 V
0 51 V
0 -22 V
0 21 V
0 -5 V
0 3 V
0 1 V
0 3 V
0 1 V
42 -1378 R
0 380 V
0 207 V
0 220 V
0 172 V
0 148 V
0 126 V
0 98 V
0 8 V
0 26 V
0 -3 V
0 13 V
0 4 V
0 2 V
0 5 V
0 -1 V
0 1 V
41 -1362 R
0 363 V
0 236 V
0 188 V
0 187 V
0 151 V
0 98 V
0 109 V
0 43 V
0 -21 V
0 29 V
0 -3 V
0 5 V
0 8 V
0 -1 V
0 1 V
0 1 V
41 -1393 R
0 332 V
0 256 V
0 220 V
0 158 V
0 172 V
0 104 V
0 117 V
0 21 V
0 49 V
0 -16 V
0 -3 V
0 5 V
0 4 V
0 2 V
41 -1386 R
0 395 V
0 205 V
0 187 V
0 143 V
0 207 V
0 132 V
0 77 V
0 23 V
0 27 V
0 -6 V
0 16 V
0 8 V
0 1 V
42 -1399 R
0 406 V
0 208 V
0 195 V
0 191 V
0 160 V
0 116 V
0 85 V
0 -3 V
0 48 V
0 -4 V
0 15 V
0 8 V
0 2 V
42 -1397 R
0 413 V
0 192 V
0 193 V
0 147 V
0 205 V
0 115 V
0 41 V
0 43 V
0 53 V
0 17 V
0 4 V
0 -1 V
0 2 V
0 1 V
42 -1381 R
0 373 V
0 217 V
0 195 V
0 192 V
0 154 V
0 124 V
0 87 V
0 56 V
0 -5 V
0 -11 V
0 21 V
0 4 V
0 2 V
0 1 V
42 -1367 R
0 369 V
0 225 V
0 183 V
0 190 V
0 157 V
0 114 V
0 85 V
0 59 V
0 -14 V
0 18 V
0 4 V
0 3 V
0 -1 V
0 1 V
42 -1397 R
0 401 V
0 201 V
0 207 V
0 191 V
0 149 V
0 135 V
0 25 V
0 101 V
0 -15 V
0 28 V
0 -8 V
0 6 V
0 2 V
0 1 V
0 2 V
stroke 1391 3009 M
42 -1378 R
0 392 V
0 210 V
0 169 V
0 202 V
0 163 V
0 109 V
0 88 V
0 71 V
0 -36 V
0 29 V
0 -5 V
0 5 V
0 3 V
0 2 V
0 1 V
42 -1369 R
0 391 V
0 202 V
0 192 V
0 191 V
0 153 V
0 128 V
0 53 V
0 47 V
0 53 V
0 -17 V
0 -7 V
0 6 V
0 2 V
0 1 V
0 2 V
42 -1368 R
0 390 V
0 218 V
0 183 V
0 181 V
0 145 V
0 115 V
0 93 V
0 41 V
0 -10 V
0 22 V
0 17 V
0 1 V
0 3 V
0 -2 V
0 2 V
42 -1375 R
0 390 V
0 199 V
0 192 V
0 199 V
0 151 V
0 123 V
0 90 V
0 60 V
0 -12 V
0 -11 V
0 16 V
0 2 V
0 3 V
0 1 V
0 1 V
0 -1 V
42 -1394 R
0 392 V
0 240 V
0 193 V
0 165 V
0 166 V
0 88 V
0 115 V
0 6 V
0 53 V
0 -6 V
0 16 V
0 -6 V
0 4 V
0 2 V
42 -1395 R
0 399 V
0 217 V
0 183 V
0 195 V
0 144 V
0 121 V
0 73 V
0 67 V
0 -11 V
0 28 V
0 -1 V
0 4 V
0 2 V
0 -1 V
0 1 V
42 -1414 R
0 422 V
0 163 V
0 252 V
0 173 V
0 144 V
0 126 V
0 92 V
0 60 V
0 -26 V
0 25 V
0 1 V
0 7 V
0 2 V
0 1 V
0 1 V
42 -1383 R
0 399 V
0 207 V
0 189 V
0 191 V
0 146 V
0 117 V
0 101 V
0 49 V
0 -18 V
0 24 V
0 -7 V
0 4 V
0 2 V
0 1 V
0 1 V
0 1 V
43 -1359 R
0 377 V
0 204 V
0 215 V
0 157 V
0 159 V
0 129 V
0 43 V
0 43 V
0 25 V
0 21 V
0 19 V
0 -6 V
0 2 V
0 4 V
0 1 V
42 -1370 R
0 387 V
0 213 V
0 175 V
0 184 V
0 138 V
0 131 V
0 71 V
0 47 V
0 37 V
0 -2 V
0 21 V
0 6 V
0 2 V
0 2 V
0 1 V
42 -1385 R
0 353 V
0 222 V
0 212 V
0 152 V
0 178 V
0 118 V
0 70 V
0 34 V
0 28 V
0 16 V
0 7 V
0 8 V
0 1 V
0 1 V
0 1 V
42 -1388 R
0 409 V
0 196 V
0 210 V
0 169 V
0 150 V
0 87 V
0 84 V
0 44 V
0 30 V
0 21 V
0 -1 V
0 5 V
0 3 V
0 2 V
0 1 V
42 -1363 R
0 387 V
0 215 V
0 191 V
0 162 V
0 148 V
0 143 V
0 45 V
0 35 V
0 47 V
0 -2 V
0 14 V
0 2 V
0 3 V
0 3 V
0 1 V
42 -1375 R
0 385 V
0 215 V
0 152 V
0 222 V
0 159 V
0 121 V
0 60 V
0 43 V
0 19 V
0 16 V
0 7 V
0 5 V
0 3 V
42 -1385 R
0 389 V
0 211 V
0 214 V
0 170 V
0 125 V
0 149 V
0 83 V
0 39 V
0 -1 V
0 18 V
0 5 V
0 3 V
0 2 V
42 -1352 R
0 380 V
0 196 V
0 174 V
0 184 V
0 151 V
0 94 V
0 89 V
0 66 V
0 25 V
0 11 V
0 10 V
stroke 2064 3462 M
0 3 V
0 3 V
0 2 V
42 -1366 R
0 388 V
0 187 V
0 189 V
0 196 V
0 168 V
0 72 V
0 81 V
0 45 V
0 44 V
0 -3 V
0 11 V
0 5 V
0 2 V
0 2 V
0 1 V
43 -1372 R
0 390 V
0 205 V
0 208 V
0 173 V
0 141 V
0 101 V
0 128 V
0 39 V
0 -23 V
0 20 V
0 21 V
0 -7 V
0 8 V
0 -1 V
0 1 V
42 -1357 R
0 367 V
0 206 V
0 213 V
0 175 V
0 147 V
0 117 V
0 59 V
0 39 V
0 41 V
0 -2 V
0 12 V
0 4 V
0 2 V
0 2 V
42 -1380 R
0 382 V
0 220 V
0 210 V
0 167 V
0 157 V
0 108 V
0 84 V
0 22 V
0 39 V
0 -4 V
0 22 V
0 5 V
0 1 V
0 1 V
42 -1391 R
0 408 V
0 177 V
0 211 V
0 198 V
0 124 V
0 139 V
0 57 V
0 41 V
0 37 V
0 -1 V
0 17 V
0 3 V
0 3 V
0 2 V
0 1 V
42 -1385 R
0 399 V
0 205 V
0 196 V
0 187 V
0 156 V
0 84 V
0 94 V
0 37 V
0 26 V
0 12 V
0 11 V
0 4 V
0 2 V
0 2 V
42 -1365 R
0 378 V
0 221 V
0 178 V
0 190 V
0 155 V
0 71 V
0 98 V
0 40 V
0 52 V
0 -11 V
0 13 V
0 1 V
0 2 V
0 1 V
43 -1352 R
0 365 V
0 225 V
0 180 V
0 190 V
0 140 V
0 134 V
0 46 V
0 42 V
0 39 V
0 2 V
0 18 V
0 6 V
0 2 V
0 -1 V
42 -1356 R
0 367 V
0 190 V
0 211 V
0 175 V
0 141 V
0 144 V
0 50 V
0 49 V
0 8 V
0 34 V
0 13 V
0 -3 V
0 2 V
0 1 V
42 -1379 R
0 390 V
0 220 V
0 170 V
0 189 V
0 174 V
0 112 V
0 73 V
0 42 V
0 7 V
0 19 V
0 1 V
0 6 V
0 3 V
0 1 V
42 -1360 R
0 379 V
0 211 V
0 190 V
0 181 V
0 131 V
0 135 V
0 41 V
0 98 V
0 -10 V
0 10 V
0 11 V
0 4 V
0 2 V
0 3 V
42 -1363 R
0 373 V
0 227 V
0 175 V
0 173 V
0 177 V
0 120 V
0 70 V
0 43 V
0 12 V
0 12 V
0 6 V
0 2 V
0 4 V
0 1 V
42 -1355 R
0 370 V
0 217 V
0 174 V
0 183 V
0 154 V
0 134 V
0 44 V
0 45 V
0 26 V
0 39 V
0 2 V
0 4 V
0 6 V
0 1 V
43 -1413 R
0 411 V
0 204 V
0 211 V
0 173 V
0 147 V
0 124 V
0 47 V
0 47 V
0 28 V
0 27 V
0 -4 V
0 5 V
0 8 V
42 -1402 R
0 408 V
0 211 V
0 202 V
0 172 V
0 149 V
0 120 V
0 59 V
0 46 V
0 29 V
0 22 V
0 4 V
0 8 V
42 -1400 R
0 413 V
0 207 V
0 207 V
0 173 V
0 149 V
0 112 V
0 58 V
0 47 V
0 40 V
0 -1 V
0 18 V
0 2 V
0 3 V
42 -1381 R
0 379 V
0 223 V
0 208 V
0 178 V
0 134 V
0 97 V
stroke 2781 3764 M
0 123 V
0 -4 V
0 43 V
0 16 V
0 3 V
0 3 V
0 3 V
43 -1373 R
0 378 V
0 134 V
0 280 V
0 137 V
0 200 V
0 82 V
0 107 V
0 38 V
0 22 V
0 3 V
0 20 V
0 5 V
0 3 V
42 -1391 R
0 400 V
0 206 V
0 208 V
0 173 V
0 131 V
0 123 V
0 61 V
0 64 V
0 20 V
0 18 V
0 3 V
0 5 V
0 2 V
42 -1372 R
0 388 V
0 211 V
0 203 V
0 175 V
0 142 V
0 101 V
0 113 V
0 2 V
0 34 V
0 22 V
0 -1 V
0 5 V
0 2 V
42 -1384 R
0 399 V
0 212 V
0 200 V
0 183 V
0 152 V
0 116 V
0 58 V
0 42 V
0 23 V
0 20 V
0 3 V
0 4 V
42 -1374 R
0 377 V
0 223 V
0 192 V
0 145 V
0 197 V
0 89 V
0 99 V
0 23 V
0 46 V
0 -3 V
0 21 V
0 -5 V
43 -1888 R
0 913 V
0 211 V
0 191 V
0 171 V
0 138 V
0 118 V
0 65 V
0 4 V
0 26 V
0 11 V
0 15 V
0 -7 V
42 -1318 R
0 384 V
0 220 V
0 192 V
0 179 V
0 140 V
0 104 V
0 89 V
0 50 V
0 -52 V
0 9 V
0 21 V
0 2 V
42 -1309 R
0 392 V
0 218 V
0 183 V
0 181 V
0 141 V
0 119 V
0 73 V
0 37 V
0 -48 V
0 16 V
0 32 V
0 -6 V
42 -1327 R
0 418 V
0 206 V
0 200 V
0 155 V
0 150 V
0 116 V
0 5 V
0 37 V
0 26 V
0 17 V
0 24 V
0 1 V
43 -1326 R
0 403 V
0 207 V
0 195 V
0 188 V
0 139 V
0 107 V
0 66 V
0 6 V
0 -2 V
0 21 V
0 23 V
0 5 V
42 -1309 R
0 397 V
0 218 V
0 175 V
0 182 V
0 134 V
0 94 V
0 50 V
0 19 V
0 18 V
0 25 V
0 24 V
42 -1340 R
0 419 V
0 214 V
0 198 V
0 165 V
0 143 V
0 65 V
0 91 V
0 7 V
0 29 V
0 4 V
0 30 V
42 -1313 R
0 388 V
0 221 V
0 171 V
0 160 V
0 129 V
0 85 V
0 57 V
0 40 V
0 9 V
0 8 V
0 1 V
42 -1234 R
0 386 V
0 204 V
0 190 V
0 152 V
0 124 V
0 88 V
0 44 V
0 34 V
0 14 V
0 8 V
0 11 V
43 -1241 R
0 406 V
0 206 V
0 178 V
0 144 V
0 137 V
0 86 V
0 57 V
0 21 V
0 28 V
0 -2 V
0 9 V
42 -1226 R
0 374 V
0 213 V
0 192 V
0 153 V
0 117 V
0 93 V
0 58 V
0 34 V
0 6 V
0 4 V
0 9 V
42 -1270 R
0 445 V
0 185 V
0 192 V
0 140 V
0 127 V
0 88 V
0 58 V
0 28 V
0 15 V
0 16 V
42 -1219 R
0 401 V
0 168 V
0 170 V
0 154 V
0 122 V
0 55 V
0 61 V
0 29 V
0 14 V
0 7 V
43 -1168 R
0 382 V
0 196 V
0 195 V
0 147 V
0 89 V
0 88 V
0 43 V
0 36 V
0 13 V
0 9 V
42 -1169 R
0 356 V
0 227 V
0 195 V
stroke 3626 3880 M
0 140 V
0 105 V
0 67 V
0 53 V
0 24 V
0 14 V
0 9 V
42 -1168 R
0 401 V
0 197 V
0 167 V
0 125 V
0 104 V
0 60 V
0 39 V
0 25 V
0 12 V
0 5 V
42 -1104 R
0 399 V
0 186 V
0 180 V
0 124 V
0 99 V
0 63 V
0 39 V
0 24 V
0 11 V
0 6 V
42 -1102 R
0 394 V
0 182 V
0 162 V
0 125 V
0 94 V
0 54 V
0 36 V
0 18 V
0 9 V
0 5 V
43 -1037 R
0 375 V
0 191 V
0 164 V
0 120 V
0 88 V
0 57 V
0 35 V
0 19 V
0 9 V
0 5 V
42 -1053 R
0 377 V
0 190 V
0 162 V
0 119 V
0 77 V
0 41 V
0 38 V
0 21 V
0 7 V
0 6 V
42 -996 R
0 388 V
0 159 V
0 163 V
0 117 V
0 87 V
0 47 V
0 31 V
0 16 V
0 8 V
42 -1005 R
0 386 V
0 185 V
0 148 V
0 109 V
0 75 V
0 48 V
0 26 V
0 13 V
0 8 V
43 -966 R
0 376 V
0 178 V
0 154 V
0 92 V
0 74 V
0 41 V
0 26 V
0 12 V
0 6 V
42 -909 R
0 370 V
0 152 V
0 147 V
0 89 V
0 73 V
0 35 V
0 23 V
0 12 V
0 6 V
42 -893 R
0 367 V
0 158 V
0 138 V
0 99 V
0 57 V
0 37 V
0 20 V
0 10 V
0 6 V
42 -872 R
0 372 V
0 162 V
0 131 V
0 86 V
0 45 V
0 43 V
0 21 V
0 10 V
0 5 V
42 -836 R
0 363 V
0 144 V
0 131 V
0 82 V
0 57 V
0 31 V
0 17 V
0 10 V
0 5 V
43 -821 R
0 364 V
0 153 V
0 116 V
0 85 V
0 52 V
0 28 V
0 15 V
0 9 V
42 -802 R
0 360 V
0 167 V
0 102 V
0 79 V
0 50 V
0 29 V
0 14 V
0 8 V
42 -787 R
0 370 V
0 140 V
0 107 V
0 71 V
0 49 V
0 24 V
0 12 V
0 8 V
42 -755 R
0 352 V
0 144 V
0 104 V
0 69 V
0 37 V
0 26 V
0 12 V
0 6 V
43 -732 R
0 366 V
0 135 V
0 90 V
0 75 V
0 39 V
0 21 V
0 12 V
0 6 V
42 -724 R
0 351 V
0 149 V
0 92 V
0 58 V
0 12 V
0 46 V
0 10 V
0 6 V
42 -687 R
0 340 V
0 121 V
0 99 V
0 54 V
0 35 V
0 15 V
0 10 V
0 5 V
42 -724 R
0 395 V
0 135 V
0 81 V
0 56 V
0 32 V
0 16 V
0 9 V
42 -627 R
0 322 V
0 121 V
0 81 V
0 48 V
0 30 V
0 14 V
0 9 V
43 -609 R
0 328 V
0 114 V
0 73 V
0 44 V
0 28 V
0 14 V
0 7 V
42 -580 R
0 294 V
0 126 V
0 75 V
0 46 V
0 22 V
0 12 V
0 8 V
42 -607 R
0 271 V
0 172 V
0 81 V
0 41 V
0 27 V
0 12 V
0 6 V
42 -660 R
0 236 V
0 204 V
0 91 V
0 69 V
0 32 V
0 16 V
0 9 V
43 -662 R
0 228 V
0 191 V
0 116 V
0 67 V
0 37 V
stroke 4724 4262 M
0 16 V
0 9 V
42 -645 R
0 209 V
0 176 V
0 114 V
0 71 V
0 37 V
0 19 V
42 -619 R
0 199 V
0 162 V
0 114 V
0 67 V
0 43 V
0 3 V
42 -583 R
0 185 V
0 139 V
0 114 V
0 59 V
0 27 V
0 17 V
42 -527 R
0 174 V
0 104 V
0 113 V
0 61 V
0 8 V
0 34 V
43 -482 R
0 153 V
0 83 V
0 99 V
0 42 V
0 15 V
0 17 V
42 -404 R
0 139 V
0 62 V
0 97 V
0 16 V
0 6 V
0 5 V
42 -306 R
0 121 V
0 46 V
0 107 V
0 11 V
0 4 V
0 3 V
42 -280 R
0 114 V
0 26 V
0 43 V
0 98 V
0 16 V
0 -11 V
43 -275 R
0 101 V
0 20 V
0 18 V
0 32 V
0 59 V
42 -216 R
0 91 V
0 14 V
0 7 V
0 7 V
0 11 V
42 -120 R
0 83 V
0 13 V
0 6 V
0 2 V
0 1 V
42 -101 R
0 80 V
0 11 V
0 6 V
0 3 V
42 -93 R
0 75 V
0 11 V
0 4 V
0 1 V
0 2 V
43 -81 R
0 62 V
0 13 V
0 2 V
0 1 V
0 2 V
42 -76 R
0 64 V
0 8 V
0 2 V
0 1 V
42 -67 R
0 53 V
0 14 V
42 -66 R
0 56 V
0 10 V
0 -2 V
43 -51 R
0 46 V
0 7 V
0 -1 V
0 -1 V
42 -186 R
0 182 V
0 6 V
0 -1 V
42 -48 R
0 46 V
0 2 V
0 -3 V
42 -39 R
0 39 V
0 4 V
0 -4 V
0 -1 V
42 -35 R
0 37 V
0 4 V
0 -3 V
0 -2 V
43 -30 R
0 31 V
0 3 V
0 -1 V
42 -32 R
0 31 V
0 2 V
0 -1 V
42 -24 R
0 23 V
0 1 V
0 -1 V
42 -21 R
0 22 V
0 1 V
0 -2 V
43 -18 R
0 21 V
0 -1 V
0 -3 V
42 -17 R
0 18 V
0 -1 V
0 1 V
42 -16 R
0 17 V
0 -3 V
42 -11 R
0 16 V
0 -2 V
0 -3 V
43 -10 R
0 14 V
0 -1 V
42 -10 R
0 10 V
42 -10 R
0 9 V
42 -7 R
0 8 V
0 -1 V
42 -6 R
0 8 V
0 -3 V
43 -5 R
0 8 V
0 -3 V
42 -6 R
0 8 V
0 -3 V
42 -3 R
0 6 V
42 -5 R
0 4 V
43 -4 R
0 4 V
42 -2 R
0 2 V
42 -4 R
0 1 V
42 1 R
0 1 V
42 -2 R
43 -1 R
42 1 R
42 -1 R
42 -1 R
43 3 R
42 0 R
42 -2 R
770 1112 CircleF
770 1550 CircleF
770 1774 CircleF
770 1964 CircleF
770 2162 CircleF
770 2320 CircleF
770 2447 CircleF
770 2531 CircleF
770 2580 CircleF
770 2564 CircleF
770 2597 CircleF
770 2594 CircleF
770 2603 CircleF
770 2600 CircleF
770 2604 CircleF
770 2605 CircleF
770 2605 CircleF
770 2605 CircleF
770 2605 CircleF
770 2605 CircleF
770 2605 CircleF
810 1205 CircleF
810 1599 CircleF
810 1827 CircleF
810 1993 CircleF
810 2179 CircleF
810 2316 CircleF
810 2467 CircleF
810 2552 CircleF
810 2615 CircleF
810 2586 CircleF
810 2611 CircleF
810 2607 CircleF
810 2608 CircleF
810 2612 CircleF
810 2613 CircleF
810 2614 CircleF
810 2614 CircleF
810 2614 CircleF
810 2614 CircleF
810 2614 CircleF
852 1225 CircleF
852 1631 CircleF
852 1846 CircleF
852 2042 CircleF
852 2204 CircleF
852 2370 CircleF
852 2488 CircleF
852 2586 CircleF
852 2638 CircleF
852 2632 CircleF
852 2618 CircleF
852 2632 CircleF
852 2635 CircleF
852 2637 CircleF
852 2640 CircleF
852 2640 CircleF
852 2640 CircleF
852 2640 CircleF
852 2640 CircleF
852 2640 CircleF
893 1213 CircleF
893 1643 CircleF
893 1875 CircleF
893 2064 CircleF
893 2226 CircleF
893 2402 CircleF
893 2524 CircleF
893 2620 CircleF
893 2602 CircleF
893 2645 CircleF
893 2670 CircleF
893 2666 CircleF
893 2668 CircleF
893 2666 CircleF
893 2670 CircleF
893 2671 CircleF
893 2671 CircleF
893 2671 CircleF
893 2671 CircleF
893 2671 CircleF
933 1285 CircleF
933 1659 CircleF
933 1901 CircleF
933 2093 CircleF
933 2273 CircleF
933 2423 CircleF
933 2548 CircleF
933 2635 CircleF
933 2684 CircleF
933 2657 CircleF
933 2687 CircleF
933 2684 CircleF
933 2688 CircleF
933 2695 CircleF
933 2695 CircleF
933 2695 CircleF
933 2696 CircleF
933 2695 CircleF
933 2696 CircleF
933 2696 CircleF
974 1313 CircleF
974 1700 CircleF
974 1923 CircleF
974 2126 CircleF
974 2298 CircleF
974 2449 CircleF
974 2588 CircleF
974 2673 CircleF
974 2652 CircleF
974 2701 CircleF
974 2723 CircleF
974 2721 CircleF
974 2723 CircleF
974 2726 CircleF
974 2726 CircleF
974 2725 CircleF
974 2726 CircleF
974 2726 CircleF
974 2726 CircleF
974 2726 CircleF
1016 1320 CircleF
1016 1724 CircleF
1016 1955 CircleF
1016 2152 CircleF
1016 2325 CircleF
1016 2447 CircleF
1016 2596 CircleF
1016 2699 CircleF
1016 2750 CircleF
1016 2728 CircleF
1016 2749 CircleF
1016 2744 CircleF
1016 2747 CircleF
1016 2748 CircleF
1016 2751 CircleF
1016 2751 CircleF
1016 2751 CircleF
1016 2752 CircleF
1016 2752 CircleF
1016 2752 CircleF
1058 1374 CircleF
1058 1754 CircleF
1058 1961 CircleF
1058 2181 CircleF
1058 2353 CircleF
1058 2501 CircleF
1058 2627 CircleF
1058 2725 CircleF
1058 2733 CircleF
1058 2759 CircleF
1058 2756 CircleF
1058 2769 CircleF
1058 2773 CircleF
1058 2775 CircleF
1058 2780 CircleF
1058 2780 CircleF
1058 2779 CircleF
1058 2779 CircleF
1058 2780 CircleF
1058 2780 CircleF
1099 1418 CircleF
1099 1781 CircleF
1099 2017 CircleF
1099 2205 CircleF
1099 2392 CircleF
1099 2543 CircleF
1099 2641 CircleF
1099 2750 CircleF
1099 2793 CircleF
1099 2772 CircleF
1099 2801 CircleF
1099 2798 CircleF
1099 2803 CircleF
1099 2811 CircleF
1099 2810 CircleF
1099 2811 CircleF
1099 2812 CircleF
1099 2812 CircleF
1099 2812 CircleF
1140 1419 CircleF
1140 1751 CircleF
1140 2007 CircleF
1140 2227 CircleF
1140 2385 CircleF
1140 2557 CircleF
1140 2661 CircleF
1140 2778 CircleF
1140 2799 CircleF
1140 2848 CircleF
1140 2832 CircleF
1140 2829 CircleF
1140 2834 CircleF
1140 2838 CircleF
1140 2838 CircleF
1140 2840 CircleF
1140 2840 CircleF
1140 2840 CircleF
1140 2840 CircleF
1181 1454 CircleF
1181 1849 CircleF
1181 2054 CircleF
1181 2241 CircleF
1181 2384 CircleF
1181 2591 CircleF
1181 2723 CircleF
1181 2800 CircleF
1181 2823 CircleF
1181 2850 CircleF
1181 2844 CircleF
1181 2860 CircleF
1181 2868 CircleF
1181 2868 CircleF
1181 2868 CircleF
1181 2868 CircleF
1181 2869 CircleF
1181 2869 CircleF
1181 2869 CircleF
1223 1470 CircleF
1223 1876 CircleF
1223 2084 CircleF
1223 2279 CircleF
1223 2470 CircleF
1223 2630 CircleF
1223 2746 CircleF
1223 2831 CircleF
1223 2828 CircleF
1223 2876 CircleF
1223 2872 CircleF
1223 2887 CircleF
1223 2895 CircleF
1223 2897 CircleF
1223 2897 CircleF
1223 2897 CircleF
1223 2897 CircleF
1223 2897 CircleF
1223 2897 CircleF
1265 1500 CircleF
1265 1913 CircleF
1265 2105 CircleF
1265 2298 CircleF
1265 2445 CircleF
1265 2650 CircleF
1265 2765 CircleF
1265 2806 CircleF
1265 2849 CircleF
1265 2902 CircleF
1265 2919 CircleF
1265 2919 CircleF
1265 2923 CircleF
1265 2922 CircleF
1265 2924 CircleF
1265 2925 CircleF
1265 2925 CircleF
1265 2925 CircleF
1265 2925 CircleF
1307 1544 CircleF
1307 1917 CircleF
1307 2134 CircleF
1307 2329 CircleF
1307 2521 CircleF
1307 2675 CircleF
1307 2799 CircleF
1307 2886 CircleF
1307 2942 CircleF
1307 2937 CircleF
1307 2926 CircleF
1307 2947 CircleF
1307 2951 CircleF
1307 2953 CircleF
1307 2953 CircleF
1307 2953 CircleF
1307 2953 CircleF
1307 2954 CircleF
1307 2954 CircleF
1349 1587 CircleF
1349 1956 CircleF
1349 2181 CircleF
1349 2364 CircleF
1349 2554 CircleF
1349 2711 CircleF
1349 2825 CircleF
1349 2910 CircleF
1349 2969 CircleF
1349 2955 CircleF
1349 2973 CircleF
1349 2973 CircleF
1349 2977 CircleF
1349 2980 CircleF
1349 2979 CircleF
1349 2980 CircleF
1349 2980 CircleF
1349 2980 CircleF
1349 2980 CircleF
1391 1583 CircleF
1391 1984 CircleF
1391 2185 CircleF
1391 2392 CircleF
1391 2583 CircleF
1391 2732 CircleF
1391 2867 CircleF
1391 2892 CircleF
1391 2993 CircleF
1391 2978 CircleF
1391 3006 CircleF
1391 2998 CircleF
1391 3004 CircleF
1391 3006 CircleF
1391 3007 CircleF
1391 3009 CircleF
1391 3009 CircleF
1391 3009 CircleF
1433 1631 CircleF
1433 2023 CircleF
1433 2233 CircleF
1433 2402 CircleF
1433 2604 CircleF
1433 2767 CircleF
1433 2876 CircleF
1433 2964 CircleF
1433 3035 CircleF
1433 2999 CircleF
1433 3028 CircleF
1433 3023 CircleF
1433 3028 CircleF
1433 3031 CircleF
1433 3033 CircleF
1433 3033 CircleF
1433 3034 CircleF
1433 3034 CircleF
1475 1665 CircleF
1475 2056 CircleF
1475 2258 CircleF
1475 2450 CircleF
1475 2641 CircleF
1475 2794 CircleF
1475 2922 CircleF
1475 2975 CircleF
1475 3022 CircleF
1475 3075 CircleF
1475 3058 CircleF
1475 3051 CircleF
1475 3057 CircleF
1475 3059 CircleF
1475 3060 CircleF
1475 3062 CircleF
1475 3062 CircleF
1475 3062 CircleF
1517 1694 CircleF
1517 2084 CircleF
1517 2302 CircleF
1517 2485 CircleF
1517 2666 CircleF
1517 2811 CircleF
1517 2926 CircleF
1517 3019 CircleF
1517 3060 CircleF
1517 3050 CircleF
1517 3072 CircleF
1517 3089 CircleF
1517 3090 CircleF
1517 3093 CircleF
1517 3091 CircleF
1517 3093 CircleF
1517 3093 CircleF
1517 3093 CircleF
1559 1718 CircleF
1559 2108 CircleF
1559 2307 CircleF
1559 2499 CircleF
1559 2698 CircleF
1559 2849 CircleF
1559 2972 CircleF
1559 3062 CircleF
1559 3122 CircleF
1559 3110 CircleF
1559 3099 CircleF
1559 3115 CircleF
1559 3117 CircleF
1559 3120 CircleF
1559 3121 CircleF
1559 3122 CircleF
1559 3121 CircleF
1559 3121 CircleF
1601 1727 CircleF
1601 2119 CircleF
1601 2359 CircleF
1601 2552 CircleF
1601 2717 CircleF
1601 2883 CircleF
1601 2971 CircleF
1601 3086 CircleF
1601 3092 CircleF
1601 3145 CircleF
1601 3139 CircleF
1601 3155 CircleF
1601 3149 CircleF
1601 3153 CircleF
1601 3153 CircleF
1601 3155 CircleF
1601 3155 CircleF
1601 3155 CircleF
1643 1760 CircleF
1643 2159 CircleF
1643 2376 CircleF
1643 2559 CircleF
1643 2754 CircleF
1643 2898 CircleF
1643 3019 CircleF
1643 3092 CircleF
1643 3159 CircleF
1643 3148 CircleF
1643 3176 CircleF
1643 3175 CircleF
1643 3179 CircleF
1643 3181 CircleF
1643 3180 CircleF
1643 3181 CircleF
1643 3181 CircleF
1643 3181 CircleF
1685 1767 CircleF
1685 2189 CircleF
1685 2352 CircleF
1685 2604 CircleF
1685 2777 CircleF
1685 2921 CircleF
1685 3047 CircleF
1685 3139 CircleF
1685 3199 CircleF
1685 3173 CircleF
1685 3198 CircleF
1685 3199 CircleF
1685 3206 CircleF
1685 3208 CircleF
1685 3209 CircleF
1685 3209 CircleF
1685 3210 CircleF
1685 3210 CircleF
1727 1827 CircleF
1727 2226 CircleF
1727 2433 CircleF
1727 2622 CircleF
1727 2813 CircleF
1727 2959 CircleF
1727 3076 CircleF
1727 3177 CircleF
1727 3226 CircleF
1727 3208 CircleF
1727 3232 CircleF
1727 3225 CircleF
1727 3229 CircleF
1727 3231 CircleF
1727 3232 CircleF
1727 3233 CircleF
1727 3234 CircleF
1770 1875 CircleF
1770 2252 CircleF
1770 2456 CircleF
1770 2671 CircleF
1770 2828 CircleF
1770 2987 CircleF
1770 3116 CircleF
1770 3159 CircleF
1770 3202 CircleF
1770 3227 CircleF
1770 3248 CircleF
1770 3267 CircleF
1770 3261 CircleF
1770 3263 CircleF
1770 3267 CircleF
1770 3268 CircleF
1770 3268 CircleF
1812 1898 CircleF
1812 2285 CircleF
1812 2498 CircleF
1812 2673 CircleF
1812 2857 CircleF
1812 2995 CircleF
1812 3126 CircleF
1812 3197 CircleF
1812 3244 CircleF
1812 3281 CircleF
1812 3279 CircleF
1812 3300 CircleF
1812 3306 CircleF
1812 3308 CircleF
1812 3310 CircleF
1812 3311 CircleF
1812 3311 CircleF
1854 1926 CircleF
1854 2279 CircleF
1854 2501 CircleF
1854 2713 CircleF
1854 2865 CircleF
1854 3043 CircleF
1854 3161 CircleF
1854 3231 CircleF
1854 3265 CircleF
1854 3293 CircleF
1854 3309 CircleF
1854 3316 CircleF
1854 3324 CircleF
1854 3325 CircleF
1854 3326 CircleF
1854 3326 CircleF
1854 3327 CircleF
1896 1939 CircleF
1896 2348 CircleF
1896 2544 CircleF
1896 2754 CircleF
1896 2923 CircleF
1896 3073 CircleF
1896 3160 CircleF
1896 3244 CircleF
1896 3288 CircleF
1896 3318 CircleF
1896 3339 CircleF
1896 3338 CircleF
1896 3343 CircleF
1896 3346 CircleF
1896 3348 CircleF
1896 3348 CircleF
1896 3349 CircleF
1938 1986 CircleF
1938 2373 CircleF
1938 2588 CircleF
1938 2779 CircleF
1938 2941 CircleF
1938 3089 CircleF
1938 3232 CircleF
1938 3277 CircleF
1938 3312 CircleF
1938 3359 CircleF
1938 3357 CircleF
1938 3371 CircleF
1938 3373 CircleF
1938 3376 CircleF
1938 3379 CircleF
1938 3379 CircleF
1938 3380 CircleF
1980 2005 CircleF
1980 2390 CircleF
1980 2605 CircleF
1980 2757 CircleF
1980 2979 CircleF
1980 3138 CircleF
1980 3259 CircleF
1980 3319 CircleF
1980 3362 CircleF
1980 3381 CircleF
1980 3397 CircleF
1980 3404 CircleF
1980 3409 CircleF
1980 3412 CircleF
1980 3412 CircleF
1980 3412 CircleF
1980 3412 CircleF
2022 2027 CircleF
2022 2416 CircleF
2022 2627 CircleF
2022 2841 CircleF
2022 3011 CircleF
2022 3136 CircleF
2022 3285 CircleF
2022 3368 CircleF
2022 3407 CircleF
2022 3406 CircleF
2022 3424 CircleF
2022 3424 CircleF
2022 3429 CircleF
2022 3432 CircleF
2022 3434 CircleF
2022 3434 CircleF
2064 2082 CircleF
2064 2462 CircleF
2064 2658 CircleF
2064 2832 CircleF
2064 3016 CircleF
2064 3167 CircleF
2064 3261 CircleF
2064 3350 CircleF
2064 3416 CircleF
2064 3441 CircleF
2064 3452 CircleF
2064 3462 CircleF
2064 3465 CircleF
2064 3468 CircleF
2064 3468 CircleF
2064 3470 CircleF
2106 2104 CircleF
2106 2492 CircleF
2106 2679 CircleF
2106 2868 CircleF
2106 3064 CircleF
2106 3232 CircleF
2106 3304 CircleF
2106 3385 CircleF
2106 3430 CircleF
2106 3474 CircleF
2106 3471 CircleF
2106 3482 CircleF
2106 3487 CircleF
2106 3489 CircleF
2106 3491 CircleF
2106 3492 CircleF
2149 2120 CircleF
2149 2510 CircleF
2149 2715 CircleF
2149 2923 CircleF
2149 3096 CircleF
2149 3237 CircleF
2149 3338 CircleF
2149 3466 CircleF
2149 3505 CircleF
2149 3482 CircleF
2149 3502 CircleF
2149 3523 CircleF
2149 3516 CircleF
2149 3524 CircleF
2149 3523 CircleF
2149 3524 CircleF
2191 2167 CircleF
2191 2534 CircleF
2191 2740 CircleF
2191 2953 CircleF
2191 3128 CircleF
2191 3275 CircleF
2191 3392 CircleF
2191 3451 CircleF
2191 3490 CircleF
2191 3531 CircleF
2191 3529 CircleF
2191 3541 CircleF
2191 3545 CircleF
2191 3547 CircleF
2191 3549 CircleF
2191 3549 CircleF
2233 2169 CircleF
2233 2551 CircleF
2233 2771 CircleF
2233 2981 CircleF
2233 3148 CircleF
2233 3305 CircleF
2233 3413 CircleF
2233 3497 CircleF
2233 3519 CircleF
2233 3558 CircleF
2233 3554 CircleF
2233 3576 CircleF
2233 3581 CircleF
2233 3582 CircleF
2233 3582 CircleF
2233 3583 CircleF
2275 2192 CircleF
2275 2600 CircleF
2275 2777 CircleF
2275 2988 CircleF
2275 3186 CircleF
2275 3310 CircleF
2275 3449 CircleF
2275 3506 CircleF
2275 3547 CircleF
2275 3584 CircleF
2275 3583 CircleF
2275 3600 CircleF
2275 3603 CircleF
2275 3606 CircleF
2275 3608 CircleF
2275 3609 CircleF
2317 2224 CircleF
2317 2623 CircleF
2317 2828 CircleF
2317 3024 CircleF
2317 3211 CircleF
2317 3367 CircleF
2317 3451 CircleF
2317 3545 CircleF
2317 3582 CircleF
2317 3608 CircleF
2317 3620 CircleF
2317 3631 CircleF
2317 3635 CircleF
2317 3637 CircleF
2317 3639 CircleF
2359 2274 CircleF
2359 2652 CircleF
2359 2873 CircleF
2359 3051 CircleF
2359 3241 CircleF
2359 3396 CircleF
2359 3467 CircleF
2359 3565 CircleF
2359 3605 CircleF
2359 3657 CircleF
2359 3646 CircleF
2359 3659 CircleF
2359 3660 CircleF
2359 3662 CircleF
2359 3663 CircleF
2402 2311 CircleF
2402 2676 CircleF
2402 2901 CircleF
2402 3081 CircleF
2402 3271 CircleF
2402 3411 CircleF
2402 3545 CircleF
2402 3591 CircleF
2402 3633 CircleF
2402 3672 CircleF
2402 3674 CircleF
2402 3692 CircleF
2402 3698 CircleF
2402 3700 CircleF
2402 3699 CircleF
2444 2343 CircleF
2444 2710 CircleF
2444 2900 CircleF
2444 3111 CircleF
2444 3286 CircleF
2444 3427 CircleF
2444 3571 CircleF
2444 3621 CircleF
2444 3670 CircleF
2444 3678 CircleF
2444 3712 CircleF
2444 3725 CircleF
2444 3722 CircleF
2444 3724 CircleF
2444 3725 CircleF
2486 2346 CircleF
2486 2736 CircleF
2486 2956 CircleF
2486 3126 CircleF
2486 3315 CircleF
2486 3489 CircleF
2486 3601 CircleF
2486 3674 CircleF
2486 3716 CircleF
2486 3723 CircleF
2486 3742 CircleF
2486 3743 CircleF
2486 3749 CircleF
2486 3752 CircleF
2486 3753 CircleF
2528 2393 CircleF
2528 2772 CircleF
2528 2983 CircleF
2528 3173 CircleF
2528 3354 CircleF
2528 3485 CircleF
2528 3620 CircleF
2528 3661 CircleF
2528 3759 CircleF
2528 3749 CircleF
2528 3759 CircleF
2528 3770 CircleF
2528 3774 CircleF
2528 3776 CircleF
2528 3779 CircleF
2570 2416 CircleF
2570 2789 CircleF
2570 3016 CircleF
2570 3191 CircleF
2570 3364 CircleF
2570 3541 CircleF
2570 3661 CircleF
2570 3731 CircleF
2570 3774 CircleF
2570 3786 CircleF
2570 3798 CircleF
2570 3804 CircleF
2570 3806 CircleF
2570 3810 CircleF
2570 3811 CircleF
2612 2456 CircleF
2612 2826 CircleF
2612 3043 CircleF
2612 3217 CircleF
2612 3400 CircleF
2612 3554 CircleF
2612 3688 CircleF
2612 3732 CircleF
2612 3777 CircleF
2612 3803 CircleF
2612 3842 CircleF
2612 3844 CircleF
2612 3848 CircleF
2612 3854 CircleF
2612 3855 CircleF
2655 2442 CircleF
2655 2853 CircleF
2655 3057 CircleF
2655 3268 CircleF
2655 3441 CircleF
2655 3588 CircleF
2655 3712 CircleF
2655 3759 CircleF
2655 3806 CircleF
2655 3834 CircleF
2655 3861 CircleF
2655 3857 CircleF
2655 3862 CircleF
2655 3870 CircleF
2697 2468 CircleF
2697 2876 CircleF
2697 3087 CircleF
2697 3289 CircleF
2697 3461 CircleF
2697 3610 CircleF
2697 3730 CircleF
2697 3789 CircleF
2697 3835 CircleF
2697 3864 CircleF
2697 3886 CircleF
2697 3886 CircleF
2697 3890 CircleF
2697 3898 CircleF
2739 2498 CircleF
2739 2911 CircleF
2739 3118 CircleF
2739 3325 CircleF
2739 3498 CircleF
2739 3647 CircleF
2739 3759 CircleF
2739 3817 CircleF
2739 3864 CircleF
2739 3904 CircleF
2739 3903 CircleF
2739 3921 CircleF
2739 3923 CircleF
2739 3926 CircleF
2781 2545 CircleF
2781 2924 CircleF
2781 3147 CircleF
2781 3355 CircleF
2781 3533 CircleF
2781 3667 CircleF
2781 3764 CircleF
2781 3887 CircleF
2781 3883 CircleF
2781 3926 CircleF
2781 3942 CircleF
2781 3945 CircleF
2781 3948 CircleF
2781 3951 CircleF
2824 2578 CircleF
2824 2956 CircleF
2824 3090 CircleF
2824 3370 CircleF
2824 3507 CircleF
2824 3707 CircleF
2824 3789 CircleF
2824 3896 CircleF
2824 3934 CircleF
2824 3956 CircleF
2824 3959 CircleF
2824 3979 CircleF
2824 3984 CircleF
2824 3987 CircleF
2866 2596 CircleF
2866 2996 CircleF
2866 3202 CircleF
2866 3410 CircleF
2866 3583 CircleF
2866 3714 CircleF
2866 3837 CircleF
2866 3898 CircleF
2866 3962 CircleF
2866 3982 CircleF
2866 4000 CircleF
2866 4003 CircleF
2866 4008 CircleF
2866 4010 CircleF
2908 2638 CircleF
2908 3026 CircleF
2908 3237 CircleF
2908 3440 CircleF
2908 3615 CircleF
2908 3757 CircleF
2908 3858 CircleF
2908 3971 CircleF
2908 3973 CircleF
2908 4007 CircleF
2908 4029 CircleF
2908 4028 CircleF
2908 4033 CircleF
2908 4035 CircleF
2950 2651 CircleF
2950 3050 CircleF
2950 3262 CircleF
2950 3462 CircleF
2950 3645 CircleF
2950 3797 CircleF
2950 3913 CircleF
2950 3971 CircleF
2950 4013 CircleF
2950 4036 CircleF
2950 4056 CircleF
2950 4059 CircleF
2950 4063 CircleF
2992 2689 CircleF
2992 3066 CircleF
2992 3289 CircleF
2992 3481 CircleF
2992 3626 CircleF
2992 3823 CircleF
2992 3912 CircleF
2992 4011 CircleF
2992 4034 CircleF
2992 4080 CircleF
2992 4077 CircleF
2992 4098 CircleF
2992 4093 CircleF
3035 2205 CircleF
3035 3118 CircleF
3035 3329 CircleF
3035 3520 CircleF
3035 3691 CircleF
3035 3829 CircleF
3035 3947 CircleF
3035 4012 CircleF
3035 4016 CircleF
3035 4042 CircleF
3035 4053 CircleF
3035 4068 CircleF
3035 4061 CircleF
3077 2743 CircleF
3077 3127 CircleF
3077 3347 CircleF
3077 3539 CircleF
3077 3718 CircleF
3077 3858 CircleF
3077 3962 CircleF
3077 4051 CircleF
3077 4101 CircleF
3077 4049 CircleF
3077 4058 CircleF
3077 4079 CircleF
3077 4081 CircleF
3119 2772 CircleF
3119 3164 CircleF
3119 3382 CircleF
3119 3565 CircleF
3119 3746 CircleF
3119 3887 CircleF
3119 4006 CircleF
3119 4079 CircleF
3119 4116 CircleF
3119 4068 CircleF
3119 4084 CircleF
3119 4116 CircleF
3119 4110 CircleF
3161 2783 CircleF
3161 3201 CircleF
3161 3407 CircleF
3161 3607 CircleF
3161 3762 CircleF
3161 3912 CircleF
3161 4028 CircleF
3161 4033 CircleF
3161 4070 CircleF
3161 4096 CircleF
3161 4113 CircleF
3161 4137 CircleF
3161 4138 CircleF
3204 2812 CircleF
3204 3215 CircleF
3204 3422 CircleF
3204 3617 CircleF
3204 3805 CircleF
3204 3944 CircleF
3204 4051 CircleF
3204 4117 CircleF
3204 4123 CircleF
3204 4121 CircleF
3204 4142 CircleF
3204 4165 CircleF
3204 4170 CircleF
3246 2861 CircleF
3246 3258 CircleF
3246 3476 CircleF
3246 3651 CircleF
3246 3833 CircleF
3246 3967 CircleF
3246 4061 CircleF
3246 4111 CircleF
3246 4130 CircleF
3246 4148 CircleF
3246 4173 CircleF
3246 4197 CircleF
3288 2857 CircleF
3288 3276 CircleF
3288 3490 CircleF
3288 3688 CircleF
3288 3853 CircleF
3288 3996 CircleF
3288 4061 CircleF
3288 4152 CircleF
3288 4159 CircleF
3288 4188 CircleF
3288 4192 CircleF
3288 4222 CircleF
3330 2909 CircleF
3330 3297 CircleF
3330 3518 CircleF
3330 3689 CircleF
3330 3849 CircleF
3330 3978 CircleF
3330 4063 CircleF
3330 4120 CircleF
3330 4160 CircleF
3330 4169 CircleF
3330 4177 CircleF
3330 4178 CircleF
3372 2944 CircleF
3372 3330 CircleF
3372 3534 CircleF
3372 3724 CircleF
3372 3876 CircleF
3372 4000 CircleF
3372 4088 CircleF
3372 4132 CircleF
3372 4166 CircleF
3372 4180 CircleF
3372 4188 CircleF
3372 4199 CircleF
3415 2958 CircleF
3415 3364 CircleF
3415 3570 CircleF
3415 3748 CircleF
3415 3892 CircleF
3415 4029 CircleF
3415 4115 CircleF
3415 4172 CircleF
3415 4193 CircleF
3415 4221 CircleF
3415 4219 CircleF
3415 4228 CircleF
3457 3002 CircleF
3457 3376 CircleF
3457 3589 CircleF
3457 3781 CircleF
3457 3934 CircleF
3457 4051 CircleF
3457 4144 CircleF
3457 4202 CircleF
3457 4236 CircleF
3457 4242 CircleF
3457 4246 CircleF
3457 4255 CircleF
3499 2985 CircleF
3499 3430 CircleF
3499 3615 CircleF
3499 3807 CircleF
3499 3947 CircleF
3499 4074 CircleF
3499 4162 CircleF
3499 4220 CircleF
3499 4248 CircleF
3499 4263 CircleF
3499 4279 CircleF
3499 4279 CircleF
3541 3060 CircleF
3541 3461 CircleF
3541 3629 CircleF
3541 3799 CircleF
3541 3953 CircleF
3541 4075 CircleF
3541 4130 CircleF
3541 4191 CircleF
3541 4220 CircleF
3541 4234 CircleF
3541 4241 CircleF
3584 3073 CircleF
3584 3455 CircleF
3584 3651 CircleF
3584 3846 CircleF
3584 3993 CircleF
3584 4082 CircleF
3584 4170 CircleF
3584 4213 CircleF
3584 4249 CircleF
3584 4262 CircleF
3584 4271 CircleF
3626 3102 CircleF
3626 3458 CircleF
3626 3685 CircleF
3626 3880 CircleF
3626 4020 CircleF
3626 4125 CircleF
3626 4192 CircleF
3626 4245 CircleF
3626 4269 CircleF
3626 4283 CircleF
3626 4292 CircleF
3668 3124 CircleF
3668 3525 CircleF
3668 3722 CircleF
3668 3889 CircleF
3668 4014 CircleF
3668 4118 CircleF
3668 4178 CircleF
3668 4217 CircleF
3668 4242 CircleF
3668 4254 CircleF
3668 4259 CircleF
3710 3155 CircleF
3710 3554 CircleF
3710 3740 CircleF
3710 3920 CircleF
3710 4044 CircleF
3710 4143 CircleF
3710 4206 CircleF
3710 4245 CircleF
3710 4269 CircleF
3710 4280 CircleF
3710 4286 CircleF
3752 3184 CircleF
3752 3578 CircleF
3752 3760 CircleF
3752 3922 CircleF
3752 4047 CircleF
3752 4141 CircleF
3752 4195 CircleF
3752 4231 CircleF
3752 4249 CircleF
3752 4258 CircleF
3752 4263 CircleF
3795 3226 CircleF
3795 3601 CircleF
3795 3792 CircleF
3795 3956 CircleF
3795 4076 CircleF
3795 4164 CircleF
3795 4221 CircleF
3795 4256 CircleF
3795 4275 CircleF
3795 4284 CircleF
3795 4289 CircleF
3837 3236 CircleF
3837 3613 CircleF
3837 3803 CircleF
3837 3965 CircleF
3837 4084 CircleF
3837 4161 CircleF
3837 4202 CircleF
3837 4240 CircleF
3837 4261 CircleF
3837 4268 CircleF
3837 4274 CircleF
3879 3278 CircleF
3879 3666 CircleF
3879 3825 CircleF
3879 3988 CircleF
3879 4105 CircleF
3879 4192 CircleF
3879 4239 CircleF
3879 4270 CircleF
3879 4286 CircleF
3879 4294 CircleF
3921 3289 CircleF
3921 3675 CircleF
3921 3860 CircleF
3921 4008 CircleF
3921 4117 CircleF
3921 4192 CircleF
3921 4240 CircleF
3921 4266 CircleF
3921 4279 CircleF
3921 4287 CircleF
3964 3321 CircleF
3964 3697 CircleF
3964 3875 CircleF
3964 4029 CircleF
3964 4121 CircleF
3964 4195 CircleF
3964 4236 CircleF
3964 4262 CircleF
3964 4274 CircleF
3964 4280 CircleF
4006 3371 CircleF
4006 3741 CircleF
4006 3893 CircleF
4006 4040 CircleF
4006 4129 CircleF
4006 4202 CircleF
4006 4237 CircleF
4006 4260 CircleF
4006 4272 CircleF
4006 4278 CircleF
4048 3385 CircleF
4048 3752 CircleF
4048 3910 CircleF
4048 4048 CircleF
4048 4147 CircleF
4048 4204 CircleF
4048 4241 CircleF
4048 4261 CircleF
4048 4271 CircleF
4048 4277 CircleF
4090 3405 CircleF
4090 3777 CircleF
4090 3939 CircleF
4090 4070 CircleF
4090 4156 CircleF
4090 4201 CircleF
4090 4244 CircleF
4090 4265 CircleF
4090 4275 CircleF
4090 4280 CircleF
4132 3444 CircleF
4132 3807 CircleF
4132 3951 CircleF
4132 4082 CircleF
4132 4164 CircleF
4132 4221 CircleF
4132 4252 CircleF
4132 4269 CircleF
4132 4279 CircleF
4132 4284 CircleF
4175 3463 CircleF
4175 3827 CircleF
4175 3980 CircleF
4175 4096 CircleF
4175 4181 CircleF
4175 4233 CircleF
4175 4261 CircleF
4175 4276 CircleF
4175 4285 CircleF
4217 3483 CircleF
4217 3843 CircleF
4217 4010 CircleF
4217 4112 CircleF
4217 4191 CircleF
4217 4241 CircleF
4217 4270 CircleF
4217 4284 CircleF
4217 4292 CircleF
4259 3505 CircleF
4259 3875 CircleF
4259 4015 CircleF
4259 4122 CircleF
4259 4193 CircleF
4259 4242 CircleF
4259 4266 CircleF
4259 4278 CircleF
4259 4286 CircleF
4301 3531 CircleF
4301 3883 CircleF
4301 4027 CircleF
4301 4131 CircleF
4301 4200 CircleF
4301 4237 CircleF
4301 4263 CircleF
4301 4275 CircleF
4301 4281 CircleF
4344 3549 CircleF
4344 3915 CircleF
4344 4050 CircleF
4344 4140 CircleF
4344 4215 CircleF
4344 4254 CircleF
4344 4275 CircleF
4344 4287 CircleF
4344 4293 CircleF
4386 3569 CircleF
4386 3920 CircleF
4386 4069 CircleF
4386 4161 CircleF
4386 4219 CircleF
4386 4231 CircleF
4386 4277 CircleF
4386 4287 CircleF
4386 4293 CircleF
4428 3606 CircleF
4428 3946 CircleF
4428 4067 CircleF
4428 4166 CircleF
4428 4220 CircleF
4428 4255 CircleF
4428 4270 CircleF
4428 4280 CircleF
4428 4285 CircleF
4470 3561 CircleF
4470 3956 CircleF
4470 4091 CircleF
4470 4172 CircleF
4470 4228 CircleF
4470 4260 CircleF
4470 4276 CircleF
4470 4285 CircleF
4512 3658 CircleF
4512 3980 CircleF
4512 4101 CircleF
4512 4182 CircleF
4512 4230 CircleF
4512 4260 CircleF
4512 4274 CircleF
4512 4283 CircleF
4555 3674 CircleF
4555 4002 CircleF
4555 4116 CircleF
4555 4189 CircleF
4555 4233 CircleF
4555 4261 CircleF
4555 4275 CircleF
4555 4282 CircleF
4597 3702 CircleF
4597 3996 CircleF
4597 4122 CircleF
4597 4197 CircleF
4597 4243 CircleF
4597 4265 CircleF
4597 4277 CircleF
4597 4285 CircleF
4639 3678 CircleF
4639 3949 CircleF
4639 4121 CircleF
4639 4202 CircleF
4639 4243 CircleF
4639 4270 CircleF
4639 4282 CircleF
4639 4288 CircleF
4681 3628 CircleF
4681 3864 CircleF
4681 4068 CircleF
4681 4159 CircleF
4681 4228 CircleF
4681 4260 CircleF
4681 4276 CircleF
4681 4285 CircleF
4724 3623 CircleF
4724 3851 CircleF
4724 4042 CircleF
4724 4158 CircleF
4724 4225 CircleF
4724 4262 CircleF
4724 4278 CircleF
4724 4287 CircleF
4766 3642 CircleF
4766 3851 CircleF
4766 4027 CircleF
4766 4141 CircleF
4766 4212 CircleF
4766 4249 CircleF
4766 4268 CircleF
4808 3649 CircleF
4808 3848 CircleF
4808 4010 CircleF
4808 4124 CircleF
4808 4191 CircleF
4808 4234 CircleF
4808 4237 CircleF
4850 3654 CircleF
4850 3839 CircleF
4850 3978 CircleF
4850 4092 CircleF
4850 4151 CircleF
4850 4178 CircleF
4850 4195 CircleF
4892 3668 CircleF
4892 3842 CircleF
4892 3946 CircleF
4892 4059 CircleF
4892 4120 CircleF
4892 4128 CircleF
4892 4162 CircleF
4935 3680 CircleF
4935 3833 CircleF
4935 3916 CircleF
4935 4015 CircleF
4935 4057 CircleF
4935 4072 CircleF
4935 4089 CircleF
4977 3685 CircleF
4977 3824 CircleF
4977 3886 CircleF
4977 3983 CircleF
4977 3999 CircleF
4977 4005 CircleF
4977 4010 CircleF
5019 3704 CircleF
5019 3825 CircleF
5019 3871 CircleF
5019 3978 CircleF
5019 3989 CircleF
5019 3993 CircleF
5019 3996 CircleF
5061 3716 CircleF
5061 3830 CircleF
5061 3856 CircleF
5061 3899 CircleF
5061 3997 CircleF
5061 4013 CircleF
5061 4002 CircleF
5104 3727 CircleF
5104 3828 CircleF
5104 3848 CircleF
5104 3866 CircleF
5104 3898 CircleF
5104 3957 CircleF
5146 3741 CircleF
5146 3832 CircleF
5146 3846 CircleF
5146 3853 CircleF
5146 3860 CircleF
5146 3871 CircleF
5188 3751 CircleF
5188 3834 CircleF
5188 3847 CircleF
5188 3853 CircleF
5188 3855 CircleF
5188 3856 CircleF
5230 3755 CircleF
5230 3835 CircleF
5230 3846 CircleF
5230 3852 CircleF
5230 3855 CircleF
5230 3855 CircleF
5272 3762 CircleF
5272 3837 CircleF
5272 3848 CircleF
5272 3852 CircleF
5272 3853 CircleF
5272 3855 CircleF
5315 3774 CircleF
5315 3836 CircleF
5315 3849 CircleF
5315 3851 CircleF
5315 3852 CircleF
5315 3854 CircleF
5357 3778 CircleF
5357 3842 CircleF
5357 3850 CircleF
5357 3852 CircleF
5357 3852 CircleF
5357 3853 CircleF
5399 3786 CircleF
5399 3839 CircleF
5399 3853 CircleF
5399 3853 CircleF
5399 3853 CircleF
5441 3787 CircleF
5441 3843 CircleF
5441 3853 CircleF
5441 3853 CircleF
5441 3851 CircleF
5484 3800 CircleF
5484 3846 CircleF
5484 3853 CircleF
5484 3852 CircleF
5484 3851 CircleF
5526 3665 CircleF
5526 3847 CircleF
5526 3853 CircleF
5526 3853 CircleF
5526 3852 CircleF
5568 3804 CircleF
5568 3850 CircleF
5568 3852 CircleF
5568 3852 CircleF
5568 3849 CircleF
5610 3810 CircleF
5610 3849 CircleF
5610 3853 CircleF
5610 3849 CircleF
5610 3848 CircleF
5652 3813 CircleF
5652 3850 CircleF
5652 3854 CircleF
5652 3851 CircleF
5652 3849 CircleF
5695 3819 CircleF
5695 3850 CircleF
5695 3853 CircleF
5695 3852 CircleF
5737 3820 CircleF
5737 3851 CircleF
5737 3853 CircleF
5737 3852 CircleF
5779 3828 CircleF
5779 3851 CircleF
5779 3852 CircleF
5779 3851 CircleF
5821 3830 CircleF
5821 3852 CircleF
5821 3853 CircleF
5821 3851 CircleF
5864 3833 CircleF
5864 3854 CircleF
5864 3853 CircleF
5864 3850 CircleF
5906 3833 CircleF
5906 3851 CircleF
5906 3850 CircleF
5906 3851 CircleF
5948 3835 CircleF
5948 3852 CircleF
5948 3852 CircleF
5948 3849 CircleF
5990 3838 CircleF
5990 3854 CircleF
5990 3852 CircleF
5990 3849 CircleF
6033 3839 CircleF
6033 3853 CircleF
6033 3852 CircleF
6075 3842 CircleF
6075 3852 CircleF
6075 3852 CircleF
6117 3842 CircleF
6117 3851 CircleF
6117 3851 CircleF
6159 3844 CircleF
6159 3852 CircleF
6159 3851 CircleF
6201 3845 CircleF
6201 3853 CircleF
6201 3850 CircleF
6244 3845 CircleF
6244 3853 CircleF
6244 3850 CircleF
6286 3844 CircleF
6286 3852 CircleF
6286 3849 CircleF
6328 3846 CircleF
6328 3852 CircleF
6370 3847 CircleF
6370 3851 CircleF
6413 3847 CircleF
6413 3851 CircleF
6455 3849 CircleF
6455 3851 CircleF
6497 3847 CircleF
6497 3848 CircleF
6539 3849 CircleF
6539 3850 CircleF
6581 3848 CircleF
6581 3848 CircleF
6624 3847 CircleF
6666 3848 CircleF
6708 3847 CircleF
6750 3846 CircleF
6793 3849 CircleF
6835 3849 CircleF
6877 3847 CircleF
% End plot #1
2.000 UL
LTb
LCb setrgbcolor
1.000 UL
LTB
LCb setrgbcolor
770 4619 N
770 448 L
6107 0 V
0 4171 V
-6107 0 V
Z stroke
1.000 UP
1.000 UL
LTb
LCb setrgbcolor
stroke
grestore
end
showpage
%%Trailer
%%DocumentFonts: Helvetica
%%Pages: 1
