%!PS-Adobe-2.0
%%Title: Results.daisy.v100/Run.001/FLOPS.002/GPU_Blocks.0320/GPU_Threads.0512/graph1.ps
%%Creator: gnuplot 5.2 patchlevel 7
%%CreationDate: Sun Jan 19 15:21:17 2020
%%DocumentFonts: (atend)
%%BoundingBox: 50 50 554 770
%%Orientation: Landscape
%%Pages: (atend)
%%EndComments
%%BeginProlog
/gnudict 256 dict def
gnudict begin
%
% The following true/false flags may be edited by hand if desired.
% The unit line width and grayscale image gamma correction may also be changed.
%
/Color true def
/Blacktext false def
/Solid false def
/Dashlength 1 def
/Landscape true def
/Level1 false def
/Level3 false def
/Rounded false def
/ClipToBoundingBox false def
/SuppressPDFMark false def
/TransparentPatterns false def
/gnulinewidth 5.000 def
/userlinewidth gnulinewidth def
/Gamma 1.0 def
/BackgroundColor {-1.000 -1.000 -1.000} def
%
/vshift -46 def
/dl1 {
  10.0 Dashlength userlinewidth gnulinewidth div mul mul mul
  Rounded { currentlinewidth 0.75 mul sub dup 0 le { pop 0.01 } if } if
} def
/dl2 {
  10.0 Dashlength userlinewidth gnulinewidth div mul mul mul
  Rounded { currentlinewidth 0.75 mul add } if
} def
/hpt_ 31.5 def
/vpt_ 31.5 def
/hpt hpt_ def
/vpt vpt_ def
/doclip {
  ClipToBoundingBox {
    newpath 50 50 moveto 554 50 lineto 554 770 lineto 50 770 lineto closepath
    clip
  } if
} def
%
% Gnuplot Prolog Version 5.2 (Dec 2017)
%
%/SuppressPDFMark true def
%
/M {moveto} bind def
/L {lineto} bind def
/R {rmoveto} bind def
/V {rlineto} bind def
/N {newpath moveto} bind def
/Z {closepath} bind def
/C {setrgbcolor} bind def
/f {rlineto fill} bind def
/g {setgray} bind def
/Gshow {show} def   % May be redefined later in the file to support UTF-8
/vpt2 vpt 2 mul def
/hpt2 hpt 2 mul def
/Lshow {currentpoint stroke M 0 vshift R 
	Blacktext {gsave 0 setgray textshow grestore} {textshow} ifelse} def
/Rshow {currentpoint stroke M dup stringwidth pop neg vshift R
	Blacktext {gsave 0 setgray textshow grestore} {textshow} ifelse} def
/Cshow {currentpoint stroke M dup stringwidth pop -2 div vshift R 
	Blacktext {gsave 0 setgray textshow grestore} {textshow} ifelse} def
/UP {dup vpt_ mul /vpt exch def hpt_ mul /hpt exch def
  /hpt2 hpt 2 mul def /vpt2 vpt 2 mul def} def
/DL {Color {setrgbcolor Solid {pop []} if 0 setdash}
 {pop pop pop 0 setgray Solid {pop []} if 0 setdash} ifelse} def
/BL {stroke userlinewidth 2 mul setlinewidth
	Rounded {1 setlinejoin 1 setlinecap} if} def
/AL {stroke userlinewidth 2 div setlinewidth
	Rounded {1 setlinejoin 1 setlinecap} if} def
/UL {dup gnulinewidth mul /userlinewidth exch def
	dup 1 lt {pop 1} if 10 mul /udl exch def} def
/PL {stroke userlinewidth setlinewidth
	Rounded {1 setlinejoin 1 setlinecap} if} def
3.8 setmiterlimit
% Classic Line colors (version 5.0)
/LCw {1 1 1} def
/LCb {0 0 0} def
/LCa {0 0 0} def
/LC0 {1 0 0} def
/LC1 {0 1 0} def
/LC2 {0 0 1} def
/LC3 {1 0 1} def
/LC4 {0 1 1} def
/LC5 {1 1 0} def
/LC6 {0 0 0} def
/LC7 {1 0.3 0} def
/LC8 {0.5 0.5 0.5} def
% Default dash patterns (version 5.0)
/LTB {BL [] LCb DL} def
/LTw {PL [] 1 setgray} def
/LTb {PL [] LCb DL} def
/LTa {AL [1 udl mul 2 udl mul] 0 setdash LCa setrgbcolor} def
/LT0 {PL [] LC0 DL} def
/LT1 {PL [2 dl1 3 dl2] LC1 DL} def
/LT2 {PL [1 dl1 1.5 dl2] LC2 DL} def
/LT3 {PL [6 dl1 2 dl2 1 dl1 2 dl2] LC3 DL} def
/LT4 {PL [1 dl1 2 dl2 6 dl1 2 dl2 1 dl1 2 dl2] LC4 DL} def
/LT5 {PL [4 dl1 2 dl2] LC5 DL} def
/LT6 {PL [1.5 dl1 1.5 dl2 1.5 dl1 1.5 dl2 1.5 dl1 6 dl2] LC6 DL} def
/LT7 {PL [3 dl1 3 dl2 1 dl1 3 dl2] LC7 DL} def
/LT8 {PL [2 dl1 2 dl2 2 dl1 6 dl2] LC8 DL} def
/SL {[] 0 setdash} def
/Pnt {stroke [] 0 setdash gsave 1 setlinecap M 0 0 V stroke grestore} def
/Dia {stroke [] 0 setdash 2 copy vpt add M
  hpt neg vpt neg V hpt vpt neg V
  hpt vpt V hpt neg vpt V closepath stroke
  Pnt} def
/Pls {stroke [] 0 setdash vpt sub M 0 vpt2 V
  currentpoint stroke M
  hpt neg vpt neg R hpt2 0 V stroke
 } def
/Box {stroke [] 0 setdash 2 copy exch hpt sub exch vpt add M
  0 vpt2 neg V hpt2 0 V 0 vpt2 V
  hpt2 neg 0 V closepath stroke
  Pnt} def
/Crs {stroke [] 0 setdash exch hpt sub exch vpt add M
  hpt2 vpt2 neg V currentpoint stroke M
  hpt2 neg 0 R hpt2 vpt2 V stroke} def
/TriU {stroke [] 0 setdash 2 copy vpt 1.12 mul add M
  hpt neg vpt -1.62 mul V
  hpt 2 mul 0 V
  hpt neg vpt 1.62 mul V closepath stroke
  Pnt} def
/Star {2 copy Pls Crs} def
/BoxF {stroke [] 0 setdash exch hpt sub exch vpt add M
  0 vpt2 neg V hpt2 0 V 0 vpt2 V
  hpt2 neg 0 V closepath fill} def
/TriUF {stroke [] 0 setdash vpt 1.12 mul add M
  hpt neg vpt -1.62 mul V
  hpt 2 mul 0 V
  hpt neg vpt 1.62 mul V closepath fill} def
/TriD {stroke [] 0 setdash 2 copy vpt 1.12 mul sub M
  hpt neg vpt 1.62 mul V
  hpt 2 mul 0 V
  hpt neg vpt -1.62 mul V closepath stroke
  Pnt} def
/TriDF {stroke [] 0 setdash vpt 1.12 mul sub M
  hpt neg vpt 1.62 mul V
  hpt 2 mul 0 V
  hpt neg vpt -1.62 mul V closepath fill} def
/DiaF {stroke [] 0 setdash vpt add M
  hpt neg vpt neg V hpt vpt neg V
  hpt vpt V hpt neg vpt V closepath fill} def
/Pent {stroke [] 0 setdash 2 copy gsave
  translate 0 hpt M 4 {72 rotate 0 hpt L} repeat
  closepath stroke grestore Pnt} def
/PentF {stroke [] 0 setdash gsave
  translate 0 hpt M 4 {72 rotate 0 hpt L} repeat
  closepath fill grestore} def
/Circle {stroke [] 0 setdash 2 copy
  hpt 0 360 arc stroke Pnt} def
/CircleF {stroke [] 0 setdash hpt 0 360 arc fill} def
/C0 {BL [] 0 setdash 2 copy moveto vpt 90 450 arc} bind def
/C1 {BL [] 0 setdash 2 copy moveto
	2 copy vpt 0 90 arc closepath fill
	vpt 0 360 arc closepath} bind def
/C2 {BL [] 0 setdash 2 copy moveto
	2 copy vpt 90 180 arc closepath fill
	vpt 0 360 arc closepath} bind def
/C3 {BL [] 0 setdash 2 copy moveto
	2 copy vpt 0 180 arc closepath fill
	vpt 0 360 arc closepath} bind def
/C4 {BL [] 0 setdash 2 copy moveto
	2 copy vpt 180 270 arc closepath fill
	vpt 0 360 arc closepath} bind def
/C5 {BL [] 0 setdash 2 copy moveto
	2 copy vpt 0 90 arc
	2 copy moveto
	2 copy vpt 180 270 arc closepath fill
	vpt 0 360 arc} bind def
/C6 {BL [] 0 setdash 2 copy moveto
	2 copy vpt 90 270 arc closepath fill
	vpt 0 360 arc closepath} bind def
/C7 {BL [] 0 setdash 2 copy moveto
	2 copy vpt 0 270 arc closepath fill
	vpt 0 360 arc closepath} bind def
/C8 {BL [] 0 setdash 2 copy moveto
	2 copy vpt 270 360 arc closepath fill
	vpt 0 360 arc closepath} bind def
/C9 {BL [] 0 setdash 2 copy moveto
	2 copy vpt 270 450 arc closepath fill
	vpt 0 360 arc closepath} bind def
/C10 {BL [] 0 setdash 2 copy 2 copy moveto vpt 270 360 arc closepath fill
	2 copy moveto
	2 copy vpt 90 180 arc closepath fill
	vpt 0 360 arc closepath} bind def
/C11 {BL [] 0 setdash 2 copy moveto
	2 copy vpt 0 180 arc closepath fill
	2 copy moveto
	2 copy vpt 270 360 arc closepath fill
	vpt 0 360 arc closepath} bind def
/C12 {BL [] 0 setdash 2 copy moveto
	2 copy vpt 180 360 arc closepath fill
	vpt 0 360 arc closepath} bind def
/C13 {BL [] 0 setdash 2 copy moveto
	2 copy vpt 0 90 arc closepath fill
	2 copy moveto
	2 copy vpt 180 360 arc closepath fill
	vpt 0 360 arc closepath} bind def
/C14 {BL [] 0 setdash 2 copy moveto
	2 copy vpt 90 360 arc closepath fill
	vpt 0 360 arc} bind def
/C15 {BL [] 0 setdash 2 copy vpt 0 360 arc closepath fill
	vpt 0 360 arc closepath} bind def
/Rec {newpath 4 2 roll moveto 1 index 0 rlineto 0 exch rlineto
	neg 0 rlineto closepath} bind def
/Square {dup Rec} bind def
/Bsquare {vpt sub exch vpt sub exch vpt2 Square} bind def
/S0 {BL [] 0 setdash 2 copy moveto 0 vpt rlineto BL Bsquare} bind def
/S1 {BL [] 0 setdash 2 copy vpt Square fill Bsquare} bind def
/S2 {BL [] 0 setdash 2 copy exch vpt sub exch vpt Square fill Bsquare} bind def
/S3 {BL [] 0 setdash 2 copy exch vpt sub exch vpt2 vpt Rec fill Bsquare} bind def
/S4 {BL [] 0 setdash 2 copy exch vpt sub exch vpt sub vpt Square fill Bsquare} bind def
/S5 {BL [] 0 setdash 2 copy 2 copy vpt Square fill
	exch vpt sub exch vpt sub vpt Square fill Bsquare} bind def
/S6 {BL [] 0 setdash 2 copy exch vpt sub exch vpt sub vpt vpt2 Rec fill Bsquare} bind def
/S7 {BL [] 0 setdash 2 copy exch vpt sub exch vpt sub vpt vpt2 Rec fill
	2 copy vpt Square fill Bsquare} bind def
/S8 {BL [] 0 setdash 2 copy vpt sub vpt Square fill Bsquare} bind def
/S9 {BL [] 0 setdash 2 copy vpt sub vpt vpt2 Rec fill Bsquare} bind def
/S10 {BL [] 0 setdash 2 copy vpt sub vpt Square fill 2 copy exch vpt sub exch vpt Square fill
	Bsquare} bind def
/S11 {BL [] 0 setdash 2 copy vpt sub vpt Square fill 2 copy exch vpt sub exch vpt2 vpt Rec fill
	Bsquare} bind def
/S12 {BL [] 0 setdash 2 copy exch vpt sub exch vpt sub vpt2 vpt Rec fill Bsquare} bind def
/S13 {BL [] 0 setdash 2 copy exch vpt sub exch vpt sub vpt2 vpt Rec fill
	2 copy vpt Square fill Bsquare} bind def
/S14 {BL [] 0 setdash 2 copy exch vpt sub exch vpt sub vpt2 vpt Rec fill
	2 copy exch vpt sub exch vpt Square fill Bsquare} bind def
/S15 {BL [] 0 setdash 2 copy Bsquare fill Bsquare} bind def
/D0 {gsave translate 45 rotate 0 0 S0 stroke grestore} bind def
/D1 {gsave translate 45 rotate 0 0 S1 stroke grestore} bind def
/D2 {gsave translate 45 rotate 0 0 S2 stroke grestore} bind def
/D3 {gsave translate 45 rotate 0 0 S3 stroke grestore} bind def
/D4 {gsave translate 45 rotate 0 0 S4 stroke grestore} bind def
/D5 {gsave translate 45 rotate 0 0 S5 stroke grestore} bind def
/D6 {gsave translate 45 rotate 0 0 S6 stroke grestore} bind def
/D7 {gsave translate 45 rotate 0 0 S7 stroke grestore} bind def
/D8 {gsave translate 45 rotate 0 0 S8 stroke grestore} bind def
/D9 {gsave translate 45 rotate 0 0 S9 stroke grestore} bind def
/D10 {gsave translate 45 rotate 0 0 S10 stroke grestore} bind def
/D11 {gsave translate 45 rotate 0 0 S11 stroke grestore} bind def
/D12 {gsave translate 45 rotate 0 0 S12 stroke grestore} bind def
/D13 {gsave translate 45 rotate 0 0 S13 stroke grestore} bind def
/D14 {gsave translate 45 rotate 0 0 S14 stroke grestore} bind def
/D15 {gsave translate 45 rotate 0 0 S15 stroke grestore} bind def
/DiaE {stroke [] 0 setdash vpt add M
  hpt neg vpt neg V hpt vpt neg V
  hpt vpt V hpt neg vpt V closepath stroke} def
/BoxE {stroke [] 0 setdash exch hpt sub exch vpt add M
  0 vpt2 neg V hpt2 0 V 0 vpt2 V
  hpt2 neg 0 V closepath stroke} def
/TriUE {stroke [] 0 setdash vpt 1.12 mul add M
  hpt neg vpt -1.62 mul V
  hpt 2 mul 0 V
  hpt neg vpt 1.62 mul V closepath stroke} def
/TriDE {stroke [] 0 setdash vpt 1.12 mul sub M
  hpt neg vpt 1.62 mul V
  hpt 2 mul 0 V
  hpt neg vpt -1.62 mul V closepath stroke} def
/PentE {stroke [] 0 setdash gsave
  translate 0 hpt M 4 {72 rotate 0 hpt L} repeat
  closepath stroke grestore} def
/CircE {stroke [] 0 setdash 
  hpt 0 360 arc stroke} def
/Opaque {gsave closepath 1 setgray fill grestore 0 setgray closepath} def
/DiaW {stroke [] 0 setdash vpt add M
  hpt neg vpt neg V hpt vpt neg V
  hpt vpt V hpt neg vpt V Opaque stroke} def
/BoxW {stroke [] 0 setdash exch hpt sub exch vpt add M
  0 vpt2 neg V hpt2 0 V 0 vpt2 V
  hpt2 neg 0 V Opaque stroke} def
/TriUW {stroke [] 0 setdash vpt 1.12 mul add M
  hpt neg vpt -1.62 mul V
  hpt 2 mul 0 V
  hpt neg vpt 1.62 mul V Opaque stroke} def
/TriDW {stroke [] 0 setdash vpt 1.12 mul sub M
  hpt neg vpt 1.62 mul V
  hpt 2 mul 0 V
  hpt neg vpt -1.62 mul V Opaque stroke} def
/PentW {stroke [] 0 setdash gsave
  translate 0 hpt M 4 {72 rotate 0 hpt L} repeat
  Opaque stroke grestore} def
/CircW {stroke [] 0 setdash 
  hpt 0 360 arc Opaque stroke} def
/BoxFill {gsave Rec 1 setgray fill grestore} def
/Density {
  /Fillden exch def
  currentrgbcolor
  /ColB exch def /ColG exch def /ColR exch def
  /ColR ColR Fillden mul Fillden sub 1 add def
  /ColG ColG Fillden mul Fillden sub 1 add def
  /ColB ColB Fillden mul Fillden sub 1 add def
  ColR ColG ColB setrgbcolor} def
/BoxColFill {gsave Rec PolyFill} def
/PolyFill {gsave Density fill grestore grestore} def
/h {rlineto rlineto rlineto closepath gsave fill grestore stroke} bind def
%
% PostScript Level 1 Pattern Fill routine for rectangles
% Usage: x y w h s a XX PatternFill
%	x,y = lower left corner of box to be filled
%	w,h = width and height of box
%	  a = angle in degrees between lines and x-axis
%	 XX = 0/1 for no/yes cross-hatch
%
/PatternFill {gsave /PFa [ 9 2 roll ] def
  PFa 0 get PFa 2 get 2 div add PFa 1 get PFa 3 get 2 div add translate
  PFa 2 get -2 div PFa 3 get -2 div PFa 2 get PFa 3 get Rec
  TransparentPatterns {} {gsave 1 setgray fill grestore} ifelse
  clip
  currentlinewidth 0.5 mul setlinewidth
  /PFs PFa 2 get dup mul PFa 3 get dup mul add sqrt def
  0 0 M PFa 5 get rotate PFs -2 div dup translate
  0 1 PFs PFa 4 get div 1 add floor cvi
	{PFa 4 get mul 0 M 0 PFs V} for
  0 PFa 6 get ne {
	0 1 PFs PFa 4 get div 1 add floor cvi
	{PFa 4 get mul 0 2 1 roll M PFs 0 V} for
 } if
  stroke grestore} def
%
/languagelevel where
 {pop languagelevel} {1} ifelse
dup 2 lt
	{/InterpretLevel1 true def
	 /InterpretLevel3 false def}
	{/InterpretLevel1 Level1 def
	 2 gt
	    {/InterpretLevel3 Level3 def}
	    {/InterpretLevel3 false def}
	 ifelse }
 ifelse
%
% PostScript level 2 pattern fill definitions
%
/Level2PatternFill {
/Tile8x8 {/PaintType 2 /PatternType 1 /TilingType 1 /BBox [0 0 8 8] /XStep 8 /YStep 8}
	bind def
/KeepColor {currentrgbcolor [/Pattern /DeviceRGB] setcolorspace} bind def
<< Tile8x8
 /PaintProc {0.5 setlinewidth pop 0 0 M 8 8 L 0 8 M 8 0 L stroke} 
>> matrix makepattern
/Pat1 exch def
<< Tile8x8
 /PaintProc {0.5 setlinewidth pop 0 0 M 8 8 L 0 8 M 8 0 L stroke
	0 4 M 4 8 L 8 4 L 4 0 L 0 4 L stroke}
>> matrix makepattern
/Pat2 exch def
<< Tile8x8
 /PaintProc {0.5 setlinewidth pop 0 0 M 0 8 L
	8 8 L 8 0 L 0 0 L fill}
>> matrix makepattern
/Pat3 exch def
<< Tile8x8
 /PaintProc {0.5 setlinewidth pop -4 8 M 8 -4 L
	0 12 M 12 0 L stroke}
>> matrix makepattern
/Pat4 exch def
<< Tile8x8
 /PaintProc {0.5 setlinewidth pop -4 0 M 8 12 L
	0 -4 M 12 8 L stroke}
>> matrix makepattern
/Pat5 exch def
<< Tile8x8
 /PaintProc {0.5 setlinewidth pop -2 8 M 4 -4 L
	0 12 M 8 -4 L 4 12 M 10 0 L stroke}
>> matrix makepattern
/Pat6 exch def
<< Tile8x8
 /PaintProc {0.5 setlinewidth pop -2 0 M 4 12 L
	0 -4 M 8 12 L 4 -4 M 10 8 L stroke}
>> matrix makepattern
/Pat7 exch def
<< Tile8x8
 /PaintProc {0.5 setlinewidth pop 8 -2 M -4 4 L
	12 0 M -4 8 L 12 4 M 0 10 L stroke}
>> matrix makepattern
/Pat8 exch def
<< Tile8x8
 /PaintProc {0.5 setlinewidth pop 0 -2 M 12 4 L
	-4 0 M 12 8 L -4 4 M 8 10 L stroke}
>> matrix makepattern
/Pat9 exch def
/Pattern1 {PatternBgnd KeepColor Pat1 setpattern} bind def
/Pattern2 {PatternBgnd KeepColor Pat2 setpattern} bind def
/Pattern3 {PatternBgnd KeepColor Pat3 setpattern} bind def
/Pattern4 {PatternBgnd KeepColor Landscape {Pat5} {Pat4} ifelse setpattern} bind def
/Pattern5 {PatternBgnd KeepColor Landscape {Pat4} {Pat5} ifelse setpattern} bind def
/Pattern6 {PatternBgnd KeepColor Landscape {Pat9} {Pat6} ifelse setpattern} bind def
/Pattern7 {PatternBgnd KeepColor Landscape {Pat8} {Pat7} ifelse setpattern} bind def
} def
%
%
%End of PostScript Level 2 code
%
/PatternBgnd {
  TransparentPatterns {} {gsave 1 setgray fill grestore} ifelse
} def
%
% Substitute for Level 2 pattern fill codes with
% grayscale if Level 2 support is not selected.
%
/Level1PatternFill {
/Pattern1 {0.250 Density} bind def
/Pattern2 {0.500 Density} bind def
/Pattern3 {0.750 Density} bind def
/Pattern4 {0.125 Density} bind def
/Pattern5 {0.375 Density} bind def
/Pattern6 {0.625 Density} bind def
/Pattern7 {0.875 Density} bind def
} def
%
% Now test for support of Level 2 code
%
Level1 {Level1PatternFill} {Level2PatternFill} ifelse
%
/Symbol-Oblique /Symbol findfont [1 0 .167 1 0 0] makefont
dup length dict begin {1 index /FID eq {pop pop} {def} ifelse} forall
currentdict end definefont pop
%
/Metrics {ExtendTextBox Gswidth} def
/Lwidth {currentpoint stroke M 0 vshift R Metrics} def
/Rwidth {currentpoint stroke M dup stringwidth pop neg vshift R Metrics} def
/Cwidth {currentpoint stroke M dup stringwidth pop -2 div vshift R Metrics} def
/GLwidth {currentpoint stroke M 0 vshift R {ExtendTextBox} forall} def
/GRwidth {currentpoint stroke M dup Gwidth vshift R {ExtendTextBox} forall} def
/GCwidth {currentpoint stroke M dup Gwidth 2 div vshift R {ExtendTextBox} forall} def
/GLwidth2 {0 Gwidth AddGlyphWidth} def
/GRwidth2 {Gwidth -1 mul 0 AddGlyphWidth} def
/GCwidth2 {Gwidth 2 div dup -1 mul AddGlyphWidth} def
/AddGlyphWidth { dup TBx2 gt {userdict /TBx2 3 -1 roll put} {pop} ifelse
                 dup TBx1 lt {userdict /TBx1 3 -1 roll put} {pop} ifelse } def
/MFshow {
   { dup 5 get 3 ge
     { 5 get 3 eq {gsave} {grestore} ifelse }
     {dup dup 0 get findfont exch 1 get scalefont setfont
     [ currentpoint ] exch dup 2 get 0 exch R dup 5 get 2 ne {dup dup 6
     get exch 4 get {textshow} {Metrics pop 0 R} ifelse }if dup 5 get 0 eq
     {dup 3 get {2 get neg 0 exch R pop} {pop aload pop M} ifelse} {dup 5
     get 1 eq {dup 2 get exch dup 3 get exch 6 get Gswidth pop -2 div
     dup 0 R} {dup 6 get Gswidth pop -2 div 0 R 6 get
     textshow 2 index {aload pop M neg 3 -1 roll neg R pop pop} {pop pop pop
     pop aload pop M} ifelse }ifelse }ifelse }
     ifelse }
   forall} def
/Gswidth {dup type /stringtype eq {stringwidth} {pop (n) stringwidth} ifelse} def
/MFwidth {0 exch { dup 5 get 3 ge { 5 get 3 eq { 0 } { pop } ifelse }
 {dup 3 get{dup dup 0 get findfont exch 1 get scalefont setfont
     6 get Gswidth pop add} {pop} ifelse} ifelse} forall} def
/MLshow { currentpoint stroke M
  0 exch R
  Blacktext {gsave 0 setgray MFshow grestore} {MFshow} ifelse } bind def
/MRshow { currentpoint stroke M
  exch dup MFwidth neg 3 -1 roll R
  Blacktext {gsave 0 setgray MFshow grestore} {MFshow} ifelse } bind def
/MCshow { currentpoint stroke M
  exch dup MFwidth -2 div 3 -1 roll R
  Blacktext {gsave 0 setgray MFshow grestore} {MFshow} ifelse } bind def
/XYsave    { [( ) 1 2 true false 3 ()] } bind def
/XYrestore { [( ) 1 2 true false 4 ()] } bind def
Level1 SuppressPDFMark or 
{} {
/SDict 10 dict def
systemdict /pdfmark known not {
  userdict /pdfmark systemdict /cleartomark get put
} if
SDict begin [
  /Title (Results.daisy.v100/Run.001/FLOPS.002/GPU_Blocks.0320/GPU_Threads.0512/graph1.ps)
  /Subject (gnuplot plot)
  /Creator (gnuplot 5.2 patchlevel 7)
%  /Producer (gnuplot)
%  /Keywords ()
  /CreationDate (Sun Jan 19 15:21:17 2020)
  /DOCINFO pdfmark
end
} ifelse
%
% Support for boxed text - Ethan A Merritt Sep 2016
%
/InitTextBox { userdict /TBy2 3 -1 roll put userdict /TBx2 3 -1 roll put
           userdict /TBy1 3 -1 roll put userdict /TBx1 3 -1 roll put
	   /Boxing true def } def
/ExtendTextBox { dup type /stringtype eq
    { Boxing { gsave dup false charpath pathbbox
      dup TBy2 gt {userdict /TBy2 3 -1 roll put} {pop} ifelse
      dup TBx2 gt {userdict /TBx2 3 -1 roll put} {pop} ifelse
      dup TBy1 lt {userdict /TBy1 3 -1 roll put} {pop} ifelse
      dup TBx1 lt {userdict /TBx1 3 -1 roll put} {pop} ifelse
      grestore } if }
    {} ifelse} def
/PopTextBox { newpath TBx1 TBxmargin sub TBy1 TBymargin sub M
               TBx1 TBxmargin sub TBy2 TBymargin add L
	       TBx2 TBxmargin add TBy2 TBymargin add L
	       TBx2 TBxmargin add TBy1 TBymargin sub L closepath } def
/DrawTextBox { PopTextBox stroke /Boxing false def} def
/FillTextBox { gsave PopTextBox fill grestore /Boxing false def} def
0 0 0 0 InitTextBox
/TBxmargin 20 def
/TBymargin 20 def
/Boxing false def
/textshow { ExtendTextBox Gshow } def
%
end
%%EndProlog
%%Page: 1 1
gnudict begin
gsave
doclip
50 50 translate
0.100 0.100 scale
90 rotate
0 -5040 translate
0 setgray
newpath
(Helvetica) findfont 140 scalefont setfont
BackgroundColor 0 lt 3 1 roll 0 lt exch 0 lt or or not {gsave BackgroundColor C clippath fill grestore} if
1.000 UL
LTb
LCb setrgbcolor
1.000 UL
LTa
LCa setrgbcolor
770 448 M
6107 0 V
stroke
LTb
LCb setrgbcolor
770 448 M
63 0 V
6044 0 R
-63 0 V
stroke
686 448 M
[ [(Helvetica) 140.0 0.0 true true 0 (1e+00)]
] -46.7 MRshow
/Helvetica findfont 140 scalefont setfont
/vshift -46 def
1.000 UL
LTb
LCb setrgbcolor
1.000 UL
LTa
LCa setrgbcolor
770 657 M
6107 0 V
stroke
LTb
LCb setrgbcolor
770 657 M
31 0 V
6076 0 R
-31 0 V
stroke
LTa
LCa setrgbcolor
770 780 M
6107 0 V
stroke
LTb
LCb setrgbcolor
770 780 M
31 0 V
6076 0 R
-31 0 V
stroke
LTa
LCa setrgbcolor
770 867 M
6107 0 V
stroke
LTb
LCb setrgbcolor
770 867 M
31 0 V
6076 0 R
-31 0 V
stroke
LTa
LCa setrgbcolor
770 934 M
6107 0 V
stroke
LTb
LCb setrgbcolor
770 934 M
31 0 V
6076 0 R
-31 0 V
stroke
LTa
LCa setrgbcolor
770 989 M
6107 0 V
stroke
LTb
LCb setrgbcolor
770 989 M
31 0 V
6076 0 R
-31 0 V
stroke
LTa
LCa setrgbcolor
770 1035 M
6107 0 V
stroke
LTb
LCb setrgbcolor
770 1035 M
31 0 V
6076 0 R
-31 0 V
stroke
LTa
LCa setrgbcolor
770 1076 M
6107 0 V
stroke
LTb
LCb setrgbcolor
770 1076 M
31 0 V
6076 0 R
-31 0 V
stroke
LTa
LCa setrgbcolor
770 1111 M
6107 0 V
stroke
LTb
LCb setrgbcolor
770 1111 M
31 0 V
6076 0 R
-31 0 V
stroke
LTa
LCa setrgbcolor
770 1143 M
6107 0 V
stroke
LTb
LCb setrgbcolor
770 1143 M
63 0 V
6044 0 R
-63 0 V
stroke
686 1143 M
[ [(Helvetica) 140.0 0.0 true true 0 (1e+01)]
] -46.7 MRshow
/Helvetica findfont 140 scalefont setfont
1.000 UL
LTb
LCb setrgbcolor
1.000 UL
LTa
LCa setrgbcolor
770 1352 M
6107 0 V
stroke
LTb
LCb setrgbcolor
770 1352 M
31 0 V
6076 0 R
-31 0 V
stroke
LTa
LCa setrgbcolor
770 1475 M
6107 0 V
stroke
LTb
LCb setrgbcolor
770 1475 M
31 0 V
6076 0 R
-31 0 V
stroke
LTa
LCa setrgbcolor
770 1562 M
6107 0 V
stroke
LTb
LCb setrgbcolor
770 1562 M
31 0 V
6076 0 R
-31 0 V
stroke
LTa
LCa setrgbcolor
770 1629 M
6107 0 V
stroke
LTb
LCb setrgbcolor
770 1629 M
31 0 V
6076 0 R
-31 0 V
stroke
LTa
LCa setrgbcolor
770 1684 M
6107 0 V
stroke
LTb
LCb setrgbcolor
770 1684 M
31 0 V
6076 0 R
-31 0 V
stroke
LTa
LCa setrgbcolor
770 1731 M
6107 0 V
stroke
LTb
LCb setrgbcolor
770 1731 M
31 0 V
6076 0 R
-31 0 V
stroke
LTa
LCa setrgbcolor
770 1771 M
6107 0 V
stroke
LTb
LCb setrgbcolor
770 1771 M
31 0 V
6076 0 R
-31 0 V
stroke
LTa
LCa setrgbcolor
770 1807 M
6107 0 V
stroke
LTb
LCb setrgbcolor
770 1807 M
31 0 V
6076 0 R
-31 0 V
stroke
LTa
LCa setrgbcolor
770 1838 M
6107 0 V
stroke
LTb
LCb setrgbcolor
770 1838 M
63 0 V
6044 0 R
-63 0 V
stroke
686 1838 M
[ [(Helvetica) 140.0 0.0 true true 0 (1e+02)]
] -46.7 MRshow
/Helvetica findfont 140 scalefont setfont
1.000 UL
LTb
LCb setrgbcolor
1.000 UL
LTa
LCa setrgbcolor
770 2048 M
6107 0 V
stroke
LTb
LCb setrgbcolor
770 2048 M
31 0 V
6076 0 R
-31 0 V
stroke
LTa
LCa setrgbcolor
770 2170 M
6107 0 V
stroke
LTb
LCb setrgbcolor
770 2170 M
31 0 V
6076 0 R
-31 0 V
stroke
LTa
LCa setrgbcolor
770 2257 M
6107 0 V
stroke
LTb
LCb setrgbcolor
770 2257 M
31 0 V
6076 0 R
-31 0 V
stroke
LTa
LCa setrgbcolor
770 2324 M
6107 0 V
stroke
LTb
LCb setrgbcolor
770 2324 M
31 0 V
6076 0 R
-31 0 V
stroke
LTa
LCa setrgbcolor
770 2379 M
6107 0 V
stroke
LTb
LCb setrgbcolor
770 2379 M
31 0 V
6076 0 R
-31 0 V
stroke
LTa
LCa setrgbcolor
770 2426 M
6107 0 V
stroke
LTb
LCb setrgbcolor
770 2426 M
31 0 V
6076 0 R
-31 0 V
stroke
LTa
LCa setrgbcolor
770 2466 M
6107 0 V
stroke
LTb
LCb setrgbcolor
770 2466 M
31 0 V
6076 0 R
-31 0 V
stroke
LTa
LCa setrgbcolor
770 2502 M
6107 0 V
stroke
LTb
LCb setrgbcolor
770 2502 M
31 0 V
6076 0 R
-31 0 V
stroke
LTa
LCa setrgbcolor
770 2534 M
6107 0 V
stroke
LTb
LCb setrgbcolor
770 2534 M
63 0 V
6044 0 R
-63 0 V
stroke
686 2534 M
[ [(Helvetica) 140.0 0.0 true true 0 (1e+03)]
] -46.7 MRshow
/Helvetica findfont 140 scalefont setfont
1.000 UL
LTb
LCb setrgbcolor
1.000 UL
LTa
LCa setrgbcolor
770 2743 M
6107 0 V
stroke
LTb
LCb setrgbcolor
770 2743 M
31 0 V
6076 0 R
-31 0 V
stroke
LTa
LCa setrgbcolor
770 2865 M
6107 0 V
stroke
LTb
LCb setrgbcolor
770 2865 M
31 0 V
6076 0 R
-31 0 V
stroke
LTa
LCa setrgbcolor
770 2952 M
6107 0 V
stroke
LTb
LCb setrgbcolor
770 2952 M
31 0 V
6076 0 R
-31 0 V
stroke
LTa
LCa setrgbcolor
770 3019 M
6107 0 V
stroke
LTb
LCb setrgbcolor
770 3019 M
31 0 V
6076 0 R
-31 0 V
stroke
LTa
LCa setrgbcolor
770 3074 M
6107 0 V
stroke
LTb
LCb setrgbcolor
770 3074 M
31 0 V
6076 0 R
-31 0 V
stroke
LTa
LCa setrgbcolor
770 3121 M
6107 0 V
stroke
LTb
LCb setrgbcolor
770 3121 M
31 0 V
6076 0 R
-31 0 V
stroke
LTa
LCa setrgbcolor
770 3161 M
6107 0 V
stroke
LTb
LCb setrgbcolor
770 3161 M
31 0 V
6076 0 R
-31 0 V
stroke
LTa
LCa setrgbcolor
770 3197 M
6107 0 V
stroke
LTb
LCb setrgbcolor
770 3197 M
31 0 V
6076 0 R
-31 0 V
stroke
LTa
LCa setrgbcolor
770 3229 M
6107 0 V
stroke
LTb
LCb setrgbcolor
770 3229 M
63 0 V
6044 0 R
-63 0 V
stroke
686 3229 M
[ [(Helvetica) 140.0 0.0 true true 0 (1e+04)]
] -46.7 MRshow
/Helvetica findfont 140 scalefont setfont
1.000 UL
LTb
LCb setrgbcolor
1.000 UL
LTa
LCa setrgbcolor
770 3438 M
6107 0 V
stroke
LTb
LCb setrgbcolor
770 3438 M
31 0 V
6076 0 R
-31 0 V
stroke
LTa
LCa setrgbcolor
770 3560 M
6107 0 V
stroke
LTb
LCb setrgbcolor
770 3560 M
31 0 V
6076 0 R
-31 0 V
stroke
LTa
LCa setrgbcolor
770 3647 M
6107 0 V
stroke
LTb
LCb setrgbcolor
770 3647 M
31 0 V
6076 0 R
-31 0 V
stroke
LTa
LCa setrgbcolor
770 3715 M
6107 0 V
stroke
LTb
LCb setrgbcolor
770 3715 M
31 0 V
6076 0 R
-31 0 V
stroke
LTa
LCa setrgbcolor
770 3770 M
6107 0 V
stroke
LTb
LCb setrgbcolor
770 3770 M
31 0 V
6076 0 R
-31 0 V
stroke
LTa
LCa setrgbcolor
770 3816 M
6107 0 V
stroke
LTb
LCb setrgbcolor
770 3816 M
31 0 V
6076 0 R
-31 0 V
stroke
LTa
LCa setrgbcolor
770 3856 M
6107 0 V
stroke
LTb
LCb setrgbcolor
770 3856 M
31 0 V
6076 0 R
-31 0 V
stroke
LTa
LCa setrgbcolor
770 3892 M
6107 0 V
stroke
LTb
LCb setrgbcolor
770 3892 M
31 0 V
6076 0 R
-31 0 V
stroke
LTa
LCa setrgbcolor
770 3924 M
6107 0 V
stroke
LTb
LCb setrgbcolor
770 3924 M
63 0 V
6044 0 R
-63 0 V
stroke
686 3924 M
[ [(Helvetica) 140.0 0.0 true true 0 (1e+05)]
] -46.7 MRshow
/Helvetica findfont 140 scalefont setfont
1.000 UL
LTb
LCb setrgbcolor
1.000 UL
LTa
LCa setrgbcolor
770 4133 M
6107 0 V
stroke
LTb
LCb setrgbcolor
770 4133 M
31 0 V
6076 0 R
-31 0 V
stroke
LTa
LCa setrgbcolor
770 4256 M
6107 0 V
stroke
LTb
LCb setrgbcolor
770 4256 M
31 0 V
6076 0 R
-31 0 V
stroke
LTa
LCa setrgbcolor
770 4342 M
6107 0 V
stroke
LTb
LCb setrgbcolor
770 4342 M
31 0 V
6076 0 R
-31 0 V
stroke
LTa
LCa setrgbcolor
770 4410 M
6107 0 V
stroke
LTb
LCb setrgbcolor
770 4410 M
31 0 V
6076 0 R
-31 0 V
stroke
LTa
LCa setrgbcolor
770 4465 M
6107 0 V
stroke
LTb
LCb setrgbcolor
770 4465 M
31 0 V
6076 0 R
-31 0 V
stroke
LTa
LCa setrgbcolor
770 4511 M
6107 0 V
stroke
LTb
LCb setrgbcolor
770 4511 M
31 0 V
6076 0 R
-31 0 V
stroke
LTa
LCa setrgbcolor
770 4552 M
6107 0 V
stroke
LTb
LCb setrgbcolor
770 4552 M
31 0 V
6076 0 R
-31 0 V
stroke
LTa
LCa setrgbcolor
770 4587 M
6107 0 V
stroke
LTb
LCb setrgbcolor
770 4587 M
31 0 V
6076 0 R
-31 0 V
stroke
LTa
LCa setrgbcolor
770 4619 M
6107 0 V
stroke
LTb
LCb setrgbcolor
770 4619 M
63 0 V
6044 0 R
-63 0 V
stroke
686 4619 M
[ [(Helvetica) 140.0 0.0 true true 0 (1e+06)]
] -46.7 MRshow
/Helvetica findfont 140 scalefont setfont
1.000 UL
LTb
LCb setrgbcolor
1.000 UL
LTa
LCa setrgbcolor
770 448 M
0 4171 V
stroke
LTb
LCb setrgbcolor
770 448 M
0 63 V
0 4108 R
0 -63 V
stroke
770 308 M
[ [(Helvetica) 140.0 0.0 true true 0 (1e+00)]
] -46.7 MCshow
/Helvetica findfont 140 scalefont setfont
1.000 UL
LTb
LCb setrgbcolor
1.000 UL
LTa
LCa setrgbcolor
1075 448 M
0 4171 V
stroke
LTb
LCb setrgbcolor
1075 448 M
0 31 V
0 4140 R
0 -31 V
stroke
LTa
LCa setrgbcolor
1254 448 M
0 4171 V
stroke
LTb
LCb setrgbcolor
1254 448 M
0 31 V
0 4140 R
0 -31 V
stroke
LTa
LCa setrgbcolor
1381 448 M
0 4171 V
stroke
LTb
LCb setrgbcolor
1381 448 M
0 31 V
0 4140 R
0 -31 V
stroke
LTa
LCa setrgbcolor
1479 448 M
0 4171 V
stroke
LTb
LCb setrgbcolor
1479 448 M
0 31 V
0 4140 R
0 -31 V
stroke
LTa
LCa setrgbcolor
1559 448 M
0 4171 V
stroke
LTb
LCb setrgbcolor
1559 448 M
0 31 V
0 4140 R
0 -31 V
stroke
LTa
LCa setrgbcolor
1627 448 M
0 4171 V
stroke
LTb
LCb setrgbcolor
1627 448 M
0 31 V
0 4140 R
0 -31 V
stroke
LTa
LCa setrgbcolor
1686 448 M
0 4171 V
stroke
LTb
LCb setrgbcolor
1686 448 M
0 31 V
0 4140 R
0 -31 V
stroke
LTa
LCa setrgbcolor
1738 448 M
0 4171 V
stroke
LTb
LCb setrgbcolor
1738 448 M
0 31 V
0 4140 R
0 -31 V
stroke
LTa
LCa setrgbcolor
1784 448 M
0 4171 V
stroke
LTb
LCb setrgbcolor
1784 448 M
0 63 V
0 4108 R
0 -63 V
stroke
1784 308 M
[ [(Helvetica) 140.0 0.0 true true 0 (1e+01)]
] -46.7 MCshow
/Helvetica findfont 140 scalefont setfont
1.000 UL
LTb
LCb setrgbcolor
1.000 UL
LTa
LCa setrgbcolor
2090 448 M
0 4171 V
stroke
LTb
LCb setrgbcolor
2090 448 M
0 31 V
0 4140 R
0 -31 V
stroke
LTa
LCa setrgbcolor
2268 448 M
0 4171 V
stroke
LTb
LCb setrgbcolor
2268 448 M
0 31 V
0 4140 R
0 -31 V
stroke
LTa
LCa setrgbcolor
2395 448 M
0 4171 V
stroke
LTb
LCb setrgbcolor
2395 448 M
0 31 V
0 4140 R
0 -31 V
stroke
LTa
LCa setrgbcolor
2493 448 M
0 4171 V
stroke
LTb
LCb setrgbcolor
2493 448 M
0 31 V
0 4140 R
0 -31 V
stroke
LTa
LCa setrgbcolor
2574 448 M
0 4171 V
stroke
LTb
LCb setrgbcolor
2574 448 M
0 31 V
0 4140 R
0 -31 V
stroke
LTa
LCa setrgbcolor
2642 448 M
0 4171 V
stroke
LTb
LCb setrgbcolor
2642 448 M
0 31 V
0 4140 R
0 -31 V
stroke
LTa
LCa setrgbcolor
2700 448 M
0 4171 V
stroke
LTb
LCb setrgbcolor
2700 448 M
0 31 V
0 4140 R
0 -31 V
stroke
LTa
LCa setrgbcolor
2752 448 M
0 4171 V
stroke
LTb
LCb setrgbcolor
2752 448 M
0 31 V
0 4140 R
0 -31 V
stroke
LTa
LCa setrgbcolor
2799 448 M
0 4171 V
stroke
LTb
LCb setrgbcolor
2799 448 M
0 63 V
0 4108 R
0 -63 V
stroke
2799 308 M
[ [(Helvetica) 140.0 0.0 true true 0 (1e+02)]
] -46.7 MCshow
/Helvetica findfont 140 scalefont setfont
1.000 UL
LTb
LCb setrgbcolor
1.000 UL
LTa
LCa setrgbcolor
3104 448 M
0 4171 V
stroke
LTb
LCb setrgbcolor
3104 448 M
0 31 V
0 4140 R
0 -31 V
stroke
LTa
LCa setrgbcolor
3283 448 M
0 4171 V
stroke
LTb
LCb setrgbcolor
3283 448 M
0 31 V
0 4140 R
0 -31 V
stroke
LTa
LCa setrgbcolor
3409 448 M
0 4171 V
stroke
LTb
LCb setrgbcolor
3409 448 M
0 31 V
0 4140 R
0 -31 V
stroke
LTa
LCa setrgbcolor
3508 448 M
0 4171 V
stroke
LTb
LCb setrgbcolor
3508 448 M
0 31 V
0 4140 R
0 -31 V
stroke
LTa
LCa setrgbcolor
3588 448 M
0 4171 V
stroke
LTb
LCb setrgbcolor
3588 448 M
0 31 V
0 4140 R
0 -31 V
stroke
LTa
LCa setrgbcolor
3656 448 M
0 4171 V
stroke
LTb
LCb setrgbcolor
3656 448 M
0 31 V
0 4140 R
0 -31 V
stroke
LTa
LCa setrgbcolor
3715 448 M
0 4171 V
stroke
LTb
LCb setrgbcolor
3715 448 M
0 31 V
0 4140 R
0 -31 V
stroke
LTa
LCa setrgbcolor
3767 448 M
0 4171 V
stroke
LTb
LCb setrgbcolor
3767 448 M
0 31 V
0 4140 R
0 -31 V
stroke
LTa
LCa setrgbcolor
3813 448 M
0 4171 V
stroke
LTb
LCb setrgbcolor
3813 448 M
0 63 V
0 4108 R
0 -63 V
stroke
3813 308 M
[ [(Helvetica) 140.0 0.0 true true 0 (1e+03)]
] -46.7 MCshow
/Helvetica findfont 140 scalefont setfont
1.000 UL
LTb
LCb setrgbcolor
1.000 UL
LTa
LCa setrgbcolor
4118 448 M
0 4171 V
stroke
LTb
LCb setrgbcolor
4118 448 M
0 31 V
0 4140 R
0 -31 V
stroke
LTa
LCa setrgbcolor
4297 448 M
0 4171 V
stroke
LTb
LCb setrgbcolor
4297 448 M
0 31 V
0 4140 R
0 -31 V
stroke
LTa
LCa setrgbcolor
4424 448 M
0 4171 V
stroke
LTb
LCb setrgbcolor
4424 448 M
0 31 V
0 4140 R
0 -31 V
stroke
LTa
LCa setrgbcolor
4522 448 M
0 4171 V
stroke
LTb
LCb setrgbcolor
4522 448 M
0 31 V
0 4140 R
0 -31 V
stroke
LTa
LCa setrgbcolor
4602 448 M
0 4171 V
stroke
LTb
LCb setrgbcolor
4602 448 M
0 31 V
0 4140 R
0 -31 V
stroke
LTa
LCa setrgbcolor
4670 448 M
0 4171 V
stroke
LTb
LCb setrgbcolor
4670 448 M
0 31 V
0 4140 R
0 -31 V
stroke
LTa
LCa setrgbcolor
4729 448 M
0 4171 V
stroke
LTb
LCb setrgbcolor
4729 448 M
0 31 V
0 4140 R
0 -31 V
stroke
LTa
LCa setrgbcolor
4781 448 M
0 4171 V
stroke
LTb
LCb setrgbcolor
4781 448 M
0 31 V
0 4140 R
0 -31 V
stroke
LTa
LCa setrgbcolor
4827 448 M
0 4171 V
stroke
LTb
LCb setrgbcolor
4827 448 M
0 63 V
0 4108 R
0 -63 V
stroke
4827 308 M
[ [(Helvetica) 140.0 0.0 true true 0 (1e+04)]
] -46.7 MCshow
/Helvetica findfont 140 scalefont setfont
1.000 UL
LTb
LCb setrgbcolor
1.000 UL
LTa
LCa setrgbcolor
5133 448 M
0 4171 V
stroke
LTb
LCb setrgbcolor
5133 448 M
0 31 V
0 4140 R
0 -31 V
stroke
LTa
LCa setrgbcolor
5311 448 M
0 4171 V
stroke
LTb
LCb setrgbcolor
5311 448 M
0 31 V
0 4140 R
0 -31 V
stroke
LTa
LCa setrgbcolor
5438 448 M
0 4171 V
stroke
LTb
LCb setrgbcolor
5438 448 M
0 31 V
0 4140 R
0 -31 V
stroke
LTa
LCa setrgbcolor
5536 448 M
0 4171 V
stroke
LTb
LCb setrgbcolor
5536 448 M
0 31 V
0 4140 R
0 -31 V
stroke
LTa
LCa setrgbcolor
5617 448 M
0 4171 V
stroke
LTb
LCb setrgbcolor
5617 448 M
0 31 V
0 4140 R
0 -31 V
stroke
LTa
LCa setrgbcolor
5685 448 M
0 4171 V
stroke
LTb
LCb setrgbcolor
5685 448 M
0 31 V
0 4140 R
0 -31 V
stroke
LTa
LCa setrgbcolor
5743 448 M
0 4171 V
stroke
LTb
LCb setrgbcolor
5743 448 M
0 31 V
0 4140 R
0 -31 V
stroke
LTa
LCa setrgbcolor
5795 448 M
0 4171 V
stroke
LTb
LCb setrgbcolor
5795 448 M
0 31 V
0 4140 R
0 -31 V
stroke
LTa
LCa setrgbcolor
5842 448 M
0 4171 V
stroke
LTb
LCb setrgbcolor
5842 448 M
0 63 V
0 4108 R
0 -63 V
stroke
5842 308 M
[ [(Helvetica) 140.0 0.0 true true 0 (1e+05)]
] -46.7 MCshow
/Helvetica findfont 140 scalefont setfont
1.000 UL
LTb
LCb setrgbcolor
1.000 UL
LTa
LCa setrgbcolor
6147 448 M
0 4171 V
stroke
LTb
LCb setrgbcolor
6147 448 M
0 31 V
0 4140 R
0 -31 V
stroke
LTa
LCa setrgbcolor
6326 448 M
0 4171 V
stroke
LTb
LCb setrgbcolor
6326 448 M
0 31 V
0 4140 R
0 -31 V
stroke
LTa
LCa setrgbcolor
6452 448 M
0 4171 V
stroke
LTb
LCb setrgbcolor
6452 448 M
0 31 V
0 4140 R
0 -31 V
stroke
LTa
LCa setrgbcolor
6551 448 M
0 4171 V
stroke
LTb
LCb setrgbcolor
6551 448 M
0 31 V
0 4140 R
0 -31 V
stroke
LTa
LCa setrgbcolor
6631 448 M
0 4171 V
stroke
LTb
LCb setrgbcolor
6631 448 M
0 31 V
0 4140 R
0 -31 V
stroke
LTa
LCa setrgbcolor
6699 448 M
0 4171 V
stroke
LTb
LCb setrgbcolor
6699 448 M
0 31 V
0 4140 R
0 -31 V
stroke
LTa
LCa setrgbcolor
6758 448 M
0 4171 V
stroke
LTb
LCb setrgbcolor
6758 448 M
0 31 V
0 4140 R
0 -31 V
stroke
LTa
LCa setrgbcolor
6810 448 M
0 4171 V
stroke
LTb
LCb setrgbcolor
6810 448 M
0 31 V
0 4140 R
0 -31 V
stroke
LTa
LCa setrgbcolor
6856 448 M
0 4171 V
stroke
LTb
LCb setrgbcolor
6856 448 M
0 63 V
0 4108 R
0 -63 V
stroke
6856 308 M
[ [(Helvetica) 140.0 0.0 true true 0 (1e+06)]
] -46.7 MCshow
/Helvetica findfont 140 scalefont setfont
1.000 UL
LTb
LCb setrgbcolor
1.000 UL
LTB
LCb setrgbcolor
770 4619 N
770 448 L
6107 0 V
0 4171 V
-6107 0 V
Z stroke
1.000 UP
1.000 UL
LTb
LCb setrgbcolor
LCb setrgbcolor
196 2533 M
currentpoint gsave translate -270 rotate 0 0 moveto
[ [(Helvetica) 140.0 0.0 true true 0 (Seconds)]
] -46.7 MCshow
grestore
/Helvetica findfont 140 scalefont setfont
LTb
LCb setrgbcolor
LTb
LCb setrgbcolor
3823 98 M
[ [(Helvetica) 140.0 0.0 true true 0 (Number Of Trials)]
] -46.7 MCshow
/Helvetica findfont 140 scalefont setfont
LTb
LCb setrgbcolor
3823 4829 M
[ [(Helvetica) 140.0 0.0 true true 0 (Graph 1 \(Results.daisy.v100/Run.001/FLOPS.002/GPU)]
[(Helvetica) 112.0 -42.0 true true 0 (B)]
[(Helvetica) 140.0 0.0 true true 0 (locks.0320/GPU)]
[(Helvetica) 112.0 -42.0 true true 0 (T)]
[(Helvetica) 140.0 0.0 true true 0 (hreads.0512\))]
] -32.7 MCshow
/Helvetica findfont 140 scalefont setfont
LTb
LCb setrgbcolor
LTb
LCb setrgbcolor
% Begin plot #1
1.000 UL
LTb
0.58 0.00 0.83 C
770 1391 M
305 -229 V
306 -15 V
305 20 V
305 10 V
306 53 V
305 82 V
305 125 V
306 160 V
305 225 V
306 176 V
305 213 V
305 200 V
306 212 V
305 206 V
305 208 V
306 209 V
305 209 V
305 210 V
306 209 V
305 209 V
770 1325 M
305 -185 V
306 -18 V
305 42 V
305 24 V
306 72 V
305 59 V
305 124 V
306 146 V
305 238 V
306 184 V
305 214 V
305 208 V
306 205 V
305 209 V
305 208 V
306 209 V
305 209 V
305 209 V
306 210 V
770 1334 M
305 -197 V
306 -6 V
305 14 V
305 47 V
306 43 V
305 91 V
305 111 V
306 158 V
305 215 V
306 223 V
305 195 V
305 207 V
306 207 V
305 206 V
305 209 V
306 210 V
305 209 V
305 209 V
306 209 V
770 1373 M
305 -220 V
306 -23 V
305 20 V
305 48 V
306 33 V
305 87 V
305 113 V
306 228 V
305 166 V
306 185 V
305 213 V
305 207 V
306 211 V
305 206 V
305 208 V
306 209 V
305 209 V
305 209 V
306 210 V
770 1329 M
305 -165 V
306 -32 V
305 16 V
305 30 V
306 59 V
305 84 V
305 123 V
306 160 V
305 236 V
306 180 V
305 212 V
305 205 V
306 203 V
305 209 V
305 209 V
306 209 V
305 209 V
305 209 V
306 209 V
770 1329 M
305 -178 V
306 -13 V
305 6 V
305 37 V
306 59 V
305 70 V
305 124 V
306 230 V
305 160 V
306 188 V
305 211 V
305 207 V
306 207 V
305 209 V
305 210 V
306 208 V
305 209 V
305 209 V
306 210 V
770 1350 M
305 -194 V
306 -22 V
305 13 V
305 36 V
306 87 V
305 60 V
305 106 V
306 158 V
305 232 V
306 188 V
305 214 V
305 207 V
306 207 V
305 207 V
305 209 V
306 209 V
305 209 V
305 209 V
306 210 V
770 1325 M
305 -171 V
306 2 V
305 -10 V
305 37 V
306 61 V
305 84 V
305 111 V
306 200 V
305 184 V
306 213 V
305 196 V
305 205 V
306 208 V
305 204 V
305 209 V
306 210 V
305 209 V
305 209 V
306 209 V
770 1309 M
305 -154 V
306 -26 V
305 20 V
305 23 V
306 58 V
305 112 V
305 100 V
306 166 V
305 230 V
306 180 V
305 213 V
305 204 V
306 201 V
305 210 V
305 209 V
306 209 V
305 209 V
305 209 V
770 1336 M
305 -123 V
306 -46 V
305 -11 V
305 51 V
306 37 V
305 106 V
305 91 V
306 189 V
305 160 V
306 225 V
305 213 V
305 204 V
306 205 V
305 209 V
305 208 V
306 209 V
305 209 V
305 209 V
770 1329 M
305 -185 V
306 3 V
305 23 V
305 66 V
306 2 V
305 77 V
305 133 V
306 186 V
305 183 V
306 215 V
305 193 V
305 202 V
306 208 V
305 210 V
305 209 V
306 209 V
305 209 V
305 209 V
770 1341 M
305 -196 V
306 2 V
305 14 V
305 17 V
306 50 V
305 93 V
305 125 V
306 212 V
305 161 V
306 213 V
305 194 V
305 201 V
306 208 V
305 209 V
305 209 V
306 210 V
305 209 V
305 209 V
770 1340 M
305 -204 V
306 17 V
305 17 V
305 62 V
306 5 V
305 93 V
305 169 V
306 166 V
305 157 V
306 191 V
305 210 V
305 205 V
stroke 4434 2428 M
306 210 V
305 207 V
305 209 V
306 209 V
305 209 V
305 209 V
770 1325 M
305 -164 V
306 -8 V
305 15 V
305 16 V
306 56 V
305 85 V
305 122 V
306 153 V
305 215 V
306 220 V
305 189 V
305 205 V
306 207 V
305 209 V
305 210 V
306 208 V
305 209 V
305 210 V
770 1311 M
305 -161 V
306 -15 V
305 26 V
305 19 V
306 53 V
305 95 V
305 124 V
306 151 V
305 223 V
306 191 V
305 209 V
305 205 V
306 207 V
305 210 V
305 209 V
306 208 V
305 210 V
305 209 V
770 1343 M
305 -192 V
306 9 V
305 1 V
305 19 V
306 60 V
305 75 V
305 184 V
306 108 V
305 224 V
306 182 V
305 216 V
305 204 V
306 208 V
305 207 V
305 208 V
306 209 V
305 209 V
770 1324 M
305 -183 V
306 0 V
305 40 V
305 7 V
306 47 V
305 99 V
305 122 V
306 138 V
305 245 V
306 180 V
305 215 V
305 203 V
306 207 V
305 208 V
305 209 V
306 208 V
305 209 V
770 1319 M
305 -182 V
306 7 V
305 17 V
305 19 V
306 55 V
305 82 V
305 156 V
306 162 V
305 157 V
306 226 V
305 216 V
305 204 V
306 207 V
305 208 V
305 207 V
306 210 V
305 209 V
770 1318 M
305 -181 V
306 -8 V
305 26 V
305 28 V
306 64 V
305 95 V
305 116 V
306 168 V
305 219 V
306 188 V
305 191 V
305 209 V
306 207 V
305 210 V
305 207 V
306 210 V
305 209 V
770 1322 M
305 -180 V
306 10 V
305 18 V
305 10 V
306 57 V
305 87 V
305 119 V
306 150 V
305 221 V
306 220 V
305 194 V
305 206 V
306 207 V
305 208 V
305 208 V
306 211 V
305 209 V
770 1343 M
305 -183 V
306 -31 V
305 17 V
305 43 V
306 44 V
305 121 V
305 94 V
306 204 V
305 156 V
306 214 V
305 194 V
305 216 V
306 205 V
305 209 V
305 207 V
306 210 V
305 209 V
770 1338 M
305 -190 V
306 -7 V
305 26 V
305 14 V
306 65 V
305 89 V
305 136 V
306 142 V
305 220 V
306 182 V
305 210 V
305 205 V
306 207 V
305 210 V
305 209 V
306 209 V
305 209 V
770 1359 M
305 -212 V
306 46 V
305 -43 V
305 37 V
306 64 V
305 84 V
305 117 V
306 150 V
305 235 V
306 184 V
305 209 V
305 202 V
306 207 V
305 208 V
305 209 V
306 209 V
305 209 V
770 1328 M
305 -189 V
306 2 V
305 20 V
305 18 V
306 63 V
305 93 V
305 108 V
306 161 V
305 226 V
306 185 V
305 217 V
305 206 V
306 207 V
305 208 V
305 208 V
306 209 V
770 1309 M
305 -168 V
306 6 V
305 -6 V
305 52 V
306 51 V
305 79 V
305 167 V
306 166 V
305 184 V
306 188 V
305 191 V
305 215 V
306 208 V
305 205 V
305 208 V
306 209 V
770 1315 M
305 -178 V
306 -4 V
305 35 V
305 25 V
306 71 V
305 79 V
305 137 V
306 163 V
305 172 V
306 211 V
305 189 V
305 202 V
306 208 V
305 208 V
305 207 V
306 210 V
770 1315 M
305 -144 V
306 -12 V
305 -3 V
305 57 V
306 31 V
305 92 V
305 139 V
306 175 V
305 182 V
stroke 3518 1832 M
306 193 V
305 203 V
305 201 V
306 207 V
305 209 V
305 209 V
306 209 V
770 1331 M
305 -200 V
306 14 V
305 -1 V
305 40 V
306 59 V
305 122 V
305 126 V
306 165 V
305 179 V
306 189 V
305 210 V
305 204 V
306 206 V
305 208 V
305 209 V
306 208 V
770 1313 M
305 -178 V
306 -6 V
305 18 V
305 48 V
306 61 V
305 66 V
305 165 V
306 174 V
305 162 V
306 211 V
305 196 V
305 207 V
306 206 V
305 206 V
305 210 V
306 208 V
770 1322 M
305 -175 V
306 -6 V
305 57 V
305 -12 V
306 50 V
305 88 V
305 149 V
306 166 V
305 191 V
306 193 V
305 202 V
305 204 V
306 207 V
305 209 V
305 210 V
306 208 V
770 1329 M
305 -180 V
306 -2 V
305 -4 V
305 39 V
306 84 V
305 61 V
305 126 V
306 170 V
305 211 V
306 191 V
305 209 V
305 204 V
306 206 V
305 208 V
305 209 V
770 1303 M
305 -171 V
306 14 V
305 35 V
305 24 V
306 59 V
305 116 V
305 120 V
306 143 V
305 185 V
306 197 V
305 200 V
305 206 V
306 206 V
305 209 V
305 208 V
770 1309 M
305 -178 V
306 22 V
305 20 V
305 14 V
306 41 V
305 137 V
305 129 V
306 164 V
305 165 V
306 212 V
305 198 V
305 204 V
306 208 V
305 207 V
305 209 V
770 1322 M
305 -180 V
306 4 V
305 1 V
305 36 V
306 69 V
305 108 V
305 81 V
306 170 V
305 232 V
306 189 V
305 189 V
305 216 V
306 201 V
305 211 V
305 208 V
770 1304 M
305 -157 V
306 2 V
305 -3 V
305 34 V
306 62 V
305 93 V
305 150 V
306 170 V
305 168 V
306 211 V
305 198 V
305 205 V
306 208 V
305 207 V
305 209 V
770 1330 M
305 -172 V
306 -11 V
305 0 V
305 41 V
306 53 V
305 101 V
305 126 V
306 187 V
305 170 V
306 213 V
305 187 V
305 205 V
306 208 V
305 209 V
305 209 V
770 1336 M
305 -198 V
306 32 V
305 -2 V
305 11 V
306 86 V
305 70 V
305 153 V
306 168 V
305 172 V
306 210 V
305 192 V
305 207 V
306 206 V
305 207 V
305 209 V
770 1333 M
305 -189 V
306 3 V
305 14 V
305 22 V
306 54 V
305 124 V
305 116 V
306 173 V
305 182 V
306 197 V
305 199 V
305 205 V
306 208 V
305 207 V
770 1312 M
305 -169 V
306 -11 V
305 30 V
305 20 V
306 54 V
305 138 V
305 112 V
306 169 V
305 158 V
306 219 V
305 197 V
305 208 V
306 208 V
305 208 V
770 1303 M
305 -156 V
306 -15 V
305 29 V
305 20 V
306 69 V
305 75 V
305 164 V
306 167 V
305 170 V
306 208 V
305 190 V
305 204 V
306 207 V
305 210 V
770 1300 M
305 -157 V
306 19 V
305 -1 V
305 33 V
306 69 V
305 65 V
305 159 V
306 160 V
305 202 V
306 175 V
305 196 V
305 212 V
306 208 V
305 208 V
770 1326 M
305 -180 V
306 -11 V
305 39 V
305 20 V
306 36 V
305 96 V
305 137 V
306 168 V
305 202 V
306 190 V
305 208 V
305 203 V
306 207 V
305 208 V
770 1308 M
305 -170 V
306 -1 V
305 19 V
stroke 1686 1156 M
305 28 V
306 79 V
305 73 V
305 168 V
306 112 V
305 219 V
306 200 V
305 198 V
305 205 V
306 207 V
305 207 V
770 1314 M
305 -164 V
306 -18 V
305 34 V
305 36 V
306 33 V
305 90 V
305 139 V
306 166 V
305 197 V
306 197 V
305 204 V
305 207 V
306 205 V
305 208 V
770 1303 M
305 -161 V
306 -8 V
305 36 V
305 25 V
306 56 V
305 75 V
305 166 V
306 164 V
305 183 V
306 170 V
305 207 V
305 205 V
306 204 V
305 208 V
770 1346 M
305 -202 V
306 4 V
305 -1 V
305 36 V
306 62 V
305 85 V
305 163 V
306 162 V
305 182 V
306 182 V
305 213 V
305 204 V
306 202 V
770 1348 M
305 -199 V
306 -2 V
305 8 V
305 37 V
306 61 V
305 89 V
305 150 V
306 163 V
305 180 V
306 188 V
305 209 V
305 205 V
306 201 V
770 1347 M
305 -204 V
306 3 V
305 1 V
305 36 V
306 61 V
305 97 V
305 151 V
306 163 V
305 169 V
306 210 V
305 191 V
305 208 V
306 207 V
770 1329 M
305 -170 V
306 -14 V
305 2 V
305 30 V
306 76 V
305 112 V
305 87 V
306 212 V
305 167 V
306 193 V
305 207 V
305 206 V
306 206 V
770 1325 M
305 -169 V
306 75 V
305 -71 V
305 72 V
306 10 V
305 126 V
305 103 V
306 171 V
305 188 V
306 206 V
305 189 V
305 204 V
306 207 V
770 1335 M
305 -190 V
306 2 V
305 1 V
305 37 V
306 78 V
305 87 V
305 148 V
306 145 V
305 189 V
306 192 V
305 205 V
305 205 V
306 207 V
770 1322 M
305 -179 V
306 -1 V
305 5 V
305 35 V
306 67 V
305 109 V
305 96 V
306 207 V
305 176 V
306 186 V
305 210 V
305 205 V
306 207 V
770 1338 M
305 -191 V
306 -2 V
305 9 V
305 27 V
306 57 V
305 93 V
305 151 V
306 168 V
305 186 V
306 189 V
305 206 V
305 206 V
770 1328 M
305 -167 V
306 -14 V
305 17 V
305 65 V
306 11 V
305 121 V
305 110 V
306 186 V
305 163 V
306 213 V
305 188 V
305 215 V
770 1842 M
305 -704 V
306 -2 V
305 18 V
305 39 V
306 70 V
305 92 V
305 144 V
306 205 V
305 184 V
306 197 V
305 195 V
305 216 V
770 1331 M
305 -174 V
306 -10 V
305 16 V
305 31 V
306 69 V
305 105 V
305 121 V
306 159 V
305 261 V
306 201 V
305 188 V
305 207 V
770 1331 M
305 -183 V
306 -8 V
305 26 V
305 28 V
306 69 V
305 90 V
305 136 V
306 173 V
305 257 V
306 193 V
305 177 V
305 216 V
770 1350 M
305 -209 V
306 3 V
305 9 V
305 54 V
306 59 V
305 94 V
305 204 V
306 172 V
305 183 V
306 193 V
305 186 V
305 207 V
770 1350 M
305 -195 V
306 3 V
305 14 V
305 21 V
306 71 V
305 102 V
305 143 V
306 204 V
305 211 V
306 188 V
305 186 V
305 204 V
770 1329 M
305 -188 V
306 -8 V
305 34 V
305 27 V
306 75 V
305 116 V
305 159 V
306 190 V
305 192 V
306 183 V
305 186 V
770 1361 M
305 -209 V
306 -5 V
305 12 V
305 44 V
306 66 V
305 144 V
stroke 2602 1413 M
305 118 V
306 203 V
305 180 V
306 205 V
305 180 V
770 1338 M
305 -178 V
306 -12 V
305 38 V
305 49 V
306 81 V
305 124 V
305 153 V
306 169 V
305 200 V
306 201 V
305 209 V
770 1332 M
305 -176 V
306 5 V
305 19 V
305 57 V
306 85 V
305 122 V
305 165 V
306 175 V
305 195 V
306 202 V
305 198 V
770 1347 M
305 -197 V
306 3 V
305 32 V
305 65 V
306 72 V
305 124 V
305 152 V
306 188 V
305 182 V
306 211 V
305 200 V
770 1331 M
305 -164 V
306 -4 V
305 18 V
305 56 V
306 92 V
305 116 V
305 152 V
306 174 V
305 204 V
306 205 V
305 201 V
770 1378 M
305 -236 V
306 24 V
305 17 V
305 70 V
306 82 V
305 121 V
305 151 V
306 182 V
305 194 V
306 193 V
305 210 V
770 1331 M
305 -191 V
306 41 V
305 39 V
305 56 V
306 86 V
305 154 V
305 149 V
306 180 V
305 196 V
306 202 V
770 1347 M
305 -172 V
306 13 V
305 14 V
305 62 V
306 120 V
305 121 V
305 167 V
306 173 V
305 196 V
306 201 V
770 1347 M
305 -147 V
306 -17 V
305 14 V
305 69 V
306 104 V
305 142 V
305 157 V
306 185 V
305 195 V
306 201 V
770 1354 M
305 -192 V
306 12 V
305 42 V
305 85 V
306 105 V
305 149 V
305 170 V
306 185 V
305 197 V
306 205 V
770 1351 M
305 -190 V
306 24 V
305 29 V
305 85 V
306 111 V
305 146 V
305 170 V
306 185 V
305 199 V
306 204 V
770 1351 M
305 -184 V
306 27 V
305 47 V
305 84 V
306 116 V
305 155 V
305 174 V
306 190 V
305 201 V
306 204 V
770 1338 M
305 -166 V
306 18 V
305 45 V
305 90 V
306 122 V
305 152 V
305 174 V
306 190 V
305 200 V
306 205 V
770 1356 M
305 -167 V
306 19 V
305 47 V
305 91 V
306 132 V
305 168 V
305 172 V
306 188 V
305 202 V
306 204 V
770 1343 M
305 -178 V
306 50 V
305 46 V
305 93 V
306 122 V
305 162 V
305 178 V
306 194 V
305 201 V
770 1361 M
305 -177 V
306 24 V
305 62 V
305 101 V
306 134 V
305 161 V
305 183 V
306 196 V
305 202 V
770 1358 M
305 -167 V
306 32 V
305 55 V
305 117 V
306 135 V
305 169 V
305 183 V
306 197 V
305 203 V
770 1337 M
305 -160 V
306 56 V
305 62 V
305 121 V
306 137 V
305 173 V
305 187 V
306 197 V
305 203 V
770 1351 M
305 -157 V
306 51 V
305 71 V
305 111 V
306 152 V
305 172 V
305 189 V
306 200 V
305 203 V
770 1360 M
305 -163 V
306 48 V
305 79 V
305 123 V
306 163 V
305 167 V
305 188 V
306 200 V
305 204 V
770 1350 M
305 -153 V
306 65 V
305 78 V
305 128 V
306 152 V
305 178 V
305 192 V
306 199 V
305 205 V
770 1360 M
305 -155 V
306 57 V
305 93 V
305 124 V
306 157 V
305 181 V
305 194 V
306 201 V
770 1368 M
305 -150 V
306 43 V
305 106 V
305 130 V
306 160 V
305 180 V
305 196 V
306 201 V
770 1375 M
305 -160 V
306 69 V
305 102 V
305 139 V
306 160 V
305 185 V
305 197 V
stroke 2907 2067 M
306 202 V
770 1378 M
305 -143 V
306 66 V
305 105 V
305 141 V
306 172 V
305 183 V
305 197 V
306 203 V
770 1389 M
305 -157 V
306 75 V
305 119 V
305 134 V
306 170 V
305 189 V
305 197 V
306 203 V
770 1398 M
305 -142 V
306 60 V
305 117 V
305 152 V
306 197 V
305 164 V
305 198 V
306 204 V
770 1389 M
305 -130 V
306 89 V
305 110 V
305 155 V
306 174 V
305 194 V
305 200 V
306 204 V
770 1464 M
305 -186 V
306 74 V
305 128 V
305 153 V
306 178 V
305 193 V
305 200 V
770 1395 M
305 -112 V
306 87 V
305 129 V
305 161 V
306 180 V
305 194 V
305 201 V
770 1408 M
305 -119 V
306 95 V
305 137 V
305 165 V
306 181 V
305 195 V
305 203 V
770 1409 M
305 -85 V
306 83 V
305 135 V
305 163 V
306 187 V
305 197 V
305 201 V
770 1462 M
305 -62 V
306 37 V
305 128 V
305 169 V
306 181 V
305 198 V
305 203 V
770 1540 M
305 -27 V
306 6 V
305 118 V
305 140 V
306 177 V
305 193 V
305 201 V
770 1574 M
305 -19 V
306 18 V
305 94 V
305 142 V
306 172 V
305 193 V
305 201 V
770 1584 M
305 0 V
306 33 V
305 96 V
305 138 V
306 172 V
305 191 V
770 1605 M
305 11 V
306 47 V
305 95 V
305 142 V
306 166 V
305 207 V
770 1629 M
305 25 V
306 70 V
305 95 V
305 150 V
306 183 V
305 191 V
770 1644 M
305 35 V
306 106 V
305 96 V
305 149 V
306 200 V
305 175 V
770 1661 M
305 56 V
306 127 V
305 110 V
305 167 V
306 194 V
305 192 V
770 1685 M
305 69 V
306 149 V
305 111 V
305 193 V
306 204 V
305 204 V
770 1694 M
305 88 V
306 164 V
305 102 V
305 199 V
306 204 V
305 207 V
770 1711 M
305 96 V
306 183 V
305 166 V
305 111 V
306 193 V
305 221 V
770 1729 M
305 108 V
306 189 V
305 192 V
305 177 V
306 150 V
770 1744 M
305 118 V
306 195 V
305 202 V
305 203 V
306 198 V
770 1762 M
305 127 V
306 196 V
305 204 V
305 206 V
306 208 V
770 1787 M
305 129 V
306 198 V
305 204 V
305 206 V
306 209 V
770 1809 M
305 134 V
306 199 V
305 205 V
305 208 V
306 207 V
770 1826 M
305 147 V
306 196 V
305 208 V
305 208 V
306 207 V
770 1851 M
305 145 V
306 202 V
305 206 V
305 210 V
306 208 V
770 1871 M
305 157 V
306 195 V
305 209 V
305 210 V
770 1899 M
305 153 V
306 199 V
305 210 V
305 211 V
770 1915 M
305 163 V
306 202 V
305 211 V
305 210 V
770 2079 M
305 27 V
306 203 V
305 209 V
305 211 V
770 1969 M
305 162 V
306 208 V
305 210 V
305 211 V
770 1992 M
305 169 V
306 206 V
305 213 V
305 210 V
770 2017 M
305 173 V
306 205 V
305 212 V
305 211 V
770 2040 M
305 178 V
306 207 V
305 210 V
770 2068 M
305 178 V
306 207 V
305 211 V
770 2089 M
305 186 V
306 208 V
305 210 V
770 2115 M
305 187 V
306 209 V
305 210 V
770 2141 M
305 189 V
306 210 V
305 212 V
770 2169 M
305 192 V
306 210 V
stroke 1381 2571 M
305 209 V
770 2197 M
305 192 V
306 209 V
305 212 V
770 2223 M
305 192 V
306 212 V
305 212 V
770 2250 M
305 195 V
306 211 V
770 2276 M
305 199 V
306 209 V
770 2305 M
305 199 V
306 210 V
770 2332 M
305 200 V
306 211 V
770 2360 M
305 200 V
306 213 V
770 2388 M
305 201 V
306 213 V
770 2417 M
305 202 V
306 212 V
770 2444 M
305 204 V
770 2472 M
305 205 V
770 2500 M
305 206 V
770 2528 M
305 207 V
770 2559 M
305 207 V
770 2586 M
305 208 V
770 2615 M
305 209 V
770 2645 M
0 27 R
0 30 R
0 30 R
0 26 R
0 29 R
0 31 R
% End plot #1
stroke
2.000 UL
LTb
LCb setrgbcolor
1.000 UL
LTB
LCb setrgbcolor
770 4619 N
770 448 L
6107 0 V
0 4171 V
-6107 0 V
Z stroke
1.000 UP
1.000 UL
LTb
LCb setrgbcolor
stroke
grestore
end
showpage
%%Trailer
%%DocumentFonts: Helvetica
%%Pages: 1
