%!PS-Adobe-2.0
%%Title: Results.daisy.v100/Run.001/FLOPS.002/GPU_Blocks.0160/GPU_Threads.1024/graph2.ps
%%Creator: gnuplot 5.2 patchlevel 7
%%CreationDate: Sun Jan 19 15:21:17 2020
%%DocumentFonts: (atend)
%%BoundingBox: 50 50 554 770
%%Orientation: Landscape
%%Pages: (atend)
%%EndComments
%%BeginProlog
/gnudict 256 dict def
gnudict begin
%
% The following true/false flags may be edited by hand if desired.
% The unit line width and grayscale image gamma correction may also be changed.
%
/Color true def
/Blacktext false def
/Solid false def
/Dashlength 1 def
/Landscape true def
/Level1 false def
/Level3 false def
/Rounded false def
/ClipToBoundingBox false def
/SuppressPDFMark false def
/TransparentPatterns false def
/gnulinewidth 5.000 def
/userlinewidth gnulinewidth def
/Gamma 1.0 def
/BackgroundColor {-1.000 -1.000 -1.000} def
%
/vshift -46 def
/dl1 {
  10.0 Dashlength userlinewidth gnulinewidth div mul mul mul
  Rounded { currentlinewidth 0.75 mul sub dup 0 le { pop 0.01 } if } if
} def
/dl2 {
  10.0 Dashlength userlinewidth gnulinewidth div mul mul mul
  Rounded { currentlinewidth 0.75 mul add } if
} def
/hpt_ 31.5 def
/vpt_ 31.5 def
/hpt hpt_ def
/vpt vpt_ def
/doclip {
  ClipToBoundingBox {
    newpath 50 50 moveto 554 50 lineto 554 770 lineto 50 770 lineto closepath
    clip
  } if
} def
%
% Gnuplot Prolog Version 5.2 (Dec 2017)
%
%/SuppressPDFMark true def
%
/M {moveto} bind def
/L {lineto} bind def
/R {rmoveto} bind def
/V {rlineto} bind def
/N {newpath moveto} bind def
/Z {closepath} bind def
/C {setrgbcolor} bind def
/f {rlineto fill} bind def
/g {setgray} bind def
/Gshow {show} def   % May be redefined later in the file to support UTF-8
/vpt2 vpt 2 mul def
/hpt2 hpt 2 mul def
/Lshow {currentpoint stroke M 0 vshift R 
	Blacktext {gsave 0 setgray textshow grestore} {textshow} ifelse} def
/Rshow {currentpoint stroke M dup stringwidth pop neg vshift R
	Blacktext {gsave 0 setgray textshow grestore} {textshow} ifelse} def
/Cshow {currentpoint stroke M dup stringwidth pop -2 div vshift R 
	Blacktext {gsave 0 setgray textshow grestore} {textshow} ifelse} def
/UP {dup vpt_ mul /vpt exch def hpt_ mul /hpt exch def
  /hpt2 hpt 2 mul def /vpt2 vpt 2 mul def} def
/DL {Color {setrgbcolor Solid {pop []} if 0 setdash}
 {pop pop pop 0 setgray Solid {pop []} if 0 setdash} ifelse} def
/BL {stroke userlinewidth 2 mul setlinewidth
	Rounded {1 setlinejoin 1 setlinecap} if} def
/AL {stroke userlinewidth 2 div setlinewidth
	Rounded {1 setlinejoin 1 setlinecap} if} def
/UL {dup gnulinewidth mul /userlinewidth exch def
	dup 1 lt {pop 1} if 10 mul /udl exch def} def
/PL {stroke userlinewidth setlinewidth
	Rounded {1 setlinejoin 1 setlinecap} if} def
3.8 setmiterlimit
% Classic Line colors (version 5.0)
/LCw {1 1 1} def
/LCb {0 0 0} def
/LCa {0 0 0} def
/LC0 {1 0 0} def
/LC1 {0 1 0} def
/LC2 {0 0 1} def
/LC3 {1 0 1} def
/LC4 {0 1 1} def
/LC5 {1 1 0} def
/LC6 {0 0 0} def
/LC7 {1 0.3 0} def
/LC8 {0.5 0.5 0.5} def
% Default dash patterns (version 5.0)
/LTB {BL [] LCb DL} def
/LTw {PL [] 1 setgray} def
/LTb {PL [] LCb DL} def
/LTa {AL [1 udl mul 2 udl mul] 0 setdash LCa setrgbcolor} def
/LT0 {PL [] LC0 DL} def
/LT1 {PL [2 dl1 3 dl2] LC1 DL} def
/LT2 {PL [1 dl1 1.5 dl2] LC2 DL} def
/LT3 {PL [6 dl1 2 dl2 1 dl1 2 dl2] LC3 DL} def
/LT4 {PL [1 dl1 2 dl2 6 dl1 2 dl2 1 dl1 2 dl2] LC4 DL} def
/LT5 {PL [4 dl1 2 dl2] LC5 DL} def
/LT6 {PL [1.5 dl1 1.5 dl2 1.5 dl1 1.5 dl2 1.5 dl1 6 dl2] LC6 DL} def
/LT7 {PL [3 dl1 3 dl2 1 dl1 3 dl2] LC7 DL} def
/LT8 {PL [2 dl1 2 dl2 2 dl1 6 dl2] LC8 DL} def
/SL {[] 0 setdash} def
/Pnt {stroke [] 0 setdash gsave 1 setlinecap M 0 0 V stroke grestore} def
/Dia {stroke [] 0 setdash 2 copy vpt add M
  hpt neg vpt neg V hpt vpt neg V
  hpt vpt V hpt neg vpt V closepath stroke
  Pnt} def
/Pls {stroke [] 0 setdash vpt sub M 0 vpt2 V
  currentpoint stroke M
  hpt neg vpt neg R hpt2 0 V stroke
 } def
/Box {stroke [] 0 setdash 2 copy exch hpt sub exch vpt add M
  0 vpt2 neg V hpt2 0 V 0 vpt2 V
  hpt2 neg 0 V closepath stroke
  Pnt} def
/Crs {stroke [] 0 setdash exch hpt sub exch vpt add M
  hpt2 vpt2 neg V currentpoint stroke M
  hpt2 neg 0 R hpt2 vpt2 V stroke} def
/TriU {stroke [] 0 setdash 2 copy vpt 1.12 mul add M
  hpt neg vpt -1.62 mul V
  hpt 2 mul 0 V
  hpt neg vpt 1.62 mul V closepath stroke
  Pnt} def
/Star {2 copy Pls Crs} def
/BoxF {stroke [] 0 setdash exch hpt sub exch vpt add M
  0 vpt2 neg V hpt2 0 V 0 vpt2 V
  hpt2 neg 0 V closepath fill} def
/TriUF {stroke [] 0 setdash vpt 1.12 mul add M
  hpt neg vpt -1.62 mul V
  hpt 2 mul 0 V
  hpt neg vpt 1.62 mul V closepath fill} def
/TriD {stroke [] 0 setdash 2 copy vpt 1.12 mul sub M
  hpt neg vpt 1.62 mul V
  hpt 2 mul 0 V
  hpt neg vpt -1.62 mul V closepath stroke
  Pnt} def
/TriDF {stroke [] 0 setdash vpt 1.12 mul sub M
  hpt neg vpt 1.62 mul V
  hpt 2 mul 0 V
  hpt neg vpt -1.62 mul V closepath fill} def
/DiaF {stroke [] 0 setdash vpt add M
  hpt neg vpt neg V hpt vpt neg V
  hpt vpt V hpt neg vpt V closepath fill} def
/Pent {stroke [] 0 setdash 2 copy gsave
  translate 0 hpt M 4 {72 rotate 0 hpt L} repeat
  closepath stroke grestore Pnt} def
/PentF {stroke [] 0 setdash gsave
  translate 0 hpt M 4 {72 rotate 0 hpt L} repeat
  closepath fill grestore} def
/Circle {stroke [] 0 setdash 2 copy
  hpt 0 360 arc stroke Pnt} def
/CircleF {stroke [] 0 setdash hpt 0 360 arc fill} def
/C0 {BL [] 0 setdash 2 copy moveto vpt 90 450 arc} bind def
/C1 {BL [] 0 setdash 2 copy moveto
	2 copy vpt 0 90 arc closepath fill
	vpt 0 360 arc closepath} bind def
/C2 {BL [] 0 setdash 2 copy moveto
	2 copy vpt 90 180 arc closepath fill
	vpt 0 360 arc closepath} bind def
/C3 {BL [] 0 setdash 2 copy moveto
	2 copy vpt 0 180 arc closepath fill
	vpt 0 360 arc closepath} bind def
/C4 {BL [] 0 setdash 2 copy moveto
	2 copy vpt 180 270 arc closepath fill
	vpt 0 360 arc closepath} bind def
/C5 {BL [] 0 setdash 2 copy moveto
	2 copy vpt 0 90 arc
	2 copy moveto
	2 copy vpt 180 270 arc closepath fill
	vpt 0 360 arc} bind def
/C6 {BL [] 0 setdash 2 copy moveto
	2 copy vpt 90 270 arc closepath fill
	vpt 0 360 arc closepath} bind def
/C7 {BL [] 0 setdash 2 copy moveto
	2 copy vpt 0 270 arc closepath fill
	vpt 0 360 arc closepath} bind def
/C8 {BL [] 0 setdash 2 copy moveto
	2 copy vpt 270 360 arc closepath fill
	vpt 0 360 arc closepath} bind def
/C9 {BL [] 0 setdash 2 copy moveto
	2 copy vpt 270 450 arc closepath fill
	vpt 0 360 arc closepath} bind def
/C10 {BL [] 0 setdash 2 copy 2 copy moveto vpt 270 360 arc closepath fill
	2 copy moveto
	2 copy vpt 90 180 arc closepath fill
	vpt 0 360 arc closepath} bind def
/C11 {BL [] 0 setdash 2 copy moveto
	2 copy vpt 0 180 arc closepath fill
	2 copy moveto
	2 copy vpt 270 360 arc closepath fill
	vpt 0 360 arc closepath} bind def
/C12 {BL [] 0 setdash 2 copy moveto
	2 copy vpt 180 360 arc closepath fill
	vpt 0 360 arc closepath} bind def
/C13 {BL [] 0 setdash 2 copy moveto
	2 copy vpt 0 90 arc closepath fill
	2 copy moveto
	2 copy vpt 180 360 arc closepath fill
	vpt 0 360 arc closepath} bind def
/C14 {BL [] 0 setdash 2 copy moveto
	2 copy vpt 90 360 arc closepath fill
	vpt 0 360 arc} bind def
/C15 {BL [] 0 setdash 2 copy vpt 0 360 arc closepath fill
	vpt 0 360 arc closepath} bind def
/Rec {newpath 4 2 roll moveto 1 index 0 rlineto 0 exch rlineto
	neg 0 rlineto closepath} bind def
/Square {dup Rec} bind def
/Bsquare {vpt sub exch vpt sub exch vpt2 Square} bind def
/S0 {BL [] 0 setdash 2 copy moveto 0 vpt rlineto BL Bsquare} bind def
/S1 {BL [] 0 setdash 2 copy vpt Square fill Bsquare} bind def
/S2 {BL [] 0 setdash 2 copy exch vpt sub exch vpt Square fill Bsquare} bind def
/S3 {BL [] 0 setdash 2 copy exch vpt sub exch vpt2 vpt Rec fill Bsquare} bind def
/S4 {BL [] 0 setdash 2 copy exch vpt sub exch vpt sub vpt Square fill Bsquare} bind def
/S5 {BL [] 0 setdash 2 copy 2 copy vpt Square fill
	exch vpt sub exch vpt sub vpt Square fill Bsquare} bind def
/S6 {BL [] 0 setdash 2 copy exch vpt sub exch vpt sub vpt vpt2 Rec fill Bsquare} bind def
/S7 {BL [] 0 setdash 2 copy exch vpt sub exch vpt sub vpt vpt2 Rec fill
	2 copy vpt Square fill Bsquare} bind def
/S8 {BL [] 0 setdash 2 copy vpt sub vpt Square fill Bsquare} bind def
/S9 {BL [] 0 setdash 2 copy vpt sub vpt vpt2 Rec fill Bsquare} bind def
/S10 {BL [] 0 setdash 2 copy vpt sub vpt Square fill 2 copy exch vpt sub exch vpt Square fill
	Bsquare} bind def
/S11 {BL [] 0 setdash 2 copy vpt sub vpt Square fill 2 copy exch vpt sub exch vpt2 vpt Rec fill
	Bsquare} bind def
/S12 {BL [] 0 setdash 2 copy exch vpt sub exch vpt sub vpt2 vpt Rec fill Bsquare} bind def
/S13 {BL [] 0 setdash 2 copy exch vpt sub exch vpt sub vpt2 vpt Rec fill
	2 copy vpt Square fill Bsquare} bind def
/S14 {BL [] 0 setdash 2 copy exch vpt sub exch vpt sub vpt2 vpt Rec fill
	2 copy exch vpt sub exch vpt Square fill Bsquare} bind def
/S15 {BL [] 0 setdash 2 copy Bsquare fill Bsquare} bind def
/D0 {gsave translate 45 rotate 0 0 S0 stroke grestore} bind def
/D1 {gsave translate 45 rotate 0 0 S1 stroke grestore} bind def
/D2 {gsave translate 45 rotate 0 0 S2 stroke grestore} bind def
/D3 {gsave translate 45 rotate 0 0 S3 stroke grestore} bind def
/D4 {gsave translate 45 rotate 0 0 S4 stroke grestore} bind def
/D5 {gsave translate 45 rotate 0 0 S5 stroke grestore} bind def
/D6 {gsave translate 45 rotate 0 0 S6 stroke grestore} bind def
/D7 {gsave translate 45 rotate 0 0 S7 stroke grestore} bind def
/D8 {gsave translate 45 rotate 0 0 S8 stroke grestore} bind def
/D9 {gsave translate 45 rotate 0 0 S9 stroke grestore} bind def
/D10 {gsave translate 45 rotate 0 0 S10 stroke grestore} bind def
/D11 {gsave translate 45 rotate 0 0 S11 stroke grestore} bind def
/D12 {gsave translate 45 rotate 0 0 S12 stroke grestore} bind def
/D13 {gsave translate 45 rotate 0 0 S13 stroke grestore} bind def
/D14 {gsave translate 45 rotate 0 0 S14 stroke grestore} bind def
/D15 {gsave translate 45 rotate 0 0 S15 stroke grestore} bind def
/DiaE {stroke [] 0 setdash vpt add M
  hpt neg vpt neg V hpt vpt neg V
  hpt vpt V hpt neg vpt V closepath stroke} def
/BoxE {stroke [] 0 setdash exch hpt sub exch vpt add M
  0 vpt2 neg V hpt2 0 V 0 vpt2 V
  hpt2 neg 0 V closepath stroke} def
/TriUE {stroke [] 0 setdash vpt 1.12 mul add M
  hpt neg vpt -1.62 mul V
  hpt 2 mul 0 V
  hpt neg vpt 1.62 mul V closepath stroke} def
/TriDE {stroke [] 0 setdash vpt 1.12 mul sub M
  hpt neg vpt 1.62 mul V
  hpt 2 mul 0 V
  hpt neg vpt -1.62 mul V closepath stroke} def
/PentE {stroke [] 0 setdash gsave
  translate 0 hpt M 4 {72 rotate 0 hpt L} repeat
  closepath stroke grestore} def
/CircE {stroke [] 0 setdash 
  hpt 0 360 arc stroke} def
/Opaque {gsave closepath 1 setgray fill grestore 0 setgray closepath} def
/DiaW {stroke [] 0 setdash vpt add M
  hpt neg vpt neg V hpt vpt neg V
  hpt vpt V hpt neg vpt V Opaque stroke} def
/BoxW {stroke [] 0 setdash exch hpt sub exch vpt add M
  0 vpt2 neg V hpt2 0 V 0 vpt2 V
  hpt2 neg 0 V Opaque stroke} def
/TriUW {stroke [] 0 setdash vpt 1.12 mul add M
  hpt neg vpt -1.62 mul V
  hpt 2 mul 0 V
  hpt neg vpt 1.62 mul V Opaque stroke} def
/TriDW {stroke [] 0 setdash vpt 1.12 mul sub M
  hpt neg vpt 1.62 mul V
  hpt 2 mul 0 V
  hpt neg vpt -1.62 mul V Opaque stroke} def
/PentW {stroke [] 0 setdash gsave
  translate 0 hpt M 4 {72 rotate 0 hpt L} repeat
  Opaque stroke grestore} def
/CircW {stroke [] 0 setdash 
  hpt 0 360 arc Opaque stroke} def
/BoxFill {gsave Rec 1 setgray fill grestore} def
/Density {
  /Fillden exch def
  currentrgbcolor
  /ColB exch def /ColG exch def /ColR exch def
  /ColR ColR Fillden mul Fillden sub 1 add def
  /ColG ColG Fillden mul Fillden sub 1 add def
  /ColB ColB Fillden mul Fillden sub 1 add def
  ColR ColG ColB setrgbcolor} def
/BoxColFill {gsave Rec PolyFill} def
/PolyFill {gsave Density fill grestore grestore} def
/h {rlineto rlineto rlineto closepath gsave fill grestore stroke} bind def
%
% PostScript Level 1 Pattern Fill routine for rectangles
% Usage: x y w h s a XX PatternFill
%	x,y = lower left corner of box to be filled
%	w,h = width and height of box
%	  a = angle in degrees between lines and x-axis
%	 XX = 0/1 for no/yes cross-hatch
%
/PatternFill {gsave /PFa [ 9 2 roll ] def
  PFa 0 get PFa 2 get 2 div add PFa 1 get PFa 3 get 2 div add translate
  PFa 2 get -2 div PFa 3 get -2 div PFa 2 get PFa 3 get Rec
  TransparentPatterns {} {gsave 1 setgray fill grestore} ifelse
  clip
  currentlinewidth 0.5 mul setlinewidth
  /PFs PFa 2 get dup mul PFa 3 get dup mul add sqrt def
  0 0 M PFa 5 get rotate PFs -2 div dup translate
  0 1 PFs PFa 4 get div 1 add floor cvi
	{PFa 4 get mul 0 M 0 PFs V} for
  0 PFa 6 get ne {
	0 1 PFs PFa 4 get div 1 add floor cvi
	{PFa 4 get mul 0 2 1 roll M PFs 0 V} for
 } if
  stroke grestore} def
%
/languagelevel where
 {pop languagelevel} {1} ifelse
dup 2 lt
	{/InterpretLevel1 true def
	 /InterpretLevel3 false def}
	{/InterpretLevel1 Level1 def
	 2 gt
	    {/InterpretLevel3 Level3 def}
	    {/InterpretLevel3 false def}
	 ifelse }
 ifelse
%
% PostScript level 2 pattern fill definitions
%
/Level2PatternFill {
/Tile8x8 {/PaintType 2 /PatternType 1 /TilingType 1 /BBox [0 0 8 8] /XStep 8 /YStep 8}
	bind def
/KeepColor {currentrgbcolor [/Pattern /DeviceRGB] setcolorspace} bind def
<< Tile8x8
 /PaintProc {0.5 setlinewidth pop 0 0 M 8 8 L 0 8 M 8 0 L stroke} 
>> matrix makepattern
/Pat1 exch def
<< Tile8x8
 /PaintProc {0.5 setlinewidth pop 0 0 M 8 8 L 0 8 M 8 0 L stroke
	0 4 M 4 8 L 8 4 L 4 0 L 0 4 L stroke}
>> matrix makepattern
/Pat2 exch def
<< Tile8x8
 /PaintProc {0.5 setlinewidth pop 0 0 M 0 8 L
	8 8 L 8 0 L 0 0 L fill}
>> matrix makepattern
/Pat3 exch def
<< Tile8x8
 /PaintProc {0.5 setlinewidth pop -4 8 M 8 -4 L
	0 12 M 12 0 L stroke}
>> matrix makepattern
/Pat4 exch def
<< Tile8x8
 /PaintProc {0.5 setlinewidth pop -4 0 M 8 12 L
	0 -4 M 12 8 L stroke}
>> matrix makepattern
/Pat5 exch def
<< Tile8x8
 /PaintProc {0.5 setlinewidth pop -2 8 M 4 -4 L
	0 12 M 8 -4 L 4 12 M 10 0 L stroke}
>> matrix makepattern
/Pat6 exch def
<< Tile8x8
 /PaintProc {0.5 setlinewidth pop -2 0 M 4 12 L
	0 -4 M 8 12 L 4 -4 M 10 8 L stroke}
>> matrix makepattern
/Pat7 exch def
<< Tile8x8
 /PaintProc {0.5 setlinewidth pop 8 -2 M -4 4 L
	12 0 M -4 8 L 12 4 M 0 10 L stroke}
>> matrix makepattern
/Pat8 exch def
<< Tile8x8
 /PaintProc {0.5 setlinewidth pop 0 -2 M 12 4 L
	-4 0 M 12 8 L -4 4 M 8 10 L stroke}
>> matrix makepattern
/Pat9 exch def
/Pattern1 {PatternBgnd KeepColor Pat1 setpattern} bind def
/Pattern2 {PatternBgnd KeepColor Pat2 setpattern} bind def
/Pattern3 {PatternBgnd KeepColor Pat3 setpattern} bind def
/Pattern4 {PatternBgnd KeepColor Landscape {Pat5} {Pat4} ifelse setpattern} bind def
/Pattern5 {PatternBgnd KeepColor Landscape {Pat4} {Pat5} ifelse setpattern} bind def
/Pattern6 {PatternBgnd KeepColor Landscape {Pat9} {Pat6} ifelse setpattern} bind def
/Pattern7 {PatternBgnd KeepColor Landscape {Pat8} {Pat7} ifelse setpattern} bind def
} def
%
%
%End of PostScript Level 2 code
%
/PatternBgnd {
  TransparentPatterns {} {gsave 1 setgray fill grestore} ifelse
} def
%
% Substitute for Level 2 pattern fill codes with
% grayscale if Level 2 support is not selected.
%
/Level1PatternFill {
/Pattern1 {0.250 Density} bind def
/Pattern2 {0.500 Density} bind def
/Pattern3 {0.750 Density} bind def
/Pattern4 {0.125 Density} bind def
/Pattern5 {0.375 Density} bind def
/Pattern6 {0.625 Density} bind def
/Pattern7 {0.875 Density} bind def
} def
%
% Now test for support of Level 2 code
%
Level1 {Level1PatternFill} {Level2PatternFill} ifelse
%
/Symbol-Oblique /Symbol findfont [1 0 .167 1 0 0] makefont
dup length dict begin {1 index /FID eq {pop pop} {def} ifelse} forall
currentdict end definefont pop
%
/Metrics {ExtendTextBox Gswidth} def
/Lwidth {currentpoint stroke M 0 vshift R Metrics} def
/Rwidth {currentpoint stroke M dup stringwidth pop neg vshift R Metrics} def
/Cwidth {currentpoint stroke M dup stringwidth pop -2 div vshift R Metrics} def
/GLwidth {currentpoint stroke M 0 vshift R {ExtendTextBox} forall} def
/GRwidth {currentpoint stroke M dup Gwidth vshift R {ExtendTextBox} forall} def
/GCwidth {currentpoint stroke M dup Gwidth 2 div vshift R {ExtendTextBox} forall} def
/GLwidth2 {0 Gwidth AddGlyphWidth} def
/GRwidth2 {Gwidth -1 mul 0 AddGlyphWidth} def
/GCwidth2 {Gwidth 2 div dup -1 mul AddGlyphWidth} def
/AddGlyphWidth { dup TBx2 gt {userdict /TBx2 3 -1 roll put} {pop} ifelse
                 dup TBx1 lt {userdict /TBx1 3 -1 roll put} {pop} ifelse } def
/MFshow {
   { dup 5 get 3 ge
     { 5 get 3 eq {gsave} {grestore} ifelse }
     {dup dup 0 get findfont exch 1 get scalefont setfont
     [ currentpoint ] exch dup 2 get 0 exch R dup 5 get 2 ne {dup dup 6
     get exch 4 get {textshow} {Metrics pop 0 R} ifelse }if dup 5 get 0 eq
     {dup 3 get {2 get neg 0 exch R pop} {pop aload pop M} ifelse} {dup 5
     get 1 eq {dup 2 get exch dup 3 get exch 6 get Gswidth pop -2 div
     dup 0 R} {dup 6 get Gswidth pop -2 div 0 R 6 get
     textshow 2 index {aload pop M neg 3 -1 roll neg R pop pop} {pop pop pop
     pop aload pop M} ifelse }ifelse }ifelse }
     ifelse }
   forall} def
/Gswidth {dup type /stringtype eq {stringwidth} {pop (n) stringwidth} ifelse} def
/MFwidth {0 exch { dup 5 get 3 ge { 5 get 3 eq { 0 } { pop } ifelse }
 {dup 3 get{dup dup 0 get findfont exch 1 get scalefont setfont
     6 get Gswidth pop add} {pop} ifelse} ifelse} forall} def
/MLshow { currentpoint stroke M
  0 exch R
  Blacktext {gsave 0 setgray MFshow grestore} {MFshow} ifelse } bind def
/MRshow { currentpoint stroke M
  exch dup MFwidth neg 3 -1 roll R
  Blacktext {gsave 0 setgray MFshow grestore} {MFshow} ifelse } bind def
/MCshow { currentpoint stroke M
  exch dup MFwidth -2 div 3 -1 roll R
  Blacktext {gsave 0 setgray MFshow grestore} {MFshow} ifelse } bind def
/XYsave    { [( ) 1 2 true false 3 ()] } bind def
/XYrestore { [( ) 1 2 true false 4 ()] } bind def
Level1 SuppressPDFMark or 
{} {
/SDict 10 dict def
systemdict /pdfmark known not {
  userdict /pdfmark systemdict /cleartomark get put
} if
SDict begin [
  /Title (Results.daisy.v100/Run.001/FLOPS.002/GPU_Blocks.0160/GPU_Threads.1024/graph2.ps)
  /Subject (gnuplot plot)
  /Creator (gnuplot 5.2 patchlevel 7)
%  /Producer (gnuplot)
%  /Keywords ()
  /CreationDate (Sun Jan 19 15:21:17 2020)
  /DOCINFO pdfmark
end
} ifelse
%
% Support for boxed text - Ethan A Merritt Sep 2016
%
/InitTextBox { userdict /TBy2 3 -1 roll put userdict /TBx2 3 -1 roll put
           userdict /TBy1 3 -1 roll put userdict /TBx1 3 -1 roll put
	   /Boxing true def } def
/ExtendTextBox { dup type /stringtype eq
    { Boxing { gsave dup false charpath pathbbox
      dup TBy2 gt {userdict /TBy2 3 -1 roll put} {pop} ifelse
      dup TBx2 gt {userdict /TBx2 3 -1 roll put} {pop} ifelse
      dup TBy1 lt {userdict /TBy1 3 -1 roll put} {pop} ifelse
      dup TBx1 lt {userdict /TBx1 3 -1 roll put} {pop} ifelse
      grestore } if }
    {} ifelse} def
/PopTextBox { newpath TBx1 TBxmargin sub TBy1 TBymargin sub M
               TBx1 TBxmargin sub TBy2 TBymargin add L
	       TBx2 TBxmargin add TBy2 TBymargin add L
	       TBx2 TBxmargin add TBy1 TBymargin sub L closepath } def
/DrawTextBox { PopTextBox stroke /Boxing false def} def
/FillTextBox { gsave PopTextBox fill grestore /Boxing false def} def
0 0 0 0 InitTextBox
/TBxmargin 20 def
/TBymargin 20 def
/Boxing false def
/textshow { ExtendTextBox Gshow } def
%
end
%%EndProlog
%%Page: 1 1
gnudict begin
gsave
doclip
50 50 translate
0.100 0.100 scale
90 rotate
0 -5040 translate
0 setgray
newpath
(Helvetica) findfont 140 scalefont setfont
BackgroundColor 0 lt 3 1 roll 0 lt exch 0 lt or or not {gsave BackgroundColor C clippath fill grestore} if
1.000 UL
LTb
LCb setrgbcolor
1.000 UL
LTa
LCa setrgbcolor
770 448 M
6107 0 V
stroke
LTb
LCb setrgbcolor
770 448 M
63 0 V
6044 0 R
-63 0 V
stroke
686 448 M
[ [(Helvetica) 140.0 0.0 true true 0 (1e-02)]
] -46.7 MRshow
/Helvetica findfont 140 scalefont setfont
/vshift -46 def
1.000 UL
LTb
LCb setrgbcolor
1.000 UL
LTa
LCa setrgbcolor
770 657 M
6107 0 V
stroke
LTb
LCb setrgbcolor
770 657 M
31 0 V
6076 0 R
-31 0 V
stroke
LTa
LCa setrgbcolor
770 780 M
6107 0 V
stroke
LTb
LCb setrgbcolor
770 780 M
31 0 V
6076 0 R
-31 0 V
stroke
LTa
LCa setrgbcolor
770 867 M
6107 0 V
stroke
LTb
LCb setrgbcolor
770 867 M
31 0 V
6076 0 R
-31 0 V
stroke
LTa
LCa setrgbcolor
770 934 M
6107 0 V
stroke
LTb
LCb setrgbcolor
770 934 M
31 0 V
6076 0 R
-31 0 V
stroke
LTa
LCa setrgbcolor
770 989 M
6107 0 V
stroke
LTb
LCb setrgbcolor
770 989 M
31 0 V
6076 0 R
-31 0 V
stroke
LTa
LCa setrgbcolor
770 1035 M
6107 0 V
stroke
LTb
LCb setrgbcolor
770 1035 M
31 0 V
6076 0 R
-31 0 V
stroke
LTa
LCa setrgbcolor
770 1076 M
6107 0 V
stroke
LTb
LCb setrgbcolor
770 1076 M
31 0 V
6076 0 R
-31 0 V
stroke
LTa
LCa setrgbcolor
770 1111 M
6107 0 V
stroke
LTb
LCb setrgbcolor
770 1111 M
31 0 V
6076 0 R
-31 0 V
stroke
LTa
LCa setrgbcolor
770 1143 M
6107 0 V
stroke
LTb
LCb setrgbcolor
770 1143 M
63 0 V
6044 0 R
-63 0 V
stroke
686 1143 M
[ [(Helvetica) 140.0 0.0 true true 0 (1e-01)]
] -46.7 MRshow
/Helvetica findfont 140 scalefont setfont
1.000 UL
LTb
LCb setrgbcolor
1.000 UL
LTa
LCa setrgbcolor
770 1352 M
6107 0 V
stroke
LTb
LCb setrgbcolor
770 1352 M
31 0 V
6076 0 R
-31 0 V
stroke
LTa
LCa setrgbcolor
770 1475 M
6107 0 V
stroke
LTb
LCb setrgbcolor
770 1475 M
31 0 V
6076 0 R
-31 0 V
stroke
LTa
LCa setrgbcolor
770 1562 M
6107 0 V
stroke
LTb
LCb setrgbcolor
770 1562 M
31 0 V
6076 0 R
-31 0 V
stroke
LTa
LCa setrgbcolor
770 1629 M
6107 0 V
stroke
LTb
LCb setrgbcolor
770 1629 M
31 0 V
6076 0 R
-31 0 V
stroke
LTa
LCa setrgbcolor
770 1684 M
6107 0 V
stroke
LTb
LCb setrgbcolor
770 1684 M
31 0 V
6076 0 R
-31 0 V
stroke
LTa
LCa setrgbcolor
770 1731 M
6107 0 V
stroke
LTb
LCb setrgbcolor
770 1731 M
31 0 V
6076 0 R
-31 0 V
stroke
LTa
LCa setrgbcolor
770 1771 M
6107 0 V
stroke
LTb
LCb setrgbcolor
770 1771 M
31 0 V
6076 0 R
-31 0 V
stroke
LTa
LCa setrgbcolor
770 1807 M
6107 0 V
stroke
LTb
LCb setrgbcolor
770 1807 M
31 0 V
6076 0 R
-31 0 V
stroke
LTa
LCa setrgbcolor
770 1838 M
6107 0 V
stroke
LTb
LCb setrgbcolor
770 1838 M
63 0 V
6044 0 R
-63 0 V
stroke
686 1838 M
[ [(Helvetica) 140.0 0.0 true true 0 (1e+00)]
] -46.7 MRshow
/Helvetica findfont 140 scalefont setfont
1.000 UL
LTb
LCb setrgbcolor
1.000 UL
LTa
LCa setrgbcolor
770 2048 M
6107 0 V
stroke
LTb
LCb setrgbcolor
770 2048 M
31 0 V
6076 0 R
-31 0 V
stroke
LTa
LCa setrgbcolor
770 2170 M
6107 0 V
stroke
LTb
LCb setrgbcolor
770 2170 M
31 0 V
6076 0 R
-31 0 V
stroke
LTa
LCa setrgbcolor
770 2257 M
6107 0 V
stroke
LTb
LCb setrgbcolor
770 2257 M
31 0 V
6076 0 R
-31 0 V
stroke
LTa
LCa setrgbcolor
770 2324 M
6107 0 V
stroke
LTb
LCb setrgbcolor
770 2324 M
31 0 V
6076 0 R
-31 0 V
stroke
LTa
LCa setrgbcolor
770 2379 M
6107 0 V
stroke
LTb
LCb setrgbcolor
770 2379 M
31 0 V
6076 0 R
-31 0 V
stroke
LTa
LCa setrgbcolor
770 2426 M
6107 0 V
stroke
LTb
LCb setrgbcolor
770 2426 M
31 0 V
6076 0 R
-31 0 V
stroke
LTa
LCa setrgbcolor
770 2466 M
6107 0 V
stroke
LTb
LCb setrgbcolor
770 2466 M
31 0 V
6076 0 R
-31 0 V
stroke
LTa
LCa setrgbcolor
770 2502 M
6107 0 V
stroke
LTb
LCb setrgbcolor
770 2502 M
31 0 V
6076 0 R
-31 0 V
stroke
LTa
LCa setrgbcolor
770 2534 M
6107 0 V
stroke
LTb
LCb setrgbcolor
770 2534 M
63 0 V
6044 0 R
-63 0 V
stroke
686 2534 M
[ [(Helvetica) 140.0 0.0 true true 0 (1e+01)]
] -46.7 MRshow
/Helvetica findfont 140 scalefont setfont
1.000 UL
LTb
LCb setrgbcolor
1.000 UL
LTa
LCa setrgbcolor
770 2743 M
6107 0 V
stroke
LTb
LCb setrgbcolor
770 2743 M
31 0 V
6076 0 R
-31 0 V
stroke
LTa
LCa setrgbcolor
770 2865 M
6107 0 V
stroke
LTb
LCb setrgbcolor
770 2865 M
31 0 V
6076 0 R
-31 0 V
stroke
LTa
LCa setrgbcolor
770 2952 M
6107 0 V
stroke
LTb
LCb setrgbcolor
770 2952 M
31 0 V
6076 0 R
-31 0 V
stroke
LTa
LCa setrgbcolor
770 3019 M
6107 0 V
stroke
LTb
LCb setrgbcolor
770 3019 M
31 0 V
6076 0 R
-31 0 V
stroke
LTa
LCa setrgbcolor
770 3074 M
6107 0 V
stroke
LTb
LCb setrgbcolor
770 3074 M
31 0 V
6076 0 R
-31 0 V
stroke
LTa
LCa setrgbcolor
770 3121 M
6107 0 V
stroke
LTb
LCb setrgbcolor
770 3121 M
31 0 V
6076 0 R
-31 0 V
stroke
LTa
LCa setrgbcolor
770 3161 M
6107 0 V
stroke
LTb
LCb setrgbcolor
770 3161 M
31 0 V
6076 0 R
-31 0 V
stroke
LTa
LCa setrgbcolor
770 3197 M
6107 0 V
stroke
LTb
LCb setrgbcolor
770 3197 M
31 0 V
6076 0 R
-31 0 V
stroke
LTa
LCa setrgbcolor
770 3229 M
6107 0 V
stroke
LTb
LCb setrgbcolor
770 3229 M
63 0 V
6044 0 R
-63 0 V
stroke
686 3229 M
[ [(Helvetica) 140.0 0.0 true true 0 (1e+02)]
] -46.7 MRshow
/Helvetica findfont 140 scalefont setfont
1.000 UL
LTb
LCb setrgbcolor
1.000 UL
LTa
LCa setrgbcolor
770 3438 M
6107 0 V
stroke
LTb
LCb setrgbcolor
770 3438 M
31 0 V
6076 0 R
-31 0 V
stroke
LTa
LCa setrgbcolor
770 3560 M
6107 0 V
stroke
LTb
LCb setrgbcolor
770 3560 M
31 0 V
6076 0 R
-31 0 V
stroke
LTa
LCa setrgbcolor
770 3647 M
6107 0 V
stroke
LTb
LCb setrgbcolor
770 3647 M
31 0 V
6076 0 R
-31 0 V
stroke
LTa
LCa setrgbcolor
770 3715 M
6107 0 V
stroke
LTb
LCb setrgbcolor
770 3715 M
31 0 V
6076 0 R
-31 0 V
stroke
LTa
LCa setrgbcolor
770 3770 M
6107 0 V
stroke
LTb
LCb setrgbcolor
770 3770 M
31 0 V
6076 0 R
-31 0 V
stroke
LTa
LCa setrgbcolor
770 3816 M
6107 0 V
stroke
LTb
LCb setrgbcolor
770 3816 M
31 0 V
6076 0 R
-31 0 V
stroke
LTa
LCa setrgbcolor
770 3856 M
6107 0 V
stroke
LTb
LCb setrgbcolor
770 3856 M
31 0 V
6076 0 R
-31 0 V
stroke
LTa
LCa setrgbcolor
770 3892 M
6107 0 V
stroke
LTb
LCb setrgbcolor
770 3892 M
31 0 V
6076 0 R
-31 0 V
stroke
LTa
LCa setrgbcolor
770 3924 M
6107 0 V
stroke
LTb
LCb setrgbcolor
770 3924 M
63 0 V
6044 0 R
-63 0 V
stroke
686 3924 M
[ [(Helvetica) 140.0 0.0 true true 0 (1e+03)]
] -46.7 MRshow
/Helvetica findfont 140 scalefont setfont
1.000 UL
LTb
LCb setrgbcolor
1.000 UL
LTa
LCa setrgbcolor
770 4133 M
6107 0 V
stroke
LTb
LCb setrgbcolor
770 4133 M
31 0 V
6076 0 R
-31 0 V
stroke
LTa
LCa setrgbcolor
770 4256 M
6107 0 V
stroke
LTb
LCb setrgbcolor
770 4256 M
31 0 V
6076 0 R
-31 0 V
stroke
LTa
LCa setrgbcolor
770 4342 M
6107 0 V
stroke
LTb
LCb setrgbcolor
770 4342 M
31 0 V
6076 0 R
-31 0 V
stroke
LTa
LCa setrgbcolor
770 4410 M
6107 0 V
stroke
LTb
LCb setrgbcolor
770 4410 M
31 0 V
6076 0 R
-31 0 V
stroke
LTa
LCa setrgbcolor
770 4465 M
6107 0 V
stroke
LTb
LCb setrgbcolor
770 4465 M
31 0 V
6076 0 R
-31 0 V
stroke
LTa
LCa setrgbcolor
770 4511 M
6107 0 V
stroke
LTb
LCb setrgbcolor
770 4511 M
31 0 V
6076 0 R
-31 0 V
stroke
LTa
LCa setrgbcolor
770 4552 M
6107 0 V
stroke
LTb
LCb setrgbcolor
770 4552 M
31 0 V
6076 0 R
-31 0 V
stroke
LTa
LCa setrgbcolor
770 4587 M
6107 0 V
stroke
LTb
LCb setrgbcolor
770 4587 M
31 0 V
6076 0 R
-31 0 V
stroke
LTa
LCa setrgbcolor
770 4619 M
6107 0 V
stroke
LTb
LCb setrgbcolor
770 4619 M
63 0 V
6044 0 R
-63 0 V
stroke
686 4619 M
[ [(Helvetica) 140.0 0.0 true true 0 (1e+04)]
] -46.7 MRshow
/Helvetica findfont 140 scalefont setfont
1.000 UL
LTb
LCb setrgbcolor
1.000 UL
LTa
LCa setrgbcolor
1067 448 M
0 4171 V
stroke
LTb
LCb setrgbcolor
1067 448 M
0 31 V
0 4140 R
0 -31 V
stroke
LTa
LCa setrgbcolor
1246 448 M
0 4171 V
stroke
LTb
LCb setrgbcolor
1246 448 M
0 31 V
0 4140 R
0 -31 V
stroke
LTa
LCa setrgbcolor
1374 448 M
0 4171 V
stroke
LTb
LCb setrgbcolor
1374 448 M
0 31 V
0 4140 R
0 -31 V
stroke
LTa
LCa setrgbcolor
1473 448 M
0 4171 V
stroke
LTb
LCb setrgbcolor
1473 448 M
0 31 V
0 4140 R
0 -31 V
stroke
LTa
LCa setrgbcolor
1553 448 M
0 4171 V
stroke
LTb
LCb setrgbcolor
1553 448 M
0 31 V
0 4140 R
0 -31 V
stroke
LTa
LCa setrgbcolor
1622 448 M
0 4171 V
stroke
LTb
LCb setrgbcolor
1622 448 M
0 31 V
0 4140 R
0 -31 V
stroke
LTa
LCa setrgbcolor
1681 448 M
0 4171 V
stroke
LTb
LCb setrgbcolor
1681 448 M
0 31 V
0 4140 R
0 -31 V
stroke
LTa
LCa setrgbcolor
1733 448 M
0 4171 V
stroke
LTb
LCb setrgbcolor
1733 448 M
0 31 V
0 4140 R
0 -31 V
stroke
LTa
LCa setrgbcolor
1780 448 M
0 4171 V
stroke
LTb
LCb setrgbcolor
1780 448 M
0 63 V
0 4108 R
0 -63 V
stroke
1780 308 M
[ [(Helvetica) 140.0 0.0 true true 0 (1e+04)]
] -46.7 MCshow
/Helvetica findfont 140 scalefont setfont
1.000 UL
LTb
LCb setrgbcolor
1.000 UL
LTa
LCa setrgbcolor
2087 448 M
0 4171 V
stroke
LTb
LCb setrgbcolor
2087 448 M
0 31 V
0 4140 R
0 -31 V
stroke
LTa
LCa setrgbcolor
2266 448 M
0 4171 V
stroke
LTb
LCb setrgbcolor
2266 448 M
0 31 V
0 4140 R
0 -31 V
stroke
LTa
LCa setrgbcolor
2394 448 M
0 4171 V
stroke
LTb
LCb setrgbcolor
2394 448 M
0 31 V
0 4140 R
0 -31 V
stroke
LTa
LCa setrgbcolor
2493 448 M
0 4171 V
stroke
LTb
LCb setrgbcolor
2493 448 M
0 31 V
0 4140 R
0 -31 V
stroke
LTa
LCa setrgbcolor
2573 448 M
0 4171 V
stroke
LTb
LCb setrgbcolor
2573 448 M
0 31 V
0 4140 R
0 -31 V
stroke
LTa
LCa setrgbcolor
2642 448 M
0 4171 V
stroke
LTb
LCb setrgbcolor
2642 448 M
0 31 V
0 4140 R
0 -31 V
stroke
LTa
LCa setrgbcolor
2701 448 M
0 4171 V
stroke
LTb
LCb setrgbcolor
2701 448 M
0 31 V
0 4140 R
0 -31 V
stroke
LTa
LCa setrgbcolor
2753 448 M
0 4171 V
stroke
LTb
LCb setrgbcolor
2753 448 M
0 31 V
0 4140 R
0 -31 V
stroke
LTa
LCa setrgbcolor
2800 448 M
0 4171 V
stroke
LTb
LCb setrgbcolor
2800 448 M
0 63 V
0 4108 R
0 -63 V
stroke
2800 308 M
[ [(Helvetica) 140.0 0.0 true true 0 (1e+05)]
] -46.7 MCshow
/Helvetica findfont 140 scalefont setfont
1.000 UL
LTb
LCb setrgbcolor
1.000 UL
LTa
LCa setrgbcolor
3107 448 M
0 4171 V
stroke
LTb
LCb setrgbcolor
3107 448 M
0 31 V
0 4140 R
0 -31 V
stroke
LTa
LCa setrgbcolor
3286 448 M
0 4171 V
stroke
LTb
LCb setrgbcolor
3286 448 M
0 31 V
0 4140 R
0 -31 V
stroke
LTa
LCa setrgbcolor
3414 448 M
0 4171 V
stroke
LTb
LCb setrgbcolor
3414 448 M
0 31 V
0 4140 R
0 -31 V
stroke
LTa
LCa setrgbcolor
3513 448 M
0 4171 V
stroke
LTb
LCb setrgbcolor
3513 448 M
0 31 V
0 4140 R
0 -31 V
stroke
LTa
LCa setrgbcolor
3593 448 M
0 4171 V
stroke
LTb
LCb setrgbcolor
3593 448 M
0 31 V
0 4140 R
0 -31 V
stroke
LTa
LCa setrgbcolor
3662 448 M
0 4171 V
stroke
LTb
LCb setrgbcolor
3662 448 M
0 31 V
0 4140 R
0 -31 V
stroke
LTa
LCa setrgbcolor
3721 448 M
0 4171 V
stroke
LTb
LCb setrgbcolor
3721 448 M
0 31 V
0 4140 R
0 -31 V
stroke
LTa
LCa setrgbcolor
3773 448 M
0 4171 V
stroke
LTb
LCb setrgbcolor
3773 448 M
0 31 V
0 4140 R
0 -31 V
stroke
LTa
LCa setrgbcolor
3820 448 M
0 4171 V
stroke
LTb
LCb setrgbcolor
3820 448 M
0 63 V
0 4108 R
0 -63 V
stroke
3820 308 M
[ [(Helvetica) 140.0 0.0 true true 0 (1e+06)]
] -46.7 MCshow
/Helvetica findfont 140 scalefont setfont
1.000 UL
LTb
LCb setrgbcolor
1.000 UL
LTa
LCa setrgbcolor
4127 448 M
0 4171 V
stroke
LTb
LCb setrgbcolor
4127 448 M
0 31 V
0 4140 R
0 -31 V
stroke
LTa
LCa setrgbcolor
4306 448 M
0 4171 V
stroke
LTb
LCb setrgbcolor
4306 448 M
0 31 V
0 4140 R
0 -31 V
stroke
LTa
LCa setrgbcolor
4434 448 M
0 4171 V
stroke
LTb
LCb setrgbcolor
4434 448 M
0 31 V
0 4140 R
0 -31 V
stroke
LTa
LCa setrgbcolor
4533 448 M
0 4171 V
stroke
LTb
LCb setrgbcolor
4533 448 M
0 31 V
0 4140 R
0 -31 V
stroke
LTa
LCa setrgbcolor
4614 448 M
0 4171 V
stroke
LTb
LCb setrgbcolor
4614 448 M
0 31 V
0 4140 R
0 -31 V
stroke
LTa
LCa setrgbcolor
4682 448 M
0 4171 V
stroke
LTb
LCb setrgbcolor
4682 448 M
0 31 V
0 4140 R
0 -31 V
stroke
LTa
LCa setrgbcolor
4741 448 M
0 4171 V
stroke
LTb
LCb setrgbcolor
4741 448 M
0 31 V
0 4140 R
0 -31 V
stroke
LTa
LCa setrgbcolor
4793 448 M
0 4171 V
stroke
LTb
LCb setrgbcolor
4793 448 M
0 31 V
0 4140 R
0 -31 V
stroke
LTa
LCa setrgbcolor
4840 448 M
0 4171 V
stroke
LTb
LCb setrgbcolor
4840 448 M
0 63 V
0 4108 R
0 -63 V
stroke
4840 308 M
[ [(Helvetica) 140.0 0.0 true true 0 (1e+07)]
] -46.7 MCshow
/Helvetica findfont 140 scalefont setfont
1.000 UL
LTb
LCb setrgbcolor
1.000 UL
LTa
LCa setrgbcolor
5147 448 M
0 4171 V
stroke
LTb
LCb setrgbcolor
5147 448 M
0 31 V
0 4140 R
0 -31 V
stroke
LTa
LCa setrgbcolor
5327 448 M
0 4171 V
stroke
LTb
LCb setrgbcolor
5327 448 M
0 31 V
0 4140 R
0 -31 V
stroke
LTa
LCa setrgbcolor
5454 448 M
0 4171 V
stroke
LTb
LCb setrgbcolor
5454 448 M
0 31 V
0 4140 R
0 -31 V
stroke
LTa
LCa setrgbcolor
5553 448 M
0 4171 V
stroke
LTb
LCb setrgbcolor
5553 448 M
0 31 V
0 4140 R
0 -31 V
stroke
LTa
LCa setrgbcolor
5634 448 M
0 4171 V
stroke
LTb
LCb setrgbcolor
5634 448 M
0 31 V
0 4140 R
0 -31 V
stroke
LTa
LCa setrgbcolor
5702 448 M
0 4171 V
stroke
LTb
LCb setrgbcolor
5702 448 M
0 31 V
0 4140 R
0 -31 V
stroke
LTa
LCa setrgbcolor
5761 448 M
0 4171 V
stroke
LTb
LCb setrgbcolor
5761 448 M
0 31 V
0 4140 R
0 -31 V
stroke
LTa
LCa setrgbcolor
5813 448 M
0 4171 V
stroke
LTb
LCb setrgbcolor
5813 448 M
0 31 V
0 4140 R
0 -31 V
stroke
LTa
LCa setrgbcolor
5860 448 M
0 4171 V
stroke
LTb
LCb setrgbcolor
5860 448 M
0 63 V
0 4108 R
0 -63 V
stroke
5860 308 M
[ [(Helvetica) 140.0 0.0 true true 0 (1e+08)]
] -46.7 MCshow
/Helvetica findfont 140 scalefont setfont
1.000 UL
LTb
LCb setrgbcolor
1.000 UL
LTa
LCa setrgbcolor
6167 448 M
0 4171 V
stroke
LTb
LCb setrgbcolor
6167 448 M
0 31 V
0 4140 R
0 -31 V
stroke
LTa
LCa setrgbcolor
6347 448 M
0 4171 V
stroke
LTb
LCb setrgbcolor
6347 448 M
0 31 V
0 4140 R
0 -31 V
stroke
LTa
LCa setrgbcolor
6474 448 M
0 4171 V
stroke
LTb
LCb setrgbcolor
6474 448 M
0 31 V
0 4140 R
0 -31 V
stroke
LTa
LCa setrgbcolor
6573 448 M
0 4171 V
stroke
LTb
LCb setrgbcolor
6573 448 M
0 31 V
0 4140 R
0 -31 V
stroke
LTa
LCa setrgbcolor
6654 448 M
0 4171 V
stroke
LTb
LCb setrgbcolor
6654 448 M
0 31 V
0 4140 R
0 -31 V
stroke
LTa
LCa setrgbcolor
6722 448 M
0 4171 V
stroke
LTb
LCb setrgbcolor
6722 448 M
0 31 V
0 4140 R
0 -31 V
stroke
LTa
LCa setrgbcolor
6781 448 M
0 4171 V
stroke
LTb
LCb setrgbcolor
6781 448 M
0 31 V
0 4140 R
0 -31 V
stroke
LTa
LCa setrgbcolor
6833 448 M
0 4171 V
stroke
LTb
LCb setrgbcolor
6833 448 M
0 31 V
0 4140 R
0 -31 V
stroke
LTa
LCa setrgbcolor
6880 448 M
0 4171 V
stroke
LTb
LCb setrgbcolor
1.000 UL
LTB
LCb setrgbcolor
770 4619 N
770 448 L
6107 0 V
0 4171 V
-6107 0 V
Z stroke
1.000 UP
1.000 UL
LTb
LCb setrgbcolor
LCb setrgbcolor
196 2533 M
currentpoint gsave translate -270 rotate 0 0 moveto
[ [(Helvetica) 140.0 0.0 true true 0 (Total Bandwidth \(GB/s\))]
] -46.7 MCshow
grestore
/Helvetica findfont 140 scalefont setfont
LTb
LCb setrgbcolor
LTb
LCb setrgbcolor
3823 98 M
[ [(Helvetica) 140.0 0.0 true true 0 (Working Set Size \(bytes\))]
] -46.7 MCshow
/Helvetica findfont 140 scalefont setfont
LTb
LCb setrgbcolor
3823 4829 M
[ [(Helvetica) 140.0 0.0 true true 0 (Graph 2 \(Results.daisy.v100/Run.001/FLOPS.002/GPU)]
[(Helvetica) 112.0 -42.0 true true 0 (B)]
[(Helvetica) 140.0 0.0 true true 0 (locks.0160/GPU)]
[(Helvetica) 112.0 -42.0 true true 0 (T)]
[(Helvetica) 140.0 0.0 true true 0 (hreads.1024\))]
] -32.7 MCshow
/Helvetica findfont 140 scalefont setfont
LTb
LCb setrgbcolor
LTb
LCb setrgbcolor
% Begin plot #1
0.400 UP
1.000 UL
LTb
0.58 0.00 0.83 C
770 1105 M
0 431 V
0 226 V
0 202 V
0 192 V
0 159 V
0 127 V
0 38 V
0 57 V
0 31 V
0 17 V
0 8 V
0 6 V
0 3 V
0 2 V
0 1 V
0 -1 V
0 1 V
810 1158 M
0 421 V
0 225 V
0 179 V
0 189 V
0 155 V
0 131 V
0 61 V
0 34 V
0 41 V
0 4 V
0 8 V
0 9 V
0 -1 V
0 2 V
852 1174 M
0 413 V
0 244 V
0 196 V
0 165 V
0 158 V
0 135 V
0 86 V
0 34 V
0 34 V
0 -10 V
0 7 V
0 3 V
0 1 V
893 1204 M
0 438 V
0 208 V
0 201 V
0 178 V
0 150 V
0 135 V
0 93 V
0 52 V
0 -22 V
0 33 V
0 -8 V
0 8 V
0 2 V
0 1 V
933 1229 M
0 421 V
0 243 V
0 179 V
0 187 V
0 141 V
0 142 V
0 83 V
0 57 V
0 -25 V
0 34 V
0 -7 V
0 6 V
0 4 V
0 1 V
0 1 V
0 -1 V
0 1 V
974 1299 M
0 390 V
0 206 V
0 219 V
0 173 V
0 153 V
0 130 V
0 87 V
0 56 V
0 -20 V
0 31 V
0 -7 V
0 9 V
0 1 V
0 1 V
42 -1415 R
0 402 V
0 222 V
0 190 V
0 190 V
0 149 V
0 121 V
0 57 V
0 42 V
0 28 V
0 34 V
0 -7 V
0 6 V
0 3 V
0 1 V
0 1 V
42 -1376 R
0 367 V
0 222 V
0 207 V
0 173 V
0 146 V
0 122 V
0 100 V
0 39 V
0 -11 V
0 28 V
0 9 V
0 -5 V
0 4 V
0 1 V
0 2 V
0 -1 V
0 1 V
41 -1384 R
0 386 V
0 230 V
0 188 V
0 170 V
0 153 V
0 128 V
0 93 V
0 54 V
0 -20 V
0 15 V
0 9 V
0 9 V
0 2 V
0 1 V
41 -1424 R
0 367 V
0 244 V
0 231 V
0 172 V
0 147 V
0 121 V
0 101 V
0 2 V
0 27 V
0 35 V
0 -9 V
0 11 V
0 1 V
0 1 V
0 1 V
41 -1375 R
0 370 V
0 211 V
0 193 V
0 192 V
0 125 V
0 146 V
0 87 V
0 61 V
0 -18 V
0 31 V
0 -7 V
0 10 V
0 -1 V
0 3 V
42 -1431 R
0 432 V
0 204 V
0 192 V
0 188 V
0 159 V
0 100 V
0 105 V
0 36 V
0 5 V
0 26 V
0 8 V
0 -1 V
0 3 V
0 1 V
0 1 V
0 1 V
42 -1435 R
0 452 V
0 190 V
0 191 V
0 139 V
0 198 V
0 125 V
0 90 V
0 56 V
0 -15 V
0 31 V
0 -8 V
0 11 V
0 1 V
0 1 V
0 1 V
0 -7 V
0 7 V
42 -1401 R
0 390 V
0 221 V
0 188 V
0 194 V
0 143 V
0 133 V
0 86 V
0 47 V
0 -11 V
0 32 V
0 -6 V
0 9 V
0 1 V
0 1 V
0 1 V
42 -1356 R
0 373 V
0 206 V
0 171 V
0 200 V
0 153 V
0 125 V
0 72 V
0 52 V
0 -11 V
0 28 V
0 -1 V
0 8 V
0 1 V
0 3 V
0 1 V
42 -1413 R
0 416 V
0 218 V
0 180 V
0 195 V
0 153 V
0 124 V
0 79 V
stroke 1391 2932 M
0 28 V
0 12 V
0 29 V
0 -4 V
0 10 V
0 2 V
0 1 V
0 1 V
42 -1424 R
0 419 V
0 236 V
0 180 V
0 172 V
0 134 V
0 147 V
0 83 V
0 54 V
0 -15 V
0 32 V
0 -4 V
0 8 V
0 2 V
0 1 V
42 -1392 R
0 409 V
0 192 V
0 191 V
0 198 V
0 145 V
0 122 V
0 79 V
0 61 V
0 -12 V
0 27 V
0 -4 V
0 8 V
0 2 V
0 1 V
0 1 V
42 -1380 R
0 396 V
0 200 V
0 201 V
0 180 V
0 145 V
0 122 V
0 65 V
0 30 V
0 34 V
0 8 V
0 9 V
0 6 V
0 3 V
0 1 V
0 1 V
42 -1396 R
0 398 V
0 212 V
0 206 V
0 186 V
0 140 V
0 128 V
0 80 V
0 42 V
0 -13 V
0 28 V
0 5 V
0 1 V
0 2 V
0 1 V
0 1 V
42 -1372 R
0 396 V
0 224 V
0 174 V
0 189 V
0 139 V
0 126 V
0 77 V
0 49 V
0 -20 V
0 29 V
0 3 V
0 1 V
0 3 V
0 2 V
0 -1 V
0 1 V
42 -1364 R
0 416 V
0 199 V
0 182 V
0 170 V
0 159 V
0 111 V
0 27 V
0 98 V
0 -22 V
0 26 V
0 1 V
0 3 V
0 4 V
0 1 V
0 1 V
42 -1322 R
0 374 V
0 140 V
0 256 V
0 174 V
0 150 V
0 108 V
0 83 V
0 19 V
0 21 V
0 1 V
0 11 V
0 2 V
0 2 V
0 1 V
42 -1375 R
0 433 V
0 211 V
0 184 V
0 165 V
0 25 V
0 238 V
0 83 V
0 51 V
0 -25 V
0 26 V
0 10 V
0 1 V
0 1 V
0 1 V
43 -1391 R
0 428 V
0 221 V
0 197 V
0 172 V
0 134 V
0 120 V
0 86 V
0 35 V
0 -23 V
0 39 V
0 7 V
0 2 V
0 1 V
0 1 V
42 -1340 R
0 381 V
0 214 V
0 205 V
0 167 V
0 144 V
0 119 V
0 83 V
0 38 V
0 -24 V
0 22 V
0 15 V
0 3 V
0 1 V
0 1 V
42 -1319 R
0 389 V
0 188 V
0 195 V
0 178 V
0 145 V
0 112 V
0 42 V
0 30 V
0 29 V
0 27 V
0 9 V
0 1 V
0 1 V
0 1 V
42 -1325 R
0 385 V
0 202 V
0 185 V
0 183 V
0 143 V
0 118 V
0 82 V
0 36 V
0 -24 V
0 28 V
0 12 V
0 1 V
0 2 V
0 1 V
42 -1313 R
0 374 V
0 202 V
0 187 V
0 178 V
0 137 V
0 123 V
0 42 V
0 28 V
0 29 V
0 27 V
0 12 V
0 2 V
0 1 V
42 -1371 R
0 408 V
0 231 V
0 131 V
0 234 V
0 147 V
0 92 V
0 87 V
0 23 V
0 26 V
0 10 V
0 6 V
0 1 V
0 1 V
0 1 V
0 1 V
0 1 V
42 -1345 R
0 392 V
0 186 V
0 215 V
0 181 V
0 140 V
0 80 V
0 74 V
0 38 V
0 21 V
0 26 V
0 13 V
0 1 V
0 2 V
0 1 V
0 1 V
42 -1376 R
0 420 V
0 203 V
0 208 V
0 179 V
0 143 V
0 110 V
0 78 V
stroke 2064 3351 M
0 20 V
0 6 V
0 27 V
0 5 V
0 1 V
0 3 V
0 1 V
0 1 V
42 -1374 R
0 401 V
0 211 V
0 176 V
0 189 V
0 142 V
0 110 V
0 23 V
0 66 V
0 3 V
0 23 V
0 2 V
0 4 V
0 2 V
0 1 V
43 -1275 R
0 362 V
0 206 V
0 194 V
0 169 V
0 135 V
0 111 V
0 30 V
0 31 V
0 31 V
0 25 V
0 8 V
0 -108 V
0 108 V
0 2 V
42 -1273 R
0 349 V
0 207 V
0 200 V
0 166 V
0 145 V
0 110 V
0 30 V
0 31 V
0 29 V
0 25 V
0 2 V
0 4 V
0 2 V
0 1 V
0 1 V
42 -1272 R
0 348 V
0 209 V
0 210 V
0 163 V
0 136 V
0 109 V
0 44 V
0 26 V
0 27 V
0 15 V
0 7 V
0 3 V
0 2 V
0 1 V
0 1 V
42 -1333 R
0 399 V
0 220 V
0 200 V
0 155 V
0 148 V
0 116 V
0 52 V
0 23 V
0 11 V
0 24 V
0 7 V
0 1 V
0 4 V
0 1 V
42 -1291 R
0 371 V
0 199 V
0 212 V
0 158 V
0 147 V
0 67 V
0 63 V
0 49 V
0 18 V
0 26 V
0 4 V
0 1 V
0 3 V
0 1 V
42 -1264 R
0 335 V
0 189 V
0 187 V
0 180 V
0 139 V
0 138 V
0 36 V
0 26 V
0 20 V
0 28 V
0 10 V
0 1 V
0 3 V
0 1 V
43 -1263 R
0 340 V
0 215 V
0 167 V
0 201 V
0 118 V
0 89 V
0 65 V
0 34 V
0 28 V
0 27 V
0 4 V
0 3 V
0 1 V
42 -1330 R
0 418 V
0 203 V
0 185 V
0 173 V
0 145 V
0 93 V
0 64 V
0 30 V
0 1 V
0 38 V
0 3 V
0 1 V
0 3 V
0 1 V
42 -1316 R
0 396 V
0 214 V
0 181 V
0 188 V
0 134 V
0 68 V
0 63 V
0 39 V
0 26 V
0 27 V
0 3 V
0 2 V
0 3 V
0 1 V
42 -1263 R
0 357 V
0 194 V
0 194 V
0 178 V
0 130 V
0 119 V
0 26 V
0 34 V
0 18 V
0 30 V
0 9 V
0 2 V
0 1 V
42 -1303 R
0 390 V
0 207 V
0 175 V
0 165 V
0 163 V
0 107 V
0 45 V
0 25 V
0 15 V
0 27 V
0 6 V
0 4 V
0 2 V
0 1 V
42 -1269 R
0 360 V
0 193 V
0 195 V
0 182 V
0 133 V
0 82 V
0 61 V
0 31 V
0 18 V
0 33 V
0 3 V
0 3 V
0 2 V
0 1 V
43 -1353 R
0 381 V
0 261 V
0 198 V
0 159 V
0 141 V
0 83 V
0 47 V
0 58 V
0 11 V
0 31 V
0 5 V
0 4 V
0 2 V
42 -1308 R
0 396 V
0 195 V
0 202 V
0 170 V
0 137 V
0 71 V
0 74 V
0 30 V
0 24 V
0 28 V
0 4 V
0 3 V
0 3 V
42 -1333 R
0 421 V
0 211 V
0 189 V
0 161 V
0 144 V
0 71 V
0 65 V
0 45 V
0 15 V
0 28 V
0 5 V
0 3 V
0 3 V
42 -1346 R
0 415 V
0 230 V
0 193 V
stroke 2781 3315 M
0 164 V
0 141 V
0 65 V
0 71 V
0 46 V
0 9 V
0 29 V
0 7 V
0 4 V
0 1 V
43 -1343 R
0 423 V
0 212 V
0 193 V
0 163 V
0 148 V
0 68 V
0 60 V
0 45 V
0 18 V
0 30 V
0 9 V
0 3 V
42 -1306 R
0 399 V
0 208 V
0 169 V
0 185 V
0 121 V
0 89 V
0 66 V
0 47 V
0 12 V
0 28 V
0 6 V
0 2 V
0 3 V
42 -1289 R
0 374 V
0 208 V
0 186 V
0 183 V
0 118 V
0 92 V
0 67 V
0 30 V
0 28 V
0 24 V
0 2 V
0 2 V
0 3 V
42 -1282 R
0 383 V
0 188 V
0 194 V
0 171 V
0 133 V
0 96 V
0 49 V
0 35 V
0 28 V
0 27 V
0 2 V
0 2 V
42 -1286 R
0 386 V
0 195 V
0 180 V
0 127 V
0 196 V
0 109 V
0 28 V
0 32 V
0 23 V
0 32 V
0 4 V
0 3 V
43 -1309 R
0 406 V
0 201 V
0 181 V
0 160 V
0 154 V
0 117 V
0 25 V
0 33 V
0 22 V
0 33 V
0 3 V
0 3 V
42 -1349 R
0 390 V
0 241 V
0 178 V
0 166 V
0 172 V
0 87 V
0 39 V
0 44 V
0 20 V
0 30 V
0 8 V
0 3 V
42 -1328 R
0 408 V
0 212 V
0 138 V
0 208 V
0 148 V
0 91 V
0 63 V
0 30 V
0 29 V
0 20 V
0 3 V
0 6 V
42 -1353 R
0 443 V
0 208 V
0 195 V
0 161 V
0 133 V
0 112 V
0 32 V
0 39 V
0 20 V
0 28 V
0 9 V
0 -1 V
43 -1326 R
0 415 V
0 195 V
0 212 V
0 148 V
0 151 V
0 66 V
0 91 V
0 27 V
0 11 V
0 35 V
0 2 V
42 -1341 R
0 434 V
0 213 V
0 176 V
0 189 V
0 113 V
0 107 V
0 39 V
0 55 V
0 13 V
0 24 V
0 3 V
42 -1329 R
0 419 V
0 217 V
0 172 V
0 189 V
0 110 V
0 86 V
0 93 V
0 20 V
0 17 V
0 22 V
0 4 V
42 -1281 R
0 382 V
0 205 V
0 187 V
0 155 V
0 121 V
0 89 V
0 52 V
0 33 V
0 8 V
0 -7 V
0 6 V
42 -1184 R
0 368 V
0 186 V
0 177 V
0 142 V
0 105 V
0 71 V
0 39 V
0 15 V
0 11 V
0 10 V
0 6 V
43 -1662 R
0 920 V
0 207 V
0 155 V
0 150 V
0 109 V
0 70 V
0 25 V
0 40 V
0 11 V
0 3 V
42 -1164 R
0 426 V
0 199 V
0 171 V
0 135 V
0 108 V
0 74 V
0 45 V
0 21 V
0 2 V
0 8 V
0 4 V
42 -1134 R
0 393 V
0 192 V
0 164 V
0 147 V
0 50 V
0 125 V
0 43 V
0 38 V
0 -9 V
0 17 V
0 2 V
42 -1158 R
0 420 V
0 192 V
0 173 V
0 142 V
0 102 V
0 74 V
0 48 V
0 9 V
0 9 V
0 12 V
43 -1164 R
0 434 V
0 186 V
0 168 V
0 152 V
0 106 V
0 47 V
0 64 V
0 20 V
0 4 V
0 7 V
42 -1106 R
0 310 V
0 255 V
stroke 3626 3664 M
0 182 V
0 137 V
0 102 V
0 69 V
0 44 V
0 17 V
0 -1 V
0 14 V
42 -1130 R
0 398 V
0 192 V
0 154 V
0 116 V
0 84 V
0 54 V
0 34 V
0 16 V
0 10 V
0 4 V
42 -993 R
0 367 V
0 165 V
0 171 V
0 117 V
0 83 V
0 55 V
0 31 V
0 18 V
0 10 V
0 5 V
42 -1022 R
0 380 V
0 180 V
0 168 V
0 115 V
0 86 V
0 56 V
0 32 V
0 18 V
0 9 V
0 5 V
43 -1015 R
0 385 V
0 166 V
0 161 V
0 125 V
0 85 V
0 52 V
0 33 V
0 18 V
0 9 V
0 5 V
42 -1013 R
0 354 V
0 180 V
0 130 V
0 117 V
0 74 V
0 43 V
0 37 V
0 14 V
0 8 V
0 4 V
42 -970 R
0 400 V
0 182 V
0 138 V
0 116 V
0 67 V
0 45 V
0 27 V
0 12 V
0 7 V
42 -963 R
0 400 V
0 176 V
0 153 V
0 99 V
0 74 V
0 42 V
0 25 V
0 12 V
0 7 V
43 -927 R
0 365 V
0 160 V
0 137 V
0 97 V
0 60 V
0 33 V
0 21 V
0 12 V
0 6 V
42 -852 R
0 357 V
0 152 V
0 137 V
0 101 V
0 60 V
0 34 V
0 21 V
0 12 V
0 5 V
42 -850 R
0 339 V
0 159 V
0 126 V
0 23 V
0 114 V
0 36 V
0 15 V
0 9 V
0 4 V
42 -848 R
0 389 V
0 163 V
0 127 V
0 78 V
0 40 V
0 47 V
0 19 V
0 8 V
0 5 V
42 -827 R
0 366 V
0 145 V
0 122 V
0 74 V
0 48 V
0 25 V
0 17 V
0 8 V
0 4 V
43 -806 R
0 388 V
0 149 V
0 112 V
0 77 V
0 52 V
0 25 V
0 18 V
0 7 V
42 -782 R
0 366 V
0 140 V
0 107 V
0 73 V
0 42 V
0 25 V
0 12 V
0 8 V
42 -719 R
0 313 V
0 150 V
0 99 V
0 67 V
0 42 V
0 24 V
0 10 V
0 8 V
42 -690 R
0 309 V
0 146 V
0 98 V
0 56 V
0 40 V
0 20 V
0 13 V
0 5 V
43 -705 R
0 361 V
0 142 V
0 90 V
0 63 V
0 38 V
0 19 V
0 11 V
0 6 V
42 -714 R
0 361 V
0 137 V
0 94 V
0 54 V
0 36 V
0 18 V
0 9 V
0 5 V
42 -658 R
0 323 V
0 119 V
0 93 V
0 46 V
0 31 V
0 15 V
0 8 V
0 4 V
42 -688 R
0 390 V
0 119 V
0 77 V
0 54 V
0 29 V
0 14 V
0 7 V
42 -615 R
0 340 V
0 107 V
0 83 V
0 46 V
0 25 V
0 14 V
0 8 V
43 -587 R
0 321 V
0 97 V
0 79 V
0 40 V
0 25 V
0 10 V
0 5 V
42 -521 R
0 282 V
0 102 V
0 70 V
0 39 V
0 20 V
0 15 V
0 6 V
42 -567 R
0 268 V
0 152 V
0 67 V
0 38 V
0 21 V
0 11 V
0 6 V
42 -598 R
0 241 V
0 193 V
0 55 V
0 60 V
0 30 V
0 13 V
0 5 V
43 -638 R
0 269 V
0 181 V
0 77 V
0 66 V
stroke 4724 4186 M
0 26 V
0 14 V
0 6 V
42 -621 R
0 244 V
0 165 V
0 100 V
0 45 V
0 36 V
0 12 V
42 -575 R
0 206 V
0 128 V
0 99 V
0 54 V
0 14 V
0 16 V
42 -499 R
0 175 V
0 128 V
0 99 V
0 -2 V
0 14 V
0 6 V
42 -409 R
0 167 V
0 116 V
0 55 V
0 13 V
0 3 V
0 4 V
43 -345 R
0 142 V
0 112 V
0 45 V
0 13 V
0 3 V
0 3 V
42 -332 R
0 155 V
0 73 V
0 64 V
0 18 V
0 14 V
0 6 V
42 -291 R
0 115 V
0 39 V
0 81 V
0 33 V
0 3 V
0 5 V
42 -269 R
0 112 V
0 22 V
0 25 V
0 92 V
0 28 V
0 2 V
43 -266 R
0 98 V
0 19 V
0 12 V
0 10 V
0 30 V
42 -159 R
0 91 V
0 16 V
0 7 V
0 6 V
0 3 V
42 -129 R
0 96 V
0 20 V
0 4 V
0 4 V
0 2 V
42 -113 R
0 87 V
0 12 V
0 8 V
0 4 V
0 1 V
42 -98 R
0 76 V
0 15 V
0 2 V
0 3 V
0 1 V
43 -86 R
0 68 V
0 7 V
0 8 V
0 1 V
0 2 V
42 -79 R
0 64 V
0 9 V
0 2 V
0 1 V
42 -79 R
0 69 V
0 8 V
0 2 V
42 -69 R
0 58 V
0 10 V
0 1 V
0 -1 V
43 -59 R
0 52 V
0 7 V
0 1 V
0 -1 V
42 -58 R
0 52 V
0 5 V
0 -2 V
0 2 V
42 -50 R
0 47 V
0 3 V
0 2 V
0 -2 V
42 -42 R
0 39 V
0 4 V
0 1 V
0 -4 V
42 -32 R
0 32 V
0 3 V
0 -2 V
0 -3 V
43 -28 R
0 32 V
0 2 V
0 -3 V
42 -26 R
0 27 V
0 2 V
0 -3 V
42 -24 R
0 26 V
0 1 V
0 -3 V
42 -22 R
0 25 V
0 -3 V
43 -112 R
0 113 V
0 2 V
0 -3 V
42 -16 R
0 20 V
0 -5 V
0 1 V
42 -17 R
0 18 V
0 1 V
0 -5 V
42 -14 R
0 19 V
0 1 V
0 -5 V
43 -8 R
0 12 V
0 -2 V
42 -10 R
0 10 V
0 -1 V
42 -7 R
0 12 V
0 -2 V
42 -9 R
0 7 V
42 -7 R
0 9 V
0 -3 V
43 -5 R
0 8 V
0 -5 V
42 -4 R
0 9 V
0 -3 V
42 -2 R
0 6 V
42 -5 R
0 3 V
43 -4 R
0 5 V
42 -3 R
0 1 V
42 -3 R
0 1 V
42 0 R
42 0 R
43 0 R
42 0 R
42 1 R
42 -1 R
43 -1 R
42 -2 R
42 -1 R
770 1105 CircleF
770 1536 CircleF
770 1762 CircleF
770 1964 CircleF
770 2156 CircleF
770 2315 CircleF
770 2442 CircleF
770 2480 CircleF
770 2537 CircleF
770 2568 CircleF
770 2585 CircleF
770 2593 CircleF
770 2599 CircleF
770 2602 CircleF
770 2604 CircleF
770 2605 CircleF
770 2604 CircleF
770 2605 CircleF
770 2605 CircleF
770 2605 CircleF
770 2605 CircleF
810 1158 CircleF
810 1579 CircleF
810 1804 CircleF
810 1983 CircleF
810 2172 CircleF
810 2327 CircleF
810 2458 CircleF
810 2519 CircleF
810 2553 CircleF
810 2594 CircleF
810 2598 CircleF
810 2606 CircleF
810 2615 CircleF
810 2614 CircleF
810 2614 CircleF
810 2616 CircleF
810 2616 CircleF
810 2616 CircleF
810 2616 CircleF
810 2616 CircleF
852 1174 CircleF
852 1587 CircleF
852 1831 CircleF
852 2027 CircleF
852 2192 CircleF
852 2350 CircleF
852 2485 CircleF
852 2571 CircleF
852 2571 CircleF
852 2605 CircleF
852 2639 CircleF
852 2629 CircleF
852 2636 CircleF
852 2639 CircleF
852 2640 CircleF
852 2640 CircleF
852 2640 CircleF
852 2640 CircleF
852 2640 CircleF
852 2640 CircleF
893 1204 CircleF
893 1642 CircleF
893 1850 CircleF
893 2051 CircleF
893 2229 CircleF
893 2379 CircleF
893 2514 CircleF
893 2607 CircleF
893 2659 CircleF
893 2637 CircleF
893 2670 CircleF
893 2662 CircleF
893 2670 CircleF
893 2672 CircleF
893 2672 CircleF
893 2673 CircleF
893 2673 CircleF
893 2673 CircleF
893 2673 CircleF
893 2673 CircleF
933 1229 CircleF
933 1650 CircleF
933 1893 CircleF
933 2072 CircleF
933 2259 CircleF
933 2400 CircleF
933 2542 CircleF
933 2625 CircleF
933 2682 CircleF
933 2657 CircleF
933 2691 CircleF
933 2684 CircleF
933 2690 CircleF
933 2694 CircleF
933 2695 CircleF
933 2695 CircleF
933 2696 CircleF
933 2695 CircleF
933 2696 CircleF
933 2696 CircleF
974 1299 CircleF
974 1689 CircleF
974 1895 CircleF
974 2114 CircleF
974 2287 CircleF
974 2440 CircleF
974 2570 CircleF
974 2657 CircleF
974 2713 CircleF
974 2693 CircleF
974 2724 CircleF
974 2717 CircleF
974 2726 CircleF
974 2727 CircleF
974 2728 CircleF
974 2728 CircleF
974 2728 CircleF
974 2728 CircleF
974 2728 CircleF
974 2728 CircleF
1016 1313 CircleF
1016 1715 CircleF
1016 1937 CircleF
1016 2127 CircleF
1016 2317 CircleF
1016 2466 CircleF
1016 2587 CircleF
1016 2644 CircleF
1016 2686 CircleF
1016 2714 CircleF
1016 2748 CircleF
1016 2741 CircleF
1016 2747 CircleF
1016 2750 CircleF
1016 2751 CircleF
1016 2751 CircleF
1016 2751 CircleF
1016 2752 CircleF
1016 2752 CircleF
1016 2752 CircleF
1058 1376 CircleF
1058 1743 CircleF
1058 1965 CircleF
1058 2172 CircleF
1058 2345 CircleF
1058 2491 CircleF
1058 2613 CircleF
1058 2713 CircleF
1058 2752 CircleF
1058 2741 CircleF
1058 2769 CircleF
1058 2778 CircleF
1058 2773 CircleF
1058 2777 CircleF
1058 2778 CircleF
1058 2780 CircleF
1058 2779 CircleF
1058 2780 CircleF
1058 2780 CircleF
1058 2780 CircleF
1099 1396 CircleF
1099 1782 CircleF
1099 2012 CircleF
1099 2200 CircleF
1099 2370 CircleF
1099 2523 CircleF
1099 2651 CircleF
1099 2744 CircleF
1099 2798 CircleF
1099 2778 CircleF
1099 2793 CircleF
1099 2802 CircleF
1099 2811 CircleF
1099 2813 CircleF
1099 2813 CircleF
1099 2813 CircleF
1099 2814 CircleF
1099 2814 CircleF
1099 2814 CircleF
1140 1390 CircleF
1140 1757 CircleF
1140 2001 CircleF
1140 2232 CircleF
1140 2404 CircleF
1140 2551 CircleF
1140 2672 CircleF
1140 2773 CircleF
1140 2775 CircleF
1140 2802 CircleF
1140 2837 CircleF
1140 2828 CircleF
1140 2839 CircleF
1140 2840 CircleF
1140 2841 CircleF
1140 2841 CircleF
1140 2842 CircleF
1140 2842 CircleF
1140 2842 CircleF
1181 1467 CircleF
1181 1837 CircleF
1181 2048 CircleF
1181 2241 CircleF
1181 2433 CircleF
1181 2558 CircleF
1181 2704 CircleF
1181 2791 CircleF
1181 2852 CircleF
1181 2834 CircleF
1181 2865 CircleF
1181 2858 CircleF
1181 2868 CircleF
1181 2867 CircleF
1181 2870 CircleF
1181 2870 CircleF
1181 2870 CircleF
1181 2870 CircleF
1181 2870 CircleF
1223 1439 CircleF
1223 1871 CircleF
1223 2075 CircleF
1223 2267 CircleF
1223 2455 CircleF
1223 2614 CircleF
1223 2714 CircleF
1223 2819 CircleF
1223 2855 CircleF
1223 2860 CircleF
1223 2886 CircleF
1223 2894 CircleF
1223 2893 CircleF
1223 2896 CircleF
1223 2897 CircleF
1223 2898 CircleF
1223 2899 CircleF
1223 2899 CircleF
1223 2899 CircleF
1265 1464 CircleF
1265 1916 CircleF
1265 2106 CircleF
1265 2297 CircleF
1265 2436 CircleF
1265 2634 CircleF
1265 2759 CircleF
1265 2849 CircleF
1265 2905 CircleF
1265 2890 CircleF
1265 2921 CircleF
1265 2913 CircleF
1265 2924 CircleF
1265 2925 CircleF
1265 2926 CircleF
1265 2927 CircleF
1265 2927 CircleF
1265 2920 CircleF
1265 2927 CircleF
1307 1526 CircleF
1307 1916 CircleF
1307 2137 CircleF
1307 2325 CircleF
1307 2519 CircleF
1307 2662 CircleF
1307 2795 CircleF
1307 2881 CircleF
1307 2928 CircleF
1307 2917 CircleF
1307 2949 CircleF
1307 2943 CircleF
1307 2952 CircleF
1307 2953 CircleF
1307 2954 CircleF
1307 2955 CircleF
1307 2955 CircleF
1307 2955 CircleF
1307 2955 CircleF
1349 1599 CircleF
1349 1972 CircleF
1349 2178 CircleF
1349 2349 CircleF
1349 2549 CircleF
1349 2702 CircleF
1349 2827 CircleF
1349 2899 CircleF
1349 2951 CircleF
1349 2940 CircleF
1349 2968 CircleF
1349 2967 CircleF
1349 2975 CircleF
1349 2976 CircleF
1349 2979 CircleF
1349 2979 CircleF
1349 2980 CircleF
1349 2980 CircleF
1349 2980 CircleF
1391 1567 CircleF
1391 1983 CircleF
1391 2201 CircleF
1391 2381 CircleF
1391 2576 CircleF
1391 2729 CircleF
1391 2853 CircleF
1391 2932 CircleF
1391 2960 CircleF
1391 2972 CircleF
1391 3001 CircleF
1391 2997 CircleF
1391 3007 CircleF
1391 3009 CircleF
1391 3010 CircleF
1391 3011 CircleF
1391 3011 CircleF
1391 3011 CircleF
1433 1587 CircleF
1433 2006 CircleF
1433 2242 CircleF
1433 2422 CircleF
1433 2594 CircleF
1433 2728 CircleF
1433 2875 CircleF
1433 2958 CircleF
1433 3012 CircleF
1433 2997 CircleF
1433 3029 CircleF
1433 3025 CircleF
1433 3033 CircleF
1433 3033 CircleF
1433 3035 CircleF
1433 3036 CircleF
1433 3036 CircleF
1433 3036 CircleF
1475 1644 CircleF
1475 2053 CircleF
1475 2245 CircleF
1475 2436 CircleF
1475 2634 CircleF
1475 2779 CircleF
1475 2901 CircleF
1475 2980 CircleF
1475 3041 CircleF
1475 3029 CircleF
1475 3056 CircleF
1475 3052 CircleF
1475 3060 CircleF
1475 3060 CircleF
1475 3062 CircleF
1475 3063 CircleF
1475 3064 CircleF
1475 3064 CircleF
1517 1684 CircleF
1517 2080 CircleF
1517 2280 CircleF
1517 2481 CircleF
1517 2661 CircleF
1517 2806 CircleF
1517 2928 CircleF
1517 2993 CircleF
1517 3023 CircleF
1517 3057 CircleF
1517 3065 CircleF
1517 3074 CircleF
1517 3080 CircleF
1517 3083 CircleF
1517 3084 CircleF
1517 3084 CircleF
1517 3085 CircleF
1517 3085 CircleF
1559 1689 CircleF
1559 2087 CircleF
1559 2299 CircleF
1559 2505 CircleF
1559 2691 CircleF
1559 2831 CircleF
1559 2959 CircleF
1559 3039 CircleF
1559 3081 CircleF
1559 3068 CircleF
1559 3096 CircleF
1559 3101 CircleF
1559 3102 CircleF
1559 3104 CircleF
1559 3105 CircleF
1559 3105 CircleF
1559 3106 CircleF
1559 3106 CircleF
1601 1734 CircleF
1601 2130 CircleF
1601 2354 CircleF
1601 2528 CircleF
1601 2717 CircleF
1601 2856 CircleF
1601 2982 CircleF
1601 3059 CircleF
1601 3108 CircleF
1601 3088 CircleF
1601 3117 CircleF
1601 3120 CircleF
1601 3121 CircleF
1601 3124 CircleF
1601 3126 CircleF
1601 3125 CircleF
1601 3126 CircleF
1601 3126 CircleF
1643 1762 CircleF
1643 2178 CircleF
1643 2377 CircleF
1643 2559 CircleF
1643 2729 CircleF
1643 2888 CircleF
1643 2999 CircleF
1643 3026 CircleF
1643 3124 CircleF
1643 3102 CircleF
1643 3128 CircleF
1643 3129 CircleF
1643 3132 CircleF
1643 3136 CircleF
1643 3137 CircleF
1643 3137 CircleF
1643 3138 CircleF
1643 3138 CircleF
1685 1816 CircleF
1685 2190 CircleF
1685 2330 CircleF
1685 2586 CircleF
1685 2760 CircleF
1685 2910 CircleF
1685 3018 CircleF
1685 3101 CircleF
1685 3120 CircleF
1685 3141 CircleF
1685 3142 CircleF
1685 3153 CircleF
1685 3153 CircleF
1685 3155 CircleF
1685 3157 CircleF
1685 3157 CircleF
1685 3158 CircleF
1685 3158 CircleF
1727 1783 CircleF
1727 2216 CircleF
1727 2427 CircleF
1727 2611 CircleF
1727 2776 CircleF
1727 2801 CircleF
1727 3039 CircleF
1727 3122 CircleF
1727 3173 CircleF
1727 3148 CircleF
1727 3174 CircleF
1727 3184 CircleF
1727 3185 CircleF
1727 3186 CircleF
1727 3186 CircleF
1727 3187 CircleF
1727 3187 CircleF
1770 1796 CircleF
1770 2224 CircleF
1770 2445 CircleF
1770 2642 CircleF
1770 2814 CircleF
1770 2948 CircleF
1770 3068 CircleF
1770 3154 CircleF
1770 3189 CircleF
1770 3166 CircleF
1770 3205 CircleF
1770 3212 CircleF
1770 3212 CircleF
1770 3214 CircleF
1770 3215 CircleF
1770 3216 CircleF
1770 3216 CircleF
1812 1876 CircleF
1812 2257 CircleF
1812 2471 CircleF
1812 2676 CircleF
1812 2843 CircleF
1812 2987 CircleF
1812 3106 CircleF
1812 3189 CircleF
1812 3227 CircleF
1812 3203 CircleF
1812 3225 CircleF
1812 3240 CircleF
1812 3240 CircleF
1812 3243 CircleF
1812 3244 CircleF
1812 3245 CircleF
1812 3245 CircleF
1854 1926 CircleF
1854 2315 CircleF
1854 2503 CircleF
1854 2698 CircleF
1854 2876 CircleF
1854 3021 CircleF
1854 3133 CircleF
1854 3175 CircleF
1854 3205 CircleF
1854 3234 CircleF
1854 3261 CircleF
1854 3270 CircleF
1854 3271 CircleF
1854 3272 CircleF
1854 3272 CircleF
1854 3273 CircleF
1854 3273 CircleF
1896 1948 CircleF
1896 2333 CircleF
1896 2535 CircleF
1896 2720 CircleF
1896 2903 CircleF
1896 3046 CircleF
1896 3164 CircleF
1896 3246 CircleF
1896 3282 CircleF
1896 3258 CircleF
1896 3286 CircleF
1896 3298 CircleF
1896 3298 CircleF
1896 3299 CircleF
1896 3301 CircleF
1896 3302 CircleF
1896 3302 CircleF
1938 1989 CircleF
1938 2363 CircleF
1938 2565 CircleF
1938 2752 CircleF
1938 2930 CircleF
1938 3067 CircleF
1938 3190 CircleF
1938 3232 CircleF
1938 3260 CircleF
1938 3289 CircleF
1938 3316 CircleF
1938 3328 CircleF
1938 3328 CircleF
1938 3328 CircleF
1938 3330 CircleF
1938 3331 CircleF
1938 3331 CircleF
1980 1960 CircleF
1980 2368 CircleF
1980 2599 CircleF
1980 2730 CircleF
1980 2964 CircleF
1980 3111 CircleF
1980 3203 CircleF
1980 3290 CircleF
1980 3313 CircleF
1980 3339 CircleF
1980 3349 CircleF
1980 3355 CircleF
1980 3356 CircleF
1980 3357 CircleF
1980 3358 CircleF
1980 3359 CircleF
1980 3360 CircleF
2022 2015 CircleF
2022 2407 CircleF
2022 2593 CircleF
2022 2808 CircleF
2022 2989 CircleF
2022 3129 CircleF
2022 3209 CircleF
2022 3283 CircleF
2022 3321 CircleF
2022 3342 CircleF
2022 3368 CircleF
2022 3381 CircleF
2022 3382 CircleF
2022 3384 CircleF
2022 3385 CircleF
2022 3386 CircleF
2064 2010 CircleF
2064 2430 CircleF
2064 2633 CircleF
2064 2841 CircleF
2064 3020 CircleF
2064 3163 CircleF
2064 3273 CircleF
2064 3351 CircleF
2064 3371 CircleF
2064 3377 CircleF
2064 3404 CircleF
2064 3409 CircleF
2064 3410 CircleF
2064 3413 CircleF
2064 3414 CircleF
2064 3415 CircleF
2106 2041 CircleF
2106 2442 CircleF
2106 2653 CircleF
2106 2829 CircleF
2106 3018 CircleF
2106 3160 CircleF
2106 3270 CircleF
2106 3293 CircleF
2106 3359 CircleF
2106 3362 CircleF
2106 3385 CircleF
2106 3387 CircleF
2106 3391 CircleF
2106 3393 CircleF
2106 3393 CircleF
2106 3394 CircleF
2149 2119 CircleF
2149 2481 CircleF
2149 2687 CircleF
2149 2881 CircleF
2149 3050 CircleF
2149 3185 CircleF
2149 3296 CircleF
2149 3326 CircleF
2149 3357 CircleF
2149 3388 CircleF
2149 3413 CircleF
2149 3421 CircleF
2149 3313 CircleF
2149 3421 CircleF
2149 3423 CircleF
2149 3423 CircleF
2191 2150 CircleF
2191 2499 CircleF
2191 2706 CircleF
2191 2906 CircleF
2191 3072 CircleF
2191 3217 CircleF
2191 3327 CircleF
2191 3357 CircleF
2191 3388 CircleF
2191 3417 CircleF
2191 3442 CircleF
2191 3444 CircleF
2191 3448 CircleF
2191 3450 CircleF
2191 3451 CircleF
2191 3452 CircleF
2233 2180 CircleF
2233 2528 CircleF
2233 2737 CircleF
2233 2947 CircleF
2233 3110 CircleF
2233 3246 CircleF
2233 3355 CircleF
2233 3399 CircleF
2233 3425 CircleF
2233 3452 CircleF
2233 3467 CircleF
2233 3474 CircleF
2233 3477 CircleF
2233 3479 CircleF
2233 3480 CircleF
2233 3481 CircleF
2275 2148 CircleF
2275 2547 CircleF
2275 2767 CircleF
2275 2967 CircleF
2275 3122 CircleF
2275 3270 CircleF
2275 3386 CircleF
2275 3438 CircleF
2275 3461 CircleF
2275 3472 CircleF
2275 3496 CircleF
2275 3503 CircleF
2275 3504 CircleF
2275 3508 CircleF
2275 3509 CircleF
2275 3509 CircleF
2317 2218 CircleF
2317 2589 CircleF
2317 2788 CircleF
2317 3000 CircleF
2317 3158 CircleF
2317 3305 CircleF
2317 3372 CircleF
2317 3435 CircleF
2317 3484 CircleF
2317 3502 CircleF
2317 3528 CircleF
2317 3532 CircleF
2317 3533 CircleF
2317 3536 CircleF
2317 3537 CircleF
2359 2273 CircleF
2359 2608 CircleF
2359 2797 CircleF
2359 2984 CircleF
2359 3164 CircleF
2359 3303 CircleF
2359 3441 CircleF
2359 3477 CircleF
2359 3503 CircleF
2359 3523 CircleF
2359 3551 CircleF
2359 3561 CircleF
2359 3562 CircleF
2359 3565 CircleF
2359 3566 CircleF
2402 2303 CircleF
2402 2643 CircleF
2402 2858 CircleF
2402 3025 CircleF
2402 3226 CircleF
2402 3344 CircleF
2402 3433 CircleF
2402 3498 CircleF
2402 3532 CircleF
2402 3560 CircleF
2402 3587 CircleF
2402 3587 CircleF
2402 3591 CircleF
2402 3594 CircleF
2402 3595 CircleF
2444 2265 CircleF
2444 2683 CircleF
2444 2886 CircleF
2444 3071 CircleF
2444 3244 CircleF
2444 3389 CircleF
2444 3482 CircleF
2444 3546 CircleF
2444 3576 CircleF
2444 3577 CircleF
2444 3615 CircleF
2444 3618 CircleF
2444 3619 CircleF
2444 3622 CircleF
2444 3623 CircleF
2486 2307 CircleF
2486 2703 CircleF
2486 2917 CircleF
2486 3098 CircleF
2486 3286 CircleF
2486 3420 CircleF
2486 3488 CircleF
2486 3551 CircleF
2486 3590 CircleF
2486 3616 CircleF
2486 3643 CircleF
2486 3646 CircleF
2486 3648 CircleF
2486 3651 CircleF
2486 3652 CircleF
2528 2389 CircleF
2528 2746 CircleF
2528 2940 CircleF
2528 3134 CircleF
2528 3312 CircleF
2528 3442 CircleF
2528 3561 CircleF
2528 3587 CircleF
2528 3621 CircleF
2528 3639 CircleF
2528 3669 CircleF
2528 3678 CircleF
2528 3678 CircleF
2528 3680 CircleF
2528 3681 CircleF
2570 2378 CircleF
2570 2768 CircleF
2570 2975 CircleF
2570 3150 CircleF
2570 3315 CircleF
2570 3478 CircleF
2570 3585 CircleF
2570 3630 CircleF
2570 3655 CircleF
2570 3670 CircleF
2570 3697 CircleF
2570 3703 CircleF
2570 3707 CircleF
2570 3709 CircleF
2570 3710 CircleF
2612 2441 CircleF
2612 2801 CircleF
2612 2994 CircleF
2612 3189 CircleF
2612 3371 CircleF
2612 3504 CircleF
2612 3586 CircleF
2612 3647 CircleF
2612 3678 CircleF
2612 3696 CircleF
2612 3729 CircleF
2612 3732 CircleF
2612 3735 CircleF
2612 3737 CircleF
2612 3738 CircleF
2655 2385 CircleF
2655 2766 CircleF
2655 3027 CircleF
2655 3225 CircleF
2655 3384 CircleF
2655 3525 CircleF
2655 3608 CircleF
2655 3655 CircleF
2655 3713 CircleF
2655 3724 CircleF
2655 3755 CircleF
2655 3760 CircleF
2655 3764 CircleF
2655 3766 CircleF
2697 2458 CircleF
2697 2854 CircleF
2697 3049 CircleF
2697 3251 CircleF
2697 3421 CircleF
2697 3558 CircleF
2697 3629 CircleF
2697 3703 CircleF
2697 3733 CircleF
2697 3757 CircleF
2697 3785 CircleF
2697 3789 CircleF
2697 3792 CircleF
2697 3795 CircleF
2739 2462 CircleF
2739 2883 CircleF
2739 3094 CircleF
2739 3283 CircleF
2739 3444 CircleF
2739 3588 CircleF
2739 3659 CircleF
2739 3724 CircleF
2739 3769 CircleF
2739 3784 CircleF
2739 3812 CircleF
2739 3817 CircleF
2739 3820 CircleF
2739 3823 CircleF
2781 2477 CircleF
2781 2892 CircleF
2781 3122 CircleF
2781 3315 CircleF
2781 3479 CircleF
2781 3620 CircleF
2781 3685 CircleF
2781 3756 CircleF
2781 3802 CircleF
2781 3811 CircleF
2781 3840 CircleF
2781 3847 CircleF
2781 3851 CircleF
2781 3852 CircleF
2824 2509 CircleF
2824 2932 CircleF
2824 3144 CircleF
2824 3337 CircleF
2824 3500 CircleF
2824 3648 CircleF
2824 3716 CircleF
2824 3776 CircleF
2824 3821 CircleF
2824 3839 CircleF
2824 3869 CircleF
2824 3878 CircleF
2824 3878 CircleF
2824 3881 CircleF
2866 2575 CircleF
2866 2974 CircleF
2866 3182 CircleF
2866 3351 CircleF
2866 3536 CircleF
2866 3657 CircleF
2866 3746 CircleF
2866 3812 CircleF
2866 3859 CircleF
2866 3871 CircleF
2866 3899 CircleF
2866 3905 CircleF
2866 3907 CircleF
2866 3910 CircleF
2908 2621 CircleF
2908 2995 CircleF
2908 3203 CircleF
2908 3389 CircleF
2908 3572 CircleF
2908 3690 CircleF
2908 3782 CircleF
2908 3849 CircleF
2908 3879 CircleF
2908 3907 CircleF
2908 3931 CircleF
2908 3933 CircleF
2908 3935 CircleF
2908 3938 CircleF
2950 2656 CircleF
2950 3039 CircleF
2950 3227 CircleF
2950 3421 CircleF
2950 3592 CircleF
2950 3725 CircleF
2950 3821 CircleF
2950 3870 CircleF
2950 3905 CircleF
2950 3933 CircleF
2950 3960 CircleF
2950 3962 CircleF
2950 3964 CircleF
2992 2678 CircleF
2992 3064 CircleF
2992 3259 CircleF
2992 3439 CircleF
2992 3566 CircleF
2992 3762 CircleF
2992 3871 CircleF
2992 3899 CircleF
2992 3931 CircleF
2992 3954 CircleF
2992 3986 CircleF
2992 3990 CircleF
2992 3993 CircleF
3035 2684 CircleF
3035 3090 CircleF
3035 3291 CircleF
3035 3472 CircleF
3035 3632 CircleF
3035 3786 CircleF
3035 3903 CircleF
3035 3928 CircleF
3035 3961 CircleF
3035 3983 CircleF
3035 4016 CircleF
3035 4019 CircleF
3035 4022 CircleF
3077 2673 CircleF
3077 3063 CircleF
3077 3304 CircleF
3077 3482 CircleF
3077 3648 CircleF
3077 3820 CircleF
3077 3907 CircleF
3077 3946 CircleF
3077 3990 CircleF
3077 4010 CircleF
3077 4040 CircleF
3077 4048 CircleF
3077 4051 CircleF
3119 2723 CircleF
3119 3131 CircleF
3119 3343 CircleF
3119 3481 CircleF
3119 3689 CircleF
3119 3837 CircleF
3119 3928 CircleF
3119 3991 CircleF
3119 4021 CircleF
3119 4050 CircleF
3119 4070 CircleF
3119 4073 CircleF
3119 4079 CircleF
3161 2726 CircleF
3161 3169 CircleF
3161 3377 CircleF
3161 3572 CircleF
3161 3733 CircleF
3161 3866 CircleF
3161 3978 CircleF
3161 4010 CircleF
3161 4049 CircleF
3161 4069 CircleF
3161 4097 CircleF
3161 4106 CircleF
3161 4105 CircleF
3204 2779 CircleF
3204 3194 CircleF
3204 3389 CircleF
3204 3601 CircleF
3204 3749 CircleF
3204 3900 CircleF
3204 3966 CircleF
3204 4057 CircleF
3204 4084 CircleF
3204 4095 CircleF
3204 4130 CircleF
3204 4132 CircleF
3204 4132 CircleF
3246 2791 CircleF
3246 3225 CircleF
3246 3438 CircleF
3246 3614 CircleF
3246 3803 CircleF
3246 3916 CircleF
3246 4023 CircleF
3246 4062 CircleF
3246 4117 CircleF
3246 4130 CircleF
3246 4154 CircleF
3246 4157 CircleF
3288 2828 CircleF
3288 3247 CircleF
3288 3464 CircleF
3288 3636 CircleF
3288 3825 CircleF
3288 3935 CircleF
3288 4021 CircleF
3288 4114 CircleF
3288 4134 CircleF
3288 4151 CircleF
3288 4173 CircleF
3288 4177 CircleF
3330 2896 CircleF
3330 3278 CircleF
3330 3483 CircleF
3330 3670 CircleF
3330 3825 CircleF
3330 3946 CircleF
3330 4035 CircleF
3330 4087 CircleF
3330 4120 CircleF
3330 4128 CircleF
3330 4121 CircleF
3330 4127 CircleF
3372 2943 CircleF
3372 3311 CircleF
3372 3497 CircleF
3372 3674 CircleF
3372 3816 CircleF
3372 3921 CircleF
3372 3992 CircleF
3372 4031 CircleF
3372 4046 CircleF
3372 4057 CircleF
3372 4067 CircleF
3372 4073 CircleF
3415 2411 CircleF
3415 3331 CircleF
3415 3538 CircleF
3415 3693 CircleF
3415 3843 CircleF
3415 3952 CircleF
3415 4022 CircleF
3415 4047 CircleF
3415 4087 CircleF
3415 4098 CircleF
3415 4098 CircleF
3415 4101 CircleF
3457 2937 CircleF
3457 3363 CircleF
3457 3562 CircleF
3457 3733 CircleF
3457 3868 CircleF
3457 3976 CircleF
3457 4050 CircleF
3457 4095 CircleF
3457 4116 CircleF
3457 4118 CircleF
3457 4126 CircleF
3457 4130 CircleF
3499 2996 CircleF
3499 3389 CircleF
3499 3581 CircleF
3499 3745 CircleF
3499 3892 CircleF
3499 3942 CircleF
3499 4067 CircleF
3499 4110 CircleF
3499 4148 CircleF
3499 4139 CircleF
3499 4156 CircleF
3499 4158 CircleF
3541 3000 CircleF
3541 3420 CircleF
3541 3612 CircleF
3541 3785 CircleF
3541 3927 CircleF
3541 4029 CircleF
3541 4103 CircleF
3541 4151 CircleF
3541 4160 CircleF
3541 4169 CircleF
3541 4181 CircleF
3584 3017 CircleF
3584 3451 CircleF
3584 3637 CircleF
3584 3805 CircleF
3584 3957 CircleF
3584 4063 CircleF
3584 4110 CircleF
3584 4174 CircleF
3584 4194 CircleF
3584 4198 CircleF
3584 4205 CircleF
3626 3099 CircleF
3626 3409 CircleF
3626 3664 CircleF
3626 3846 CircleF
3626 3983 CircleF
3626 4085 CircleF
3626 4154 CircleF
3626 4198 CircleF
3626 4215 CircleF
3626 4214 CircleF
3626 4228 CircleF
3668 3098 CircleF
3668 3496 CircleF
3668 3688 CircleF
3668 3842 CircleF
3668 3958 CircleF
3668 4042 CircleF
3668 4096 CircleF
3668 4130 CircleF
3668 4146 CircleF
3668 4156 CircleF
3668 4160 CircleF
3710 3167 CircleF
3710 3534 CircleF
3710 3699 CircleF
3710 3870 CircleF
3710 3987 CircleF
3710 4070 CircleF
3710 4125 CircleF
3710 4156 CircleF
3710 4174 CircleF
3710 4184 CircleF
3710 4189 CircleF
3752 3167 CircleF
3752 3547 CircleF
3752 3727 CircleF
3752 3895 CircleF
3752 4010 CircleF
3752 4096 CircleF
3752 4152 CircleF
3752 4184 CircleF
3752 4202 CircleF
3752 4211 CircleF
3752 4216 CircleF
3795 3201 CircleF
3795 3586 CircleF
3795 3752 CircleF
3795 3913 CircleF
3795 4038 CircleF
3795 4123 CircleF
3795 4175 CircleF
3795 4208 CircleF
3795 4226 CircleF
3795 4235 CircleF
3795 4240 CircleF
3837 3227 CircleF
3837 3581 CircleF
3837 3761 CircleF
3837 3891 CircleF
3837 4008 CircleF
3837 4082 CircleF
3837 4125 CircleF
3837 4162 CircleF
3837 4176 CircleF
3837 4184 CircleF
3837 4188 CircleF
3879 3218 CircleF
3879 3618 CircleF
3879 3800 CircleF
3879 3938 CircleF
3879 4054 CircleF
3879 4121 CircleF
3879 4166 CircleF
3879 4193 CircleF
3879 4205 CircleF
3879 4212 CircleF
3921 3249 CircleF
3921 3649 CircleF
3921 3825 CircleF
3921 3978 CircleF
3921 4077 CircleF
3921 4151 CircleF
3921 4193 CircleF
3921 4218 CircleF
3921 4230 CircleF
3921 4237 CircleF
3964 3310 CircleF
3964 3675 CircleF
3964 3835 CircleF
3964 3972 CircleF
3964 4069 CircleF
3964 4129 CircleF
3964 4162 CircleF
3964 4183 CircleF
3964 4195 CircleF
3964 4201 CircleF
4006 3349 CircleF
4006 3706 CircleF
4006 3858 CircleF
4006 3995 CircleF
4006 4096 CircleF
4006 4156 CircleF
4006 4190 CircleF
4006 4211 CircleF
4006 4223 CircleF
4006 4228 CircleF
4048 3378 CircleF
4048 3717 CircleF
4048 3876 CircleF
4048 4002 CircleF
4048 4025 CircleF
4048 4139 CircleF
4048 4175 CircleF
4048 4190 CircleF
4048 4199 CircleF
4048 4203 CircleF
4090 3355 CircleF
4090 3744 CircleF
4090 3907 CircleF
4090 4034 CircleF
4090 4112 CircleF
4090 4152 CircleF
4090 4199 CircleF
4090 4218 CircleF
4090 4226 CircleF
4090 4231 CircleF
4132 3404 CircleF
4132 3770 CircleF
4132 3915 CircleF
4132 4037 CircleF
4132 4111 CircleF
4132 4159 CircleF
4132 4184 CircleF
4132 4201 CircleF
4132 4209 CircleF
4132 4213 CircleF
4175 3407 CircleF
4175 3795 CircleF
4175 3944 CircleF
4175 4056 CircleF
4175 4133 CircleF
4175 4185 CircleF
4175 4210 CircleF
4175 4228 CircleF
4175 4235 CircleF
4217 3453 CircleF
4217 3819 CircleF
4217 3959 CircleF
4217 4066 CircleF
4217 4139 CircleF
4217 4181 CircleF
4217 4206 CircleF
4217 4218 CircleF
4217 4226 CircleF
4259 3507 CircleF
4259 3820 CircleF
4259 3970 CircleF
4259 4069 CircleF
4259 4136 CircleF
4259 4178 CircleF
4259 4202 CircleF
4259 4212 CircleF
4259 4220 CircleF
4301 3530 CircleF
4301 3839 CircleF
4301 3985 CircleF
4301 4083 CircleF
4301 4139 CircleF
4301 4179 CircleF
4301 4199 CircleF
4301 4212 CircleF
4301 4217 CircleF
4344 3512 CircleF
4344 3873 CircleF
4344 4015 CircleF
4344 4105 CircleF
4344 4168 CircleF
4344 4206 CircleF
4344 4225 CircleF
4344 4236 CircleF
4344 4242 CircleF
4386 3528 CircleF
4386 3889 CircleF
4386 4026 CircleF
4386 4120 CircleF
4386 4174 CircleF
4386 4210 CircleF
4386 4228 CircleF
4386 4237 CircleF
4386 4242 CircleF
4428 3584 CircleF
4428 3907 CircleF
4428 4026 CircleF
4428 4119 CircleF
4428 4165 CircleF
4428 4196 CircleF
4428 4211 CircleF
4428 4219 CircleF
4428 4223 CircleF
4470 3535 CircleF
4470 3925 CircleF
4470 4044 CircleF
4470 4121 CircleF
4470 4175 CircleF
4470 4204 CircleF
4470 4218 CircleF
4470 4225 CircleF
4512 3610 CircleF
4512 3950 CircleF
4512 4057 CircleF
4512 4140 CircleF
4512 4186 CircleF
4512 4211 CircleF
4512 4225 CircleF
4512 4233 CircleF
4555 3646 CircleF
4555 3967 CircleF
4555 4064 CircleF
4555 4143 CircleF
4555 4183 CircleF
4555 4208 CircleF
4555 4218 CircleF
4555 4223 CircleF
4597 3702 CircleF
4597 3984 CircleF
4597 4086 CircleF
4597 4156 CircleF
4597 4195 CircleF
4597 4215 CircleF
4597 4230 CircleF
4597 4236 CircleF
4639 3669 CircleF
4639 3937 CircleF
4639 4089 CircleF
4639 4156 CircleF
4639 4194 CircleF
4639 4215 CircleF
4639 4226 CircleF
4639 4232 CircleF
4681 3634 CircleF
4681 3875 CircleF
4681 4068 CircleF
4681 4123 CircleF
4681 4183 CircleF
4681 4213 CircleF
4681 4226 CircleF
4681 4231 CircleF
4724 3593 CircleF
4724 3862 CircleF
4724 4043 CircleF
4724 4120 CircleF
4724 4186 CircleF
4724 4212 CircleF
4724 4226 CircleF
4724 4232 CircleF
4766 3611 CircleF
4766 3855 CircleF
4766 4020 CircleF
4766 4120 CircleF
4766 4165 CircleF
4766 4201 CircleF
4766 4213 CircleF
4808 3638 CircleF
4808 3844 CircleF
4808 3972 CircleF
4808 4071 CircleF
4808 4125 CircleF
4808 4139 CircleF
4808 4155 CircleF
4850 3656 CircleF
4850 3831 CircleF
4850 3959 CircleF
4850 4058 CircleF
4850 4056 CircleF
4850 4070 CircleF
4850 4076 CircleF
4892 3667 CircleF
4892 3834 CircleF
4892 3950 CircleF
4892 4005 CircleF
4892 4018 CircleF
4892 4021 CircleF
4892 4025 CircleF
4935 3680 CircleF
4935 3822 CircleF
4935 3934 CircleF
4935 3979 CircleF
4935 3992 CircleF
4935 3995 CircleF
4935 3998 CircleF
4977 3666 CircleF
4977 3821 CircleF
4977 3894 CircleF
4977 3958 CircleF
4977 3976 CircleF
4977 3990 CircleF
4977 3996 CircleF
5019 3705 CircleF
5019 3820 CircleF
5019 3859 CircleF
5019 3940 CircleF
5019 3973 CircleF
5019 3976 CircleF
5019 3981 CircleF
5061 3712 CircleF
5061 3824 CircleF
5061 3846 CircleF
5061 3871 CircleF
5061 3963 CircleF
5061 3991 CircleF
5061 3993 CircleF
5104 3727 CircleF
5104 3825 CircleF
5104 3844 CircleF
5104 3856 CircleF
5104 3866 CircleF
5104 3896 CircleF
5146 3737 CircleF
5146 3828 CircleF
5146 3844 CircleF
5146 3851 CircleF
5146 3857 CircleF
5146 3860 CircleF
5188 3731 CircleF
5188 3827 CircleF
5188 3847 CircleF
5188 3851 CircleF
5188 3855 CircleF
5188 3857 CircleF
5230 3744 CircleF
5230 3831 CircleF
5230 3843 CircleF
5230 3851 CircleF
5230 3855 CircleF
5230 3856 CircleF
5272 3758 CircleF
5272 3834 CircleF
5272 3849 CircleF
5272 3851 CircleF
5272 3854 CircleF
5272 3855 CircleF
5315 3769 CircleF
5315 3837 CircleF
5315 3844 CircleF
5315 3852 CircleF
5315 3853 CircleF
5315 3855 CircleF
5357 3776 CircleF
5357 3840 CircleF
5357 3849 CircleF
5357 3851 CircleF
5357 3852 CircleF
5357 3852 CircleF
5399 3773 CircleF
5399 3842 CircleF
5399 3850 CircleF
5399 3852 CircleF
5399 3852 CircleF
5441 3783 CircleF
5441 3841 CircleF
5441 3851 CircleF
5441 3852 CircleF
5441 3851 CircleF
5484 3792 CircleF
5484 3844 CircleF
5484 3851 CircleF
5484 3852 CircleF
5484 3851 CircleF
5526 3793 CircleF
5526 3845 CircleF
5526 3850 CircleF
5526 3848 CircleF
5526 3850 CircleF
5568 3800 CircleF
5568 3847 CircleF
5568 3850 CircleF
5568 3852 CircleF
5568 3850 CircleF
5610 3808 CircleF
5610 3847 CircleF
5610 3851 CircleF
5610 3852 CircleF
5610 3848 CircleF
5652 3816 CircleF
5652 3848 CircleF
5652 3851 CircleF
5652 3849 CircleF
5652 3846 CircleF
5695 3818 CircleF
5695 3850 CircleF
5695 3852 CircleF
5695 3849 CircleF
5737 3823 CircleF
5737 3850 CircleF
5737 3852 CircleF
5737 3849 CircleF
5779 3825 CircleF
5779 3851 CircleF
5779 3852 CircleF
5779 3849 CircleF
5821 3827 CircleF
5821 3852 CircleF
5821 3852 CircleF
5821 3849 CircleF
5864 3737 CircleF
5864 3850 CircleF
5864 3852 CircleF
5864 3849 CircleF
5906 3833 CircleF
5906 3853 CircleF
5906 3848 CircleF
5906 3849 CircleF
5948 3832 CircleF
5948 3850 CircleF
5948 3851 CircleF
5948 3846 CircleF
5990 3832 CircleF
5990 3851 CircleF
5990 3852 CircleF
5990 3847 CircleF
6033 3839 CircleF
6033 3851 CircleF
6033 3849 CircleF
6075 3839 CircleF
6075 3849 CircleF
6075 3848 CircleF
6117 3841 CircleF
6117 3853 CircleF
6117 3851 CircleF
6159 3842 CircleF
6159 3849 CircleF
6159 3849 CircleF
6201 3842 CircleF
6201 3851 CircleF
6201 3848 CircleF
6244 3843 CircleF
6244 3851 CircleF
6244 3846 CircleF
6286 3842 CircleF
6286 3851 CircleF
6286 3848 CircleF
6328 3846 CircleF
6328 3852 CircleF
6370 3847 CircleF
6370 3850 CircleF
6413 3846 CircleF
6413 3851 CircleF
6455 3848 CircleF
6455 3849 CircleF
6497 3846 CircleF
6497 3847 CircleF
6539 3847 CircleF
6539 3847 CircleF
6581 3847 CircleF
6581 3847 CircleF
6624 3847 CircleF
6666 3847 CircleF
6708 3848 CircleF
6750 3847 CircleF
6793 3846 CircleF
6835 3844 CircleF
6877 3843 CircleF
% End plot #1
2.000 UL
LTb
LCb setrgbcolor
1.000 UL
LTB
LCb setrgbcolor
770 4619 N
770 448 L
6107 0 V
0 4171 V
-6107 0 V
Z stroke
1.000 UP
1.000 UL
LTb
LCb setrgbcolor
stroke
grestore
end
showpage
%%Trailer
%%DocumentFonts: Helvetica
%%Pages: 1
