%!PS-Adobe-2.0
%%Title: Results.daisy.v100/Run.001/FLOPS.001/GPU_Blocks.0160/GPU_Threads.1024/graph4.ps
%%Creator: gnuplot 5.2 patchlevel 7
%%CreationDate: Sun Jan 19 15:20:28 2020
%%DocumentFonts: (atend)
%%BoundingBox: 50 50 554 770
%%Orientation: Landscape
%%Pages: (atend)
%%EndComments
%%BeginProlog
/gnudict 256 dict def
gnudict begin
%
% The following true/false flags may be edited by hand if desired.
% The unit line width and grayscale image gamma correction may also be changed.
%
/Color true def
/Blacktext false def
/Solid false def
/Dashlength 1 def
/Landscape true def
/Level1 false def
/Level3 false def
/Rounded false def
/ClipToBoundingBox false def
/SuppressPDFMark false def
/TransparentPatterns false def
/gnulinewidth 5.000 def
/userlinewidth gnulinewidth def
/Gamma 1.0 def
/BackgroundColor {-1.000 -1.000 -1.000} def
%
/vshift -46 def
/dl1 {
  10.0 Dashlength userlinewidth gnulinewidth div mul mul mul
  Rounded { currentlinewidth 0.75 mul sub dup 0 le { pop 0.01 } if } if
} def
/dl2 {
  10.0 Dashlength userlinewidth gnulinewidth div mul mul mul
  Rounded { currentlinewidth 0.75 mul add } if
} def
/hpt_ 31.5 def
/vpt_ 31.5 def
/hpt hpt_ def
/vpt vpt_ def
/doclip {
  ClipToBoundingBox {
    newpath 50 50 moveto 554 50 lineto 554 770 lineto 50 770 lineto closepath
    clip
  } if
} def
%
% Gnuplot Prolog Version 5.2 (Dec 2017)
%
%/SuppressPDFMark true def
%
/M {moveto} bind def
/L {lineto} bind def
/R {rmoveto} bind def
/V {rlineto} bind def
/N {newpath moveto} bind def
/Z {closepath} bind def
/C {setrgbcolor} bind def
/f {rlineto fill} bind def
/g {setgray} bind def
/Gshow {show} def   % May be redefined later in the file to support UTF-8
/vpt2 vpt 2 mul def
/hpt2 hpt 2 mul def
/Lshow {currentpoint stroke M 0 vshift R 
	Blacktext {gsave 0 setgray textshow grestore} {textshow} ifelse} def
/Rshow {currentpoint stroke M dup stringwidth pop neg vshift R
	Blacktext {gsave 0 setgray textshow grestore} {textshow} ifelse} def
/Cshow {currentpoint stroke M dup stringwidth pop -2 div vshift R 
	Blacktext {gsave 0 setgray textshow grestore} {textshow} ifelse} def
/UP {dup vpt_ mul /vpt exch def hpt_ mul /hpt exch def
  /hpt2 hpt 2 mul def /vpt2 vpt 2 mul def} def
/DL {Color {setrgbcolor Solid {pop []} if 0 setdash}
 {pop pop pop 0 setgray Solid {pop []} if 0 setdash} ifelse} def
/BL {stroke userlinewidth 2 mul setlinewidth
	Rounded {1 setlinejoin 1 setlinecap} if} def
/AL {stroke userlinewidth 2 div setlinewidth
	Rounded {1 setlinejoin 1 setlinecap} if} def
/UL {dup gnulinewidth mul /userlinewidth exch def
	dup 1 lt {pop 1} if 10 mul /udl exch def} def
/PL {stroke userlinewidth setlinewidth
	Rounded {1 setlinejoin 1 setlinecap} if} def
3.8 setmiterlimit
% Classic Line colors (version 5.0)
/LCw {1 1 1} def
/LCb {0 0 0} def
/LCa {0 0 0} def
/LC0 {1 0 0} def
/LC1 {0 1 0} def
/LC2 {0 0 1} def
/LC3 {1 0 1} def
/LC4 {0 1 1} def
/LC5 {1 1 0} def
/LC6 {0 0 0} def
/LC7 {1 0.3 0} def
/LC8 {0.5 0.5 0.5} def
% Default dash patterns (version 5.0)
/LTB {BL [] LCb DL} def
/LTw {PL [] 1 setgray} def
/LTb {PL [] LCb DL} def
/LTa {AL [1 udl mul 2 udl mul] 0 setdash LCa setrgbcolor} def
/LT0 {PL [] LC0 DL} def
/LT1 {PL [2 dl1 3 dl2] LC1 DL} def
/LT2 {PL [1 dl1 1.5 dl2] LC2 DL} def
/LT3 {PL [6 dl1 2 dl2 1 dl1 2 dl2] LC3 DL} def
/LT4 {PL [1 dl1 2 dl2 6 dl1 2 dl2 1 dl1 2 dl2] LC4 DL} def
/LT5 {PL [4 dl1 2 dl2] LC5 DL} def
/LT6 {PL [1.5 dl1 1.5 dl2 1.5 dl1 1.5 dl2 1.5 dl1 6 dl2] LC6 DL} def
/LT7 {PL [3 dl1 3 dl2 1 dl1 3 dl2] LC7 DL} def
/LT8 {PL [2 dl1 2 dl2 2 dl1 6 dl2] LC8 DL} def
/SL {[] 0 setdash} def
/Pnt {stroke [] 0 setdash gsave 1 setlinecap M 0 0 V stroke grestore} def
/Dia {stroke [] 0 setdash 2 copy vpt add M
  hpt neg vpt neg V hpt vpt neg V
  hpt vpt V hpt neg vpt V closepath stroke
  Pnt} def
/Pls {stroke [] 0 setdash vpt sub M 0 vpt2 V
  currentpoint stroke M
  hpt neg vpt neg R hpt2 0 V stroke
 } def
/Box {stroke [] 0 setdash 2 copy exch hpt sub exch vpt add M
  0 vpt2 neg V hpt2 0 V 0 vpt2 V
  hpt2 neg 0 V closepath stroke
  Pnt} def
/Crs {stroke [] 0 setdash exch hpt sub exch vpt add M
  hpt2 vpt2 neg V currentpoint stroke M
  hpt2 neg 0 R hpt2 vpt2 V stroke} def
/TriU {stroke [] 0 setdash 2 copy vpt 1.12 mul add M
  hpt neg vpt -1.62 mul V
  hpt 2 mul 0 V
  hpt neg vpt 1.62 mul V closepath stroke
  Pnt} def
/Star {2 copy Pls Crs} def
/BoxF {stroke [] 0 setdash exch hpt sub exch vpt add M
  0 vpt2 neg V hpt2 0 V 0 vpt2 V
  hpt2 neg 0 V closepath fill} def
/TriUF {stroke [] 0 setdash vpt 1.12 mul add M
  hpt neg vpt -1.62 mul V
  hpt 2 mul 0 V
  hpt neg vpt 1.62 mul V closepath fill} def
/TriD {stroke [] 0 setdash 2 copy vpt 1.12 mul sub M
  hpt neg vpt 1.62 mul V
  hpt 2 mul 0 V
  hpt neg vpt -1.62 mul V closepath stroke
  Pnt} def
/TriDF {stroke [] 0 setdash vpt 1.12 mul sub M
  hpt neg vpt 1.62 mul V
  hpt 2 mul 0 V
  hpt neg vpt -1.62 mul V closepath fill} def
/DiaF {stroke [] 0 setdash vpt add M
  hpt neg vpt neg V hpt vpt neg V
  hpt vpt V hpt neg vpt V closepath fill} def
/Pent {stroke [] 0 setdash 2 copy gsave
  translate 0 hpt M 4 {72 rotate 0 hpt L} repeat
  closepath stroke grestore Pnt} def
/PentF {stroke [] 0 setdash gsave
  translate 0 hpt M 4 {72 rotate 0 hpt L} repeat
  closepath fill grestore} def
/Circle {stroke [] 0 setdash 2 copy
  hpt 0 360 arc stroke Pnt} def
/CircleF {stroke [] 0 setdash hpt 0 360 arc fill} def
/C0 {BL [] 0 setdash 2 copy moveto vpt 90 450 arc} bind def
/C1 {BL [] 0 setdash 2 copy moveto
	2 copy vpt 0 90 arc closepath fill
	vpt 0 360 arc closepath} bind def
/C2 {BL [] 0 setdash 2 copy moveto
	2 copy vpt 90 180 arc closepath fill
	vpt 0 360 arc closepath} bind def
/C3 {BL [] 0 setdash 2 copy moveto
	2 copy vpt 0 180 arc closepath fill
	vpt 0 360 arc closepath} bind def
/C4 {BL [] 0 setdash 2 copy moveto
	2 copy vpt 180 270 arc closepath fill
	vpt 0 360 arc closepath} bind def
/C5 {BL [] 0 setdash 2 copy moveto
	2 copy vpt 0 90 arc
	2 copy moveto
	2 copy vpt 180 270 arc closepath fill
	vpt 0 360 arc} bind def
/C6 {BL [] 0 setdash 2 copy moveto
	2 copy vpt 90 270 arc closepath fill
	vpt 0 360 arc closepath} bind def
/C7 {BL [] 0 setdash 2 copy moveto
	2 copy vpt 0 270 arc closepath fill
	vpt 0 360 arc closepath} bind def
/C8 {BL [] 0 setdash 2 copy moveto
	2 copy vpt 270 360 arc closepath fill
	vpt 0 360 arc closepath} bind def
/C9 {BL [] 0 setdash 2 copy moveto
	2 copy vpt 270 450 arc closepath fill
	vpt 0 360 arc closepath} bind def
/C10 {BL [] 0 setdash 2 copy 2 copy moveto vpt 270 360 arc closepath fill
	2 copy moveto
	2 copy vpt 90 180 arc closepath fill
	vpt 0 360 arc closepath} bind def
/C11 {BL [] 0 setdash 2 copy moveto
	2 copy vpt 0 180 arc closepath fill
	2 copy moveto
	2 copy vpt 270 360 arc closepath fill
	vpt 0 360 arc closepath} bind def
/C12 {BL [] 0 setdash 2 copy moveto
	2 copy vpt 180 360 arc closepath fill
	vpt 0 360 arc closepath} bind def
/C13 {BL [] 0 setdash 2 copy moveto
	2 copy vpt 0 90 arc closepath fill
	2 copy moveto
	2 copy vpt 180 360 arc closepath fill
	vpt 0 360 arc closepath} bind def
/C14 {BL [] 0 setdash 2 copy moveto
	2 copy vpt 90 360 arc closepath fill
	vpt 0 360 arc} bind def
/C15 {BL [] 0 setdash 2 copy vpt 0 360 arc closepath fill
	vpt 0 360 arc closepath} bind def
/Rec {newpath 4 2 roll moveto 1 index 0 rlineto 0 exch rlineto
	neg 0 rlineto closepath} bind def
/Square {dup Rec} bind def
/Bsquare {vpt sub exch vpt sub exch vpt2 Square} bind def
/S0 {BL [] 0 setdash 2 copy moveto 0 vpt rlineto BL Bsquare} bind def
/S1 {BL [] 0 setdash 2 copy vpt Square fill Bsquare} bind def
/S2 {BL [] 0 setdash 2 copy exch vpt sub exch vpt Square fill Bsquare} bind def
/S3 {BL [] 0 setdash 2 copy exch vpt sub exch vpt2 vpt Rec fill Bsquare} bind def
/S4 {BL [] 0 setdash 2 copy exch vpt sub exch vpt sub vpt Square fill Bsquare} bind def
/S5 {BL [] 0 setdash 2 copy 2 copy vpt Square fill
	exch vpt sub exch vpt sub vpt Square fill Bsquare} bind def
/S6 {BL [] 0 setdash 2 copy exch vpt sub exch vpt sub vpt vpt2 Rec fill Bsquare} bind def
/S7 {BL [] 0 setdash 2 copy exch vpt sub exch vpt sub vpt vpt2 Rec fill
	2 copy vpt Square fill Bsquare} bind def
/S8 {BL [] 0 setdash 2 copy vpt sub vpt Square fill Bsquare} bind def
/S9 {BL [] 0 setdash 2 copy vpt sub vpt vpt2 Rec fill Bsquare} bind def
/S10 {BL [] 0 setdash 2 copy vpt sub vpt Square fill 2 copy exch vpt sub exch vpt Square fill
	Bsquare} bind def
/S11 {BL [] 0 setdash 2 copy vpt sub vpt Square fill 2 copy exch vpt sub exch vpt2 vpt Rec fill
	Bsquare} bind def
/S12 {BL [] 0 setdash 2 copy exch vpt sub exch vpt sub vpt2 vpt Rec fill Bsquare} bind def
/S13 {BL [] 0 setdash 2 copy exch vpt sub exch vpt sub vpt2 vpt Rec fill
	2 copy vpt Square fill Bsquare} bind def
/S14 {BL [] 0 setdash 2 copy exch vpt sub exch vpt sub vpt2 vpt Rec fill
	2 copy exch vpt sub exch vpt Square fill Bsquare} bind def
/S15 {BL [] 0 setdash 2 copy Bsquare fill Bsquare} bind def
/D0 {gsave translate 45 rotate 0 0 S0 stroke grestore} bind def
/D1 {gsave translate 45 rotate 0 0 S1 stroke grestore} bind def
/D2 {gsave translate 45 rotate 0 0 S2 stroke grestore} bind def
/D3 {gsave translate 45 rotate 0 0 S3 stroke grestore} bind def
/D4 {gsave translate 45 rotate 0 0 S4 stroke grestore} bind def
/D5 {gsave translate 45 rotate 0 0 S5 stroke grestore} bind def
/D6 {gsave translate 45 rotate 0 0 S6 stroke grestore} bind def
/D7 {gsave translate 45 rotate 0 0 S7 stroke grestore} bind def
/D8 {gsave translate 45 rotate 0 0 S8 stroke grestore} bind def
/D9 {gsave translate 45 rotate 0 0 S9 stroke grestore} bind def
/D10 {gsave translate 45 rotate 0 0 S10 stroke grestore} bind def
/D11 {gsave translate 45 rotate 0 0 S11 stroke grestore} bind def
/D12 {gsave translate 45 rotate 0 0 S12 stroke grestore} bind def
/D13 {gsave translate 45 rotate 0 0 S13 stroke grestore} bind def
/D14 {gsave translate 45 rotate 0 0 S14 stroke grestore} bind def
/D15 {gsave translate 45 rotate 0 0 S15 stroke grestore} bind def
/DiaE {stroke [] 0 setdash vpt add M
  hpt neg vpt neg V hpt vpt neg V
  hpt vpt V hpt neg vpt V closepath stroke} def
/BoxE {stroke [] 0 setdash exch hpt sub exch vpt add M
  0 vpt2 neg V hpt2 0 V 0 vpt2 V
  hpt2 neg 0 V closepath stroke} def
/TriUE {stroke [] 0 setdash vpt 1.12 mul add M
  hpt neg vpt -1.62 mul V
  hpt 2 mul 0 V
  hpt neg vpt 1.62 mul V closepath stroke} def
/TriDE {stroke [] 0 setdash vpt 1.12 mul sub M
  hpt neg vpt 1.62 mul V
  hpt 2 mul 0 V
  hpt neg vpt -1.62 mul V closepath stroke} def
/PentE {stroke [] 0 setdash gsave
  translate 0 hpt M 4 {72 rotate 0 hpt L} repeat
  closepath stroke grestore} def
/CircE {stroke [] 0 setdash 
  hpt 0 360 arc stroke} def
/Opaque {gsave closepath 1 setgray fill grestore 0 setgray closepath} def
/DiaW {stroke [] 0 setdash vpt add M
  hpt neg vpt neg V hpt vpt neg V
  hpt vpt V hpt neg vpt V Opaque stroke} def
/BoxW {stroke [] 0 setdash exch hpt sub exch vpt add M
  0 vpt2 neg V hpt2 0 V 0 vpt2 V
  hpt2 neg 0 V Opaque stroke} def
/TriUW {stroke [] 0 setdash vpt 1.12 mul add M
  hpt neg vpt -1.62 mul V
  hpt 2 mul 0 V
  hpt neg vpt 1.62 mul V Opaque stroke} def
/TriDW {stroke [] 0 setdash vpt 1.12 mul sub M
  hpt neg vpt 1.62 mul V
  hpt 2 mul 0 V
  hpt neg vpt -1.62 mul V Opaque stroke} def
/PentW {stroke [] 0 setdash gsave
  translate 0 hpt M 4 {72 rotate 0 hpt L} repeat
  Opaque stroke grestore} def
/CircW {stroke [] 0 setdash 
  hpt 0 360 arc Opaque stroke} def
/BoxFill {gsave Rec 1 setgray fill grestore} def
/Density {
  /Fillden exch def
  currentrgbcolor
  /ColB exch def /ColG exch def /ColR exch def
  /ColR ColR Fillden mul Fillden sub 1 add def
  /ColG ColG Fillden mul Fillden sub 1 add def
  /ColB ColB Fillden mul Fillden sub 1 add def
  ColR ColG ColB setrgbcolor} def
/BoxColFill {gsave Rec PolyFill} def
/PolyFill {gsave Density fill grestore grestore} def
/h {rlineto rlineto rlineto closepath gsave fill grestore stroke} bind def
%
% PostScript Level 1 Pattern Fill routine for rectangles
% Usage: x y w h s a XX PatternFill
%	x,y = lower left corner of box to be filled
%	w,h = width and height of box
%	  a = angle in degrees between lines and x-axis
%	 XX = 0/1 for no/yes cross-hatch
%
/PatternFill {gsave /PFa [ 9 2 roll ] def
  PFa 0 get PFa 2 get 2 div add PFa 1 get PFa 3 get 2 div add translate
  PFa 2 get -2 div PFa 3 get -2 div PFa 2 get PFa 3 get Rec
  TransparentPatterns {} {gsave 1 setgray fill grestore} ifelse
  clip
  currentlinewidth 0.5 mul setlinewidth
  /PFs PFa 2 get dup mul PFa 3 get dup mul add sqrt def
  0 0 M PFa 5 get rotate PFs -2 div dup translate
  0 1 PFs PFa 4 get div 1 add floor cvi
	{PFa 4 get mul 0 M 0 PFs V} for
  0 PFa 6 get ne {
	0 1 PFs PFa 4 get div 1 add floor cvi
	{PFa 4 get mul 0 2 1 roll M PFs 0 V} for
 } if
  stroke grestore} def
%
/languagelevel where
 {pop languagelevel} {1} ifelse
dup 2 lt
	{/InterpretLevel1 true def
	 /InterpretLevel3 false def}
	{/InterpretLevel1 Level1 def
	 2 gt
	    {/InterpretLevel3 Level3 def}
	    {/InterpretLevel3 false def}
	 ifelse }
 ifelse
%
% PostScript level 2 pattern fill definitions
%
/Level2PatternFill {
/Tile8x8 {/PaintType 2 /PatternType 1 /TilingType 1 /BBox [0 0 8 8] /XStep 8 /YStep 8}
	bind def
/KeepColor {currentrgbcolor [/Pattern /DeviceRGB] setcolorspace} bind def
<< Tile8x8
 /PaintProc {0.5 setlinewidth pop 0 0 M 8 8 L 0 8 M 8 0 L stroke} 
>> matrix makepattern
/Pat1 exch def
<< Tile8x8
 /PaintProc {0.5 setlinewidth pop 0 0 M 8 8 L 0 8 M 8 0 L stroke
	0 4 M 4 8 L 8 4 L 4 0 L 0 4 L stroke}
>> matrix makepattern
/Pat2 exch def
<< Tile8x8
 /PaintProc {0.5 setlinewidth pop 0 0 M 0 8 L
	8 8 L 8 0 L 0 0 L fill}
>> matrix makepattern
/Pat3 exch def
<< Tile8x8
 /PaintProc {0.5 setlinewidth pop -4 8 M 8 -4 L
	0 12 M 12 0 L stroke}
>> matrix makepattern
/Pat4 exch def
<< Tile8x8
 /PaintProc {0.5 setlinewidth pop -4 0 M 8 12 L
	0 -4 M 12 8 L stroke}
>> matrix makepattern
/Pat5 exch def
<< Tile8x8
 /PaintProc {0.5 setlinewidth pop -2 8 M 4 -4 L
	0 12 M 8 -4 L 4 12 M 10 0 L stroke}
>> matrix makepattern
/Pat6 exch def
<< Tile8x8
 /PaintProc {0.5 setlinewidth pop -2 0 M 4 12 L
	0 -4 M 8 12 L 4 -4 M 10 8 L stroke}
>> matrix makepattern
/Pat7 exch def
<< Tile8x8
 /PaintProc {0.5 setlinewidth pop 8 -2 M -4 4 L
	12 0 M -4 8 L 12 4 M 0 10 L stroke}
>> matrix makepattern
/Pat8 exch def
<< Tile8x8
 /PaintProc {0.5 setlinewidth pop 0 -2 M 12 4 L
	-4 0 M 12 8 L -4 4 M 8 10 L stroke}
>> matrix makepattern
/Pat9 exch def
/Pattern1 {PatternBgnd KeepColor Pat1 setpattern} bind def
/Pattern2 {PatternBgnd KeepColor Pat2 setpattern} bind def
/Pattern3 {PatternBgnd KeepColor Pat3 setpattern} bind def
/Pattern4 {PatternBgnd KeepColor Landscape {Pat5} {Pat4} ifelse setpattern} bind def
/Pattern5 {PatternBgnd KeepColor Landscape {Pat4} {Pat5} ifelse setpattern} bind def
/Pattern6 {PatternBgnd KeepColor Landscape {Pat9} {Pat6} ifelse setpattern} bind def
/Pattern7 {PatternBgnd KeepColor Landscape {Pat8} {Pat7} ifelse setpattern} bind def
} def
%
%
%End of PostScript Level 2 code
%
/PatternBgnd {
  TransparentPatterns {} {gsave 1 setgray fill grestore} ifelse
} def
%
% Substitute for Level 2 pattern fill codes with
% grayscale if Level 2 support is not selected.
%
/Level1PatternFill {
/Pattern1 {0.250 Density} bind def
/Pattern2 {0.500 Density} bind def
/Pattern3 {0.750 Density} bind def
/Pattern4 {0.125 Density} bind def
/Pattern5 {0.375 Density} bind def
/Pattern6 {0.625 Density} bind def
/Pattern7 {0.875 Density} bind def
} def
%
% Now test for support of Level 2 code
%
Level1 {Level1PatternFill} {Level2PatternFill} ifelse
%
/Symbol-Oblique /Symbol findfont [1 0 .167 1 0 0] makefont
dup length dict begin {1 index /FID eq {pop pop} {def} ifelse} forall
currentdict end definefont pop
%
/Metrics {ExtendTextBox Gswidth} def
/Lwidth {currentpoint stroke M 0 vshift R Metrics} def
/Rwidth {currentpoint stroke M dup stringwidth pop neg vshift R Metrics} def
/Cwidth {currentpoint stroke M dup stringwidth pop -2 div vshift R Metrics} def
/GLwidth {currentpoint stroke M 0 vshift R {ExtendTextBox} forall} def
/GRwidth {currentpoint stroke M dup Gwidth vshift R {ExtendTextBox} forall} def
/GCwidth {currentpoint stroke M dup Gwidth 2 div vshift R {ExtendTextBox} forall} def
/GLwidth2 {0 Gwidth AddGlyphWidth} def
/GRwidth2 {Gwidth -1 mul 0 AddGlyphWidth} def
/GCwidth2 {Gwidth 2 div dup -1 mul AddGlyphWidth} def
/AddGlyphWidth { dup TBx2 gt {userdict /TBx2 3 -1 roll put} {pop} ifelse
                 dup TBx1 lt {userdict /TBx1 3 -1 roll put} {pop} ifelse } def
/MFshow {
   { dup 5 get 3 ge
     { 5 get 3 eq {gsave} {grestore} ifelse }
     {dup dup 0 get findfont exch 1 get scalefont setfont
     [ currentpoint ] exch dup 2 get 0 exch R dup 5 get 2 ne {dup dup 6
     get exch 4 get {textshow} {Metrics pop 0 R} ifelse }if dup 5 get 0 eq
     {dup 3 get {2 get neg 0 exch R pop} {pop aload pop M} ifelse} {dup 5
     get 1 eq {dup 2 get exch dup 3 get exch 6 get Gswidth pop -2 div
     dup 0 R} {dup 6 get Gswidth pop -2 div 0 R 6 get
     textshow 2 index {aload pop M neg 3 -1 roll neg R pop pop} {pop pop pop
     pop aload pop M} ifelse }ifelse }ifelse }
     ifelse }
   forall} def
/Gswidth {dup type /stringtype eq {stringwidth} {pop (n) stringwidth} ifelse} def
/MFwidth {0 exch { dup 5 get 3 ge { 5 get 3 eq { 0 } { pop } ifelse }
 {dup 3 get{dup dup 0 get findfont exch 1 get scalefont setfont
     6 get Gswidth pop add} {pop} ifelse} ifelse} forall} def
/MLshow { currentpoint stroke M
  0 exch R
  Blacktext {gsave 0 setgray MFshow grestore} {MFshow} ifelse } bind def
/MRshow { currentpoint stroke M
  exch dup MFwidth neg 3 -1 roll R
  Blacktext {gsave 0 setgray MFshow grestore} {MFshow} ifelse } bind def
/MCshow { currentpoint stroke M
  exch dup MFwidth -2 div 3 -1 roll R
  Blacktext {gsave 0 setgray MFshow grestore} {MFshow} ifelse } bind def
/XYsave    { [( ) 1 2 true false 3 ()] } bind def
/XYrestore { [( ) 1 2 true false 4 ()] } bind def
Level1 SuppressPDFMark or 
{} {
/SDict 10 dict def
systemdict /pdfmark known not {
  userdict /pdfmark systemdict /cleartomark get put
} if
SDict begin [
  /Title (Results.daisy.v100/Run.001/FLOPS.001/GPU_Blocks.0160/GPU_Threads.1024/graph4.ps)
  /Subject (gnuplot plot)
  /Creator (gnuplot 5.2 patchlevel 7)
%  /Producer (gnuplot)
%  /Keywords ()
  /CreationDate (Sun Jan 19 15:20:28 2020)
  /DOCINFO pdfmark
end
} ifelse
%
% Support for boxed text - Ethan A Merritt Sep 2016
%
/InitTextBox { userdict /TBy2 3 -1 roll put userdict /TBx2 3 -1 roll put
           userdict /TBy1 3 -1 roll put userdict /TBx1 3 -1 roll put
	   /Boxing true def } def
/ExtendTextBox { dup type /stringtype eq
    { Boxing { gsave dup false charpath pathbbox
      dup TBy2 gt {userdict /TBy2 3 -1 roll put} {pop} ifelse
      dup TBx2 gt {userdict /TBx2 3 -1 roll put} {pop} ifelse
      dup TBy1 lt {userdict /TBy1 3 -1 roll put} {pop} ifelse
      dup TBx1 lt {userdict /TBx1 3 -1 roll put} {pop} ifelse
      grestore } if }
    {} ifelse} def
/PopTextBox { newpath TBx1 TBxmargin sub TBy1 TBymargin sub M
               TBx1 TBxmargin sub TBy2 TBymargin add L
	       TBx2 TBxmargin add TBy2 TBymargin add L
	       TBx2 TBxmargin add TBy1 TBymargin sub L closepath } def
/DrawTextBox { PopTextBox stroke /Boxing false def} def
/FillTextBox { gsave PopTextBox fill grestore /Boxing false def} def
0 0 0 0 InitTextBox
/TBxmargin 20 def
/TBymargin 20 def
/Boxing false def
/textshow { ExtendTextBox Gshow } def
%
end
%%EndProlog
%%Page: 1 1
gnudict begin
gsave
doclip
50 50 translate
0.100 0.100 scale
90 rotate
0 -5040 translate
0 setgray
newpath
(Helvetica) findfont 140 scalefont setfont
BackgroundColor 0 lt 3 1 roll 0 lt exch 0 lt or or not {gsave BackgroundColor C clippath fill grestore} if
1.000 UL
LTb
LCb setrgbcolor
1.000 UL
LTa
LCa setrgbcolor
770 448 M
6107 0 V
stroke
LTb
LCb setrgbcolor
770 448 M
63 0 V
6044 0 R
-63 0 V
stroke
686 448 M
[ [(Helvetica) 140.0 0.0 true true 0 (1e-01)]
] -46.7 MRshow
/Helvetica findfont 140 scalefont setfont
/vshift -46 def
1.000 UL
LTb
LCb setrgbcolor
1.000 UL
LTa
LCa setrgbcolor
770 762 M
6107 0 V
stroke
LTb
LCb setrgbcolor
770 762 M
31 0 V
6076 0 R
-31 0 V
stroke
LTa
LCa setrgbcolor
770 946 M
6107 0 V
stroke
LTb
LCb setrgbcolor
770 946 M
31 0 V
6076 0 R
-31 0 V
stroke
LTa
LCa setrgbcolor
770 1076 M
6107 0 V
stroke
LTb
LCb setrgbcolor
770 1076 M
31 0 V
6076 0 R
-31 0 V
stroke
LTa
LCa setrgbcolor
770 1177 M
6107 0 V
stroke
LTb
LCb setrgbcolor
770 1177 M
31 0 V
6076 0 R
-31 0 V
stroke
LTa
LCa setrgbcolor
770 1259 M
6107 0 V
stroke
LTb
LCb setrgbcolor
770 1259 M
31 0 V
6076 0 R
-31 0 V
stroke
LTa
LCa setrgbcolor
770 1329 M
6107 0 V
stroke
LTb
LCb setrgbcolor
770 1329 M
31 0 V
6076 0 R
-31 0 V
stroke
LTa
LCa setrgbcolor
770 1390 M
6107 0 V
stroke
LTb
LCb setrgbcolor
770 1390 M
31 0 V
6076 0 R
-31 0 V
stroke
LTa
LCa setrgbcolor
770 1443 M
6107 0 V
stroke
LTb
LCb setrgbcolor
770 1443 M
31 0 V
6076 0 R
-31 0 V
stroke
LTa
LCa setrgbcolor
770 1491 M
6107 0 V
stroke
LTb
LCb setrgbcolor
770 1491 M
63 0 V
6044 0 R
-63 0 V
stroke
686 1491 M
[ [(Helvetica) 140.0 0.0 true true 0 (1e+00)]
] -46.7 MRshow
/Helvetica findfont 140 scalefont setfont
1.000 UL
LTb
LCb setrgbcolor
1.000 UL
LTa
LCa setrgbcolor
770 1805 M
6107 0 V
stroke
LTb
LCb setrgbcolor
770 1805 M
31 0 V
6076 0 R
-31 0 V
stroke
LTa
LCa setrgbcolor
770 1988 M
6107 0 V
stroke
LTb
LCb setrgbcolor
770 1988 M
31 0 V
6076 0 R
-31 0 V
stroke
LTa
LCa setrgbcolor
770 2119 M
6107 0 V
stroke
LTb
LCb setrgbcolor
770 2119 M
31 0 V
6076 0 R
-31 0 V
stroke
LTa
LCa setrgbcolor
770 2220 M
6107 0 V
stroke
LTb
LCb setrgbcolor
770 2220 M
31 0 V
6076 0 R
-31 0 V
stroke
LTa
LCa setrgbcolor
770 2302 M
6107 0 V
stroke
LTb
LCb setrgbcolor
770 2302 M
31 0 V
6076 0 R
-31 0 V
stroke
LTa
LCa setrgbcolor
770 2372 M
6107 0 V
stroke
LTb
LCb setrgbcolor
770 2372 M
31 0 V
6076 0 R
-31 0 V
stroke
LTa
LCa setrgbcolor
770 2432 M
6107 0 V
stroke
LTb
LCb setrgbcolor
770 2432 M
31 0 V
6076 0 R
-31 0 V
stroke
LTa
LCa setrgbcolor
770 2486 M
6107 0 V
stroke
LTb
LCb setrgbcolor
770 2486 M
31 0 V
6076 0 R
-31 0 V
stroke
LTa
LCa setrgbcolor
770 2534 M
6107 0 V
stroke
LTb
LCb setrgbcolor
770 2534 M
63 0 V
6044 0 R
-63 0 V
stroke
686 2534 M
[ [(Helvetica) 140.0 0.0 true true 0 (1e+01)]
] -46.7 MRshow
/Helvetica findfont 140 scalefont setfont
1.000 UL
LTb
LCb setrgbcolor
1.000 UL
LTa
LCa setrgbcolor
770 2847 M
6107 0 V
stroke
LTb
LCb setrgbcolor
770 2847 M
31 0 V
6076 0 R
-31 0 V
stroke
LTa
LCa setrgbcolor
770 3031 M
6107 0 V
stroke
LTb
LCb setrgbcolor
770 3031 M
31 0 V
6076 0 R
-31 0 V
stroke
LTa
LCa setrgbcolor
770 3161 M
6107 0 V
stroke
LTb
LCb setrgbcolor
770 3161 M
31 0 V
6076 0 R
-31 0 V
stroke
LTa
LCa setrgbcolor
770 3262 M
6107 0 V
stroke
LTb
LCb setrgbcolor
770 3262 M
31 0 V
6076 0 R
-31 0 V
stroke
LTa
LCa setrgbcolor
770 3345 M
6107 0 V
stroke
LTb
LCb setrgbcolor
770 3345 M
31 0 V
6076 0 R
-31 0 V
stroke
LTa
LCa setrgbcolor
770 3415 M
6107 0 V
stroke
LTb
LCb setrgbcolor
770 3415 M
31 0 V
6076 0 R
-31 0 V
stroke
LTa
LCa setrgbcolor
770 3475 M
6107 0 V
stroke
LTb
LCb setrgbcolor
770 3475 M
31 0 V
6076 0 R
-31 0 V
stroke
LTa
LCa setrgbcolor
770 3529 M
6107 0 V
stroke
LTb
LCb setrgbcolor
770 3529 M
31 0 V
6076 0 R
-31 0 V
stroke
LTa
LCa setrgbcolor
770 3576 M
6107 0 V
stroke
LTb
LCb setrgbcolor
770 3576 M
63 0 V
6044 0 R
-63 0 V
stroke
686 3576 M
[ [(Helvetica) 140.0 0.0 true true 0 (1e+02)]
] -46.7 MRshow
/Helvetica findfont 140 scalefont setfont
1.000 UL
LTb
LCb setrgbcolor
1.000 UL
LTa
LCa setrgbcolor
770 3890 M
6107 0 V
stroke
LTb
LCb setrgbcolor
770 3890 M
31 0 V
6076 0 R
-31 0 V
stroke
LTa
LCa setrgbcolor
770 4074 M
6107 0 V
stroke
LTb
LCb setrgbcolor
770 4074 M
31 0 V
6076 0 R
-31 0 V
stroke
LTa
LCa setrgbcolor
770 4204 M
6107 0 V
stroke
LTb
LCb setrgbcolor
770 4204 M
31 0 V
6076 0 R
-31 0 V
stroke
LTa
LCa setrgbcolor
770 4305 M
6107 0 V
stroke
LTb
LCb setrgbcolor
770 4305 M
31 0 V
6076 0 R
-31 0 V
stroke
LTa
LCa setrgbcolor
770 4388 M
6107 0 V
stroke
LTb
LCb setrgbcolor
770 4388 M
31 0 V
6076 0 R
-31 0 V
stroke
LTa
LCa setrgbcolor
770 4457 M
6107 0 V
stroke
LTb
LCb setrgbcolor
770 4457 M
31 0 V
6076 0 R
-31 0 V
stroke
LTa
LCa setrgbcolor
770 4518 M
6107 0 V
stroke
LTb
LCb setrgbcolor
770 4518 M
31 0 V
6076 0 R
-31 0 V
stroke
LTa
LCa setrgbcolor
770 4571 M
6107 0 V
stroke
LTb
LCb setrgbcolor
770 4571 M
31 0 V
6076 0 R
-31 0 V
stroke
LTa
LCa setrgbcolor
770 4619 M
6107 0 V
stroke
LTb
LCb setrgbcolor
770 4619 M
63 0 V
6044 0 R
-63 0 V
stroke
686 4619 M
[ [(Helvetica) 140.0 0.0 true true 0 (1e+03)]
] -46.7 MRshow
/Helvetica findfont 140 scalefont setfont
1.000 UL
LTb
LCb setrgbcolor
1.000 UL
LTa
LCa setrgbcolor
1067 448 M
0 4171 V
stroke
LTb
LCb setrgbcolor
1067 448 M
0 31 V
0 4140 R
0 -31 V
stroke
LTa
LCa setrgbcolor
1246 448 M
0 4171 V
stroke
LTb
LCb setrgbcolor
1246 448 M
0 31 V
0 4140 R
0 -31 V
stroke
LTa
LCa setrgbcolor
1374 448 M
0 4171 V
stroke
LTb
LCb setrgbcolor
1374 448 M
0 31 V
0 4140 R
0 -31 V
stroke
LTa
LCa setrgbcolor
1473 448 M
0 4171 V
stroke
LTb
LCb setrgbcolor
1473 448 M
0 31 V
0 4140 R
0 -31 V
stroke
LTa
LCa setrgbcolor
1553 448 M
0 4171 V
stroke
LTb
LCb setrgbcolor
1553 448 M
0 31 V
0 4140 R
0 -31 V
stroke
LTa
LCa setrgbcolor
1622 448 M
0 4171 V
stroke
LTb
LCb setrgbcolor
1622 448 M
0 31 V
0 4140 R
0 -31 V
stroke
LTa
LCa setrgbcolor
1681 448 M
0 4171 V
stroke
LTb
LCb setrgbcolor
1681 448 M
0 31 V
0 4140 R
0 -31 V
stroke
LTa
LCa setrgbcolor
1733 448 M
0 4171 V
stroke
LTb
LCb setrgbcolor
1733 448 M
0 31 V
0 4140 R
0 -31 V
stroke
LTa
LCa setrgbcolor
1780 448 M
0 4171 V
stroke
LTb
LCb setrgbcolor
1780 448 M
0 63 V
0 4108 R
0 -63 V
stroke
1780 308 M
[ [(Helvetica) 140.0 0.0 true true 0 (1e+04)]
] -46.7 MCshow
/Helvetica findfont 140 scalefont setfont
1.000 UL
LTb
LCb setrgbcolor
1.000 UL
LTa
LCa setrgbcolor
2087 448 M
0 4171 V
stroke
LTb
LCb setrgbcolor
2087 448 M
0 31 V
0 4140 R
0 -31 V
stroke
LTa
LCa setrgbcolor
2266 448 M
0 4171 V
stroke
LTb
LCb setrgbcolor
2266 448 M
0 31 V
0 4140 R
0 -31 V
stroke
LTa
LCa setrgbcolor
2394 448 M
0 4171 V
stroke
LTb
LCb setrgbcolor
2394 448 M
0 31 V
0 4140 R
0 -31 V
stroke
LTa
LCa setrgbcolor
2493 448 M
0 4171 V
stroke
LTb
LCb setrgbcolor
2493 448 M
0 31 V
0 4140 R
0 -31 V
stroke
LTa
LCa setrgbcolor
2573 448 M
0 4171 V
stroke
LTb
LCb setrgbcolor
2573 448 M
0 31 V
0 4140 R
0 -31 V
stroke
LTa
LCa setrgbcolor
2642 448 M
0 4171 V
stroke
LTb
LCb setrgbcolor
2642 448 M
0 31 V
0 4140 R
0 -31 V
stroke
LTa
LCa setrgbcolor
2701 448 M
0 4171 V
stroke
LTb
LCb setrgbcolor
2701 448 M
0 31 V
0 4140 R
0 -31 V
stroke
LTa
LCa setrgbcolor
2753 448 M
0 4171 V
stroke
LTb
LCb setrgbcolor
2753 448 M
0 31 V
0 4140 R
0 -31 V
stroke
LTa
LCa setrgbcolor
2800 448 M
0 4171 V
stroke
LTb
LCb setrgbcolor
2800 448 M
0 63 V
0 4108 R
0 -63 V
stroke
2800 308 M
[ [(Helvetica) 140.0 0.0 true true 0 (1e+05)]
] -46.7 MCshow
/Helvetica findfont 140 scalefont setfont
1.000 UL
LTb
LCb setrgbcolor
1.000 UL
LTa
LCa setrgbcolor
3107 448 M
0 4171 V
stroke
LTb
LCb setrgbcolor
3107 448 M
0 31 V
0 4140 R
0 -31 V
stroke
LTa
LCa setrgbcolor
3286 448 M
0 4171 V
stroke
LTb
LCb setrgbcolor
3286 448 M
0 31 V
0 4140 R
0 -31 V
stroke
LTa
LCa setrgbcolor
3414 448 M
0 4171 V
stroke
LTb
LCb setrgbcolor
3414 448 M
0 31 V
0 4140 R
0 -31 V
stroke
LTa
LCa setrgbcolor
3513 448 M
0 4171 V
stroke
LTb
LCb setrgbcolor
3513 448 M
0 31 V
0 4140 R
0 -31 V
stroke
LTa
LCa setrgbcolor
3593 448 M
0 4171 V
stroke
LTb
LCb setrgbcolor
3593 448 M
0 31 V
0 4140 R
0 -31 V
stroke
LTa
LCa setrgbcolor
3662 448 M
0 4171 V
stroke
LTb
LCb setrgbcolor
3662 448 M
0 31 V
0 4140 R
0 -31 V
stroke
LTa
LCa setrgbcolor
3721 448 M
0 4171 V
stroke
LTb
LCb setrgbcolor
3721 448 M
0 31 V
0 4140 R
0 -31 V
stroke
LTa
LCa setrgbcolor
3773 448 M
0 4171 V
stroke
LTb
LCb setrgbcolor
3773 448 M
0 31 V
0 4140 R
0 -31 V
stroke
LTa
LCa setrgbcolor
3820 448 M
0 4171 V
stroke
LTb
LCb setrgbcolor
3820 448 M
0 63 V
0 4108 R
0 -63 V
stroke
3820 308 M
[ [(Helvetica) 140.0 0.0 true true 0 (1e+06)]
] -46.7 MCshow
/Helvetica findfont 140 scalefont setfont
1.000 UL
LTb
LCb setrgbcolor
1.000 UL
LTa
LCa setrgbcolor
4127 448 M
0 4171 V
stroke
LTb
LCb setrgbcolor
4127 448 M
0 31 V
0 4140 R
0 -31 V
stroke
LTa
LCa setrgbcolor
4306 448 M
0 4171 V
stroke
LTb
LCb setrgbcolor
4306 448 M
0 31 V
0 4140 R
0 -31 V
stroke
LTa
LCa setrgbcolor
4434 448 M
0 4171 V
stroke
LTb
LCb setrgbcolor
4434 448 M
0 31 V
0 4140 R
0 -31 V
stroke
LTa
LCa setrgbcolor
4533 448 M
0 4171 V
stroke
LTb
LCb setrgbcolor
4533 448 M
0 31 V
0 4140 R
0 -31 V
stroke
LTa
LCa setrgbcolor
4614 448 M
0 4171 V
stroke
LTb
LCb setrgbcolor
4614 448 M
0 31 V
0 4140 R
0 -31 V
stroke
LTa
LCa setrgbcolor
4682 448 M
0 4171 V
stroke
LTb
LCb setrgbcolor
4682 448 M
0 31 V
0 4140 R
0 -31 V
stroke
LTa
LCa setrgbcolor
4741 448 M
0 4171 V
stroke
LTb
LCb setrgbcolor
4741 448 M
0 31 V
0 4140 R
0 -31 V
stroke
LTa
LCa setrgbcolor
4793 448 M
0 4171 V
stroke
LTb
LCb setrgbcolor
4793 448 M
0 31 V
0 4140 R
0 -31 V
stroke
LTa
LCa setrgbcolor
4840 448 M
0 4171 V
stroke
LTb
LCb setrgbcolor
4840 448 M
0 63 V
0 4108 R
0 -63 V
stroke
4840 308 M
[ [(Helvetica) 140.0 0.0 true true 0 (1e+07)]
] -46.7 MCshow
/Helvetica findfont 140 scalefont setfont
1.000 UL
LTb
LCb setrgbcolor
1.000 UL
LTa
LCa setrgbcolor
5147 448 M
0 4171 V
stroke
LTb
LCb setrgbcolor
5147 448 M
0 31 V
0 4140 R
0 -31 V
stroke
LTa
LCa setrgbcolor
5327 448 M
0 4171 V
stroke
LTb
LCb setrgbcolor
5327 448 M
0 31 V
0 4140 R
0 -31 V
stroke
LTa
LCa setrgbcolor
5454 448 M
0 4171 V
stroke
LTb
LCb setrgbcolor
5454 448 M
0 31 V
0 4140 R
0 -31 V
stroke
LTa
LCa setrgbcolor
5553 448 M
0 4171 V
stroke
LTb
LCb setrgbcolor
5553 448 M
0 31 V
0 4140 R
0 -31 V
stroke
LTa
LCa setrgbcolor
5634 448 M
0 4171 V
stroke
LTb
LCb setrgbcolor
5634 448 M
0 31 V
0 4140 R
0 -31 V
stroke
LTa
LCa setrgbcolor
5702 448 M
0 4171 V
stroke
LTb
LCb setrgbcolor
5702 448 M
0 31 V
0 4140 R
0 -31 V
stroke
LTa
LCa setrgbcolor
5761 448 M
0 4171 V
stroke
LTb
LCb setrgbcolor
5761 448 M
0 31 V
0 4140 R
0 -31 V
stroke
LTa
LCa setrgbcolor
5813 448 M
0 4171 V
stroke
LTb
LCb setrgbcolor
5813 448 M
0 31 V
0 4140 R
0 -31 V
stroke
LTa
LCa setrgbcolor
5860 448 M
0 4171 V
stroke
LTb
LCb setrgbcolor
5860 448 M
0 63 V
0 4108 R
0 -63 V
stroke
5860 308 M
[ [(Helvetica) 140.0 0.0 true true 0 (1e+08)]
] -46.7 MCshow
/Helvetica findfont 140 scalefont setfont
1.000 UL
LTb
LCb setrgbcolor
1.000 UL
LTa
LCa setrgbcolor
6167 448 M
0 4171 V
stroke
LTb
LCb setrgbcolor
6167 448 M
0 31 V
0 4140 R
0 -31 V
stroke
LTa
LCa setrgbcolor
6347 448 M
0 4171 V
stroke
LTb
LCb setrgbcolor
6347 448 M
0 31 V
0 4140 R
0 -31 V
stroke
LTa
LCa setrgbcolor
6474 448 M
0 4171 V
stroke
LTb
LCb setrgbcolor
6474 448 M
0 31 V
0 4140 R
0 -31 V
stroke
LTa
LCa setrgbcolor
6573 448 M
0 4171 V
stroke
LTb
LCb setrgbcolor
6573 448 M
0 31 V
0 4140 R
0 -31 V
stroke
LTa
LCa setrgbcolor
6654 448 M
0 4171 V
stroke
LTb
LCb setrgbcolor
6654 448 M
0 31 V
0 4140 R
0 -31 V
stroke
LTa
LCa setrgbcolor
6722 448 M
0 4171 V
stroke
LTb
LCb setrgbcolor
6722 448 M
0 31 V
0 4140 R
0 -31 V
stroke
LTa
LCa setrgbcolor
6781 448 M
0 4171 V
stroke
LTb
LCb setrgbcolor
6781 448 M
0 31 V
0 4140 R
0 -31 V
stroke
LTa
LCa setrgbcolor
6833 448 M
0 4171 V
stroke
LTb
LCb setrgbcolor
6833 448 M
0 31 V
0 4140 R
0 -31 V
stroke
LTa
LCa setrgbcolor
6880 448 M
0 4171 V
stroke
LTb
LCb setrgbcolor
1.000 UL
LTB
LCb setrgbcolor
770 4619 N
770 448 L
6107 0 V
0 4171 V
-6107 0 V
Z stroke
1.000 UP
1.000 UL
LTb
LCb setrgbcolor
LCb setrgbcolor
196 2533 M
currentpoint gsave translate -270 rotate 0 0 moveto
[ [(Helvetica) 140.0 0.0 true true 0 (GFLOPs / sec)]
] -46.7 MCshow
grestore
/Helvetica findfont 140 scalefont setfont
LTb
LCb setrgbcolor
LTb
LCb setrgbcolor
3823 98 M
[ [(Helvetica) 140.0 0.0 true true 0 (Working Set Size \(bytes\))]
] -46.7 MCshow
/Helvetica findfont 140 scalefont setfont
LTb
LCb setrgbcolor
3823 4829 M
[ [(Helvetica) 140.0 0.0 true true 0 (Graph 4 \(Results.daisy.v100/Run.001/FLOPS.001/GPU)]
[(Helvetica) 112.0 -42.0 true true 0 (B)]
[(Helvetica) 140.0 0.0 true true 0 (locks.0160/GPU)]
[(Helvetica) 112.0 -42.0 true true 0 (T)]
[(Helvetica) 140.0 0.0 true true 0 (hreads.1024\))]
] -32.7 MCshow
/Helvetica findfont 140 scalefont setfont
LTb
LCb setrgbcolor
LTb
LCb setrgbcolor
% Begin plot #1
0.400 UP
1.000 UL
LTb
0.58 0.00 0.83 C
770 1348 M
40 54 V
42 36 V
41 49 V
40 34 V
41 49 V
42 35 V
42 42 V
41 51 V
41 42 V
41 43 V
42 44 V
42 41 V
42 42 V
42 38 V
42 47 V
42 37 V
42 42 V
42 31 V
42 32 V
42 30 V
42 18 V
42 29 V
42 45 V
43 43 V
42 43 V
42 43 V
42 43 V
42 43 V
42 43 V
42 -26 V
42 45 V
42 44 V
43 43 V
42 43 V
42 43 V
42 43 V
42 42 V
42 43 V
43 44 V
42 42 V
42 43 V
42 43 V
42 44 V
42 43 V
43 41 V
42 43 V
42 43 V
42 43 V
43 43 V
42 44 V
42 27 V
42 44 V
42 44 V
43 42 V
42 43 V
42 45 V
42 40 V
43 42 V
42 31 V
42 36 V
42 -82 V
42 -78 V
43 43 V
42 43 V
42 43 V
42 32 V
43 38 V
42 33 V
42 -100 V
42 42 V
42 40 V
43 37 V
42 -79 V
42 37 V
42 38 V
43 -54 V
42 40 V
42 -38 V
42 42 V
42 -28 V
43 34 V
42 -13 V
42 -10 V
42 -5 V
43 39 V
42 0 V
42 -28 V
42 3 V
42 12 V
43 -13 V
42 16 V
42 -2 V
42 -3 V
43 -7 V
42 -25 V
42 -133 V
42 -90 V
42 -62 V
43 -33 V
42 -2 V
42 -23 V
42 9 V
43 -138 V
42 -55 V
42 -4 V
42 -2 V
42 -1 V
43 -1 V
42 -3 V
42 -1 V
42 -2 V
43 2 V
42 -2 V
42 0 V
42 -3 V
42 -2 V
43 4 V
42 2 V
42 -1 V
42 0 V
43 -6 V
42 4 V
42 -1 V
42 -3 V
43 7 V
42 0 V
42 -2 V
42 -4 V
42 3 V
43 -3 V
42 2 V
42 4 V
42 -1 V
43 -1 V
42 1 V
42 -2 V
42 -3 V
42 3 V
43 -2 V
42 0 V
42 1 V
42 -2 V
43 1 V
42 -2 V
42 1 V
770 1348 CircleF
810 1402 CircleF
852 1438 CircleF
893 1487 CircleF
933 1521 CircleF
974 1570 CircleF
1016 1605 CircleF
1058 1647 CircleF
1099 1698 CircleF
1140 1740 CircleF
1181 1783 CircleF
1223 1827 CircleF
1265 1868 CircleF
1307 1910 CircleF
1349 1948 CircleF
1391 1995 CircleF
1433 2032 CircleF
1475 2074 CircleF
1517 2105 CircleF
1559 2137 CircleF
1601 2167 CircleF
1643 2185 CircleF
1685 2214 CircleF
1727 2259 CircleF
1770 2302 CircleF
1812 2345 CircleF
1854 2388 CircleF
1896 2431 CircleF
1938 2474 CircleF
1980 2517 CircleF
2022 2491 CircleF
2064 2536 CircleF
2106 2580 CircleF
2149 2623 CircleF
2191 2666 CircleF
2233 2709 CircleF
2275 2752 CircleF
2317 2794 CircleF
2359 2837 CircleF
2402 2881 CircleF
2444 2923 CircleF
2486 2966 CircleF
2528 3009 CircleF
2570 3053 CircleF
2612 3096 CircleF
2655 3137 CircleF
2697 3180 CircleF
2739 3223 CircleF
2781 3266 CircleF
2824 3309 CircleF
2866 3353 CircleF
2908 3380 CircleF
2950 3424 CircleF
2992 3468 CircleF
3035 3510 CircleF
3077 3553 CircleF
3119 3598 CircleF
3161 3638 CircleF
3204 3680 CircleF
3246 3711 CircleF
3288 3747 CircleF
3330 3665 CircleF
3372 3587 CircleF
3415 3630 CircleF
3457 3673 CircleF
3499 3716 CircleF
3541 3748 CircleF
3584 3786 CircleF
3626 3819 CircleF
3668 3719 CircleF
3710 3761 CircleF
3752 3801 CircleF
3795 3838 CircleF
3837 3759 CircleF
3879 3796 CircleF
3921 3834 CircleF
3964 3780 CircleF
4006 3820 CircleF
4048 3782 CircleF
4090 3824 CircleF
4132 3796 CircleF
4175 3830 CircleF
4217 3817 CircleF
4259 3807 CircleF
4301 3802 CircleF
4344 3841 CircleF
4386 3841 CircleF
4428 3813 CircleF
4470 3816 CircleF
4512 3828 CircleF
4555 3815 CircleF
4597 3831 CircleF
4639 3829 CircleF
4681 3826 CircleF
4724 3819 CircleF
4766 3794 CircleF
4808 3661 CircleF
4850 3571 CircleF
4892 3509 CircleF
4935 3476 CircleF
4977 3474 CircleF
5019 3451 CircleF
5061 3460 CircleF
5104 3322 CircleF
5146 3267 CircleF
5188 3263 CircleF
5230 3261 CircleF
5272 3260 CircleF
5315 3259 CircleF
5357 3256 CircleF
5399 3255 CircleF
5441 3253 CircleF
5484 3255 CircleF
5526 3253 CircleF
5568 3253 CircleF
5610 3250 CircleF
5652 3248 CircleF
5695 3252 CircleF
5737 3254 CircleF
5779 3253 CircleF
5821 3253 CircleF
5864 3247 CircleF
5906 3251 CircleF
5948 3250 CircleF
5990 3247 CircleF
6033 3254 CircleF
6075 3254 CircleF
6117 3252 CircleF
6159 3248 CircleF
6201 3251 CircleF
6244 3248 CircleF
6286 3250 CircleF
6328 3254 CircleF
6370 3253 CircleF
6413 3252 CircleF
6455 3253 CircleF
6497 3251 CircleF
6539 3248 CircleF
6581 3251 CircleF
6624 3249 CircleF
6666 3249 CircleF
6708 3250 CircleF
6750 3248 CircleF
6793 3249 CircleF
6835 3247 CircleF
6877 3248 CircleF
% End plot #1
2.000 UL
LTb
LCb setrgbcolor
1.000 UL
LTB
LCb setrgbcolor
770 4619 N
770 448 L
6107 0 V
0 4171 V
-6107 0 V
Z stroke
1.000 UP
1.000 UL
LTb
LCb setrgbcolor
stroke
grestore
end
showpage
%%Trailer
%%DocumentFonts: Helvetica
%%Pages: 1
