%!PS-Adobe-2.0
%%Title: Results.daisy.v100/Run.001/FLOPS.001/GPU_Blocks.0160/GPU_Threads.1024/graph2.ps
%%Creator: gnuplot 5.2 patchlevel 7
%%CreationDate: Sun Jan 19 15:20:28 2020
%%DocumentFonts: (atend)
%%BoundingBox: 50 50 554 770
%%Orientation: Landscape
%%Pages: (atend)
%%EndComments
%%BeginProlog
/gnudict 256 dict def
gnudict begin
%
% The following true/false flags may be edited by hand if desired.
% The unit line width and grayscale image gamma correction may also be changed.
%
/Color true def
/Blacktext false def
/Solid false def
/Dashlength 1 def
/Landscape true def
/Level1 false def
/Level3 false def
/Rounded false def
/ClipToBoundingBox false def
/SuppressPDFMark false def
/TransparentPatterns false def
/gnulinewidth 5.000 def
/userlinewidth gnulinewidth def
/Gamma 1.0 def
/BackgroundColor {-1.000 -1.000 -1.000} def
%
/vshift -46 def
/dl1 {
  10.0 Dashlength userlinewidth gnulinewidth div mul mul mul
  Rounded { currentlinewidth 0.75 mul sub dup 0 le { pop 0.01 } if } if
} def
/dl2 {
  10.0 Dashlength userlinewidth gnulinewidth div mul mul mul
  Rounded { currentlinewidth 0.75 mul add } if
} def
/hpt_ 31.5 def
/vpt_ 31.5 def
/hpt hpt_ def
/vpt vpt_ def
/doclip {
  ClipToBoundingBox {
    newpath 50 50 moveto 554 50 lineto 554 770 lineto 50 770 lineto closepath
    clip
  } if
} def
%
% Gnuplot Prolog Version 5.2 (Dec 2017)
%
%/SuppressPDFMark true def
%
/M {moveto} bind def
/L {lineto} bind def
/R {rmoveto} bind def
/V {rlineto} bind def
/N {newpath moveto} bind def
/Z {closepath} bind def
/C {setrgbcolor} bind def
/f {rlineto fill} bind def
/g {setgray} bind def
/Gshow {show} def   % May be redefined later in the file to support UTF-8
/vpt2 vpt 2 mul def
/hpt2 hpt 2 mul def
/Lshow {currentpoint stroke M 0 vshift R 
	Blacktext {gsave 0 setgray textshow grestore} {textshow} ifelse} def
/Rshow {currentpoint stroke M dup stringwidth pop neg vshift R
	Blacktext {gsave 0 setgray textshow grestore} {textshow} ifelse} def
/Cshow {currentpoint stroke M dup stringwidth pop -2 div vshift R 
	Blacktext {gsave 0 setgray textshow grestore} {textshow} ifelse} def
/UP {dup vpt_ mul /vpt exch def hpt_ mul /hpt exch def
  /hpt2 hpt 2 mul def /vpt2 vpt 2 mul def} def
/DL {Color {setrgbcolor Solid {pop []} if 0 setdash}
 {pop pop pop 0 setgray Solid {pop []} if 0 setdash} ifelse} def
/BL {stroke userlinewidth 2 mul setlinewidth
	Rounded {1 setlinejoin 1 setlinecap} if} def
/AL {stroke userlinewidth 2 div setlinewidth
	Rounded {1 setlinejoin 1 setlinecap} if} def
/UL {dup gnulinewidth mul /userlinewidth exch def
	dup 1 lt {pop 1} if 10 mul /udl exch def} def
/PL {stroke userlinewidth setlinewidth
	Rounded {1 setlinejoin 1 setlinecap} if} def
3.8 setmiterlimit
% Classic Line colors (version 5.0)
/LCw {1 1 1} def
/LCb {0 0 0} def
/LCa {0 0 0} def
/LC0 {1 0 0} def
/LC1 {0 1 0} def
/LC2 {0 0 1} def
/LC3 {1 0 1} def
/LC4 {0 1 1} def
/LC5 {1 1 0} def
/LC6 {0 0 0} def
/LC7 {1 0.3 0} def
/LC8 {0.5 0.5 0.5} def
% Default dash patterns (version 5.0)
/LTB {BL [] LCb DL} def
/LTw {PL [] 1 setgray} def
/LTb {PL [] LCb DL} def
/LTa {AL [1 udl mul 2 udl mul] 0 setdash LCa setrgbcolor} def
/LT0 {PL [] LC0 DL} def
/LT1 {PL [2 dl1 3 dl2] LC1 DL} def
/LT2 {PL [1 dl1 1.5 dl2] LC2 DL} def
/LT3 {PL [6 dl1 2 dl2 1 dl1 2 dl2] LC3 DL} def
/LT4 {PL [1 dl1 2 dl2 6 dl1 2 dl2 1 dl1 2 dl2] LC4 DL} def
/LT5 {PL [4 dl1 2 dl2] LC5 DL} def
/LT6 {PL [1.5 dl1 1.5 dl2 1.5 dl1 1.5 dl2 1.5 dl1 6 dl2] LC6 DL} def
/LT7 {PL [3 dl1 3 dl2 1 dl1 3 dl2] LC7 DL} def
/LT8 {PL [2 dl1 2 dl2 2 dl1 6 dl2] LC8 DL} def
/SL {[] 0 setdash} def
/Pnt {stroke [] 0 setdash gsave 1 setlinecap M 0 0 V stroke grestore} def
/Dia {stroke [] 0 setdash 2 copy vpt add M
  hpt neg vpt neg V hpt vpt neg V
  hpt vpt V hpt neg vpt V closepath stroke
  Pnt} def
/Pls {stroke [] 0 setdash vpt sub M 0 vpt2 V
  currentpoint stroke M
  hpt neg vpt neg R hpt2 0 V stroke
 } def
/Box {stroke [] 0 setdash 2 copy exch hpt sub exch vpt add M
  0 vpt2 neg V hpt2 0 V 0 vpt2 V
  hpt2 neg 0 V closepath stroke
  Pnt} def
/Crs {stroke [] 0 setdash exch hpt sub exch vpt add M
  hpt2 vpt2 neg V currentpoint stroke M
  hpt2 neg 0 R hpt2 vpt2 V stroke} def
/TriU {stroke [] 0 setdash 2 copy vpt 1.12 mul add M
  hpt neg vpt -1.62 mul V
  hpt 2 mul 0 V
  hpt neg vpt 1.62 mul V closepath stroke
  Pnt} def
/Star {2 copy Pls Crs} def
/BoxF {stroke [] 0 setdash exch hpt sub exch vpt add M
  0 vpt2 neg V hpt2 0 V 0 vpt2 V
  hpt2 neg 0 V closepath fill} def
/TriUF {stroke [] 0 setdash vpt 1.12 mul add M
  hpt neg vpt -1.62 mul V
  hpt 2 mul 0 V
  hpt neg vpt 1.62 mul V closepath fill} def
/TriD {stroke [] 0 setdash 2 copy vpt 1.12 mul sub M
  hpt neg vpt 1.62 mul V
  hpt 2 mul 0 V
  hpt neg vpt -1.62 mul V closepath stroke
  Pnt} def
/TriDF {stroke [] 0 setdash vpt 1.12 mul sub M
  hpt neg vpt 1.62 mul V
  hpt 2 mul 0 V
  hpt neg vpt -1.62 mul V closepath fill} def
/DiaF {stroke [] 0 setdash vpt add M
  hpt neg vpt neg V hpt vpt neg V
  hpt vpt V hpt neg vpt V closepath fill} def
/Pent {stroke [] 0 setdash 2 copy gsave
  translate 0 hpt M 4 {72 rotate 0 hpt L} repeat
  closepath stroke grestore Pnt} def
/PentF {stroke [] 0 setdash gsave
  translate 0 hpt M 4 {72 rotate 0 hpt L} repeat
  closepath fill grestore} def
/Circle {stroke [] 0 setdash 2 copy
  hpt 0 360 arc stroke Pnt} def
/CircleF {stroke [] 0 setdash hpt 0 360 arc fill} def
/C0 {BL [] 0 setdash 2 copy moveto vpt 90 450 arc} bind def
/C1 {BL [] 0 setdash 2 copy moveto
	2 copy vpt 0 90 arc closepath fill
	vpt 0 360 arc closepath} bind def
/C2 {BL [] 0 setdash 2 copy moveto
	2 copy vpt 90 180 arc closepath fill
	vpt 0 360 arc closepath} bind def
/C3 {BL [] 0 setdash 2 copy moveto
	2 copy vpt 0 180 arc closepath fill
	vpt 0 360 arc closepath} bind def
/C4 {BL [] 0 setdash 2 copy moveto
	2 copy vpt 180 270 arc closepath fill
	vpt 0 360 arc closepath} bind def
/C5 {BL [] 0 setdash 2 copy moveto
	2 copy vpt 0 90 arc
	2 copy moveto
	2 copy vpt 180 270 arc closepath fill
	vpt 0 360 arc} bind def
/C6 {BL [] 0 setdash 2 copy moveto
	2 copy vpt 90 270 arc closepath fill
	vpt 0 360 arc closepath} bind def
/C7 {BL [] 0 setdash 2 copy moveto
	2 copy vpt 0 270 arc closepath fill
	vpt 0 360 arc closepath} bind def
/C8 {BL [] 0 setdash 2 copy moveto
	2 copy vpt 270 360 arc closepath fill
	vpt 0 360 arc closepath} bind def
/C9 {BL [] 0 setdash 2 copy moveto
	2 copy vpt 270 450 arc closepath fill
	vpt 0 360 arc closepath} bind def
/C10 {BL [] 0 setdash 2 copy 2 copy moveto vpt 270 360 arc closepath fill
	2 copy moveto
	2 copy vpt 90 180 arc closepath fill
	vpt 0 360 arc closepath} bind def
/C11 {BL [] 0 setdash 2 copy moveto
	2 copy vpt 0 180 arc closepath fill
	2 copy moveto
	2 copy vpt 270 360 arc closepath fill
	vpt 0 360 arc closepath} bind def
/C12 {BL [] 0 setdash 2 copy moveto
	2 copy vpt 180 360 arc closepath fill
	vpt 0 360 arc closepath} bind def
/C13 {BL [] 0 setdash 2 copy moveto
	2 copy vpt 0 90 arc closepath fill
	2 copy moveto
	2 copy vpt 180 360 arc closepath fill
	vpt 0 360 arc closepath} bind def
/C14 {BL [] 0 setdash 2 copy moveto
	2 copy vpt 90 360 arc closepath fill
	vpt 0 360 arc} bind def
/C15 {BL [] 0 setdash 2 copy vpt 0 360 arc closepath fill
	vpt 0 360 arc closepath} bind def
/Rec {newpath 4 2 roll moveto 1 index 0 rlineto 0 exch rlineto
	neg 0 rlineto closepath} bind def
/Square {dup Rec} bind def
/Bsquare {vpt sub exch vpt sub exch vpt2 Square} bind def
/S0 {BL [] 0 setdash 2 copy moveto 0 vpt rlineto BL Bsquare} bind def
/S1 {BL [] 0 setdash 2 copy vpt Square fill Bsquare} bind def
/S2 {BL [] 0 setdash 2 copy exch vpt sub exch vpt Square fill Bsquare} bind def
/S3 {BL [] 0 setdash 2 copy exch vpt sub exch vpt2 vpt Rec fill Bsquare} bind def
/S4 {BL [] 0 setdash 2 copy exch vpt sub exch vpt sub vpt Square fill Bsquare} bind def
/S5 {BL [] 0 setdash 2 copy 2 copy vpt Square fill
	exch vpt sub exch vpt sub vpt Square fill Bsquare} bind def
/S6 {BL [] 0 setdash 2 copy exch vpt sub exch vpt sub vpt vpt2 Rec fill Bsquare} bind def
/S7 {BL [] 0 setdash 2 copy exch vpt sub exch vpt sub vpt vpt2 Rec fill
	2 copy vpt Square fill Bsquare} bind def
/S8 {BL [] 0 setdash 2 copy vpt sub vpt Square fill Bsquare} bind def
/S9 {BL [] 0 setdash 2 copy vpt sub vpt vpt2 Rec fill Bsquare} bind def
/S10 {BL [] 0 setdash 2 copy vpt sub vpt Square fill 2 copy exch vpt sub exch vpt Square fill
	Bsquare} bind def
/S11 {BL [] 0 setdash 2 copy vpt sub vpt Square fill 2 copy exch vpt sub exch vpt2 vpt Rec fill
	Bsquare} bind def
/S12 {BL [] 0 setdash 2 copy exch vpt sub exch vpt sub vpt2 vpt Rec fill Bsquare} bind def
/S13 {BL [] 0 setdash 2 copy exch vpt sub exch vpt sub vpt2 vpt Rec fill
	2 copy vpt Square fill Bsquare} bind def
/S14 {BL [] 0 setdash 2 copy exch vpt sub exch vpt sub vpt2 vpt Rec fill
	2 copy exch vpt sub exch vpt Square fill Bsquare} bind def
/S15 {BL [] 0 setdash 2 copy Bsquare fill Bsquare} bind def
/D0 {gsave translate 45 rotate 0 0 S0 stroke grestore} bind def
/D1 {gsave translate 45 rotate 0 0 S1 stroke grestore} bind def
/D2 {gsave translate 45 rotate 0 0 S2 stroke grestore} bind def
/D3 {gsave translate 45 rotate 0 0 S3 stroke grestore} bind def
/D4 {gsave translate 45 rotate 0 0 S4 stroke grestore} bind def
/D5 {gsave translate 45 rotate 0 0 S5 stroke grestore} bind def
/D6 {gsave translate 45 rotate 0 0 S6 stroke grestore} bind def
/D7 {gsave translate 45 rotate 0 0 S7 stroke grestore} bind def
/D8 {gsave translate 45 rotate 0 0 S8 stroke grestore} bind def
/D9 {gsave translate 45 rotate 0 0 S9 stroke grestore} bind def
/D10 {gsave translate 45 rotate 0 0 S10 stroke grestore} bind def
/D11 {gsave translate 45 rotate 0 0 S11 stroke grestore} bind def
/D12 {gsave translate 45 rotate 0 0 S12 stroke grestore} bind def
/D13 {gsave translate 45 rotate 0 0 S13 stroke grestore} bind def
/D14 {gsave translate 45 rotate 0 0 S14 stroke grestore} bind def
/D15 {gsave translate 45 rotate 0 0 S15 stroke grestore} bind def
/DiaE {stroke [] 0 setdash vpt add M
  hpt neg vpt neg V hpt vpt neg V
  hpt vpt V hpt neg vpt V closepath stroke} def
/BoxE {stroke [] 0 setdash exch hpt sub exch vpt add M
  0 vpt2 neg V hpt2 0 V 0 vpt2 V
  hpt2 neg 0 V closepath stroke} def
/TriUE {stroke [] 0 setdash vpt 1.12 mul add M
  hpt neg vpt -1.62 mul V
  hpt 2 mul 0 V
  hpt neg vpt 1.62 mul V closepath stroke} def
/TriDE {stroke [] 0 setdash vpt 1.12 mul sub M
  hpt neg vpt 1.62 mul V
  hpt 2 mul 0 V
  hpt neg vpt -1.62 mul V closepath stroke} def
/PentE {stroke [] 0 setdash gsave
  translate 0 hpt M 4 {72 rotate 0 hpt L} repeat
  closepath stroke grestore} def
/CircE {stroke [] 0 setdash 
  hpt 0 360 arc stroke} def
/Opaque {gsave closepath 1 setgray fill grestore 0 setgray closepath} def
/DiaW {stroke [] 0 setdash vpt add M
  hpt neg vpt neg V hpt vpt neg V
  hpt vpt V hpt neg vpt V Opaque stroke} def
/BoxW {stroke [] 0 setdash exch hpt sub exch vpt add M
  0 vpt2 neg V hpt2 0 V 0 vpt2 V
  hpt2 neg 0 V Opaque stroke} def
/TriUW {stroke [] 0 setdash vpt 1.12 mul add M
  hpt neg vpt -1.62 mul V
  hpt 2 mul 0 V
  hpt neg vpt 1.62 mul V Opaque stroke} def
/TriDW {stroke [] 0 setdash vpt 1.12 mul sub M
  hpt neg vpt 1.62 mul V
  hpt 2 mul 0 V
  hpt neg vpt -1.62 mul V Opaque stroke} def
/PentW {stroke [] 0 setdash gsave
  translate 0 hpt M 4 {72 rotate 0 hpt L} repeat
  Opaque stroke grestore} def
/CircW {stroke [] 0 setdash 
  hpt 0 360 arc Opaque stroke} def
/BoxFill {gsave Rec 1 setgray fill grestore} def
/Density {
  /Fillden exch def
  currentrgbcolor
  /ColB exch def /ColG exch def /ColR exch def
  /ColR ColR Fillden mul Fillden sub 1 add def
  /ColG ColG Fillden mul Fillden sub 1 add def
  /ColB ColB Fillden mul Fillden sub 1 add def
  ColR ColG ColB setrgbcolor} def
/BoxColFill {gsave Rec PolyFill} def
/PolyFill {gsave Density fill grestore grestore} def
/h {rlineto rlineto rlineto closepath gsave fill grestore stroke} bind def
%
% PostScript Level 1 Pattern Fill routine for rectangles
% Usage: x y w h s a XX PatternFill
%	x,y = lower left corner of box to be filled
%	w,h = width and height of box
%	  a = angle in degrees between lines and x-axis
%	 XX = 0/1 for no/yes cross-hatch
%
/PatternFill {gsave /PFa [ 9 2 roll ] def
  PFa 0 get PFa 2 get 2 div add PFa 1 get PFa 3 get 2 div add translate
  PFa 2 get -2 div PFa 3 get -2 div PFa 2 get PFa 3 get Rec
  TransparentPatterns {} {gsave 1 setgray fill grestore} ifelse
  clip
  currentlinewidth 0.5 mul setlinewidth
  /PFs PFa 2 get dup mul PFa 3 get dup mul add sqrt def
  0 0 M PFa 5 get rotate PFs -2 div dup translate
  0 1 PFs PFa 4 get div 1 add floor cvi
	{PFa 4 get mul 0 M 0 PFs V} for
  0 PFa 6 get ne {
	0 1 PFs PFa 4 get div 1 add floor cvi
	{PFa 4 get mul 0 2 1 roll M PFs 0 V} for
 } if
  stroke grestore} def
%
/languagelevel where
 {pop languagelevel} {1} ifelse
dup 2 lt
	{/InterpretLevel1 true def
	 /InterpretLevel3 false def}
	{/InterpretLevel1 Level1 def
	 2 gt
	    {/InterpretLevel3 Level3 def}
	    {/InterpretLevel3 false def}
	 ifelse }
 ifelse
%
% PostScript level 2 pattern fill definitions
%
/Level2PatternFill {
/Tile8x8 {/PaintType 2 /PatternType 1 /TilingType 1 /BBox [0 0 8 8] /XStep 8 /YStep 8}
	bind def
/KeepColor {currentrgbcolor [/Pattern /DeviceRGB] setcolorspace} bind def
<< Tile8x8
 /PaintProc {0.5 setlinewidth pop 0 0 M 8 8 L 0 8 M 8 0 L stroke} 
>> matrix makepattern
/Pat1 exch def
<< Tile8x8
 /PaintProc {0.5 setlinewidth pop 0 0 M 8 8 L 0 8 M 8 0 L stroke
	0 4 M 4 8 L 8 4 L 4 0 L 0 4 L stroke}
>> matrix makepattern
/Pat2 exch def
<< Tile8x8
 /PaintProc {0.5 setlinewidth pop 0 0 M 0 8 L
	8 8 L 8 0 L 0 0 L fill}
>> matrix makepattern
/Pat3 exch def
<< Tile8x8
 /PaintProc {0.5 setlinewidth pop -4 8 M 8 -4 L
	0 12 M 12 0 L stroke}
>> matrix makepattern
/Pat4 exch def
<< Tile8x8
 /PaintProc {0.5 setlinewidth pop -4 0 M 8 12 L
	0 -4 M 12 8 L stroke}
>> matrix makepattern
/Pat5 exch def
<< Tile8x8
 /PaintProc {0.5 setlinewidth pop -2 8 M 4 -4 L
	0 12 M 8 -4 L 4 12 M 10 0 L stroke}
>> matrix makepattern
/Pat6 exch def
<< Tile8x8
 /PaintProc {0.5 setlinewidth pop -2 0 M 4 12 L
	0 -4 M 8 12 L 4 -4 M 10 8 L stroke}
>> matrix makepattern
/Pat7 exch def
<< Tile8x8
 /PaintProc {0.5 setlinewidth pop 8 -2 M -4 4 L
	12 0 M -4 8 L 12 4 M 0 10 L stroke}
>> matrix makepattern
/Pat8 exch def
<< Tile8x8
 /PaintProc {0.5 setlinewidth pop 0 -2 M 12 4 L
	-4 0 M 12 8 L -4 4 M 8 10 L stroke}
>> matrix makepattern
/Pat9 exch def
/Pattern1 {PatternBgnd KeepColor Pat1 setpattern} bind def
/Pattern2 {PatternBgnd KeepColor Pat2 setpattern} bind def
/Pattern3 {PatternBgnd KeepColor Pat3 setpattern} bind def
/Pattern4 {PatternBgnd KeepColor Landscape {Pat5} {Pat4} ifelse setpattern} bind def
/Pattern5 {PatternBgnd KeepColor Landscape {Pat4} {Pat5} ifelse setpattern} bind def
/Pattern6 {PatternBgnd KeepColor Landscape {Pat9} {Pat6} ifelse setpattern} bind def
/Pattern7 {PatternBgnd KeepColor Landscape {Pat8} {Pat7} ifelse setpattern} bind def
} def
%
%
%End of PostScript Level 2 code
%
/PatternBgnd {
  TransparentPatterns {} {gsave 1 setgray fill grestore} ifelse
} def
%
% Substitute for Level 2 pattern fill codes with
% grayscale if Level 2 support is not selected.
%
/Level1PatternFill {
/Pattern1 {0.250 Density} bind def
/Pattern2 {0.500 Density} bind def
/Pattern3 {0.750 Density} bind def
/Pattern4 {0.125 Density} bind def
/Pattern5 {0.375 Density} bind def
/Pattern6 {0.625 Density} bind def
/Pattern7 {0.875 Density} bind def
} def
%
% Now test for support of Level 2 code
%
Level1 {Level1PatternFill} {Level2PatternFill} ifelse
%
/Symbol-Oblique /Symbol findfont [1 0 .167 1 0 0] makefont
dup length dict begin {1 index /FID eq {pop pop} {def} ifelse} forall
currentdict end definefont pop
%
/Metrics {ExtendTextBox Gswidth} def
/Lwidth {currentpoint stroke M 0 vshift R Metrics} def
/Rwidth {currentpoint stroke M dup stringwidth pop neg vshift R Metrics} def
/Cwidth {currentpoint stroke M dup stringwidth pop -2 div vshift R Metrics} def
/GLwidth {currentpoint stroke M 0 vshift R {ExtendTextBox} forall} def
/GRwidth {currentpoint stroke M dup Gwidth vshift R {ExtendTextBox} forall} def
/GCwidth {currentpoint stroke M dup Gwidth 2 div vshift R {ExtendTextBox} forall} def
/GLwidth2 {0 Gwidth AddGlyphWidth} def
/GRwidth2 {Gwidth -1 mul 0 AddGlyphWidth} def
/GCwidth2 {Gwidth 2 div dup -1 mul AddGlyphWidth} def
/AddGlyphWidth { dup TBx2 gt {userdict /TBx2 3 -1 roll put} {pop} ifelse
                 dup TBx1 lt {userdict /TBx1 3 -1 roll put} {pop} ifelse } def
/MFshow {
   { dup 5 get 3 ge
     { 5 get 3 eq {gsave} {grestore} ifelse }
     {dup dup 0 get findfont exch 1 get scalefont setfont
     [ currentpoint ] exch dup 2 get 0 exch R dup 5 get 2 ne {dup dup 6
     get exch 4 get {textshow} {Metrics pop 0 R} ifelse }if dup 5 get 0 eq
     {dup 3 get {2 get neg 0 exch R pop} {pop aload pop M} ifelse} {dup 5
     get 1 eq {dup 2 get exch dup 3 get exch 6 get Gswidth pop -2 div
     dup 0 R} {dup 6 get Gswidth pop -2 div 0 R 6 get
     textshow 2 index {aload pop M neg 3 -1 roll neg R pop pop} {pop pop pop
     pop aload pop M} ifelse }ifelse }ifelse }
     ifelse }
   forall} def
/Gswidth {dup type /stringtype eq {stringwidth} {pop (n) stringwidth} ifelse} def
/MFwidth {0 exch { dup 5 get 3 ge { 5 get 3 eq { 0 } { pop } ifelse }
 {dup 3 get{dup dup 0 get findfont exch 1 get scalefont setfont
     6 get Gswidth pop add} {pop} ifelse} ifelse} forall} def
/MLshow { currentpoint stroke M
  0 exch R
  Blacktext {gsave 0 setgray MFshow grestore} {MFshow} ifelse } bind def
/MRshow { currentpoint stroke M
  exch dup MFwidth neg 3 -1 roll R
  Blacktext {gsave 0 setgray MFshow grestore} {MFshow} ifelse } bind def
/MCshow { currentpoint stroke M
  exch dup MFwidth -2 div 3 -1 roll R
  Blacktext {gsave 0 setgray MFshow grestore} {MFshow} ifelse } bind def
/XYsave    { [( ) 1 2 true false 3 ()] } bind def
/XYrestore { [( ) 1 2 true false 4 ()] } bind def
Level1 SuppressPDFMark or 
{} {
/SDict 10 dict def
systemdict /pdfmark known not {
  userdict /pdfmark systemdict /cleartomark get put
} if
SDict begin [
  /Title (Results.daisy.v100/Run.001/FLOPS.001/GPU_Blocks.0160/GPU_Threads.1024/graph2.ps)
  /Subject (gnuplot plot)
  /Creator (gnuplot 5.2 patchlevel 7)
%  /Producer (gnuplot)
%  /Keywords ()
  /CreationDate (Sun Jan 19 15:20:28 2020)
  /DOCINFO pdfmark
end
} ifelse
%
% Support for boxed text - Ethan A Merritt Sep 2016
%
/InitTextBox { userdict /TBy2 3 -1 roll put userdict /TBx2 3 -1 roll put
           userdict /TBy1 3 -1 roll put userdict /TBx1 3 -1 roll put
	   /Boxing true def } def
/ExtendTextBox { dup type /stringtype eq
    { Boxing { gsave dup false charpath pathbbox
      dup TBy2 gt {userdict /TBy2 3 -1 roll put} {pop} ifelse
      dup TBx2 gt {userdict /TBx2 3 -1 roll put} {pop} ifelse
      dup TBy1 lt {userdict /TBy1 3 -1 roll put} {pop} ifelse
      dup TBx1 lt {userdict /TBx1 3 -1 roll put} {pop} ifelse
      grestore } if }
    {} ifelse} def
/PopTextBox { newpath TBx1 TBxmargin sub TBy1 TBymargin sub M
               TBx1 TBxmargin sub TBy2 TBymargin add L
	       TBx2 TBxmargin add TBy2 TBymargin add L
	       TBx2 TBxmargin add TBy1 TBymargin sub L closepath } def
/DrawTextBox { PopTextBox stroke /Boxing false def} def
/FillTextBox { gsave PopTextBox fill grestore /Boxing false def} def
0 0 0 0 InitTextBox
/TBxmargin 20 def
/TBymargin 20 def
/Boxing false def
/textshow { ExtendTextBox Gshow } def
%
end
%%EndProlog
%%Page: 1 1
gnudict begin
gsave
doclip
50 50 translate
0.100 0.100 scale
90 rotate
0 -5040 translate
0 setgray
newpath
(Helvetica) findfont 140 scalefont setfont
BackgroundColor 0 lt 3 1 roll 0 lt exch 0 lt or or not {gsave BackgroundColor C clippath fill grestore} if
1.000 UL
LTb
LCb setrgbcolor
1.000 UL
LTa
LCa setrgbcolor
770 448 M
6107 0 V
stroke
LTb
LCb setrgbcolor
770 448 M
63 0 V
6044 0 R
-63 0 V
stroke
686 448 M
[ [(Helvetica) 140.0 0.0 true true 0 (1e-02)]
] -46.7 MRshow
/Helvetica findfont 140 scalefont setfont
/vshift -46 def
1.000 UL
LTb
LCb setrgbcolor
1.000 UL
LTa
LCa setrgbcolor
770 657 M
6107 0 V
stroke
LTb
LCb setrgbcolor
770 657 M
31 0 V
6076 0 R
-31 0 V
stroke
LTa
LCa setrgbcolor
770 780 M
6107 0 V
stroke
LTb
LCb setrgbcolor
770 780 M
31 0 V
6076 0 R
-31 0 V
stroke
LTa
LCa setrgbcolor
770 867 M
6107 0 V
stroke
LTb
LCb setrgbcolor
770 867 M
31 0 V
6076 0 R
-31 0 V
stroke
LTa
LCa setrgbcolor
770 934 M
6107 0 V
stroke
LTb
LCb setrgbcolor
770 934 M
31 0 V
6076 0 R
-31 0 V
stroke
LTa
LCa setrgbcolor
770 989 M
6107 0 V
stroke
LTb
LCb setrgbcolor
770 989 M
31 0 V
6076 0 R
-31 0 V
stroke
LTa
LCa setrgbcolor
770 1035 M
6107 0 V
stroke
LTb
LCb setrgbcolor
770 1035 M
31 0 V
6076 0 R
-31 0 V
stroke
LTa
LCa setrgbcolor
770 1076 M
6107 0 V
stroke
LTb
LCb setrgbcolor
770 1076 M
31 0 V
6076 0 R
-31 0 V
stroke
LTa
LCa setrgbcolor
770 1111 M
6107 0 V
stroke
LTb
LCb setrgbcolor
770 1111 M
31 0 V
6076 0 R
-31 0 V
stroke
LTa
LCa setrgbcolor
770 1143 M
6107 0 V
stroke
LTb
LCb setrgbcolor
770 1143 M
63 0 V
6044 0 R
-63 0 V
stroke
686 1143 M
[ [(Helvetica) 140.0 0.0 true true 0 (1e-01)]
] -46.7 MRshow
/Helvetica findfont 140 scalefont setfont
1.000 UL
LTb
LCb setrgbcolor
1.000 UL
LTa
LCa setrgbcolor
770 1352 M
6107 0 V
stroke
LTb
LCb setrgbcolor
770 1352 M
31 0 V
6076 0 R
-31 0 V
stroke
LTa
LCa setrgbcolor
770 1475 M
6107 0 V
stroke
LTb
LCb setrgbcolor
770 1475 M
31 0 V
6076 0 R
-31 0 V
stroke
LTa
LCa setrgbcolor
770 1562 M
6107 0 V
stroke
LTb
LCb setrgbcolor
770 1562 M
31 0 V
6076 0 R
-31 0 V
stroke
LTa
LCa setrgbcolor
770 1629 M
6107 0 V
stroke
LTb
LCb setrgbcolor
770 1629 M
31 0 V
6076 0 R
-31 0 V
stroke
LTa
LCa setrgbcolor
770 1684 M
6107 0 V
stroke
LTb
LCb setrgbcolor
770 1684 M
31 0 V
6076 0 R
-31 0 V
stroke
LTa
LCa setrgbcolor
770 1731 M
6107 0 V
stroke
LTb
LCb setrgbcolor
770 1731 M
31 0 V
6076 0 R
-31 0 V
stroke
LTa
LCa setrgbcolor
770 1771 M
6107 0 V
stroke
LTb
LCb setrgbcolor
770 1771 M
31 0 V
6076 0 R
-31 0 V
stroke
LTa
LCa setrgbcolor
770 1807 M
6107 0 V
stroke
LTb
LCb setrgbcolor
770 1807 M
31 0 V
6076 0 R
-31 0 V
stroke
LTa
LCa setrgbcolor
770 1838 M
6107 0 V
stroke
LTb
LCb setrgbcolor
770 1838 M
63 0 V
6044 0 R
-63 0 V
stroke
686 1838 M
[ [(Helvetica) 140.0 0.0 true true 0 (1e+00)]
] -46.7 MRshow
/Helvetica findfont 140 scalefont setfont
1.000 UL
LTb
LCb setrgbcolor
1.000 UL
LTa
LCa setrgbcolor
770 2048 M
6107 0 V
stroke
LTb
LCb setrgbcolor
770 2048 M
31 0 V
6076 0 R
-31 0 V
stroke
LTa
LCa setrgbcolor
770 2170 M
6107 0 V
stroke
LTb
LCb setrgbcolor
770 2170 M
31 0 V
6076 0 R
-31 0 V
stroke
LTa
LCa setrgbcolor
770 2257 M
6107 0 V
stroke
LTb
LCb setrgbcolor
770 2257 M
31 0 V
6076 0 R
-31 0 V
stroke
LTa
LCa setrgbcolor
770 2324 M
6107 0 V
stroke
LTb
LCb setrgbcolor
770 2324 M
31 0 V
6076 0 R
-31 0 V
stroke
LTa
LCa setrgbcolor
770 2379 M
6107 0 V
stroke
LTb
LCb setrgbcolor
770 2379 M
31 0 V
6076 0 R
-31 0 V
stroke
LTa
LCa setrgbcolor
770 2426 M
6107 0 V
stroke
LTb
LCb setrgbcolor
770 2426 M
31 0 V
6076 0 R
-31 0 V
stroke
LTa
LCa setrgbcolor
770 2466 M
6107 0 V
stroke
LTb
LCb setrgbcolor
770 2466 M
31 0 V
6076 0 R
-31 0 V
stroke
LTa
LCa setrgbcolor
770 2502 M
6107 0 V
stroke
LTb
LCb setrgbcolor
770 2502 M
31 0 V
6076 0 R
-31 0 V
stroke
LTa
LCa setrgbcolor
770 2534 M
6107 0 V
stroke
LTb
LCb setrgbcolor
770 2534 M
63 0 V
6044 0 R
-63 0 V
stroke
686 2534 M
[ [(Helvetica) 140.0 0.0 true true 0 (1e+01)]
] -46.7 MRshow
/Helvetica findfont 140 scalefont setfont
1.000 UL
LTb
LCb setrgbcolor
1.000 UL
LTa
LCa setrgbcolor
770 2743 M
6107 0 V
stroke
LTb
LCb setrgbcolor
770 2743 M
31 0 V
6076 0 R
-31 0 V
stroke
LTa
LCa setrgbcolor
770 2865 M
6107 0 V
stroke
LTb
LCb setrgbcolor
770 2865 M
31 0 V
6076 0 R
-31 0 V
stroke
LTa
LCa setrgbcolor
770 2952 M
6107 0 V
stroke
LTb
LCb setrgbcolor
770 2952 M
31 0 V
6076 0 R
-31 0 V
stroke
LTa
LCa setrgbcolor
770 3019 M
6107 0 V
stroke
LTb
LCb setrgbcolor
770 3019 M
31 0 V
6076 0 R
-31 0 V
stroke
LTa
LCa setrgbcolor
770 3074 M
6107 0 V
stroke
LTb
LCb setrgbcolor
770 3074 M
31 0 V
6076 0 R
-31 0 V
stroke
LTa
LCa setrgbcolor
770 3121 M
6107 0 V
stroke
LTb
LCb setrgbcolor
770 3121 M
31 0 V
6076 0 R
-31 0 V
stroke
LTa
LCa setrgbcolor
770 3161 M
6107 0 V
stroke
LTb
LCb setrgbcolor
770 3161 M
31 0 V
6076 0 R
-31 0 V
stroke
LTa
LCa setrgbcolor
770 3197 M
6107 0 V
stroke
LTb
LCb setrgbcolor
770 3197 M
31 0 V
6076 0 R
-31 0 V
stroke
LTa
LCa setrgbcolor
770 3229 M
6107 0 V
stroke
LTb
LCb setrgbcolor
770 3229 M
63 0 V
6044 0 R
-63 0 V
stroke
686 3229 M
[ [(Helvetica) 140.0 0.0 true true 0 (1e+02)]
] -46.7 MRshow
/Helvetica findfont 140 scalefont setfont
1.000 UL
LTb
LCb setrgbcolor
1.000 UL
LTa
LCa setrgbcolor
770 3438 M
6107 0 V
stroke
LTb
LCb setrgbcolor
770 3438 M
31 0 V
6076 0 R
-31 0 V
stroke
LTa
LCa setrgbcolor
770 3560 M
6107 0 V
stroke
LTb
LCb setrgbcolor
770 3560 M
31 0 V
6076 0 R
-31 0 V
stroke
LTa
LCa setrgbcolor
770 3647 M
6107 0 V
stroke
LTb
LCb setrgbcolor
770 3647 M
31 0 V
6076 0 R
-31 0 V
stroke
LTa
LCa setrgbcolor
770 3715 M
6107 0 V
stroke
LTb
LCb setrgbcolor
770 3715 M
31 0 V
6076 0 R
-31 0 V
stroke
LTa
LCa setrgbcolor
770 3770 M
6107 0 V
stroke
LTb
LCb setrgbcolor
770 3770 M
31 0 V
6076 0 R
-31 0 V
stroke
LTa
LCa setrgbcolor
770 3816 M
6107 0 V
stroke
LTb
LCb setrgbcolor
770 3816 M
31 0 V
6076 0 R
-31 0 V
stroke
LTa
LCa setrgbcolor
770 3856 M
6107 0 V
stroke
LTb
LCb setrgbcolor
770 3856 M
31 0 V
6076 0 R
-31 0 V
stroke
LTa
LCa setrgbcolor
770 3892 M
6107 0 V
stroke
LTb
LCb setrgbcolor
770 3892 M
31 0 V
6076 0 R
-31 0 V
stroke
LTa
LCa setrgbcolor
770 3924 M
6107 0 V
stroke
LTb
LCb setrgbcolor
770 3924 M
63 0 V
6044 0 R
-63 0 V
stroke
686 3924 M
[ [(Helvetica) 140.0 0.0 true true 0 (1e+03)]
] -46.7 MRshow
/Helvetica findfont 140 scalefont setfont
1.000 UL
LTb
LCb setrgbcolor
1.000 UL
LTa
LCa setrgbcolor
770 4133 M
6107 0 V
stroke
LTb
LCb setrgbcolor
770 4133 M
31 0 V
6076 0 R
-31 0 V
stroke
LTa
LCa setrgbcolor
770 4256 M
6107 0 V
stroke
LTb
LCb setrgbcolor
770 4256 M
31 0 V
6076 0 R
-31 0 V
stroke
LTa
LCa setrgbcolor
770 4342 M
6107 0 V
stroke
LTb
LCb setrgbcolor
770 4342 M
31 0 V
6076 0 R
-31 0 V
stroke
LTa
LCa setrgbcolor
770 4410 M
6107 0 V
stroke
LTb
LCb setrgbcolor
770 4410 M
31 0 V
6076 0 R
-31 0 V
stroke
LTa
LCa setrgbcolor
770 4465 M
6107 0 V
stroke
LTb
LCb setrgbcolor
770 4465 M
31 0 V
6076 0 R
-31 0 V
stroke
LTa
LCa setrgbcolor
770 4511 M
6107 0 V
stroke
LTb
LCb setrgbcolor
770 4511 M
31 0 V
6076 0 R
-31 0 V
stroke
LTa
LCa setrgbcolor
770 4552 M
6107 0 V
stroke
LTb
LCb setrgbcolor
770 4552 M
31 0 V
6076 0 R
-31 0 V
stroke
LTa
LCa setrgbcolor
770 4587 M
6107 0 V
stroke
LTb
LCb setrgbcolor
770 4587 M
31 0 V
6076 0 R
-31 0 V
stroke
LTa
LCa setrgbcolor
770 4619 M
6107 0 V
stroke
LTb
LCb setrgbcolor
770 4619 M
63 0 V
6044 0 R
-63 0 V
stroke
686 4619 M
[ [(Helvetica) 140.0 0.0 true true 0 (1e+04)]
] -46.7 MRshow
/Helvetica findfont 140 scalefont setfont
1.000 UL
LTb
LCb setrgbcolor
1.000 UL
LTa
LCa setrgbcolor
1067 448 M
0 4171 V
stroke
LTb
LCb setrgbcolor
1067 448 M
0 31 V
0 4140 R
0 -31 V
stroke
LTa
LCa setrgbcolor
1246 448 M
0 4171 V
stroke
LTb
LCb setrgbcolor
1246 448 M
0 31 V
0 4140 R
0 -31 V
stroke
LTa
LCa setrgbcolor
1374 448 M
0 4171 V
stroke
LTb
LCb setrgbcolor
1374 448 M
0 31 V
0 4140 R
0 -31 V
stroke
LTa
LCa setrgbcolor
1473 448 M
0 4171 V
stroke
LTb
LCb setrgbcolor
1473 448 M
0 31 V
0 4140 R
0 -31 V
stroke
LTa
LCa setrgbcolor
1553 448 M
0 4171 V
stroke
LTb
LCb setrgbcolor
1553 448 M
0 31 V
0 4140 R
0 -31 V
stroke
LTa
LCa setrgbcolor
1622 448 M
0 4171 V
stroke
LTb
LCb setrgbcolor
1622 448 M
0 31 V
0 4140 R
0 -31 V
stroke
LTa
LCa setrgbcolor
1681 448 M
0 4171 V
stroke
LTb
LCb setrgbcolor
1681 448 M
0 31 V
0 4140 R
0 -31 V
stroke
LTa
LCa setrgbcolor
1733 448 M
0 4171 V
stroke
LTb
LCb setrgbcolor
1733 448 M
0 31 V
0 4140 R
0 -31 V
stroke
LTa
LCa setrgbcolor
1780 448 M
0 4171 V
stroke
LTb
LCb setrgbcolor
1780 448 M
0 63 V
0 4108 R
0 -63 V
stroke
1780 308 M
[ [(Helvetica) 140.0 0.0 true true 0 (1e+04)]
] -46.7 MCshow
/Helvetica findfont 140 scalefont setfont
1.000 UL
LTb
LCb setrgbcolor
1.000 UL
LTa
LCa setrgbcolor
2087 448 M
0 4171 V
stroke
LTb
LCb setrgbcolor
2087 448 M
0 31 V
0 4140 R
0 -31 V
stroke
LTa
LCa setrgbcolor
2266 448 M
0 4171 V
stroke
LTb
LCb setrgbcolor
2266 448 M
0 31 V
0 4140 R
0 -31 V
stroke
LTa
LCa setrgbcolor
2394 448 M
0 4171 V
stroke
LTb
LCb setrgbcolor
2394 448 M
0 31 V
0 4140 R
0 -31 V
stroke
LTa
LCa setrgbcolor
2493 448 M
0 4171 V
stroke
LTb
LCb setrgbcolor
2493 448 M
0 31 V
0 4140 R
0 -31 V
stroke
LTa
LCa setrgbcolor
2573 448 M
0 4171 V
stroke
LTb
LCb setrgbcolor
2573 448 M
0 31 V
0 4140 R
0 -31 V
stroke
LTa
LCa setrgbcolor
2642 448 M
0 4171 V
stroke
LTb
LCb setrgbcolor
2642 448 M
0 31 V
0 4140 R
0 -31 V
stroke
LTa
LCa setrgbcolor
2701 448 M
0 4171 V
stroke
LTb
LCb setrgbcolor
2701 448 M
0 31 V
0 4140 R
0 -31 V
stroke
LTa
LCa setrgbcolor
2753 448 M
0 4171 V
stroke
LTb
LCb setrgbcolor
2753 448 M
0 31 V
0 4140 R
0 -31 V
stroke
LTa
LCa setrgbcolor
2800 448 M
0 4171 V
stroke
LTb
LCb setrgbcolor
2800 448 M
0 63 V
0 4108 R
0 -63 V
stroke
2800 308 M
[ [(Helvetica) 140.0 0.0 true true 0 (1e+05)]
] -46.7 MCshow
/Helvetica findfont 140 scalefont setfont
1.000 UL
LTb
LCb setrgbcolor
1.000 UL
LTa
LCa setrgbcolor
3107 448 M
0 4171 V
stroke
LTb
LCb setrgbcolor
3107 448 M
0 31 V
0 4140 R
0 -31 V
stroke
LTa
LCa setrgbcolor
3286 448 M
0 4171 V
stroke
LTb
LCb setrgbcolor
3286 448 M
0 31 V
0 4140 R
0 -31 V
stroke
LTa
LCa setrgbcolor
3414 448 M
0 4171 V
stroke
LTb
LCb setrgbcolor
3414 448 M
0 31 V
0 4140 R
0 -31 V
stroke
LTa
LCa setrgbcolor
3513 448 M
0 4171 V
stroke
LTb
LCb setrgbcolor
3513 448 M
0 31 V
0 4140 R
0 -31 V
stroke
LTa
LCa setrgbcolor
3593 448 M
0 4171 V
stroke
LTb
LCb setrgbcolor
3593 448 M
0 31 V
0 4140 R
0 -31 V
stroke
LTa
LCa setrgbcolor
3662 448 M
0 4171 V
stroke
LTb
LCb setrgbcolor
3662 448 M
0 31 V
0 4140 R
0 -31 V
stroke
LTa
LCa setrgbcolor
3721 448 M
0 4171 V
stroke
LTb
LCb setrgbcolor
3721 448 M
0 31 V
0 4140 R
0 -31 V
stroke
LTa
LCa setrgbcolor
3773 448 M
0 4171 V
stroke
LTb
LCb setrgbcolor
3773 448 M
0 31 V
0 4140 R
0 -31 V
stroke
LTa
LCa setrgbcolor
3820 448 M
0 4171 V
stroke
LTb
LCb setrgbcolor
3820 448 M
0 63 V
0 4108 R
0 -63 V
stroke
3820 308 M
[ [(Helvetica) 140.0 0.0 true true 0 (1e+06)]
] -46.7 MCshow
/Helvetica findfont 140 scalefont setfont
1.000 UL
LTb
LCb setrgbcolor
1.000 UL
LTa
LCa setrgbcolor
4127 448 M
0 4171 V
stroke
LTb
LCb setrgbcolor
4127 448 M
0 31 V
0 4140 R
0 -31 V
stroke
LTa
LCa setrgbcolor
4306 448 M
0 4171 V
stroke
LTb
LCb setrgbcolor
4306 448 M
0 31 V
0 4140 R
0 -31 V
stroke
LTa
LCa setrgbcolor
4434 448 M
0 4171 V
stroke
LTb
LCb setrgbcolor
4434 448 M
0 31 V
0 4140 R
0 -31 V
stroke
LTa
LCa setrgbcolor
4533 448 M
0 4171 V
stroke
LTb
LCb setrgbcolor
4533 448 M
0 31 V
0 4140 R
0 -31 V
stroke
LTa
LCa setrgbcolor
4614 448 M
0 4171 V
stroke
LTb
LCb setrgbcolor
4614 448 M
0 31 V
0 4140 R
0 -31 V
stroke
LTa
LCa setrgbcolor
4682 448 M
0 4171 V
stroke
LTb
LCb setrgbcolor
4682 448 M
0 31 V
0 4140 R
0 -31 V
stroke
LTa
LCa setrgbcolor
4741 448 M
0 4171 V
stroke
LTb
LCb setrgbcolor
4741 448 M
0 31 V
0 4140 R
0 -31 V
stroke
LTa
LCa setrgbcolor
4793 448 M
0 4171 V
stroke
LTb
LCb setrgbcolor
4793 448 M
0 31 V
0 4140 R
0 -31 V
stroke
LTa
LCa setrgbcolor
4840 448 M
0 4171 V
stroke
LTb
LCb setrgbcolor
4840 448 M
0 63 V
0 4108 R
0 -63 V
stroke
4840 308 M
[ [(Helvetica) 140.0 0.0 true true 0 (1e+07)]
] -46.7 MCshow
/Helvetica findfont 140 scalefont setfont
1.000 UL
LTb
LCb setrgbcolor
1.000 UL
LTa
LCa setrgbcolor
5147 448 M
0 4171 V
stroke
LTb
LCb setrgbcolor
5147 448 M
0 31 V
0 4140 R
0 -31 V
stroke
LTa
LCa setrgbcolor
5327 448 M
0 4171 V
stroke
LTb
LCb setrgbcolor
5327 448 M
0 31 V
0 4140 R
0 -31 V
stroke
LTa
LCa setrgbcolor
5454 448 M
0 4171 V
stroke
LTb
LCb setrgbcolor
5454 448 M
0 31 V
0 4140 R
0 -31 V
stroke
LTa
LCa setrgbcolor
5553 448 M
0 4171 V
stroke
LTb
LCb setrgbcolor
5553 448 M
0 31 V
0 4140 R
0 -31 V
stroke
LTa
LCa setrgbcolor
5634 448 M
0 4171 V
stroke
LTb
LCb setrgbcolor
5634 448 M
0 31 V
0 4140 R
0 -31 V
stroke
LTa
LCa setrgbcolor
5702 448 M
0 4171 V
stroke
LTb
LCb setrgbcolor
5702 448 M
0 31 V
0 4140 R
0 -31 V
stroke
LTa
LCa setrgbcolor
5761 448 M
0 4171 V
stroke
LTb
LCb setrgbcolor
5761 448 M
0 31 V
0 4140 R
0 -31 V
stroke
LTa
LCa setrgbcolor
5813 448 M
0 4171 V
stroke
LTb
LCb setrgbcolor
5813 448 M
0 31 V
0 4140 R
0 -31 V
stroke
LTa
LCa setrgbcolor
5860 448 M
0 4171 V
stroke
LTb
LCb setrgbcolor
5860 448 M
0 63 V
0 4108 R
0 -63 V
stroke
5860 308 M
[ [(Helvetica) 140.0 0.0 true true 0 (1e+08)]
] -46.7 MCshow
/Helvetica findfont 140 scalefont setfont
1.000 UL
LTb
LCb setrgbcolor
1.000 UL
LTa
LCa setrgbcolor
6167 448 M
0 4171 V
stroke
LTb
LCb setrgbcolor
6167 448 M
0 31 V
0 4140 R
0 -31 V
stroke
LTa
LCa setrgbcolor
6347 448 M
0 4171 V
stroke
LTb
LCb setrgbcolor
6347 448 M
0 31 V
0 4140 R
0 -31 V
stroke
LTa
LCa setrgbcolor
6474 448 M
0 4171 V
stroke
LTb
LCb setrgbcolor
6474 448 M
0 31 V
0 4140 R
0 -31 V
stroke
LTa
LCa setrgbcolor
6573 448 M
0 4171 V
stroke
LTb
LCb setrgbcolor
6573 448 M
0 31 V
0 4140 R
0 -31 V
stroke
LTa
LCa setrgbcolor
6654 448 M
0 4171 V
stroke
LTb
LCb setrgbcolor
6654 448 M
0 31 V
0 4140 R
0 -31 V
stroke
LTa
LCa setrgbcolor
6722 448 M
0 4171 V
stroke
LTb
LCb setrgbcolor
6722 448 M
0 31 V
0 4140 R
0 -31 V
stroke
LTa
LCa setrgbcolor
6781 448 M
0 4171 V
stroke
LTb
LCb setrgbcolor
6781 448 M
0 31 V
0 4140 R
0 -31 V
stroke
LTa
LCa setrgbcolor
6833 448 M
0 4171 V
stroke
LTb
LCb setrgbcolor
6833 448 M
0 31 V
0 4140 R
0 -31 V
stroke
LTa
LCa setrgbcolor
6880 448 M
0 4171 V
stroke
LTb
LCb setrgbcolor
1.000 UL
LTB
LCb setrgbcolor
770 4619 N
770 448 L
6107 0 V
0 4171 V
-6107 0 V
Z stroke
1.000 UP
1.000 UL
LTb
LCb setrgbcolor
LCb setrgbcolor
196 2533 M
currentpoint gsave translate -270 rotate 0 0 moveto
[ [(Helvetica) 140.0 0.0 true true 0 (Total Bandwidth \(GB/s\))]
] -46.7 MCshow
grestore
/Helvetica findfont 140 scalefont setfont
LTb
LCb setrgbcolor
LTb
LCb setrgbcolor
3823 98 M
[ [(Helvetica) 140.0 0.0 true true 0 (Working Set Size \(bytes\))]
] -46.7 MCshow
/Helvetica findfont 140 scalefont setfont
LTb
LCb setrgbcolor
3823 4829 M
[ [(Helvetica) 140.0 0.0 true true 0 (Graph 2 \(Results.daisy.v100/Run.001/FLOPS.001/GPU)]
[(Helvetica) 112.0 -42.0 true true 0 (B)]
[(Helvetica) 140.0 0.0 true true 0 (locks.0160/GPU)]
[(Helvetica) 112.0 -42.0 true true 0 (T)]
[(Helvetica) 140.0 0.0 true true 0 (hreads.1024\))]
] -32.7 MCshow
/Helvetica findfont 140 scalefont setfont
LTb
LCb setrgbcolor
LTb
LCb setrgbcolor
% Begin plot #1
0.400 UP
1.000 UL
LTb
0.58 0.00 0.83 C
770 1103 M
0 433 V
0 216 V
0 196 V
0 181 V
0 164 V
0 116 V
0 38 V
0 106 V
0 -19 V
0 8 V
0 3 V
0 2 V
0 8 V
0 -2 V
0 1 V
0 26 V
810 1181 M
0 412 V
0 220 V
0 181 V
0 182 V
0 155 V
0 133 V
0 56 V
0 35 V
0 44 V
0 -2 V
0 9 V
0 3 V
0 4 V
0 2 V
0 1 V
852 1235 M
0 395 V
0 202 V
0 190 V
0 177 V
0 155 V
0 131 V
0 91 V
0 50 V
0 -21 V
0 33 V
0 -8 V
0 5 V
0 3 V
0 2 V
0 -6 V
0 6 V
0 1 V
893 1219 M
0 431 V
0 222 V
0 185 V
0 175 V
0 157 V
0 129 V
0 89 V
0 56 V
0 -26 V
0 16 V
0 9 V
0 9 V
0 -2 V
0 3 V
0 1 V
933 1288 M
0 390 V
0 208 V
0 212 V
0 170 V
0 144 V
0 137 V
0 64 V
0 47 V
0 -4 V
0 28 V
0 7 V
0 -2 V
0 5 V
0 1 V
0 1 V
974 1321 M
0 381 V
0 220 V
0 202 V
0 169 V
0 141 V
0 146 V
0 69 V
0 19 V
0 50 V
0 -2 V
0 5 V
0 5 V
0 2 V
42 -1406 R
0 403 V
0 233 V
0 188 V
0 178 V
0 127 V
0 147 V
0 94 V
0 47 V
0 -24 V
0 32 V
0 -7 V
0 6 V
0 4 V
0 1 V
0 1 V
42 -1383 R
0 397 V
0 201 V
0 215 V
0 172 V
0 147 V
0 125 V
0 91 V
0 54 V
0 -25 V
0 14 V
0 9 V
0 6 V
0 3 V
0 1 V
0 1 V
41 -1379 R
0 398 V
0 202 V
0 203 V
0 178 V
0 147 V
0 115 V
0 104 V
0 34 V
0 -8 V
0 29 V
0 -2 V
0 7 V
0 3 V
0 1 V
0 1 V
0 1 V
41 -1375 R
0 342 V
0 232 V
0 223 V
0 168 V
0 149 V
0 128 V
0 95 V
0 46 V
0 -17 V
0 32 V
0 -7 V
0 9 V
0 2 V
0 1 V
41 -1376 R
0 382 V
0 190 V
0 212 V
0 195 V
0 152 V
0 108 V
0 94 V
0 40 V
0 -6 V
0 29 V
0 -4 V
0 8 V
0 2 V
0 1 V
0 1 V
42 -1399 R
0 407 V
0 204 V
0 201 V
0 180 V
0 155 V
0 123 V
0 87 V
0 58 V
0 -22 V
0 14 V
0 8 V
0 11 V
0 -1 V
0 2 V
0 1 V
42 -1415 R
0 439 V
0 177 V
0 204 V
0 105 V
0 236 V
0 96 V
0 106 V
0 60 V
0 -17 V
0 15 V
0 9 V
0 10 V
0 1 V
0 1 V
0 1 V
42 -1407 R
0 408 V
0 206 V
0 191 V
0 192 V
0 157 V
0 125 V
0 84 V
0 53 V
0 -18 V
0 30 V
0 -4 V
0 9 V
0 1 V
0 1 V
42 -1356 R
0 379 V
0 202 V
0 186 V
0 191 V
0 141 V
0 126 V
0 86 V
0 51 V
0 -23 V
0 36 V
0 -4 V
0 7 V
0 1 V
0 1 V
0 1 V
42 -1365 R
0 370 V
0 221 V
0 186 V
0 192 V
0 146 V
0 126 V
0 80 V
0 30 V
0 8 V
stroke 1391 2974 M
0 29 V
0 -4 V
0 9 V
0 1 V
0 1 V
0 1 V
42 -1376 R
0 393 V
0 222 V
0 165 V
0 176 V
0 167 V
0 121 V
0 58 V
0 35 V
0 40 V
0 6 V
0 11 V
0 4 V
0 2 V
0 1 V
42 -1355 R
0 368 V
0 218 V
0 184 V
0 180 V
0 163 V
0 112 V
0 66 V
0 37 V
0 36 V
0 5 V
0 8 V
0 4 V
0 1 V
0 1 V
42 -1364 R
0 376 V
0 217 V
0 182 V
0 186 V
0 147 V
0 118 V
0 70 V
0 33 V
0 33 V
0 6 V
0 9 V
0 3 V
0 3 V
0 1 V
0 1 V
42 -1370 R
0 389 V
0 203 V
0 183 V
0 192 V
0 154 V
0 125 V
0 76 V
0 39 V
0 -10 V
0 28 V
0 5 V
0 2 V
0 3 V
0 1 V
0 1 V
42 -1355 R
0 396 V
0 189 V
0 193 V
0 186 V
0 144 V
0 110 V
0 93 V
0 22 V
0 25 V
0 4 V
0 5 V
0 5 V
0 1 V
0 1 V
0 1 V
42 -1366 R
0 413 V
0 213 V
0 177 V
0 177 V
0 145 V
0 116 V
0 79 V
0 -10 V
0 30 V
0 25 V
0 3 V
0 4 V
0 4 V
0 2 V
42 -1337 R
0 404 V
0 140 V
0 255 V
0 162 V
0 140 V
0 122 V
0 30 V
0 96 V
0 -24 V
0 21 V
0 3 V
0 6 V
0 2 V
0 -1 V
0 1 V
42 -1324 R
0 395 V
0 211 V
0 180 V
0 178 V
0 133 V
0 120 V
0 79 V
0 39 V
0 -22 V
0 26 V
0 11 V
0 1 V
0 2 V
43 -1325 R
0 403 V
0 176 V
0 211 V
0 166 V
0 150 V
0 109 V
0 80 V
0 47 V
0 -24 V
0 26 V
0 1 V
0 7 V
0 1 V
0 1 V
42 -1309 R
0 362 V
0 214 V
0 192 V
0 173 V
0 154 V
0 108 V
0 76 V
0 31 V
0 -19 V
0 33 V
0 9 V
0 2 V
0 2 V
0 1 V
42 -1315 R
0 367 V
0 210 V
0 203 V
0 177 V
0 130 V
0 112 V
0 79 V
0 44 V
0 -22 V
0 28 V
0 12 V
0 1 V
0 2 V
42 -1347 R
0 410 V
0 211 V
0 188 V
0 163 V
0 149 V
0 112 V
0 85 V
0 43 V
0 -18 V
0 23 V
0 2 V
0 7 V
0 1 V
42 -1340 R
0 395 V
0 217 V
0 187 V
0 175 V
0 141 V
0 116 V
0 36 V
0 79 V
0 -13 V
0 26 V
0 1 V
0 7 V
0 1 V
0 1 V
42 -1319 R
0 385 V
0 196 V
0 147 V
0 230 V
0 141 V
0 112 V
0 58 V
0 26 V
0 11 V
0 28 V
0 10 V
0 1 V
0 1 V
0 1 V
42 -1341 R
0 395 V
0 193 V
0 196 V
0 170 V
0 136 V
0 104 V
0 77 V
0 -12 V
0 31 V
0 25 V
0 1 V
0 6 V
0 1 V
0 1 V
42 -1284 R
0 389 V
0 196 V
0 185 V
0 169 V
0 138 V
0 80 V
0 93 V
0 20 V
0 11 V
0 25 V
0 1 V
0 3 V
0 3 V
0 1 V
0 1 V
42 -1275 R
0 348 V
stroke 2106 2446 M
0 226 V
0 184 V
0 172 V
0 144 V
0 93 V
0 46 V
0 31 V
0 27 V
0 24 V
0 2 V
0 2 V
0 3 V
0 1 V
43 -1305 R
0 392 V
0 179 V
0 182 V
0 208 V
0 142 V
0 90 V
0 35 V
0 95 V
0 -26 V
0 24 V
0 5 V
0 5 V
0 1 V
0 1 V
0 1 V
42 -1285 R
0 360 V
0 223 V
0 189 V
0 164 V
0 150 V
0 82 V
0 89 V
0 21 V
0 -11 V
0 32 V
0 10 V
0 3 V
0 1 V
0 1 V
42 -1274 R
0 362 V
0 212 V
0 189 V
0 166 V
0 123 V
0 122 V
0 48 V
0 27 V
0 12 V
0 29 V
0 5 V
0 4 V
0 2 V
0 1 V
42 -1295 R
0 382 V
0 212 V
0 194 V
0 163 V
0 131 V
0 120 V
0 31 V
0 28 V
0 31 V
0 16 V
0 9 V
0 4 V
0 2 V
0 1 V
42 -1308 R
0 385 V
0 226 V
0 191 V
0 134 V
0 132 V
0 135 V
0 48 V
0 23 V
0 19 V
0 29 V
0 10 V
0 1 V
0 2 V
0 1 V
42 -1277 R
0 368 V
0 215 V
0 174 V
0 179 V
0 138 V
0 97 V
0 50 V
0 29 V
0 18 V
0 27 V
0 4 V
0 4 V
0 2 V
0 1 V
43 -1256 R
0 353 V
0 192 V
0 199 V
0 158 V
0 150 V
0 85 V
0 74 V
0 26 V
0 26 V
0 9 V
0 9 V
0 3 V
0 1 V
42 -1277 R
0 368 V
0 214 V
0 168 V
0 188 V
0 119 V
0 124 V
0 26 V
0 42 V
0 13 V
0 32 V
0 4 V
0 5 V
0 1 V
0 1 V
42 -1268 R
0 362 V
0 208 V
0 178 V
0 179 V
0 128 V
0 108 V
0 32 V
0 65 V
0 -6 V
0 30 V
0 9 V
0 1 V
0 2 V
0 1 V
42 -1276 R
0 373 V
0 197 V
0 184 V
0 179 V
0 140 V
0 109 V
0 38 V
0 28 V
0 27 V
0 22 V
0 2 V
0 5 V
0 1 V
42 -1284 R
0 384 V
0 197 V
0 192 V
0 167 V
0 141 V
0 103 V
0 79 V
0 22 V
0 -15 V
0 29 V
0 11 V
0 1 V
0 2 V
42 -1258 R
0 352 V
0 214 V
0 169 V
0 175 V
0 143 V
0 96 V
0 83 V
0 23 V
0 -15 V
0 34 V
0 6 V
0 4 V
0 1 V
0 1 V
43 -1321 R
0 356 V
0 239 V
0 199 V
0 158 V
0 172 V
0 51 V
0 76 V
0 31 V
0 24 V
0 32 V
0 5 V
0 4 V
0 2 V
42 -1286 R
0 381 V
0 198 V
0 193 V
0 172 V
0 137 V
0 78 V
0 76 V
0 26 V
0 14 V
0 28 V
0 6 V
0 3 V
0 3 V
42 -1289 R
0 384 V
0 207 V
0 192 V
0 164 V
0 137 V
0 68 V
0 65 V
0 40 V
0 24 V
0 27 V
0 5 V
0 1 V
0 3 V
42 -1299 R
0 392 V
0 210 V
0 190 V
0 167 V
0 141 V
0 97 V
0 46 V
0 29 V
0 18 V
0 27 V
0 5 V
0 4 V
0 2 V
43 -1299 R
0 391 V
stroke 2824 2951 M
0 195 V
0 204 V
0 168 V
0 144 V
0 63 V
0 78 V
0 29 V
0 17 V
0 29 V
0 4 V
0 2 V
0 4 V
42 -1291 R
0 385 V
0 191 V
0 204 V
0 169 V
0 140 V
0 104 V
0 28 V
0 38 V
0 27 V
0 25 V
0 3 V
0 3 V
0 3 V
42 -1316 R
0 412 V
0 190 V
0 171 V
0 170 V
0 154 V
0 68 V
0 89 V
0 22 V
0 20 V
0 27 V
0 10 V
0 1 V
42 -1288 R
0 393 V
0 193 V
0 204 V
0 169 V
0 134 V
0 68 V
0 66 V
0 33 V
0 22 V
0 27 V
0 7 V
0 1 V
42 -1305 R
0 411 V
0 195 V
0 185 V
0 137 V
0 155 V
0 132 V
0 52 V
0 6 V
0 25 V
0 27 V
0 8 V
0 1 V
43 -1276 R
0 381 V
0 198 V
0 195 V
0 163 V
0 146 V
0 80 V
0 49 V
0 54 V
0 34 V
0 2 V
0 2 V
42 -1292 R
0 396 V
0 194 V
0 196 V
0 155 V
0 158 V
0 53 V
0 83 V
0 30 V
0 22 V
0 27 V
0 5 V
0 3 V
42 -1284 R
0 391 V
0 198 V
0 184 V
0 168 V
0 140 V
0 70 V
0 64 V
0 45 V
0 14 V
0 31 V
0 3 V
0 5 V
42 -1289 R
0 397 V
0 198 V
0 187 V
0 163 V
0 152 V
0 83 V
0 38 V
0 42 V
0 18 V
0 27 V
0 10 V
0 1 V
43 -1284 R
0 381 V
0 189 V
0 201 V
0 180 V
0 103 V
0 132 V
0 33 V
0 43 V
0 11 V
0 30 V
0 6 V
0 3 V
42 -1299 R
0 407 V
0 203 V
0 173 V
0 170 V
0 151 V
0 85 V
0 53 V
0 30 V
0 20 V
0 27 V
0 1 V
42 -1281 R
0 381 V
0 199 V
0 195 V
0 161 V
0 148 V
0 65 V
0 71 V
0 27 V
0 28 V
0 24 V
0 6 V
42 -1276 R
0 391 V
0 207 V
0 174 V
0 150 V
0 119 V
0 89 V
0 56 V
0 17 V
0 1 V
0 13 V
0 4 V
42 -1193 R
0 393 V
0 178 V
0 183 V
0 130 V
0 106 V
0 75 V
0 40 V
0 24 V
0 -2 V
0 9 V
0 5 V
43 -1117 R
0 382 V
0 189 V
0 177 V
0 134 V
0 110 V
0 66 V
0 45 V
0 17 V
0 7 V
0 15 V
0 4 V
42 -1088 R
0 357 V
0 190 V
0 154 V
0 141 V
0 74 V
0 116 V
0 50 V
0 1 V
0 20 V
0 9 V
0 4 V
42 -1111 R
0 387 V
0 195 V
0 164 V
0 133 V
0 101 V
0 83 V
0 43 V
0 19 V
0 1 V
0 9 V
0 5 V
42 -1099 R
0 357 V
0 199 V
0 180 V
0 139 V
0 105 V
0 66 V
0 39 V
0 12 V
0 17 V
0 6 V
43 -1105 R
0 377 V
0 176 V
0 196 V
0 135 V
0 106 V
0 58 V
0 47 V
0 18 V
0 8 V
0 10 V
42 -1091 R
0 325 V
0 231 V
0 168 V
0 141 V
0 109 V
0 64 V
0 46 V
0 13 V
0 6 V
0 9 V
42 -1098 R
0 373 V
0 170 V
stroke 3668 3672 M
0 170 V
0 124 V
0 81 V
0 48 V
0 34 V
0 18 V
0 9 V
0 5 V
42 -1007 R
0 388 V
0 165 V
0 159 V
0 126 V
0 81 V
0 53 V
0 32 V
0 17 V
0 10 V
0 4 V
42 -989 R
0 351 V
0 193 V
0 148 V
0 122 V
0 86 V
0 53 V
0 33 V
0 17 V
0 8 V
0 5 V
43 -997 R
0 363 V
0 181 V
0 155 V
0 126 V
0 84 V
0 52 V
0 31 V
0 14 V
0 11 V
0 4 V
42 -996 R
0 361 V
0 175 V
0 137 V
0 108 V
0 75 V
0 33 V
0 31 V
0 14 V
0 7 V
0 3 V
42 -917 R
0 366 V
0 166 V
0 144 V
0 108 V
0 69 V
0 41 V
0 28 V
0 12 V
0 7 V
42 -904 R
0 357 V
0 169 V
0 143 V
0 104 V
0 69 V
0 44 V
0 24 V
0 13 V
0 6 V
43 -903 R
0 348 V
0 158 V
0 137 V
0 93 V
0 57 V
0 38 V
0 21 V
0 10 V
0 6 V
42 -843 R
0 354 V
0 151 V
0 143 V
0 87 V
0 63 V
0 36 V
0 20 V
0 10 V
0 5 V
42 -872 R
0 365 V
0 156 V
0 129 V
0 83 V
0 55 V
0 31 V
0 16 V
0 8 V
0 4 V
42 -783 R
0 335 V
0 145 V
0 136 V
0 79 V
0 43 V
0 43 V
0 16 V
0 10 V
0 4 V
42 -794 R
0 329 V
0 155 V
0 120 V
0 70 V
0 50 V
0 24 V
0 18 V
0 6 V
0 4 V
43 -743 R
0 330 V
0 151 V
0 112 V
0 75 V
0 49 V
0 26 V
0 16 V
0 6 V
42 -758 R
0 335 V
0 150 V
0 109 V
0 65 V
0 47 V
0 23 V
0 14 V
0 6 V
42 -722 R
0 336 V
0 135 V
0 98 V
0 66 V
0 41 V
0 21 V
0 12 V
0 6 V
42 -699 R
0 339 V
0 127 V
0 101 V
0 60 V
0 35 V
0 19 V
0 12 V
0 3 V
43 -650 R
0 319 V
0 137 V
0 85 V
0 55 V
0 43 V
0 19 V
0 13 V
0 5 V
42 -707 R
0 345 V
0 149 V
0 89 V
0 53 V
0 37 V
0 19 V
0 10 V
0 5 V
42 -641 R
0 316 V
0 119 V
0 81 V
0 50 V
0 28 V
0 17 V
0 7 V
0 5 V
42 -668 R
0 373 V
0 120 V
0 81 V
0 49 V
0 24 V
0 15 V
0 8 V
42 -563 R
0 287 V
0 115 V
0 78 V
0 41 V
0 29 V
0 13 V
0 7 V
43 -566 R
0 292 V
0 111 V
0 74 V
0 39 V
0 25 V
0 11 V
0 6 V
42 -518 R
0 275 V
0 102 V
0 73 V
0 37 V
0 23 V
0 12 V
0 6 V
42 -566 R
0 271 V
0 150 V
0 64 V
0 38 V
0 25 V
0 10 V
0 7 V
42 -604 R
0 252 V
0 191 V
0 50 V
0 62 V
0 27 V
0 13 V
0 7 V
43 -598 R
0 241 V
0 166 V
0 78 V
0 68 V
0 24 V
0 13 V
0 3 V
42 -595 R
0 232 V
0 159 V
0 87 V
0 48 V
0 29 V
0 24 V
42 -561 R
0 198 V
stroke 4808 3848 M
0 117 V
0 86 V
0 43 V
0 39 V
0 -11 V
42 -468 R
0 182 V
0 118 V
0 69 V
0 15 V
0 20 V
0 4 V
42 -395 R
0 163 V
0 110 V
0 64 V
0 2 V
0 9 V
0 6 V
43 -338 R
0 142 V
0 113 V
0 40 V
0 14 V
0 3 V
0 4 V
42 -310 R
0 130 V
0 73 V
0 75 V
0 10 V
0 12 V
0 9 V
42 -576 R
0 402 V
0 36 V
0 90 V
0 26 V
0 4 V
0 2 V
42 -268 R
0 109 V
0 25 V
0 27 V
0 88 V
0 25 V
0 1 V
43 -266 R
0 100 V
0 23 V
0 10 V
0 10 V
0 30 V
42 -157 R
0 89 V
0 17 V
0 8 V
0 4 V
0 3 V
42 -113 R
0 84 V
0 14 V
0 6 V
0 5 V
0 1 V
42 -98 R
0 75 V
0 13 V
0 4 V
0 3 V
0 2 V
42 -93 R
0 74 V
0 10 V
0 2 V
0 5 V
0 1 V
43 -86 R
0 67 V
0 12 V
0 2 V
0 3 V
0 1 V
42 -86 R
0 70 V
0 10 V
0 5 V
0 1 V
0 -2 V
42 -80 R
0 71 V
0 8 V
0 2 V
0 -1 V
42 -64 R
0 55 V
0 7 V
0 2 V
0 -2 V
43 -235 R
0 230 V
0 7 V
42 -57 R
0 51 V
0 6 V
0 -1 V
0 -1 V
42 -43 R
0 42 V
0 3 V
0 -2 V
42 -44 R
0 42 V
0 2 V
0 2 V
0 -4 V
42 -30 R
0 31 V
0 2 V
0 -1 V
0 -3 V
43 -30 R
0 32 V
0 3 V
0 -2 V
42 -29 R
0 30 V
0 2 V
0 -2 V
42 -28 R
0 29 V
0 -2 V
42 -24 R
0 26 V
0 -1 V
0 -1 V
43 -18 R
0 18 V
0 4 V
0 -8 V
42 -16 R
0 22 V
0 -3 V
42 -15 R
0 20 V
0 -2 V
0 -4 V
42 -10 R
0 14 V
0 1 V
0 -7 V
43 -7 R
0 14 V
0 -2 V
42 -12 R
0 15 V
0 -3 V
42 -11 R
0 11 V
0 -1 V
42 -6 R
0 7 V
0 -4 V
42 -3 R
0 6 V
0 -1 V
43 -6 R
0 9 V
0 -5 V
42 -3 R
0 6 V
0 -2 V
42 0 R
0 3 V
42 -5 R
0 4 V
43 -3 R
0 2 V
42 -3 R
0 4 V
42 -3 R
0 2 V
42 -1 R
0 -1 V
42 2 R
43 -2 R
42 1 R
42 0 R
42 -1 R
43 1 R
42 -2 R
42 1 R
770 1103 CircleF
770 1536 CircleF
770 1752 CircleF
770 1948 CircleF
770 2129 CircleF
770 2293 CircleF
770 2409 CircleF
770 2447 CircleF
770 2553 CircleF
770 2534 CircleF
770 2542 CircleF
770 2545 CircleF
770 2547 CircleF
770 2555 CircleF
770 2553 CircleF
770 2553 CircleF
770 2554 CircleF
770 2554 CircleF
770 2554 CircleF
770 2554 CircleF
770 2580 CircleF
810 1181 CircleF
810 1593 CircleF
810 1813 CircleF
810 1994 CircleF
810 2176 CircleF
810 2331 CircleF
810 2464 CircleF
810 2520 CircleF
810 2555 CircleF
810 2599 CircleF
810 2597 CircleF
810 2606 CircleF
810 2609 CircleF
810 2613 CircleF
810 2615 CircleF
810 2616 CircleF
810 2616 CircleF
810 2616 CircleF
810 2616 CircleF
810 2616 CircleF
852 1235 CircleF
852 1630 CircleF
852 1832 CircleF
852 2022 CircleF
852 2199 CircleF
852 2354 CircleF
852 2485 CircleF
852 2576 CircleF
852 2626 CircleF
852 2605 CircleF
852 2638 CircleF
852 2630 CircleF
852 2635 CircleF
852 2638 CircleF
852 2640 CircleF
852 2640 CircleF
852 2640 CircleF
852 2634 CircleF
852 2640 CircleF
852 2641 CircleF
893 1219 CircleF
893 1650 CircleF
893 1872 CircleF
893 2057 CircleF
893 2232 CircleF
893 2389 CircleF
893 2518 CircleF
893 2607 CircleF
893 2663 CircleF
893 2637 CircleF
893 2653 CircleF
893 2662 CircleF
893 2671 CircleF
893 2669 CircleF
893 2672 CircleF
893 2672 CircleF
893 2673 CircleF
893 2673 CircleF
893 2673 CircleF
893 2673 CircleF
933 1288 CircleF
933 1678 CircleF
933 1886 CircleF
933 2098 CircleF
933 2268 CircleF
933 2412 CircleF
933 2549 CircleF
933 2613 CircleF
933 2660 CircleF
933 2656 CircleF
933 2684 CircleF
933 2691 CircleF
933 2689 CircleF
933 2694 CircleF
933 2694 CircleF
933 2695 CircleF
933 2695 CircleF
933 2695 CircleF
933 2696 CircleF
933 2696 CircleF
974 1321 CircleF
974 1702 CircleF
974 1922 CircleF
974 2124 CircleF
974 2293 CircleF
974 2434 CircleF
974 2580 CircleF
974 2649 CircleF
974 2668 CircleF
974 2718 CircleF
974 2718 CircleF
974 2716 CircleF
974 2721 CircleF
974 2726 CircleF
974 2726 CircleF
974 2728 CircleF
974 2728 CircleF
974 2728 CircleF
974 2728 CircleF
974 2728 CircleF
1016 1322 CircleF
1016 1725 CircleF
1016 1958 CircleF
1016 2146 CircleF
1016 2324 CircleF
1016 2451 CircleF
1016 2598 CircleF
1016 2692 CircleF
1016 2739 CircleF
1016 2715 CircleF
1016 2747 CircleF
1016 2740 CircleF
1016 2746 CircleF
1016 2750 CircleF
1016 2751 CircleF
1016 2751 CircleF
1016 2751 CircleF
1016 2752 CircleF
1016 2752 CircleF
1016 2752 CircleF
1058 1369 CircleF
1058 1766 CircleF
1058 1967 CircleF
1058 2182 CircleF
1058 2354 CircleF
1058 2501 CircleF
1058 2626 CircleF
1058 2717 CircleF
1058 2771 CircleF
1058 2746 CircleF
1058 2760 CircleF
1058 2769 CircleF
1058 2775 CircleF
1058 2778 CircleF
1058 2779 CircleF
1058 2779 CircleF
1058 2779 CircleF
1058 2780 CircleF
1058 2780 CircleF
1058 2780 CircleF
1099 1401 CircleF
1099 1799 CircleF
1099 2001 CircleF
1099 2204 CircleF
1099 2382 CircleF
1099 2529 CircleF
1099 2644 CircleF
1099 2748 CircleF
1099 2782 CircleF
1099 2774 CircleF
1099 2803 CircleF
1099 2801 CircleF
1099 2808 CircleF
1099 2811 CircleF
1099 2812 CircleF
1099 2813 CircleF
1099 2814 CircleF
1099 2814 CircleF
1099 2814 CircleF
1140 1439 CircleF
1140 1781 CircleF
1140 2013 CircleF
1140 2236 CircleF
1140 2404 CircleF
1140 2553 CircleF
1140 2681 CircleF
1140 2776 CircleF
1140 2822 CircleF
1140 2805 CircleF
1140 2837 CircleF
1140 2830 CircleF
1140 2839 CircleF
1140 2841 CircleF
1140 2841 CircleF
1140 2841 CircleF
1140 2842 CircleF
1140 2842 CircleF
1140 2842 CircleF
1181 1466 CircleF
1181 1848 CircleF
1181 2038 CircleF
1181 2250 CircleF
1181 2445 CircleF
1181 2597 CircleF
1181 2705 CircleF
1181 2799 CircleF
1181 2839 CircleF
1181 2833 CircleF
1181 2862 CircleF
1181 2858 CircleF
1181 2866 CircleF
1181 2868 CircleF
1181 2869 CircleF
1181 2870 CircleF
1181 2870 CircleF
1181 2870 CircleF
1181 2870 CircleF
1223 1471 CircleF
1223 1878 CircleF
1223 2082 CircleF
1223 2283 CircleF
1223 2463 CircleF
1223 2618 CircleF
1223 2741 CircleF
1223 2828 CircleF
1223 2886 CircleF
1223 2864 CircleF
1223 2878 CircleF
1223 2886 CircleF
1223 2897 CircleF
1223 2896 CircleF
1223 2898 CircleF
1223 2898 CircleF
1223 2899 CircleF
1223 2899 CircleF
1223 2899 CircleF
1265 1484 CircleF
1265 1923 CircleF
1265 2100 CircleF
1265 2304 CircleF
1265 2409 CircleF
1265 2645 CircleF
1265 2741 CircleF
1265 2847 CircleF
1265 2907 CircleF
1265 2890 CircleF
1265 2905 CircleF
1265 2914 CircleF
1265 2924 CircleF
1265 2925 CircleF
1265 2926 CircleF
1265 2926 CircleF
1265 2927 CircleF
1265 2927 CircleF
1265 2927 CircleF
1307 1520 CircleF
1307 1928 CircleF
1307 2134 CircleF
1307 2325 CircleF
1307 2517 CircleF
1307 2674 CircleF
1307 2799 CircleF
1307 2883 CircleF
1307 2936 CircleF
1307 2918 CircleF
1307 2948 CircleF
1307 2944 CircleF
1307 2953 CircleF
1307 2953 CircleF
1307 2954 CircleF
1307 2954 CircleF
1307 2955 CircleF
1307 2955 CircleF
1307 2955 CircleF
1349 1599 CircleF
1349 1978 CircleF
1349 2180 CircleF
1349 2366 CircleF
1349 2557 CircleF
1349 2698 CircleF
1349 2824 CircleF
1349 2910 CircleF
1349 2961 CircleF
1349 2938 CircleF
1349 2974 CircleF
1349 2970 CircleF
1349 2977 CircleF
1349 2978 CircleF
1349 2978 CircleF
1349 2979 CircleF
1349 2980 CircleF
1349 2980 CircleF
1349 2980 CircleF
1391 1615 CircleF
1391 1985 CircleF
1391 2206 CircleF
1391 2392 CircleF
1391 2584 CircleF
1391 2730 CircleF
1391 2856 CircleF
1391 2936 CircleF
1391 2966 CircleF
1391 2974 CircleF
1391 3003 CircleF
1391 2999 CircleF
1391 3008 CircleF
1391 3009 CircleF
1391 3010 CircleF
1391 3011 CircleF
1391 3011 CircleF
1391 3011 CircleF
1433 1635 CircleF
1433 2028 CircleF
1433 2250 CircleF
1433 2415 CircleF
1433 2591 CircleF
1433 2758 CircleF
1433 2879 CircleF
1433 2937 CircleF
1433 2972 CircleF
1433 3012 CircleF
1433 3018 CircleF
1433 3029 CircleF
1433 3033 CircleF
1433 3035 CircleF
1433 3035 CircleF
1433 3036 CircleF
1433 3036 CircleF
1433 3036 CircleF
1475 1681 CircleF
1475 2049 CircleF
1475 2267 CircleF
1475 2451 CircleF
1475 2631 CircleF
1475 2794 CircleF
1475 2906 CircleF
1475 2972 CircleF
1475 3009 CircleF
1475 3045 CircleF
1475 3050 CircleF
1475 3058 CircleF
1475 3062 CircleF
1475 3063 CircleF
1475 3063 CircleF
1475 3064 CircleF
1475 3064 CircleF
1475 3064 CircleF
1517 1700 CircleF
1517 2076 CircleF
1517 2293 CircleF
1517 2475 CircleF
1517 2661 CircleF
1517 2808 CircleF
1517 2926 CircleF
1517 2996 CircleF
1517 3029 CircleF
1517 3062 CircleF
1517 3068 CircleF
1517 3077 CircleF
1517 3080 CircleF
1517 3083 CircleF
1517 3084 CircleF
1517 3085 CircleF
1517 3085 CircleF
1517 3085 CircleF
1559 1715 CircleF
1559 2104 CircleF
1559 2307 CircleF
1559 2490 CircleF
1559 2682 CircleF
1559 2836 CircleF
1559 2961 CircleF
1559 3037 CircleF
1559 3076 CircleF
1559 3066 CircleF
1559 3094 CircleF
1559 3099 CircleF
1559 3101 CircleF
1559 3104 CircleF
1559 3105 CircleF
1559 3105 CircleF
1559 3106 CircleF
1559 3106 CircleF
1601 1751 CircleF
1601 2147 CircleF
1601 2336 CircleF
1601 2529 CircleF
1601 2715 CircleF
1601 2859 CircleF
1601 2969 CircleF
1601 3062 CircleF
1601 3084 CircleF
1601 3109 CircleF
1601 3113 CircleF
1601 3118 CircleF
1601 3123 CircleF
1601 3124 CircleF
1601 3125 CircleF
1601 3126 CircleF
1601 3126 CircleF
1601 3126 CircleF
1643 1760 CircleF
1643 2173 CircleF
1643 2386 CircleF
1643 2563 CircleF
1643 2740 CircleF
1643 2885 CircleF
1643 3001 CircleF
1643 3080 CircleF
1643 3070 CircleF
1643 3100 CircleF
1643 3125 CircleF
1643 3128 CircleF
1643 3132 CircleF
1643 3136 CircleF
1643 3138 CircleF
1643 3138 CircleF
1643 3138 CircleF
1643 3138 CircleF
1685 1801 CircleF
1685 2205 CircleF
1685 2345 CircleF
1685 2600 CircleF
1685 2762 CircleF
1685 2902 CircleF
1685 3024 CircleF
1685 3054 CircleF
1685 3150 CircleF
1685 3126 CircleF
1685 3147 CircleF
1685 3150 CircleF
1685 3156 CircleF
1685 3156 CircleF
1685 3156 CircleF
1685 3158 CircleF
1685 3157 CircleF
1685 3158 CircleF
1727 1834 CircleF
1727 2229 CircleF
1727 2440 CircleF
1727 2620 CircleF
1727 2798 CircleF
1727 2931 CircleF
1727 3051 CircleF
1727 3130 CircleF
1727 3169 CircleF
1727 3147 CircleF
1727 3173 CircleF
1727 3184 CircleF
1727 3185 CircleF
1727 3185 CircleF
1727 3187 CircleF
1727 3187 CircleF
1727 3187 CircleF
1770 1862 CircleF
1770 2265 CircleF
1770 2441 CircleF
1770 2652 CircleF
1770 2818 CircleF
1770 2968 CircleF
1770 3077 CircleF
1770 3157 CircleF
1770 3204 CircleF
1770 3180 CircleF
1770 3206 CircleF
1770 3207 CircleF
1770 3214 CircleF
1770 3214 CircleF
1770 3215 CircleF
1770 3216 CircleF
1770 3216 CircleF
1812 1907 CircleF
1812 2269 CircleF
1812 2483 CircleF
1812 2675 CircleF
1812 2848 CircleF
1812 3002 CircleF
1812 3110 CircleF
1812 3186 CircleF
1812 3217 CircleF
1812 3198 CircleF
1812 3231 CircleF
1812 3240 CircleF
1812 3240 CircleF
1812 3242 CircleF
1812 3244 CircleF
1812 3245 CircleF
1812 3245 CircleF
1854 1930 CircleF
1854 2297 CircleF
1854 2507 CircleF
1854 2710 CircleF
1854 2887 CircleF
1854 3017 CircleF
1854 3129 CircleF
1854 3208 CircleF
1854 3252 CircleF
1854 3230 CircleF
1854 3258 CircleF
1854 3270 CircleF
1854 3270 CircleF
1854 3271 CircleF
1854 3273 CircleF
1854 3273 CircleF
1854 3273 CircleF
1896 1926 CircleF
1896 2336 CircleF
1896 2547 CircleF
1896 2735 CircleF
1896 2898 CircleF
1896 3047 CircleF
1896 3159 CircleF
1896 3244 CircleF
1896 3287 CircleF
1896 3269 CircleF
1896 3292 CircleF
1896 3294 CircleF
1896 3301 CircleF
1896 3301 CircleF
1896 3301 CircleF
1896 3302 CircleF
1896 3302 CircleF
1938 1962 CircleF
1938 2357 CircleF
1938 2574 CircleF
1938 2761 CircleF
1938 2936 CircleF
1938 3077 CircleF
1938 3193 CircleF
1938 3229 CircleF
1938 3308 CircleF
1938 3295 CircleF
1938 3321 CircleF
1938 3322 CircleF
1938 3329 CircleF
1938 3329 CircleF
1938 3330 CircleF
1938 3331 CircleF
1938 3331 CircleF
1980 2012 CircleF
1980 2397 CircleF
1980 2593 CircleF
1980 2740 CircleF
1980 2970 CircleF
1980 3111 CircleF
1980 3223 CircleF
1980 3281 CircleF
1980 3307 CircleF
1980 3318 CircleF
1980 3346 CircleF
1980 3356 CircleF
1980 3357 CircleF
1980 3358 CircleF
1980 3359 CircleF
1980 3359 CircleF
1980 3359 CircleF
2022 2018 CircleF
2022 2413 CircleF
2022 2606 CircleF
2022 2802 CircleF
2022 2972 CircleF
2022 3108 CircleF
2022 3212 CircleF
2022 3289 CircleF
2022 3277 CircleF
2022 3308 CircleF
2022 3333 CircleF
2022 3334 CircleF
2022 3340 CircleF
2022 3341 CircleF
2022 3341 CircleF
2022 3342 CircleF
2064 2058 CircleF
2064 2447 CircleF
2064 2643 CircleF
2064 2828 CircleF
2064 2997 CircleF
2064 3135 CircleF
2064 3215 CircleF
2064 3308 CircleF
2064 3328 CircleF
2064 3339 CircleF
2064 3364 CircleF
2064 3365 CircleF
2064 3368 CircleF
2064 3371 CircleF
2064 3372 CircleF
2064 3373 CircleF
2106 2098 CircleF
2106 2446 CircleF
2106 2672 CircleF
2106 2856 CircleF
2106 3028 CircleF
2106 3172 CircleF
2106 3265 CircleF
2106 3311 CircleF
2106 3342 CircleF
2106 3369 CircleF
2106 3393 CircleF
2106 3395 CircleF
2106 3397 CircleF
2106 3400 CircleF
2106 3401 CircleF
2106 3401 CircleF
2149 2096 CircleF
2149 2488 CircleF
2149 2667 CircleF
2149 2849 CircleF
2149 3057 CircleF
2149 3199 CircleF
2149 3289 CircleF
2149 3324 CircleF
2149 3419 CircleF
2149 3393 CircleF
2149 3417 CircleF
2149 3422 CircleF
2149 3427 CircleF
2149 3428 CircleF
2149 3429 CircleF
2149 3430 CircleF
2191 2145 CircleF
2191 2505 CircleF
2191 2728 CircleF
2191 2917 CircleF
2191 3081 CircleF
2191 3231 CircleF
2191 3313 CircleF
2191 3402 CircleF
2191 3423 CircleF
2191 3412 CircleF
2191 3444 CircleF
2191 3454 CircleF
2191 3454 CircleF
2191 3457 CircleF
2191 3458 CircleF
2191 3459 CircleF
2233 2185 CircleF
2233 2547 CircleF
2233 2759 CircleF
2233 2948 CircleF
2233 3114 CircleF
2233 3237 CircleF
2233 3359 CircleF
2233 3407 CircleF
2233 3434 CircleF
2233 3446 CircleF
2233 3475 CircleF
2233 3480 CircleF
2233 3484 CircleF
2233 3486 CircleF
2233 3487 CircleF
2233 3487 CircleF
2275 2192 CircleF
2275 2574 CircleF
2275 2786 CircleF
2275 2980 CircleF
2275 3143 CircleF
2275 3274 CircleF
2275 3394 CircleF
2275 3425 CircleF
2275 3453 CircleF
2275 3484 CircleF
2275 3500 CircleF
2275 3509 CircleF
2275 3513 CircleF
2275 3515 CircleF
2275 3516 CircleF
2275 3516 CircleF
2317 2208 CircleF
2317 2593 CircleF
2317 2819 CircleF
2317 3010 CircleF
2317 3144 CircleF
2317 3276 CircleF
2317 3411 CircleF
2317 3459 CircleF
2317 3482 CircleF
2317 3501 CircleF
2317 3530 CircleF
2317 3540 CircleF
2317 3541 CircleF
2317 3543 CircleF
2317 3544 CircleF
2359 2267 CircleF
2359 2635 CircleF
2359 2850 CircleF
2359 3024 CircleF
2359 3203 CircleF
2359 3341 CircleF
2359 3438 CircleF
2359 3488 CircleF
2359 3517 CircleF
2359 3535 CircleF
2359 3562 CircleF
2359 3566 CircleF
2359 3570 CircleF
2359 3572 CircleF
2359 3573 CircleF
2402 2317 CircleF
2402 2670 CircleF
2402 2862 CircleF
2402 3061 CircleF
2402 3219 CircleF
2402 3369 CircleF
2402 3454 CircleF
2402 3528 CircleF
2402 3554 CircleF
2402 3580 CircleF
2402 3589 CircleF
2402 3598 CircleF
2402 3598 CircleF
2402 3601 CircleF
2402 3602 CircleF
2444 2325 CircleF
2444 2693 CircleF
2444 2907 CircleF
2444 3075 CircleF
2444 3263 CircleF
2444 3382 CircleF
2444 3506 CircleF
2444 3532 CircleF
2444 3574 CircleF
2444 3587 CircleF
2444 3619 CircleF
2444 3623 CircleF
2444 3628 CircleF
2444 3629 CircleF
2444 3630 CircleF
2486 2362 CircleF
2486 2724 CircleF
2486 2932 CircleF
2486 3110 CircleF
2486 3289 CircleF
2486 3417 CircleF
2486 3525 CircleF
2486 3557 CircleF
2486 3622 CircleF
2486 3616 CircleF
2486 3646 CircleF
2486 3655 CircleF
2486 3656 CircleF
2486 3658 CircleF
2486 3659 CircleF
2528 2383 CircleF
2528 2756 CircleF
2528 2953 CircleF
2528 3137 CircleF
2528 3316 CircleF
2528 3456 CircleF
2528 3565 CircleF
2528 3603 CircleF
2528 3631 CircleF
2528 3658 CircleF
2528 3680 CircleF
2528 3682 CircleF
2528 3682 CircleF
2528 3687 CircleF
2528 3688 CircleF
2570 2404 CircleF
2570 2788 CircleF
2570 2985 CircleF
2570 3177 CircleF
2570 3344 CircleF
2570 3485 CircleF
2570 3588 CircleF
2570 3667 CircleF
2570 3689 CircleF
2570 3674 CircleF
2570 3703 CircleF
2570 3714 CircleF
2570 3714 CircleF
2570 3715 CircleF
2570 3717 CircleF
2612 2459 CircleF
2612 2811 CircleF
2612 3025 CircleF
2612 3194 CircleF
2612 3369 CircleF
2612 3512 CircleF
2612 3608 CircleF
2612 3691 CircleF
2612 3714 CircleF
2612 3699 CircleF
2612 3733 CircleF
2612 3739 CircleF
2612 3743 CircleF
2612 3744 CircleF
2612 3745 CircleF
2655 2424 CircleF
2655 2780 CircleF
2655 3019 CircleF
2655 3218 CircleF
2655 3376 CircleF
2655 3548 CircleF
2655 3599 CircleF
2655 3675 CircleF
2655 3706 CircleF
2655 3730 CircleF
2655 3762 CircleF
2655 3767 CircleF
2655 3771 CircleF
2655 3773 CircleF
2697 2487 CircleF
2697 2868 CircleF
2697 3066 CircleF
2697 3259 CircleF
2697 3431 CircleF
2697 3568 CircleF
2697 3646 CircleF
2697 3722 CircleF
2697 3748 CircleF
2697 3762 CircleF
2697 3790 CircleF
2697 3796 CircleF
2697 3799 CircleF
2697 3802 CircleF
2739 2513 CircleF
2739 2897 CircleF
2739 3104 CircleF
2739 3296 CircleF
2739 3460 CircleF
2739 3597 CircleF
2739 3665 CircleF
2739 3730 CircleF
2739 3770 CircleF
2739 3794 CircleF
2739 3821 CircleF
2739 3826 CircleF
2739 3827 CircleF
2739 3830 CircleF
2781 2531 CircleF
2781 2923 CircleF
2781 3133 CircleF
2781 3323 CircleF
2781 3490 CircleF
2781 3631 CircleF
2781 3728 CircleF
2781 3774 CircleF
2781 3803 CircleF
2781 3821 CircleF
2781 3848 CircleF
2781 3853 CircleF
2781 3857 CircleF
2781 3859 CircleF
2824 2560 CircleF
2824 2951 CircleF
2824 3146 CircleF
2824 3350 CircleF
2824 3518 CircleF
2824 3662 CircleF
2824 3725 CircleF
2824 3803 CircleF
2824 3832 CircleF
2824 3849 CircleF
2824 3878 CircleF
2824 3882 CircleF
2824 3884 CircleF
2824 3888 CircleF
2866 2597 CircleF
2866 2982 CircleF
2866 3173 CircleF
2866 3377 CircleF
2866 3546 CircleF
2866 3686 CircleF
2866 3790 CircleF
2866 3818 CircleF
2866 3856 CircleF
2866 3883 CircleF
2866 3908 CircleF
2866 3911 CircleF
2866 3914 CircleF
2866 3917 CircleF
2908 2601 CircleF
2908 3013 CircleF
2908 3203 CircleF
2908 3374 CircleF
2908 3544 CircleF
2908 3698 CircleF
2908 3766 CircleF
2908 3855 CircleF
2908 3877 CircleF
2908 3897 CircleF
2908 3924 CircleF
2908 3934 CircleF
2908 3934 CircleF
2908 3935 CircleF
2950 2647 CircleF
2950 3040 CircleF
2950 3233 CircleF
2950 3437 CircleF
2950 3606 CircleF
2950 3740 CircleF
2950 3808 CircleF
2950 3874 CircleF
2950 3907 CircleF
2950 3929 CircleF
2950 3956 CircleF
2950 3963 CircleF
2950 3964 CircleF
2992 2659 CircleF
2992 3070 CircleF
2992 3265 CircleF
2992 3450 CircleF
2992 3587 CircleF
2992 3742 CircleF
2992 3874 CircleF
2992 3926 CircleF
2992 3932 CircleF
2992 3957 CircleF
2992 3984 CircleF
2992 3992 CircleF
2992 3993 CircleF
3035 2717 CircleF
3035 3098 CircleF
3035 3296 CircleF
3035 3491 CircleF
3035 3654 CircleF
3035 3800 CircleF
3035 3880 CircleF
3035 3929 CircleF
3035 3983 CircleF
3035 3983 CircleF
3035 4017 CircleF
3035 4019 CircleF
3035 4021 CircleF
3077 2729 CircleF
3077 3125 CircleF
3077 3319 CircleF
3077 3515 CircleF
3077 3670 CircleF
3077 3828 CircleF
3077 3881 CircleF
3077 3964 CircleF
3077 3994 CircleF
3077 4016 CircleF
3077 4043 CircleF
3077 4048 CircleF
3077 4051 CircleF
3119 2767 CircleF
3119 3158 CircleF
3119 3356 CircleF
3119 3540 CircleF
3119 3708 CircleF
3119 3848 CircleF
3119 3918 CircleF
3119 3982 CircleF
3119 4027 CircleF
3119 4041 CircleF
3119 4072 CircleF
3119 4075 CircleF
3119 4080 CircleF
3161 2791 CircleF
3161 3188 CircleF
3161 3386 CircleF
3161 3573 CircleF
3161 3736 CircleF
3161 3888 CircleF
3161 3971 CircleF
3161 4009 CircleF
3161 4051 CircleF
3161 4069 CircleF
3161 4096 CircleF
3161 4106 CircleF
3161 4107 CircleF
3204 2823 CircleF
3204 3204 CircleF
3204 3393 CircleF
3204 3594 CircleF
3204 3774 CircleF
3204 3877 CircleF
3204 4009 CircleF
3204 4042 CircleF
3204 4085 CircleF
3204 4096 CircleF
3204 4126 CircleF
3204 4132 CircleF
3204 4135 CircleF
3246 2836 CircleF
3246 3243 CircleF
3246 3446 CircleF
3246 3619 CircleF
3246 3789 CircleF
3246 3940 CircleF
3246 4025 CircleF
3246 4078 CircleF
3246 4108 CircleF
3246 4128 CircleF
3246 4155 CircleF
3246 4156 CircleF
3288 2875 CircleF
3288 3256 CircleF
3288 3455 CircleF
3288 3650 CircleF
3288 3811 CircleF
3288 3959 CircleF
3288 4024 CircleF
3288 4095 CircleF
3288 4122 CircleF
3288 4150 CircleF
3288 4174 CircleF
3288 4180 CircleF
3330 2904 CircleF
3330 3295 CircleF
3330 3502 CircleF
3330 3676 CircleF
3330 3826 CircleF
3330 3945 CircleF
3330 4034 CircleF
3330 4090 CircleF
3330 4107 CircleF
3330 4108 CircleF
3330 4121 CircleF
3330 4125 CircleF
3372 2932 CircleF
3372 3325 CircleF
3372 3503 CircleF
3372 3686 CircleF
3372 3816 CircleF
3372 3922 CircleF
3372 3997 CircleF
3372 4037 CircleF
3372 4061 CircleF
3372 4059 CircleF
3372 4068 CircleF
3372 4073 CircleF
3415 2956 CircleF
3415 3338 CircleF
3415 3527 CircleF
3415 3704 CircleF
3415 3838 CircleF
3415 3948 CircleF
3415 4014 CircleF
3415 4059 CircleF
3415 4076 CircleF
3415 4083 CircleF
3415 4098 CircleF
3415 4102 CircleF
3457 3014 CircleF
3457 3371 CircleF
3457 3561 CircleF
3457 3715 CircleF
3457 3856 CircleF
3457 3930 CircleF
3457 4046 CircleF
3457 4096 CircleF
3457 4097 CircleF
3457 4117 CircleF
3457 4126 CircleF
3457 4130 CircleF
3499 3019 CircleF
3499 3406 CircleF
3499 3601 CircleF
3499 3765 CircleF
3499 3898 CircleF
3499 3999 CircleF
3499 4082 CircleF
3499 4125 CircleF
3499 4144 CircleF
3499 4145 CircleF
3499 4154 CircleF
3499 4159 CircleF
3541 3060 CircleF
3541 3417 CircleF
3541 3616 CircleF
3541 3796 CircleF
3541 3935 CircleF
3541 4040 CircleF
3541 4106 CircleF
3541 4145 CircleF
3541 4157 CircleF
3541 4174 CircleF
3541 4180 CircleF
3584 3075 CircleF
3584 3452 CircleF
3584 3628 CircleF
3584 3824 CircleF
3584 3959 CircleF
3584 4065 CircleF
3584 4123 CircleF
3584 4170 CircleF
3584 4188 CircleF
3584 4196 CircleF
3584 4206 CircleF
3626 3115 CircleF
3626 3440 CircleF
3626 3671 CircleF
3626 3839 CircleF
3626 3980 CircleF
3626 4089 CircleF
3626 4153 CircleF
3626 4199 CircleF
3626 4212 CircleF
3626 4218 CircleF
3626 4227 CircleF
3668 3129 CircleF
3668 3502 CircleF
3668 3672 CircleF
3668 3842 CircleF
3668 3966 CircleF
3668 4047 CircleF
3668 4095 CircleF
3668 4129 CircleF
3668 4147 CircleF
3668 4156 CircleF
3668 4161 CircleF
3710 3154 CircleF
3710 3542 CircleF
3710 3707 CircleF
3710 3866 CircleF
3710 3992 CircleF
3710 4073 CircleF
3710 4126 CircleF
3710 4158 CircleF
3710 4175 CircleF
3710 4185 CircleF
3710 4189 CircleF
3752 3200 CircleF
3752 3551 CircleF
3752 3744 CircleF
3752 3892 CircleF
3752 4014 CircleF
3752 4100 CircleF
3752 4153 CircleF
3752 4186 CircleF
3752 4203 CircleF
3752 4211 CircleF
3752 4216 CircleF
3795 3219 CircleF
3795 3582 CircleF
3795 3763 CircleF
3795 3918 CircleF
3795 4044 CircleF
3795 4128 CircleF
3795 4180 CircleF
3795 4211 CircleF
3795 4225 CircleF
3795 4236 CircleF
3795 4240 CircleF
3837 3244 CircleF
3837 3605 CircleF
3837 3780 CircleF
3837 3917 CircleF
3837 4025 CircleF
3837 4100 CircleF
3837 4133 CircleF
3837 4164 CircleF
3837 4178 CircleF
3837 4185 CircleF
3837 4188 CircleF
3879 3271 CircleF
3879 3637 CircleF
3879 3803 CircleF
3879 3947 CircleF
3879 4055 CircleF
3879 4124 CircleF
3879 4165 CircleF
3879 4193 CircleF
3879 4205 CircleF
3879 4212 CircleF
3921 3308 CircleF
3921 3665 CircleF
3921 3834 CircleF
3921 3977 CircleF
3921 4081 CircleF
3921 4150 CircleF
3921 4194 CircleF
3921 4218 CircleF
3921 4231 CircleF
3921 4237 CircleF
3964 3334 CircleF
3964 3682 CircleF
3964 3840 CircleF
3964 3977 CircleF
3964 4070 CircleF
3964 4127 CircleF
3964 4165 CircleF
3964 4186 CircleF
3964 4196 CircleF
3964 4202 CircleF
4006 3359 CircleF
4006 3713 CircleF
4006 3864 CircleF
4006 4007 CircleF
4006 4094 CircleF
4006 4157 CircleF
4006 4193 CircleF
4006 4213 CircleF
4006 4223 CircleF
4006 4228 CircleF
4048 3356 CircleF
4048 3721 CircleF
4048 3877 CircleF
4048 4006 CircleF
4048 4089 CircleF
4048 4144 CircleF
4048 4175 CircleF
4048 4191 CircleF
4048 4199 CircleF
4048 4203 CircleF
4090 3420 CircleF
4090 3755 CircleF
4090 3900 CircleF
4090 4036 CircleF
4090 4115 CircleF
4090 4158 CircleF
4090 4201 CircleF
4090 4217 CircleF
4090 4227 CircleF
4090 4231 CircleF
4132 3437 CircleF
4132 3766 CircleF
4132 3921 CircleF
4132 4041 CircleF
4132 4111 CircleF
4132 4161 CircleF
4132 4185 CircleF
4132 4203 CircleF
4132 4209 CircleF
4132 4213 CircleF
4175 3470 CircleF
4175 3800 CircleF
4175 3951 CircleF
4175 4063 CircleF
4175 4138 CircleF
4175 4187 CircleF
4175 4213 CircleF
4175 4229 CircleF
4175 4235 CircleF
4217 3477 CircleF
4217 3812 CircleF
4217 3962 CircleF
4217 4071 CircleF
4217 4136 CircleF
4217 4183 CircleF
4217 4206 CircleF
4217 4220 CircleF
4217 4226 CircleF
4259 3504 CircleF
4259 3840 CircleF
4259 3975 CircleF
4259 4073 CircleF
4259 4139 CircleF
4259 4180 CircleF
4259 4201 CircleF
4259 4213 CircleF
4259 4219 CircleF
4301 3520 CircleF
4301 3859 CircleF
4301 3986 CircleF
4301 4087 CircleF
4301 4147 CircleF
4301 4182 CircleF
4301 4201 CircleF
4301 4213 CircleF
4301 4216 CircleF
4344 3566 CircleF
4344 3885 CircleF
4344 4022 CircleF
4344 4107 CircleF
4344 4162 CircleF
4344 4205 CircleF
4344 4224 CircleF
4344 4237 CircleF
4344 4242 CircleF
4386 3535 CircleF
4386 3880 CircleF
4386 4029 CircleF
4386 4118 CircleF
4386 4171 CircleF
4386 4208 CircleF
4386 4227 CircleF
4386 4237 CircleF
4386 4242 CircleF
4428 3601 CircleF
4428 3917 CircleF
4428 4036 CircleF
4428 4117 CircleF
4428 4167 CircleF
4428 4195 CircleF
4428 4212 CircleF
4428 4219 CircleF
4428 4224 CircleF
4470 3556 CircleF
4470 3929 CircleF
4470 4049 CircleF
4470 4130 CircleF
4470 4179 CircleF
4470 4203 CircleF
4470 4218 CircleF
4470 4226 CircleF
4512 3663 CircleF
4512 3950 CircleF
4512 4065 CircleF
4512 4143 CircleF
4512 4184 CircleF
4512 4213 CircleF
4512 4226 CircleF
4512 4233 CircleF
4555 3667 CircleF
4555 3959 CircleF
4555 4070 CircleF
4555 4144 CircleF
4555 4183 CircleF
4555 4208 CircleF
4555 4219 CircleF
4555 4225 CircleF
4597 3707 CircleF
4597 3982 CircleF
4597 4084 CircleF
4597 4157 CircleF
4597 4194 CircleF
4597 4217 CircleF
4597 4229 CircleF
4597 4235 CircleF
4639 3669 CircleF
4639 3940 CircleF
4639 4090 CircleF
4639 4154 CircleF
4639 4192 CircleF
4639 4217 CircleF
4639 4227 CircleF
4639 4234 CircleF
4681 3630 CircleF
4681 3882 CircleF
4681 4073 CircleF
4681 4123 CircleF
4681 4185 CircleF
4681 4212 CircleF
4681 4225 CircleF
4681 4232 CircleF
4724 3634 CircleF
4724 3875 CircleF
4724 4041 CircleF
4724 4119 CircleF
4724 4187 CircleF
4724 4211 CircleF
4724 4224 CircleF
4724 4227 CircleF
4766 3632 CircleF
4766 3864 CircleF
4766 4023 CircleF
4766 4110 CircleF
4766 4158 CircleF
4766 4187 CircleF
4766 4211 CircleF
4808 3650 CircleF
4808 3848 CircleF
4808 3965 CircleF
4808 4051 CircleF
4808 4094 CircleF
4808 4133 CircleF
4808 4122 CircleF
4850 3654 CircleF
4850 3836 CircleF
4850 3954 CircleF
4850 4023 CircleF
4850 4038 CircleF
4850 4058 CircleF
4850 4062 CircleF
4892 3667 CircleF
4892 3830 CircleF
4892 3940 CircleF
4892 4004 CircleF
4892 4006 CircleF
4892 4015 CircleF
4892 4021 CircleF
4935 3683 CircleF
4935 3825 CircleF
4935 3938 CircleF
4935 3978 CircleF
4935 3992 CircleF
4935 3995 CircleF
4935 3999 CircleF
4977 3689 CircleF
4977 3819 CircleF
4977 3892 CircleF
4977 3967 CircleF
4977 3977 CircleF
4977 3989 CircleF
4977 3998 CircleF
5019 3422 CircleF
5019 3824 CircleF
5019 3860 CircleF
5019 3950 CircleF
5019 3976 CircleF
5019 3980 CircleF
5019 3982 CircleF
5061 3714 CircleF
5061 3823 CircleF
5061 3848 CircleF
5061 3875 CircleF
5061 3963 CircleF
5061 3988 CircleF
5061 3989 CircleF
5104 3723 CircleF
5104 3823 CircleF
5104 3846 CircleF
5104 3856 CircleF
5104 3866 CircleF
5104 3896 CircleF
5146 3739 CircleF
5146 3828 CircleF
5146 3845 CircleF
5146 3853 CircleF
5146 3857 CircleF
5146 3860 CircleF
5188 3747 CircleF
5188 3831 CircleF
5188 3845 CircleF
5188 3851 CircleF
5188 3856 CircleF
5188 3857 CircleF
5230 3759 CircleF
5230 3834 CircleF
5230 3847 CircleF
5230 3851 CircleF
5230 3854 CircleF
5230 3856 CircleF
5272 3763 CircleF
5272 3837 CircleF
5272 3847 CircleF
5272 3849 CircleF
5272 3854 CircleF
5272 3855 CircleF
5315 3769 CircleF
5315 3836 CircleF
5315 3848 CircleF
5315 3850 CircleF
5315 3853 CircleF
5315 3854 CircleF
5357 3768 CircleF
5357 3838 CircleF
5357 3848 CircleF
5357 3853 CircleF
5357 3854 CircleF
5357 3852 CircleF
5399 3772 CircleF
5399 3843 CircleF
5399 3851 CircleF
5399 3853 CircleF
5399 3852 CircleF
5441 3788 CircleF
5441 3843 CircleF
5441 3850 CircleF
5441 3852 CircleF
5441 3850 CircleF
5484 3615 CircleF
5484 3845 CircleF
5484 3852 CircleF
5484 3852 CircleF
5484 3852 CircleF
5526 3795 CircleF
5526 3846 CircleF
5526 3852 CircleF
5526 3851 CircleF
5526 3850 CircleF
5568 3807 CircleF
5568 3849 CircleF
5568 3852 CircleF
5568 3852 CircleF
5568 3850 CircleF
5610 3806 CircleF
5610 3848 CircleF
5610 3850 CircleF
5610 3852 CircleF
5610 3848 CircleF
5652 3818 CircleF
5652 3849 CircleF
5652 3851 CircleF
5652 3850 CircleF
5652 3847 CircleF
5695 3817 CircleF
5695 3849 CircleF
5695 3852 CircleF
5695 3850 CircleF
5737 3821 CircleF
5737 3851 CircleF
5737 3853 CircleF
5737 3851 CircleF
5779 3823 CircleF
5779 3852 CircleF
5779 3852 CircleF
5779 3850 CircleF
5821 3826 CircleF
5821 3852 CircleF
5821 3851 CircleF
5821 3850 CircleF
5864 3832 CircleF
5864 3850 CircleF
5864 3854 CircleF
5864 3846 CircleF
5906 3830 CircleF
5906 3852 CircleF
5906 3852 CircleF
5906 3849 CircleF
5948 3834 CircleF
5948 3854 CircleF
5948 3852 CircleF
5948 3848 CircleF
5990 3838 CircleF
5990 3852 CircleF
5990 3853 CircleF
5990 3846 CircleF
6033 3839 CircleF
6033 3853 CircleF
6033 3851 CircleF
6075 3839 CircleF
6075 3854 CircleF
6075 3851 CircleF
6117 3840 CircleF
6117 3851 CircleF
6117 3850 CircleF
6159 3844 CircleF
6159 3851 CircleF
6159 3847 CircleF
6201 3844 CircleF
6201 3850 CircleF
6201 3849 CircleF
6244 3843 CircleF
6244 3852 CircleF
6244 3847 CircleF
6286 3844 CircleF
6286 3850 CircleF
6286 3848 CircleF
6328 3848 CircleF
6328 3851 CircleF
6370 3846 CircleF
6370 3850 CircleF
6413 3847 CircleF
6413 3849 CircleF
6455 3846 CircleF
6455 3850 CircleF
6497 3847 CircleF
6497 3849 CircleF
6539 3848 CircleF
6539 3847 CircleF
6581 3849 CircleF
6581 3849 CircleF
6624 3847 CircleF
6666 3848 CircleF
6708 3848 CircleF
6750 3847 CircleF
6793 3848 CircleF
6835 3846 CircleF
6877 3847 CircleF
% End plot #1
2.000 UL
LTb
LCb setrgbcolor
1.000 UL
LTB
LCb setrgbcolor
770 4619 N
770 448 L
6107 0 V
0 4171 V
-6107 0 V
Z stroke
1.000 UP
1.000 UL
LTb
LCb setrgbcolor
stroke
grestore
end
showpage
%%Trailer
%%DocumentFonts: Helvetica
%%Pages: 1
