%!PS-Adobe-2.0
%%Title: Results.daisy.v100/Run.001/FLOPS.064/GPU_Blocks.0160/GPU_Threads.1024/graph2.ps
%%Creator: gnuplot 5.2 patchlevel 7
%%CreationDate: Sun Jan 19 15:22:13 2020
%%DocumentFonts: (atend)
%%BoundingBox: 50 50 554 770
%%Orientation: Landscape
%%Pages: (atend)
%%EndComments
%%BeginProlog
/gnudict 256 dict def
gnudict begin
%
% The following true/false flags may be edited by hand if desired.
% The unit line width and grayscale image gamma correction may also be changed.
%
/Color true def
/Blacktext false def
/Solid false def
/Dashlength 1 def
/Landscape true def
/Level1 false def
/Level3 false def
/Rounded false def
/ClipToBoundingBox false def
/SuppressPDFMark false def
/TransparentPatterns false def
/gnulinewidth 5.000 def
/userlinewidth gnulinewidth def
/Gamma 1.0 def
/BackgroundColor {-1.000 -1.000 -1.000} def
%
/vshift -46 def
/dl1 {
  10.0 Dashlength userlinewidth gnulinewidth div mul mul mul
  Rounded { currentlinewidth 0.75 mul sub dup 0 le { pop 0.01 } if } if
} def
/dl2 {
  10.0 Dashlength userlinewidth gnulinewidth div mul mul mul
  Rounded { currentlinewidth 0.75 mul add } if
} def
/hpt_ 31.5 def
/vpt_ 31.5 def
/hpt hpt_ def
/vpt vpt_ def
/doclip {
  ClipToBoundingBox {
    newpath 50 50 moveto 554 50 lineto 554 770 lineto 50 770 lineto closepath
    clip
  } if
} def
%
% Gnuplot Prolog Version 5.2 (Dec 2017)
%
%/SuppressPDFMark true def
%
/M {moveto} bind def
/L {lineto} bind def
/R {rmoveto} bind def
/V {rlineto} bind def
/N {newpath moveto} bind def
/Z {closepath} bind def
/C {setrgbcolor} bind def
/f {rlineto fill} bind def
/g {setgray} bind def
/Gshow {show} def   % May be redefined later in the file to support UTF-8
/vpt2 vpt 2 mul def
/hpt2 hpt 2 mul def
/Lshow {currentpoint stroke M 0 vshift R 
	Blacktext {gsave 0 setgray textshow grestore} {textshow} ifelse} def
/Rshow {currentpoint stroke M dup stringwidth pop neg vshift R
	Blacktext {gsave 0 setgray textshow grestore} {textshow} ifelse} def
/Cshow {currentpoint stroke M dup stringwidth pop -2 div vshift R 
	Blacktext {gsave 0 setgray textshow grestore} {textshow} ifelse} def
/UP {dup vpt_ mul /vpt exch def hpt_ mul /hpt exch def
  /hpt2 hpt 2 mul def /vpt2 vpt 2 mul def} def
/DL {Color {setrgbcolor Solid {pop []} if 0 setdash}
 {pop pop pop 0 setgray Solid {pop []} if 0 setdash} ifelse} def
/BL {stroke userlinewidth 2 mul setlinewidth
	Rounded {1 setlinejoin 1 setlinecap} if} def
/AL {stroke userlinewidth 2 div setlinewidth
	Rounded {1 setlinejoin 1 setlinecap} if} def
/UL {dup gnulinewidth mul /userlinewidth exch def
	dup 1 lt {pop 1} if 10 mul /udl exch def} def
/PL {stroke userlinewidth setlinewidth
	Rounded {1 setlinejoin 1 setlinecap} if} def
3.8 setmiterlimit
% Classic Line colors (version 5.0)
/LCw {1 1 1} def
/LCb {0 0 0} def
/LCa {0 0 0} def
/LC0 {1 0 0} def
/LC1 {0 1 0} def
/LC2 {0 0 1} def
/LC3 {1 0 1} def
/LC4 {0 1 1} def
/LC5 {1 1 0} def
/LC6 {0 0 0} def
/LC7 {1 0.3 0} def
/LC8 {0.5 0.5 0.5} def
% Default dash patterns (version 5.0)
/LTB {BL [] LCb DL} def
/LTw {PL [] 1 setgray} def
/LTb {PL [] LCb DL} def
/LTa {AL [1 udl mul 2 udl mul] 0 setdash LCa setrgbcolor} def
/LT0 {PL [] LC0 DL} def
/LT1 {PL [2 dl1 3 dl2] LC1 DL} def
/LT2 {PL [1 dl1 1.5 dl2] LC2 DL} def
/LT3 {PL [6 dl1 2 dl2 1 dl1 2 dl2] LC3 DL} def
/LT4 {PL [1 dl1 2 dl2 6 dl1 2 dl2 1 dl1 2 dl2] LC4 DL} def
/LT5 {PL [4 dl1 2 dl2] LC5 DL} def
/LT6 {PL [1.5 dl1 1.5 dl2 1.5 dl1 1.5 dl2 1.5 dl1 6 dl2] LC6 DL} def
/LT7 {PL [3 dl1 3 dl2 1 dl1 3 dl2] LC7 DL} def
/LT8 {PL [2 dl1 2 dl2 2 dl1 6 dl2] LC8 DL} def
/SL {[] 0 setdash} def
/Pnt {stroke [] 0 setdash gsave 1 setlinecap M 0 0 V stroke grestore} def
/Dia {stroke [] 0 setdash 2 copy vpt add M
  hpt neg vpt neg V hpt vpt neg V
  hpt vpt V hpt neg vpt V closepath stroke
  Pnt} def
/Pls {stroke [] 0 setdash vpt sub M 0 vpt2 V
  currentpoint stroke M
  hpt neg vpt neg R hpt2 0 V stroke
 } def
/Box {stroke [] 0 setdash 2 copy exch hpt sub exch vpt add M
  0 vpt2 neg V hpt2 0 V 0 vpt2 V
  hpt2 neg 0 V closepath stroke
  Pnt} def
/Crs {stroke [] 0 setdash exch hpt sub exch vpt add M
  hpt2 vpt2 neg V currentpoint stroke M
  hpt2 neg 0 R hpt2 vpt2 V stroke} def
/TriU {stroke [] 0 setdash 2 copy vpt 1.12 mul add M
  hpt neg vpt -1.62 mul V
  hpt 2 mul 0 V
  hpt neg vpt 1.62 mul V closepath stroke
  Pnt} def
/Star {2 copy Pls Crs} def
/BoxF {stroke [] 0 setdash exch hpt sub exch vpt add M
  0 vpt2 neg V hpt2 0 V 0 vpt2 V
  hpt2 neg 0 V closepath fill} def
/TriUF {stroke [] 0 setdash vpt 1.12 mul add M
  hpt neg vpt -1.62 mul V
  hpt 2 mul 0 V
  hpt neg vpt 1.62 mul V closepath fill} def
/TriD {stroke [] 0 setdash 2 copy vpt 1.12 mul sub M
  hpt neg vpt 1.62 mul V
  hpt 2 mul 0 V
  hpt neg vpt -1.62 mul V closepath stroke
  Pnt} def
/TriDF {stroke [] 0 setdash vpt 1.12 mul sub M
  hpt neg vpt 1.62 mul V
  hpt 2 mul 0 V
  hpt neg vpt -1.62 mul V closepath fill} def
/DiaF {stroke [] 0 setdash vpt add M
  hpt neg vpt neg V hpt vpt neg V
  hpt vpt V hpt neg vpt V closepath fill} def
/Pent {stroke [] 0 setdash 2 copy gsave
  translate 0 hpt M 4 {72 rotate 0 hpt L} repeat
  closepath stroke grestore Pnt} def
/PentF {stroke [] 0 setdash gsave
  translate 0 hpt M 4 {72 rotate 0 hpt L} repeat
  closepath fill grestore} def
/Circle {stroke [] 0 setdash 2 copy
  hpt 0 360 arc stroke Pnt} def
/CircleF {stroke [] 0 setdash hpt 0 360 arc fill} def
/C0 {BL [] 0 setdash 2 copy moveto vpt 90 450 arc} bind def
/C1 {BL [] 0 setdash 2 copy moveto
	2 copy vpt 0 90 arc closepath fill
	vpt 0 360 arc closepath} bind def
/C2 {BL [] 0 setdash 2 copy moveto
	2 copy vpt 90 180 arc closepath fill
	vpt 0 360 arc closepath} bind def
/C3 {BL [] 0 setdash 2 copy moveto
	2 copy vpt 0 180 arc closepath fill
	vpt 0 360 arc closepath} bind def
/C4 {BL [] 0 setdash 2 copy moveto
	2 copy vpt 180 270 arc closepath fill
	vpt 0 360 arc closepath} bind def
/C5 {BL [] 0 setdash 2 copy moveto
	2 copy vpt 0 90 arc
	2 copy moveto
	2 copy vpt 180 270 arc closepath fill
	vpt 0 360 arc} bind def
/C6 {BL [] 0 setdash 2 copy moveto
	2 copy vpt 90 270 arc closepath fill
	vpt 0 360 arc closepath} bind def
/C7 {BL [] 0 setdash 2 copy moveto
	2 copy vpt 0 270 arc closepath fill
	vpt 0 360 arc closepath} bind def
/C8 {BL [] 0 setdash 2 copy moveto
	2 copy vpt 270 360 arc closepath fill
	vpt 0 360 arc closepath} bind def
/C9 {BL [] 0 setdash 2 copy moveto
	2 copy vpt 270 450 arc closepath fill
	vpt 0 360 arc closepath} bind def
/C10 {BL [] 0 setdash 2 copy 2 copy moveto vpt 270 360 arc closepath fill
	2 copy moveto
	2 copy vpt 90 180 arc closepath fill
	vpt 0 360 arc closepath} bind def
/C11 {BL [] 0 setdash 2 copy moveto
	2 copy vpt 0 180 arc closepath fill
	2 copy moveto
	2 copy vpt 270 360 arc closepath fill
	vpt 0 360 arc closepath} bind def
/C12 {BL [] 0 setdash 2 copy moveto
	2 copy vpt 180 360 arc closepath fill
	vpt 0 360 arc closepath} bind def
/C13 {BL [] 0 setdash 2 copy moveto
	2 copy vpt 0 90 arc closepath fill
	2 copy moveto
	2 copy vpt 180 360 arc closepath fill
	vpt 0 360 arc closepath} bind def
/C14 {BL [] 0 setdash 2 copy moveto
	2 copy vpt 90 360 arc closepath fill
	vpt 0 360 arc} bind def
/C15 {BL [] 0 setdash 2 copy vpt 0 360 arc closepath fill
	vpt 0 360 arc closepath} bind def
/Rec {newpath 4 2 roll moveto 1 index 0 rlineto 0 exch rlineto
	neg 0 rlineto closepath} bind def
/Square {dup Rec} bind def
/Bsquare {vpt sub exch vpt sub exch vpt2 Square} bind def
/S0 {BL [] 0 setdash 2 copy moveto 0 vpt rlineto BL Bsquare} bind def
/S1 {BL [] 0 setdash 2 copy vpt Square fill Bsquare} bind def
/S2 {BL [] 0 setdash 2 copy exch vpt sub exch vpt Square fill Bsquare} bind def
/S3 {BL [] 0 setdash 2 copy exch vpt sub exch vpt2 vpt Rec fill Bsquare} bind def
/S4 {BL [] 0 setdash 2 copy exch vpt sub exch vpt sub vpt Square fill Bsquare} bind def
/S5 {BL [] 0 setdash 2 copy 2 copy vpt Square fill
	exch vpt sub exch vpt sub vpt Square fill Bsquare} bind def
/S6 {BL [] 0 setdash 2 copy exch vpt sub exch vpt sub vpt vpt2 Rec fill Bsquare} bind def
/S7 {BL [] 0 setdash 2 copy exch vpt sub exch vpt sub vpt vpt2 Rec fill
	2 copy vpt Square fill Bsquare} bind def
/S8 {BL [] 0 setdash 2 copy vpt sub vpt Square fill Bsquare} bind def
/S9 {BL [] 0 setdash 2 copy vpt sub vpt vpt2 Rec fill Bsquare} bind def
/S10 {BL [] 0 setdash 2 copy vpt sub vpt Square fill 2 copy exch vpt sub exch vpt Square fill
	Bsquare} bind def
/S11 {BL [] 0 setdash 2 copy vpt sub vpt Square fill 2 copy exch vpt sub exch vpt2 vpt Rec fill
	Bsquare} bind def
/S12 {BL [] 0 setdash 2 copy exch vpt sub exch vpt sub vpt2 vpt Rec fill Bsquare} bind def
/S13 {BL [] 0 setdash 2 copy exch vpt sub exch vpt sub vpt2 vpt Rec fill
	2 copy vpt Square fill Bsquare} bind def
/S14 {BL [] 0 setdash 2 copy exch vpt sub exch vpt sub vpt2 vpt Rec fill
	2 copy exch vpt sub exch vpt Square fill Bsquare} bind def
/S15 {BL [] 0 setdash 2 copy Bsquare fill Bsquare} bind def
/D0 {gsave translate 45 rotate 0 0 S0 stroke grestore} bind def
/D1 {gsave translate 45 rotate 0 0 S1 stroke grestore} bind def
/D2 {gsave translate 45 rotate 0 0 S2 stroke grestore} bind def
/D3 {gsave translate 45 rotate 0 0 S3 stroke grestore} bind def
/D4 {gsave translate 45 rotate 0 0 S4 stroke grestore} bind def
/D5 {gsave translate 45 rotate 0 0 S5 stroke grestore} bind def
/D6 {gsave translate 45 rotate 0 0 S6 stroke grestore} bind def
/D7 {gsave translate 45 rotate 0 0 S7 stroke grestore} bind def
/D8 {gsave translate 45 rotate 0 0 S8 stroke grestore} bind def
/D9 {gsave translate 45 rotate 0 0 S9 stroke grestore} bind def
/D10 {gsave translate 45 rotate 0 0 S10 stroke grestore} bind def
/D11 {gsave translate 45 rotate 0 0 S11 stroke grestore} bind def
/D12 {gsave translate 45 rotate 0 0 S12 stroke grestore} bind def
/D13 {gsave translate 45 rotate 0 0 S13 stroke grestore} bind def
/D14 {gsave translate 45 rotate 0 0 S14 stroke grestore} bind def
/D15 {gsave translate 45 rotate 0 0 S15 stroke grestore} bind def
/DiaE {stroke [] 0 setdash vpt add M
  hpt neg vpt neg V hpt vpt neg V
  hpt vpt V hpt neg vpt V closepath stroke} def
/BoxE {stroke [] 0 setdash exch hpt sub exch vpt add M
  0 vpt2 neg V hpt2 0 V 0 vpt2 V
  hpt2 neg 0 V closepath stroke} def
/TriUE {stroke [] 0 setdash vpt 1.12 mul add M
  hpt neg vpt -1.62 mul V
  hpt 2 mul 0 V
  hpt neg vpt 1.62 mul V closepath stroke} def
/TriDE {stroke [] 0 setdash vpt 1.12 mul sub M
  hpt neg vpt 1.62 mul V
  hpt 2 mul 0 V
  hpt neg vpt -1.62 mul V closepath stroke} def
/PentE {stroke [] 0 setdash gsave
  translate 0 hpt M 4 {72 rotate 0 hpt L} repeat
  closepath stroke grestore} def
/CircE {stroke [] 0 setdash 
  hpt 0 360 arc stroke} def
/Opaque {gsave closepath 1 setgray fill grestore 0 setgray closepath} def
/DiaW {stroke [] 0 setdash vpt add M
  hpt neg vpt neg V hpt vpt neg V
  hpt vpt V hpt neg vpt V Opaque stroke} def
/BoxW {stroke [] 0 setdash exch hpt sub exch vpt add M
  0 vpt2 neg V hpt2 0 V 0 vpt2 V
  hpt2 neg 0 V Opaque stroke} def
/TriUW {stroke [] 0 setdash vpt 1.12 mul add M
  hpt neg vpt -1.62 mul V
  hpt 2 mul 0 V
  hpt neg vpt 1.62 mul V Opaque stroke} def
/TriDW {stroke [] 0 setdash vpt 1.12 mul sub M
  hpt neg vpt 1.62 mul V
  hpt 2 mul 0 V
  hpt neg vpt -1.62 mul V Opaque stroke} def
/PentW {stroke [] 0 setdash gsave
  translate 0 hpt M 4 {72 rotate 0 hpt L} repeat
  Opaque stroke grestore} def
/CircW {stroke [] 0 setdash 
  hpt 0 360 arc Opaque stroke} def
/BoxFill {gsave Rec 1 setgray fill grestore} def
/Density {
  /Fillden exch def
  currentrgbcolor
  /ColB exch def /ColG exch def /ColR exch def
  /ColR ColR Fillden mul Fillden sub 1 add def
  /ColG ColG Fillden mul Fillden sub 1 add def
  /ColB ColB Fillden mul Fillden sub 1 add def
  ColR ColG ColB setrgbcolor} def
/BoxColFill {gsave Rec PolyFill} def
/PolyFill {gsave Density fill grestore grestore} def
/h {rlineto rlineto rlineto closepath gsave fill grestore stroke} bind def
%
% PostScript Level 1 Pattern Fill routine for rectangles
% Usage: x y w h s a XX PatternFill
%	x,y = lower left corner of box to be filled
%	w,h = width and height of box
%	  a = angle in degrees between lines and x-axis
%	 XX = 0/1 for no/yes cross-hatch
%
/PatternFill {gsave /PFa [ 9 2 roll ] def
  PFa 0 get PFa 2 get 2 div add PFa 1 get PFa 3 get 2 div add translate
  PFa 2 get -2 div PFa 3 get -2 div PFa 2 get PFa 3 get Rec
  TransparentPatterns {} {gsave 1 setgray fill grestore} ifelse
  clip
  currentlinewidth 0.5 mul setlinewidth
  /PFs PFa 2 get dup mul PFa 3 get dup mul add sqrt def
  0 0 M PFa 5 get rotate PFs -2 div dup translate
  0 1 PFs PFa 4 get div 1 add floor cvi
	{PFa 4 get mul 0 M 0 PFs V} for
  0 PFa 6 get ne {
	0 1 PFs PFa 4 get div 1 add floor cvi
	{PFa 4 get mul 0 2 1 roll M PFs 0 V} for
 } if
  stroke grestore} def
%
/languagelevel where
 {pop languagelevel} {1} ifelse
dup 2 lt
	{/InterpretLevel1 true def
	 /InterpretLevel3 false def}
	{/InterpretLevel1 Level1 def
	 2 gt
	    {/InterpretLevel3 Level3 def}
	    {/InterpretLevel3 false def}
	 ifelse }
 ifelse
%
% PostScript level 2 pattern fill definitions
%
/Level2PatternFill {
/Tile8x8 {/PaintType 2 /PatternType 1 /TilingType 1 /BBox [0 0 8 8] /XStep 8 /YStep 8}
	bind def
/KeepColor {currentrgbcolor [/Pattern /DeviceRGB] setcolorspace} bind def
<< Tile8x8
 /PaintProc {0.5 setlinewidth pop 0 0 M 8 8 L 0 8 M 8 0 L stroke} 
>> matrix makepattern
/Pat1 exch def
<< Tile8x8
 /PaintProc {0.5 setlinewidth pop 0 0 M 8 8 L 0 8 M 8 0 L stroke
	0 4 M 4 8 L 8 4 L 4 0 L 0 4 L stroke}
>> matrix makepattern
/Pat2 exch def
<< Tile8x8
 /PaintProc {0.5 setlinewidth pop 0 0 M 0 8 L
	8 8 L 8 0 L 0 0 L fill}
>> matrix makepattern
/Pat3 exch def
<< Tile8x8
 /PaintProc {0.5 setlinewidth pop -4 8 M 8 -4 L
	0 12 M 12 0 L stroke}
>> matrix makepattern
/Pat4 exch def
<< Tile8x8
 /PaintProc {0.5 setlinewidth pop -4 0 M 8 12 L
	0 -4 M 12 8 L stroke}
>> matrix makepattern
/Pat5 exch def
<< Tile8x8
 /PaintProc {0.5 setlinewidth pop -2 8 M 4 -4 L
	0 12 M 8 -4 L 4 12 M 10 0 L stroke}
>> matrix makepattern
/Pat6 exch def
<< Tile8x8
 /PaintProc {0.5 setlinewidth pop -2 0 M 4 12 L
	0 -4 M 8 12 L 4 -4 M 10 8 L stroke}
>> matrix makepattern
/Pat7 exch def
<< Tile8x8
 /PaintProc {0.5 setlinewidth pop 8 -2 M -4 4 L
	12 0 M -4 8 L 12 4 M 0 10 L stroke}
>> matrix makepattern
/Pat8 exch def
<< Tile8x8
 /PaintProc {0.5 setlinewidth pop 0 -2 M 12 4 L
	-4 0 M 12 8 L -4 4 M 8 10 L stroke}
>> matrix makepattern
/Pat9 exch def
/Pattern1 {PatternBgnd KeepColor Pat1 setpattern} bind def
/Pattern2 {PatternBgnd KeepColor Pat2 setpattern} bind def
/Pattern3 {PatternBgnd KeepColor Pat3 setpattern} bind def
/Pattern4 {PatternBgnd KeepColor Landscape {Pat5} {Pat4} ifelse setpattern} bind def
/Pattern5 {PatternBgnd KeepColor Landscape {Pat4} {Pat5} ifelse setpattern} bind def
/Pattern6 {PatternBgnd KeepColor Landscape {Pat9} {Pat6} ifelse setpattern} bind def
/Pattern7 {PatternBgnd KeepColor Landscape {Pat8} {Pat7} ifelse setpattern} bind def
} def
%
%
%End of PostScript Level 2 code
%
/PatternBgnd {
  TransparentPatterns {} {gsave 1 setgray fill grestore} ifelse
} def
%
% Substitute for Level 2 pattern fill codes with
% grayscale if Level 2 support is not selected.
%
/Level1PatternFill {
/Pattern1 {0.250 Density} bind def
/Pattern2 {0.500 Density} bind def
/Pattern3 {0.750 Density} bind def
/Pattern4 {0.125 Density} bind def
/Pattern5 {0.375 Density} bind def
/Pattern6 {0.625 Density} bind def
/Pattern7 {0.875 Density} bind def
} def
%
% Now test for support of Level 2 code
%
Level1 {Level1PatternFill} {Level2PatternFill} ifelse
%
/Symbol-Oblique /Symbol findfont [1 0 .167 1 0 0] makefont
dup length dict begin {1 index /FID eq {pop pop} {def} ifelse} forall
currentdict end definefont pop
%
/Metrics {ExtendTextBox Gswidth} def
/Lwidth {currentpoint stroke M 0 vshift R Metrics} def
/Rwidth {currentpoint stroke M dup stringwidth pop neg vshift R Metrics} def
/Cwidth {currentpoint stroke M dup stringwidth pop -2 div vshift R Metrics} def
/GLwidth {currentpoint stroke M 0 vshift R {ExtendTextBox} forall} def
/GRwidth {currentpoint stroke M dup Gwidth vshift R {ExtendTextBox} forall} def
/GCwidth {currentpoint stroke M dup Gwidth 2 div vshift R {ExtendTextBox} forall} def
/GLwidth2 {0 Gwidth AddGlyphWidth} def
/GRwidth2 {Gwidth -1 mul 0 AddGlyphWidth} def
/GCwidth2 {Gwidth 2 div dup -1 mul AddGlyphWidth} def
/AddGlyphWidth { dup TBx2 gt {userdict /TBx2 3 -1 roll put} {pop} ifelse
                 dup TBx1 lt {userdict /TBx1 3 -1 roll put} {pop} ifelse } def
/MFshow {
   { dup 5 get 3 ge
     { 5 get 3 eq {gsave} {grestore} ifelse }
     {dup dup 0 get findfont exch 1 get scalefont setfont
     [ currentpoint ] exch dup 2 get 0 exch R dup 5 get 2 ne {dup dup 6
     get exch 4 get {textshow} {Metrics pop 0 R} ifelse }if dup 5 get 0 eq
     {dup 3 get {2 get neg 0 exch R pop} {pop aload pop M} ifelse} {dup 5
     get 1 eq {dup 2 get exch dup 3 get exch 6 get Gswidth pop -2 div
     dup 0 R} {dup 6 get Gswidth pop -2 div 0 R 6 get
     textshow 2 index {aload pop M neg 3 -1 roll neg R pop pop} {pop pop pop
     pop aload pop M} ifelse }ifelse }ifelse }
     ifelse }
   forall} def
/Gswidth {dup type /stringtype eq {stringwidth} {pop (n) stringwidth} ifelse} def
/MFwidth {0 exch { dup 5 get 3 ge { 5 get 3 eq { 0 } { pop } ifelse }
 {dup 3 get{dup dup 0 get findfont exch 1 get scalefont setfont
     6 get Gswidth pop add} {pop} ifelse} ifelse} forall} def
/MLshow { currentpoint stroke M
  0 exch R
  Blacktext {gsave 0 setgray MFshow grestore} {MFshow} ifelse } bind def
/MRshow { currentpoint stroke M
  exch dup MFwidth neg 3 -1 roll R
  Blacktext {gsave 0 setgray MFshow grestore} {MFshow} ifelse } bind def
/MCshow { currentpoint stroke M
  exch dup MFwidth -2 div 3 -1 roll R
  Blacktext {gsave 0 setgray MFshow grestore} {MFshow} ifelse } bind def
/XYsave    { [( ) 1 2 true false 3 ()] } bind def
/XYrestore { [( ) 1 2 true false 4 ()] } bind def
Level1 SuppressPDFMark or 
{} {
/SDict 10 dict def
systemdict /pdfmark known not {
  userdict /pdfmark systemdict /cleartomark get put
} if
SDict begin [
  /Title (Results.daisy.v100/Run.001/FLOPS.064/GPU_Blocks.0160/GPU_Threads.1024/graph2.ps)
  /Subject (gnuplot plot)
  /Creator (gnuplot 5.2 patchlevel 7)
%  /Producer (gnuplot)
%  /Keywords ()
  /CreationDate (Sun Jan 19 15:22:13 2020)
  /DOCINFO pdfmark
end
} ifelse
%
% Support for boxed text - Ethan A Merritt Sep 2016
%
/InitTextBox { userdict /TBy2 3 -1 roll put userdict /TBx2 3 -1 roll put
           userdict /TBy1 3 -1 roll put userdict /TBx1 3 -1 roll put
	   /Boxing true def } def
/ExtendTextBox { dup type /stringtype eq
    { Boxing { gsave dup false charpath pathbbox
      dup TBy2 gt {userdict /TBy2 3 -1 roll put} {pop} ifelse
      dup TBx2 gt {userdict /TBx2 3 -1 roll put} {pop} ifelse
      dup TBy1 lt {userdict /TBy1 3 -1 roll put} {pop} ifelse
      dup TBx1 lt {userdict /TBx1 3 -1 roll put} {pop} ifelse
      grestore } if }
    {} ifelse} def
/PopTextBox { newpath TBx1 TBxmargin sub TBy1 TBymargin sub M
               TBx1 TBxmargin sub TBy2 TBymargin add L
	       TBx2 TBxmargin add TBy2 TBymargin add L
	       TBx2 TBxmargin add TBy1 TBymargin sub L closepath } def
/DrawTextBox { PopTextBox stroke /Boxing false def} def
/FillTextBox { gsave PopTextBox fill grestore /Boxing false def} def
0 0 0 0 InitTextBox
/TBxmargin 20 def
/TBymargin 20 def
/Boxing false def
/textshow { ExtendTextBox Gshow } def
%
end
%%EndProlog
%%Page: 1 1
gnudict begin
gsave
doclip
50 50 translate
0.100 0.100 scale
90 rotate
0 -5040 translate
0 setgray
newpath
(Helvetica) findfont 140 scalefont setfont
BackgroundColor 0 lt 3 1 roll 0 lt exch 0 lt or or not {gsave BackgroundColor C clippath fill grestore} if
1.000 UL
LTb
LCb setrgbcolor
1.000 UL
LTa
LCa setrgbcolor
770 448 M
6107 0 V
stroke
LTb
LCb setrgbcolor
770 448 M
63 0 V
6044 0 R
-63 0 V
stroke
686 448 M
[ [(Helvetica) 140.0 0.0 true true 0 (1e-02)]
] -46.7 MRshow
/Helvetica findfont 140 scalefont setfont
/vshift -46 def
1.000 UL
LTb
LCb setrgbcolor
1.000 UL
LTa
LCa setrgbcolor
770 657 M
6107 0 V
stroke
LTb
LCb setrgbcolor
770 657 M
31 0 V
6076 0 R
-31 0 V
stroke
LTa
LCa setrgbcolor
770 780 M
6107 0 V
stroke
LTb
LCb setrgbcolor
770 780 M
31 0 V
6076 0 R
-31 0 V
stroke
LTa
LCa setrgbcolor
770 867 M
6107 0 V
stroke
LTb
LCb setrgbcolor
770 867 M
31 0 V
6076 0 R
-31 0 V
stroke
LTa
LCa setrgbcolor
770 934 M
6107 0 V
stroke
LTb
LCb setrgbcolor
770 934 M
31 0 V
6076 0 R
-31 0 V
stroke
LTa
LCa setrgbcolor
770 989 M
6107 0 V
stroke
LTb
LCb setrgbcolor
770 989 M
31 0 V
6076 0 R
-31 0 V
stroke
LTa
LCa setrgbcolor
770 1035 M
6107 0 V
stroke
LTb
LCb setrgbcolor
770 1035 M
31 0 V
6076 0 R
-31 0 V
stroke
LTa
LCa setrgbcolor
770 1076 M
6107 0 V
stroke
LTb
LCb setrgbcolor
770 1076 M
31 0 V
6076 0 R
-31 0 V
stroke
LTa
LCa setrgbcolor
770 1111 M
6107 0 V
stroke
LTb
LCb setrgbcolor
770 1111 M
31 0 V
6076 0 R
-31 0 V
stroke
LTa
LCa setrgbcolor
770 1143 M
6107 0 V
stroke
LTb
LCb setrgbcolor
770 1143 M
63 0 V
6044 0 R
-63 0 V
stroke
686 1143 M
[ [(Helvetica) 140.0 0.0 true true 0 (1e-01)]
] -46.7 MRshow
/Helvetica findfont 140 scalefont setfont
1.000 UL
LTb
LCb setrgbcolor
1.000 UL
LTa
LCa setrgbcolor
770 1352 M
6107 0 V
stroke
LTb
LCb setrgbcolor
770 1352 M
31 0 V
6076 0 R
-31 0 V
stroke
LTa
LCa setrgbcolor
770 1475 M
6107 0 V
stroke
LTb
LCb setrgbcolor
770 1475 M
31 0 V
6076 0 R
-31 0 V
stroke
LTa
LCa setrgbcolor
770 1562 M
6107 0 V
stroke
LTb
LCb setrgbcolor
770 1562 M
31 0 V
6076 0 R
-31 0 V
stroke
LTa
LCa setrgbcolor
770 1629 M
6107 0 V
stroke
LTb
LCb setrgbcolor
770 1629 M
31 0 V
6076 0 R
-31 0 V
stroke
LTa
LCa setrgbcolor
770 1684 M
6107 0 V
stroke
LTb
LCb setrgbcolor
770 1684 M
31 0 V
6076 0 R
-31 0 V
stroke
LTa
LCa setrgbcolor
770 1731 M
6107 0 V
stroke
LTb
LCb setrgbcolor
770 1731 M
31 0 V
6076 0 R
-31 0 V
stroke
LTa
LCa setrgbcolor
770 1771 M
6107 0 V
stroke
LTb
LCb setrgbcolor
770 1771 M
31 0 V
6076 0 R
-31 0 V
stroke
LTa
LCa setrgbcolor
770 1807 M
6107 0 V
stroke
LTb
LCb setrgbcolor
770 1807 M
31 0 V
6076 0 R
-31 0 V
stroke
LTa
LCa setrgbcolor
770 1838 M
6107 0 V
stroke
LTb
LCb setrgbcolor
770 1838 M
63 0 V
6044 0 R
-63 0 V
stroke
686 1838 M
[ [(Helvetica) 140.0 0.0 true true 0 (1e+00)]
] -46.7 MRshow
/Helvetica findfont 140 scalefont setfont
1.000 UL
LTb
LCb setrgbcolor
1.000 UL
LTa
LCa setrgbcolor
770 2048 M
6107 0 V
stroke
LTb
LCb setrgbcolor
770 2048 M
31 0 V
6076 0 R
-31 0 V
stroke
LTa
LCa setrgbcolor
770 2170 M
6107 0 V
stroke
LTb
LCb setrgbcolor
770 2170 M
31 0 V
6076 0 R
-31 0 V
stroke
LTa
LCa setrgbcolor
770 2257 M
6107 0 V
stroke
LTb
LCb setrgbcolor
770 2257 M
31 0 V
6076 0 R
-31 0 V
stroke
LTa
LCa setrgbcolor
770 2324 M
6107 0 V
stroke
LTb
LCb setrgbcolor
770 2324 M
31 0 V
6076 0 R
-31 0 V
stroke
LTa
LCa setrgbcolor
770 2379 M
6107 0 V
stroke
LTb
LCb setrgbcolor
770 2379 M
31 0 V
6076 0 R
-31 0 V
stroke
LTa
LCa setrgbcolor
770 2426 M
6107 0 V
stroke
LTb
LCb setrgbcolor
770 2426 M
31 0 V
6076 0 R
-31 0 V
stroke
LTa
LCa setrgbcolor
770 2466 M
6107 0 V
stroke
LTb
LCb setrgbcolor
770 2466 M
31 0 V
6076 0 R
-31 0 V
stroke
LTa
LCa setrgbcolor
770 2502 M
6107 0 V
stroke
LTb
LCb setrgbcolor
770 2502 M
31 0 V
6076 0 R
-31 0 V
stroke
LTa
LCa setrgbcolor
770 2534 M
6107 0 V
stroke
LTb
LCb setrgbcolor
770 2534 M
63 0 V
6044 0 R
-63 0 V
stroke
686 2534 M
[ [(Helvetica) 140.0 0.0 true true 0 (1e+01)]
] -46.7 MRshow
/Helvetica findfont 140 scalefont setfont
1.000 UL
LTb
LCb setrgbcolor
1.000 UL
LTa
LCa setrgbcolor
770 2743 M
6107 0 V
stroke
LTb
LCb setrgbcolor
770 2743 M
31 0 V
6076 0 R
-31 0 V
stroke
LTa
LCa setrgbcolor
770 2865 M
6107 0 V
stroke
LTb
LCb setrgbcolor
770 2865 M
31 0 V
6076 0 R
-31 0 V
stroke
LTa
LCa setrgbcolor
770 2952 M
6107 0 V
stroke
LTb
LCb setrgbcolor
770 2952 M
31 0 V
6076 0 R
-31 0 V
stroke
LTa
LCa setrgbcolor
770 3019 M
6107 0 V
stroke
LTb
LCb setrgbcolor
770 3019 M
31 0 V
6076 0 R
-31 0 V
stroke
LTa
LCa setrgbcolor
770 3074 M
6107 0 V
stroke
LTb
LCb setrgbcolor
770 3074 M
31 0 V
6076 0 R
-31 0 V
stroke
LTa
LCa setrgbcolor
770 3121 M
6107 0 V
stroke
LTb
LCb setrgbcolor
770 3121 M
31 0 V
6076 0 R
-31 0 V
stroke
LTa
LCa setrgbcolor
770 3161 M
6107 0 V
stroke
LTb
LCb setrgbcolor
770 3161 M
31 0 V
6076 0 R
-31 0 V
stroke
LTa
LCa setrgbcolor
770 3197 M
6107 0 V
stroke
LTb
LCb setrgbcolor
770 3197 M
31 0 V
6076 0 R
-31 0 V
stroke
LTa
LCa setrgbcolor
770 3229 M
6107 0 V
stroke
LTb
LCb setrgbcolor
770 3229 M
63 0 V
6044 0 R
-63 0 V
stroke
686 3229 M
[ [(Helvetica) 140.0 0.0 true true 0 (1e+02)]
] -46.7 MRshow
/Helvetica findfont 140 scalefont setfont
1.000 UL
LTb
LCb setrgbcolor
1.000 UL
LTa
LCa setrgbcolor
770 3438 M
6107 0 V
stroke
LTb
LCb setrgbcolor
770 3438 M
31 0 V
6076 0 R
-31 0 V
stroke
LTa
LCa setrgbcolor
770 3560 M
6107 0 V
stroke
LTb
LCb setrgbcolor
770 3560 M
31 0 V
6076 0 R
-31 0 V
stroke
LTa
LCa setrgbcolor
770 3647 M
6107 0 V
stroke
LTb
LCb setrgbcolor
770 3647 M
31 0 V
6076 0 R
-31 0 V
stroke
LTa
LCa setrgbcolor
770 3715 M
6107 0 V
stroke
LTb
LCb setrgbcolor
770 3715 M
31 0 V
6076 0 R
-31 0 V
stroke
LTa
LCa setrgbcolor
770 3770 M
6107 0 V
stroke
LTb
LCb setrgbcolor
770 3770 M
31 0 V
6076 0 R
-31 0 V
stroke
LTa
LCa setrgbcolor
770 3816 M
6107 0 V
stroke
LTb
LCb setrgbcolor
770 3816 M
31 0 V
6076 0 R
-31 0 V
stroke
LTa
LCa setrgbcolor
770 3856 M
6107 0 V
stroke
LTb
LCb setrgbcolor
770 3856 M
31 0 V
6076 0 R
-31 0 V
stroke
LTa
LCa setrgbcolor
770 3892 M
6107 0 V
stroke
LTb
LCb setrgbcolor
770 3892 M
31 0 V
6076 0 R
-31 0 V
stroke
LTa
LCa setrgbcolor
770 3924 M
6107 0 V
stroke
LTb
LCb setrgbcolor
770 3924 M
63 0 V
6044 0 R
-63 0 V
stroke
686 3924 M
[ [(Helvetica) 140.0 0.0 true true 0 (1e+03)]
] -46.7 MRshow
/Helvetica findfont 140 scalefont setfont
1.000 UL
LTb
LCb setrgbcolor
1.000 UL
LTa
LCa setrgbcolor
770 4133 M
6107 0 V
stroke
LTb
LCb setrgbcolor
770 4133 M
31 0 V
6076 0 R
-31 0 V
stroke
LTa
LCa setrgbcolor
770 4256 M
6107 0 V
stroke
LTb
LCb setrgbcolor
770 4256 M
31 0 V
6076 0 R
-31 0 V
stroke
LTa
LCa setrgbcolor
770 4342 M
6107 0 V
stroke
LTb
LCb setrgbcolor
770 4342 M
31 0 V
6076 0 R
-31 0 V
stroke
LTa
LCa setrgbcolor
770 4410 M
6107 0 V
stroke
LTb
LCb setrgbcolor
770 4410 M
31 0 V
6076 0 R
-31 0 V
stroke
LTa
LCa setrgbcolor
770 4465 M
6107 0 V
stroke
LTb
LCb setrgbcolor
770 4465 M
31 0 V
6076 0 R
-31 0 V
stroke
LTa
LCa setrgbcolor
770 4511 M
6107 0 V
stroke
LTb
LCb setrgbcolor
770 4511 M
31 0 V
6076 0 R
-31 0 V
stroke
LTa
LCa setrgbcolor
770 4552 M
6107 0 V
stroke
LTb
LCb setrgbcolor
770 4552 M
31 0 V
6076 0 R
-31 0 V
stroke
LTa
LCa setrgbcolor
770 4587 M
6107 0 V
stroke
LTb
LCb setrgbcolor
770 4587 M
31 0 V
6076 0 R
-31 0 V
stroke
LTa
LCa setrgbcolor
770 4619 M
6107 0 V
stroke
LTb
LCb setrgbcolor
770 4619 M
63 0 V
6044 0 R
-63 0 V
stroke
686 4619 M
[ [(Helvetica) 140.0 0.0 true true 0 (1e+04)]
] -46.7 MRshow
/Helvetica findfont 140 scalefont setfont
1.000 UL
LTb
LCb setrgbcolor
1.000 UL
LTa
LCa setrgbcolor
1067 448 M
0 4171 V
stroke
LTb
LCb setrgbcolor
1067 448 M
0 31 V
0 4140 R
0 -31 V
stroke
LTa
LCa setrgbcolor
1246 448 M
0 4171 V
stroke
LTb
LCb setrgbcolor
1246 448 M
0 31 V
0 4140 R
0 -31 V
stroke
LTa
LCa setrgbcolor
1374 448 M
0 4171 V
stroke
LTb
LCb setrgbcolor
1374 448 M
0 31 V
0 4140 R
0 -31 V
stroke
LTa
LCa setrgbcolor
1473 448 M
0 4171 V
stroke
LTb
LCb setrgbcolor
1473 448 M
0 31 V
0 4140 R
0 -31 V
stroke
LTa
LCa setrgbcolor
1553 448 M
0 4171 V
stroke
LTb
LCb setrgbcolor
1553 448 M
0 31 V
0 4140 R
0 -31 V
stroke
LTa
LCa setrgbcolor
1622 448 M
0 4171 V
stroke
LTb
LCb setrgbcolor
1622 448 M
0 31 V
0 4140 R
0 -31 V
stroke
LTa
LCa setrgbcolor
1681 448 M
0 4171 V
stroke
LTb
LCb setrgbcolor
1681 448 M
0 31 V
0 4140 R
0 -31 V
stroke
LTa
LCa setrgbcolor
1733 448 M
0 4171 V
stroke
LTb
LCb setrgbcolor
1733 448 M
0 31 V
0 4140 R
0 -31 V
stroke
LTa
LCa setrgbcolor
1780 448 M
0 4171 V
stroke
LTb
LCb setrgbcolor
1780 448 M
0 63 V
0 4108 R
0 -63 V
stroke
1780 308 M
[ [(Helvetica) 140.0 0.0 true true 0 (1e+04)]
] -46.7 MCshow
/Helvetica findfont 140 scalefont setfont
1.000 UL
LTb
LCb setrgbcolor
1.000 UL
LTa
LCa setrgbcolor
2087 448 M
0 4171 V
stroke
LTb
LCb setrgbcolor
2087 448 M
0 31 V
0 4140 R
0 -31 V
stroke
LTa
LCa setrgbcolor
2266 448 M
0 4171 V
stroke
LTb
LCb setrgbcolor
2266 448 M
0 31 V
0 4140 R
0 -31 V
stroke
LTa
LCa setrgbcolor
2394 448 M
0 4171 V
stroke
LTb
LCb setrgbcolor
2394 448 M
0 31 V
0 4140 R
0 -31 V
stroke
LTa
LCa setrgbcolor
2493 448 M
0 4171 V
stroke
LTb
LCb setrgbcolor
2493 448 M
0 31 V
0 4140 R
0 -31 V
stroke
LTa
LCa setrgbcolor
2573 448 M
0 4171 V
stroke
LTb
LCb setrgbcolor
2573 448 M
0 31 V
0 4140 R
0 -31 V
stroke
LTa
LCa setrgbcolor
2642 448 M
0 4171 V
stroke
LTb
LCb setrgbcolor
2642 448 M
0 31 V
0 4140 R
0 -31 V
stroke
LTa
LCa setrgbcolor
2701 448 M
0 4171 V
stroke
LTb
LCb setrgbcolor
2701 448 M
0 31 V
0 4140 R
0 -31 V
stroke
LTa
LCa setrgbcolor
2753 448 M
0 4171 V
stroke
LTb
LCb setrgbcolor
2753 448 M
0 31 V
0 4140 R
0 -31 V
stroke
LTa
LCa setrgbcolor
2800 448 M
0 4171 V
stroke
LTb
LCb setrgbcolor
2800 448 M
0 63 V
0 4108 R
0 -63 V
stroke
2800 308 M
[ [(Helvetica) 140.0 0.0 true true 0 (1e+05)]
] -46.7 MCshow
/Helvetica findfont 140 scalefont setfont
1.000 UL
LTb
LCb setrgbcolor
1.000 UL
LTa
LCa setrgbcolor
3107 448 M
0 4171 V
stroke
LTb
LCb setrgbcolor
3107 448 M
0 31 V
0 4140 R
0 -31 V
stroke
LTa
LCa setrgbcolor
3286 448 M
0 4171 V
stroke
LTb
LCb setrgbcolor
3286 448 M
0 31 V
0 4140 R
0 -31 V
stroke
LTa
LCa setrgbcolor
3414 448 M
0 4171 V
stroke
LTb
LCb setrgbcolor
3414 448 M
0 31 V
0 4140 R
0 -31 V
stroke
LTa
LCa setrgbcolor
3513 448 M
0 4171 V
stroke
LTb
LCb setrgbcolor
3513 448 M
0 31 V
0 4140 R
0 -31 V
stroke
LTa
LCa setrgbcolor
3593 448 M
0 4171 V
stroke
LTb
LCb setrgbcolor
3593 448 M
0 31 V
0 4140 R
0 -31 V
stroke
LTa
LCa setrgbcolor
3662 448 M
0 4171 V
stroke
LTb
LCb setrgbcolor
3662 448 M
0 31 V
0 4140 R
0 -31 V
stroke
LTa
LCa setrgbcolor
3721 448 M
0 4171 V
stroke
LTb
LCb setrgbcolor
3721 448 M
0 31 V
0 4140 R
0 -31 V
stroke
LTa
LCa setrgbcolor
3773 448 M
0 4171 V
stroke
LTb
LCb setrgbcolor
3773 448 M
0 31 V
0 4140 R
0 -31 V
stroke
LTa
LCa setrgbcolor
3820 448 M
0 4171 V
stroke
LTb
LCb setrgbcolor
3820 448 M
0 63 V
0 4108 R
0 -63 V
stroke
3820 308 M
[ [(Helvetica) 140.0 0.0 true true 0 (1e+06)]
] -46.7 MCshow
/Helvetica findfont 140 scalefont setfont
1.000 UL
LTb
LCb setrgbcolor
1.000 UL
LTa
LCa setrgbcolor
4127 448 M
0 4171 V
stroke
LTb
LCb setrgbcolor
4127 448 M
0 31 V
0 4140 R
0 -31 V
stroke
LTa
LCa setrgbcolor
4306 448 M
0 4171 V
stroke
LTb
LCb setrgbcolor
4306 448 M
0 31 V
0 4140 R
0 -31 V
stroke
LTa
LCa setrgbcolor
4434 448 M
0 4171 V
stroke
LTb
LCb setrgbcolor
4434 448 M
0 31 V
0 4140 R
0 -31 V
stroke
LTa
LCa setrgbcolor
4533 448 M
0 4171 V
stroke
LTb
LCb setrgbcolor
4533 448 M
0 31 V
0 4140 R
0 -31 V
stroke
LTa
LCa setrgbcolor
4614 448 M
0 4171 V
stroke
LTb
LCb setrgbcolor
4614 448 M
0 31 V
0 4140 R
0 -31 V
stroke
LTa
LCa setrgbcolor
4682 448 M
0 4171 V
stroke
LTb
LCb setrgbcolor
4682 448 M
0 31 V
0 4140 R
0 -31 V
stroke
LTa
LCa setrgbcolor
4741 448 M
0 4171 V
stroke
LTb
LCb setrgbcolor
4741 448 M
0 31 V
0 4140 R
0 -31 V
stroke
LTa
LCa setrgbcolor
4793 448 M
0 4171 V
stroke
LTb
LCb setrgbcolor
4793 448 M
0 31 V
0 4140 R
0 -31 V
stroke
LTa
LCa setrgbcolor
4840 448 M
0 4171 V
stroke
LTb
LCb setrgbcolor
4840 448 M
0 63 V
0 4108 R
0 -63 V
stroke
4840 308 M
[ [(Helvetica) 140.0 0.0 true true 0 (1e+07)]
] -46.7 MCshow
/Helvetica findfont 140 scalefont setfont
1.000 UL
LTb
LCb setrgbcolor
1.000 UL
LTa
LCa setrgbcolor
5147 448 M
0 4171 V
stroke
LTb
LCb setrgbcolor
5147 448 M
0 31 V
0 4140 R
0 -31 V
stroke
LTa
LCa setrgbcolor
5327 448 M
0 4171 V
stroke
LTb
LCb setrgbcolor
5327 448 M
0 31 V
0 4140 R
0 -31 V
stroke
LTa
LCa setrgbcolor
5454 448 M
0 4171 V
stroke
LTb
LCb setrgbcolor
5454 448 M
0 31 V
0 4140 R
0 -31 V
stroke
LTa
LCa setrgbcolor
5553 448 M
0 4171 V
stroke
LTb
LCb setrgbcolor
5553 448 M
0 31 V
0 4140 R
0 -31 V
stroke
LTa
LCa setrgbcolor
5634 448 M
0 4171 V
stroke
LTb
LCb setrgbcolor
5634 448 M
0 31 V
0 4140 R
0 -31 V
stroke
LTa
LCa setrgbcolor
5702 448 M
0 4171 V
stroke
LTb
LCb setrgbcolor
5702 448 M
0 31 V
0 4140 R
0 -31 V
stroke
LTa
LCa setrgbcolor
5761 448 M
0 4171 V
stroke
LTb
LCb setrgbcolor
5761 448 M
0 31 V
0 4140 R
0 -31 V
stroke
LTa
LCa setrgbcolor
5813 448 M
0 4171 V
stroke
LTb
LCb setrgbcolor
5813 448 M
0 31 V
0 4140 R
0 -31 V
stroke
LTa
LCa setrgbcolor
5860 448 M
0 4171 V
stroke
LTb
LCb setrgbcolor
5860 448 M
0 63 V
0 4108 R
0 -63 V
stroke
5860 308 M
[ [(Helvetica) 140.0 0.0 true true 0 (1e+08)]
] -46.7 MCshow
/Helvetica findfont 140 scalefont setfont
1.000 UL
LTb
LCb setrgbcolor
1.000 UL
LTa
LCa setrgbcolor
6167 448 M
0 4171 V
stroke
LTb
LCb setrgbcolor
6167 448 M
0 31 V
0 4140 R
0 -31 V
stroke
LTa
LCa setrgbcolor
6347 448 M
0 4171 V
stroke
LTb
LCb setrgbcolor
6347 448 M
0 31 V
0 4140 R
0 -31 V
stroke
LTa
LCa setrgbcolor
6474 448 M
0 4171 V
stroke
LTb
LCb setrgbcolor
6474 448 M
0 31 V
0 4140 R
0 -31 V
stroke
LTa
LCa setrgbcolor
6573 448 M
0 4171 V
stroke
LTb
LCb setrgbcolor
6573 448 M
0 31 V
0 4140 R
0 -31 V
stroke
LTa
LCa setrgbcolor
6654 448 M
0 4171 V
stroke
LTb
LCb setrgbcolor
6654 448 M
0 31 V
0 4140 R
0 -31 V
stroke
LTa
LCa setrgbcolor
6722 448 M
0 4171 V
stroke
LTb
LCb setrgbcolor
6722 448 M
0 31 V
0 4140 R
0 -31 V
stroke
LTa
LCa setrgbcolor
6781 448 M
0 4171 V
stroke
LTb
LCb setrgbcolor
6781 448 M
0 31 V
0 4140 R
0 -31 V
stroke
LTa
LCa setrgbcolor
6833 448 M
0 4171 V
stroke
LTb
LCb setrgbcolor
6833 448 M
0 31 V
0 4140 R
0 -31 V
stroke
LTa
LCa setrgbcolor
6880 448 M
0 4171 V
stroke
LTb
LCb setrgbcolor
1.000 UL
LTB
LCb setrgbcolor
770 4619 N
770 448 L
6107 0 V
0 4171 V
-6107 0 V
Z stroke
1.000 UP
1.000 UL
LTb
LCb setrgbcolor
LCb setrgbcolor
196 2533 M
currentpoint gsave translate -270 rotate 0 0 moveto
[ [(Helvetica) 140.0 0.0 true true 0 (Total Bandwidth \(GB/s\))]
] -46.7 MCshow
grestore
/Helvetica findfont 140 scalefont setfont
LTb
LCb setrgbcolor
LTb
LCb setrgbcolor
3823 98 M
[ [(Helvetica) 140.0 0.0 true true 0 (Working Set Size \(bytes\))]
] -46.7 MCshow
/Helvetica findfont 140 scalefont setfont
LTb
LCb setrgbcolor
3823 4829 M
[ [(Helvetica) 140.0 0.0 true true 0 (Graph 2 \(Results.daisy.v100/Run.001/FLOPS.064/GPU)]
[(Helvetica) 112.0 -42.0 true true 0 (B)]
[(Helvetica) 140.0 0.0 true true 0 (locks.0160/GPU)]
[(Helvetica) 112.0 -42.0 true true 0 (T)]
[(Helvetica) 140.0 0.0 true true 0 (hreads.1024\))]
] -32.7 MCshow
/Helvetica findfont 140 scalefont setfont
LTb
LCb setrgbcolor
LTb
LCb setrgbcolor
% Begin plot #1
0.400 UP
1.000 UL
LTb
0.58 0.00 0.83 C
770 1101 M
0 441 V
0 211 V
0 177 V
0 157 V
0 132 V
0 91 V
0 52 V
0 31 V
0 -7 V
0 10 V
0 5 V
0 2 V
0 3 V
810 1204 M
0 366 V
0 223 V
0 174 V
0 152 V
0 117 V
0 90 V
0 41 V
0 42 V
0 -7 V
0 10 V
0 5 V
0 3 V
0 1 V
852 1237 M
0 385 V
0 205 V
0 174 V
0 150 V
0 105 V
0 90 V
0 57 V
0 6 V
0 20 V
0 10 V
0 6 V
0 1 V
0 1 V
0 1 V
893 1223 M
0 393 V
0 232 V
0 178 V
0 143 V
0 120 V
0 91 V
0 56 V
0 5 V
0 18 V
0 9 V
0 8 V
0 1 V
0 -1 V
0 1 V
0 1 V
933 1275 M
0 386 V
0 218 V
0 174 V
0 147 V
0 116 V
0 90 V
0 52 V
0 9 V
0 17 V
0 9 V
0 8 V
0 1 V
0 1 V
974 1315 M
0 368 V
0 224 V
0 174 V
0 152 V
0 108 V
0 97 V
0 51 V
0 6 V
0 19 V
0 10 V
0 6 V
0 2 V
0 1 V
42 -1206 R
0 387 V
0 226 V
0 149 V
0 164 V
0 114 V
0 80 V
0 50 V
0 48 V
0 -8 V
0 18 V
0 2 V
0 1 V
0 1 V
0 1 V
0 -1 V
0 1 V
42 -1188 R
0 357 V
0 224 V
0 174 V
0 166 V
0 103 V
0 100 V
0 52 V
0 3 V
0 18 V
0 9 V
0 6 V
0 2 V
0 1 V
0 1 V
41 -1215 R
0 419 V
0 177 V
0 179 V
0 148 V
0 121 V
0 76 V
0 51 V
0 19 V
0 21 V
0 2 V
0 5 V
0 1 V
0 2 V
0 1 V
41 -1156 R
0 313 V
0 258 V
0 176 V
0 121 V
0 134 V
0 78 V
0 52 V
0 10 V
0 16 V
0 12 V
0 1 V
0 3 V
0 2 V
41 -1141 R
0 364 V
0 186 V
0 177 V
0 155 V
0 119 V
0 69 V
0 53 V
0 11 V
0 18 V
0 11 V
0 2 V
0 2 V
0 1 V
0 1 V
42 -1146 R
0 371 V
0 185 V
0 176 V
0 144 V
0 126 V
0 76 V
0 50 V
0 19 V
0 15 V
0 7 V
0 3 V
0 2 V
0 1 V
42 -1132 R
0 357 V
0 172 V
0 173 V
0 116 V
0 132 V
0 76 V
0 43 V
0 26 V
0 -2 V
0 13 V
0 2 V
0 2 V
0 2 V
0 -1 V
0 1 V
42 -1126 R
0 384 V
0 197 V
0 164 V
0 138 V
0 115 V
0 71 V
0 42 V
0 25 V
0 10 V
0 1 V
0 4 V
0 1 V
0 1 V
0 1 V
42 -1100 R
0 375 V
0 177 V
0 171 V
0 146 V
0 108 V
0 54 V
0 55 V
0 13 V
0 10 V
0 13 V
0 3 V
0 2 V
0 1 V
42 -1095 R
0 360 V
0 172 V
0 162 V
0 145 V
0 81 V
0 73 V
0 41 V
0 15 V
0 6 V
0 10 V
0 2 V
0 1 V
0 1 V
0 1 V
42 -1045 R
0 369 V
0 187 V
0 147 V
0 138 V
0 95 V
0 66 V
0 33 V
0 23 V
0 3 V
0 7 V
0 3 V
0 1 V
stroke 1433 2710 M
0 1 V
42 -1047 R
0 365 V
0 188 V
0 163 V
0 130 V
0 96 V
0 60 V
0 34 V
0 21 V
0 12 V
0 1 V
0 3 V
0 2 V
0 1 V
42 -1041 R
0 351 V
0 170 V
0 170 V
0 127 V
0 80 V
0 61 V
0 26 V
0 22 V
0 8 V
0 3 V
0 2 V
0 1 V
0 1 V
0 1 V
42 -997 R
0 360 V
0 177 V
0 160 V
0 120 V
0 89 V
0 54 V
0 32 V
0 14 V
0 9 V
0 6 V
0 2 V
0 1 V
0 1 V
0 1 V
42 -1007 R
0 363 V
0 179 V
0 136 V
0 127 V
0 79 V
0 53 V
0 23 V
0 19 V
0 7 V
0 3 V
0 2 V
0 1 V
0 1 V
0 1 V
42 -970 R
0 371 V
0 166 V
0 144 V
0 114 V
0 65 V
0 50 V
0 24 V
0 15 V
0 6 V
0 3 V
0 2 V
0 1 V
0 1 V
42 -931 R
0 349 V
0 148 V
0 166 V
0 129 V
0 62 V
0 50 V
0 27 V
0 15 V
0 5 V
0 4 V
0 2 V
0 1 V
0 1 V
42 -925 R
0 332 V
0 201 V
0 130 V
0 105 V
0 83 V
0 50 V
0 23 V
0 13 V
0 9 V
0 3 V
0 2 V
0 2 V
0 1 V
43 -948 R
0 371 V
0 175 V
0 153 V
0 103 V
0 73 V
0 45 V
0 30 V
0 13 V
0 6 V
0 4 V
0 2 V
0 1 V
42 -950 R
0 375 V
0 177 V
0 144 V
0 108 V
0 73 V
0 48 V
0 27 V
0 11 V
0 10 V
0 2 V
0 2 V
0 1 V
0 1 V
42 -944 R
0 365 V
0 187 V
0 139 V
0 109 V
0 72 V
0 48 V
0 25 V
0 14 V
0 7 V
0 2 V
0 2 V
0 2 V
0 1 V
42 -939 R
0 353 V
0 190 V
0 146 V
0 77 V
0 89 V
0 54 V
0 31 V
0 11 V
0 8 V
0 4 V
0 2 V
0 2 V
42 -942 R
0 359 V
0 188 V
0 143 V
0 112 V
0 66 V
0 51 V
0 23 V
0 15 V
0 6 V
0 4 V
0 2 V
0 1 V
0 1 V
42 -913 R
0 339 V
0 175 V
0 109 V
0 145 V
0 78 V
0 44 V
0 22 V
0 15 V
0 5 V
0 5 V
0 3 V
0 1 V
0 1 V
42 -923 R
0 339 V
0 185 V
0 158 V
0 96 V
0 69 V
0 50 V
0 27 V
0 13 V
0 8 V
0 2 V
0 2 V
0 1 V
0 1 V
42 -916 R
0 331 V
0 182 V
0 150 V
0 106 V
0 74 V
0 42 V
0 32 V
0 13 V
0 7 V
0 4 V
0 2 V
0 1 V
0 1 V
42 -927 R
0 350 V
0 169 V
0 149 V
0 117 V
0 73 V
0 44 V
0 27 V
0 13 V
0 6 V
0 4 V
0 2 V
0 1 V
0 1 V
43 -928 R
0 350 V
0 138 V
0 177 V
0 106 V
0 84 V
0 45 V
0 28 V
0 12 V
0 8 V
0 4 V
0 3 V
0 1 V
0 1 V
42 -914 R
0 333 V
0 177 V
0 151 V
0 108 V
0 75 V
0 44 V
0 27 V
0 11 V
stroke 2191 3086 M
0 9 V
0 3 V
0 2 V
0 1 V
0 1 V
42 -928 R
0 347 V
0 167 V
0 166 V
0 103 V
0 77 V
0 44 V
0 23 V
0 15 V
0 7 V
0 4 V
0 2 V
0 1 V
0 1 V
42 -926 R
0 347 V
0 91 V
0 232 V
0 111 V
0 75 V
0 42 V
0 26 V
0 17 V
0 5 V
0 4 V
0 3 V
0 1 V
0 1 V
42 -957 R
0 350 V
0 209 V
0 146 V
0 103 V
0 61 V
0 56 V
0 28 V
0 17 V
0 6 V
0 5 V
0 2 V
0 2 V
42 -937 R
0 359 V
0 193 V
0 118 V
0 122 V
0 77 V
0 44 V
0 23 V
0 15 V
0 7 V
0 4 V
0 2 V
0 1 V
0 1 V
43 -945 R
0 317 V
0 201 V
0 170 V
0 109 V
0 65 V
0 58 V
0 22 V
0 16 V
0 7 V
0 5 V
0 2 V
0 1 V
0 1 V
42 -910 R
0 333 V
0 174 V
0 144 V
0 116 V
0 74 V
0 45 V
0 23 V
0 15 V
0 5 V
0 6 V
0 1 V
0 2 V
0 1 V
42 -923 R
0 352 V
0 166 V
0 145 V
0 116 V
0 76 V
0 35 V
0 33 V
0 1 V
0 19 V
0 4 V
0 2 V
0 1 V
0 1 V
42 -924 R
0 350 V
0 191 V
0 127 V
0 109 V
0 79 V
0 44 V
0 25 V
0 13 V
0 8 V
0 3 V
0 2 V
0 1 V
0 1 V
42 -933 R
0 343 V
0 198 V
0 127 V
0 123 V
0 74 V
0 44 V
0 23 V
0 14 V
0 8 V
0 4 V
0 2 V
0 1 V
0 1 V
42 -916 R
0 342 V
0 170 V
0 144 V
0 116 V
0 77 V
0 41 V
0 26 V
0 14 V
0 5 V
0 6 V
0 1 V
0 2 V
0 1 V
43 -945 R
0 362 V
0 182 V
0 151 V
0 105 V
0 75 V
0 43 V
0 28 V
0 10 V
0 9 V
0 4 V
0 2 V
0 1 V
0 1 V
42 -959 R
0 367 V
0 165 V
0 136 V
0 109 V
0 67 V
0 41 V
0 24 V
0 13 V
0 5 V
0 3 V
0 2 V
0 1 V
42 -899 R
0 355 V
0 181 V
0 138 V
0 103 V
0 64 V
0 42 V
0 21 V
0 14 V
0 6 V
0 3 V
0 2 V
0 2 V
42 -898 R
0 359 V
0 172 V
0 140 V
0 97 V
0 67 V
0 42 V
0 23 V
0 14 V
0 6 V
0 3 V
0 3 V
0 1 V
43 -909 R
0 371 V
0 169 V
0 131 V
0 107 V
0 72 V
0 40 V
0 21 V
0 13 V
0 7 V
0 3 V
0 2 V
0 1 V
0 1 V
42 -911 R
0 365 V
0 175 V
0 138 V
0 102 V
0 71 V
0 38 V
0 23 V
0 13 V
0 8 V
0 3 V
0 2 V
0 1 V
0 1 V
42 -1433 R
0 889 V
0 173 V
0 133 V
0 100 V
0 76 V
0 40 V
0 25 V
0 11 V
0 9 V
0 2 V
0 2 V
0 1 V
0 1 V
42 -896 R
0 354 V
0 171 V
0 141 V
0 99 V
0 69 V
0 40 V
0 27 V
0 11 V
0 6 V
stroke 2950 3562 M
0 2 V
0 3 V
0 1 V
42 -908 R
0 374 V
0 154 V
0 141 V
0 91 V
0 90 V
0 39 V
0 20 V
0 14 V
0 6 V
0 4 V
0 2 V
0 2 V
43 -903 R
0 361 V
0 166 V
0 145 V
0 96 V
0 74 V
0 43 V
0 22 V
0 11 V
0 6 V
0 5 V
0 1 V
0 1 V
42 -917 R
0 369 V
0 177 V
0 138 V
0 98 V
0 77 V
0 36 V
0 26 V
0 12 V
0 6 V
0 4 V
0 2 V
0 1 V
42 -901 R
0 326 V
0 184 V
0 150 V
0 110 V
0 59 V
0 49 V
0 24 V
0 14 V
0 7 V
0 4 V
0 2 V
0 1 V
42 -901 R
0 362 V
0 162 V
0 138 V
0 106 V
0 72 V
0 40 V
0 23 V
0 12 V
0 8 V
0 3 V
0 2 V
0 1 V
43 -913 R
0 369 V
0 169 V
0 137 V
0 107 V
0 70 V
0 41 V
0 25 V
0 10 V
0 7 V
0 4 V
0 2 V
0 1 V
42 -911 R
0 366 V
0 180 V
0 125 V
0 112 V
0 65 V
0 43 V
0 23 V
0 14 V
0 6 V
0 3 V
0 2 V
42 -903 R
0 359 V
0 172 V
0 125 V
0 113 V
0 70 V
0 45 V
0 22 V
0 15 V
0 5 V
0 4 V
0 2 V
42 -911 R
0 346 V
0 193 V
0 136 V
0 98 V
0 77 V
0 44 V
0 21 V
0 11 V
0 8 V
0 3 V
0 3 V
42 -923 R
0 376 V
0 173 V
0 145 V
0 104 V
0 57 V
0 48 V
0 25 V
0 13 V
0 6 V
0 2 V
0 2 V
43 -904 R
0 358 V
0 173 V
0 140 V
0 98 V
0 75 V
0 40 V
0 25 V
0 13 V
0 6 V
0 3 V
0 2 V
42 -893 R
0 338 V
0 174 V
0 153 V
0 101 V
0 65 V
0 41 V
0 27 V
0 10 V
0 7 V
0 3 V
0 3 V
42 -902 R
0 356 V
0 173 V
0 134 V
0 103 V
0 72 V
0 45 V
0 24 V
0 12 V
0 6 V
0 4 V
0 1 V
42 -904 R
0 356 V
0 176 V
0 130 V
0 105 V
0 76 V
0 42 V
0 25 V
0 11 V
0 6 V
0 4 V
43 -911 R
0 363 V
0 170 V
0 144 V
0 97 V
0 76 V
0 42 V
0 26 V
0 11 V
0 7 V
0 4 V
42 -912 R
0 326 V
0 215 V
0 135 V
0 99 V
0 74 V
0 46 V
0 24 V
0 12 V
0 6 V
0 4 V
42 -913 R
0 339 V
0 132 V
0 115 V
0 63 V
0 46 V
0 25 V
0 14 V
0 7 V
0 4 V
0 1 V
42 -709 R
0 327 V
0 133 V
0 117 V
0 64 V
0 47 V
0 24 V
0 14 V
0 7 V
0 4 V
0 2 V
42 -709 R
0 307 V
0 156 V
0 113 V
0 65 V
0 47 V
0 22 V
0 14 V
0 8 V
0 3 V
0 2 V
43 -764 R
0 345 V
0 162 V
0 118 V
0 68 V
0 48 V
0 23 V
0 16 V
0 7 V
0 4 V
0 2 V
42 -725 R
0 340 V
0 139 V
0 111 V
0 67 V
0 47 V
0 19 V
stroke 3837 3943 M
0 18 V
0 8 V
0 3 V
0 2 V
42 -721 R
0 337 V
0 137 V
0 107 V
0 74 V
0 42 V
0 26 V
0 14 V
0 7 V
0 4 V
42 -716 R
0 326 V
0 143 V
0 111 V
0 72 V
0 41 V
0 25 V
0 16 V
0 7 V
0 4 V
43 -738 R
0 316 V
0 120 V
0 96 V
0 49 V
0 31 V
0 19 V
0 11 V
0 2 V
0 5 V
42 -612 R
0 307 V
0 117 V
0 99 V
0 51 V
0 33 V
0 17 V
0 9 V
0 6 V
0 2 V
42 -619 R
0 311 V
0 122 V
0 92 V
0 55 V
0 34 V
0 17 V
0 9 V
0 5 V
0 3 V
42 -621 R
0 312 V
0 119 V
0 92 V
0 59 V
0 28 V
0 22 V
0 11 V
0 4 V
0 2 V
42 -619 R
0 280 V
0 108 V
0 81 V
0 44 V
0 25 V
0 13 V
0 7 V
0 4 V
0 2 V
43 -537 R
0 287 V
0 101 V
0 80 V
0 44 V
0 27 V
0 14 V
0 7 V
0 3 V
42 -562 R
0 307 V
0 116 V
0 73 V
0 46 V
0 25 V
0 14 V
0 8 V
0 3 V
42 -574 R
0 289 V
0 90 V
0 71 V
0 41 V
0 27 V
0 8 V
0 8 V
0 3 V
42 -492 R
0 275 V
0 100 V
0 65 V
0 39 V
0 22 V
0 11 V
0 6 V
0 3 V
43 -481 R
0 260 V
0 101 V
0 66 V
0 42 V
0 21 V
0 11 V
0 6 V
0 3 V
42 -523 R
0 279 V
0 84 V
0 62 V
0 37 V
0 18 V
0 9 V
0 6 V
0 3 V
42 -461 R
0 253 V
0 82 V
0 53 V
0 26 V
0 16 V
0 8 V
0 4 V
0 2 V
42 -504 R
0 330 V
0 91 V
0 51 V
0 30 V
0 16 V
0 9 V
0 4 V
42 -427 R
0 235 V
0 82 V
0 49 V
0 24 V
0 16 V
0 6 V
0 3 V
43 -390 R
0 227 V
0 72 V
0 43 V
0 22 V
0 13 V
0 5 V
0 3 V
42 -361 R
0 223 V
0 75 V
0 46 V
0 24 V
0 12 V
0 7 V
0 3 V
42 -387 R
0 216 V
0 74 V
0 45 V
0 27 V
0 14 V
0 5 V
0 3 V
42 -421 R
0 233 V
0 100 V
0 29 V
0 39 V
0 12 V
0 6 V
0 3 V
43 -427 R
0 221 V
0 109 V
0 51 V
0 24 V
0 15 V
0 7 V
0 2 V
42 -415 R
0 199 V
0 115 V
0 56 V
0 29 V
0 10 V
0 7 V
42 -420 R
0 205 V
0 102 V
0 44 V
0 36 V
0 13 V
0 7 V
42 -394 R
0 188 V
0 106 V
0 44 V
0 25 V
0 8 V
0 1 V
42 -356 R
0 173 V
0 87 V
0 35 V
0 12 V
0 9 V
0 -4 V
43 -296 R
0 156 V
0 82 V
0 21 V
0 23 V
0 7 V
0 9 V
42 -294 R
0 140 V
0 73 V
0 29 V
0 29 V
0 12 V
0 1 V
42 -270 R
0 127 V
0 55 V
0 45 V
0 22 V
0 6 V
42 -246 R
0 117 V
0 24 V
0 39 V
0 21 V
0 10 V
0 7 V
43 -198 R
0 93 V
stroke 5104 3812 M
0 26 V
0 19 V
0 22 V
0 24 V
42 -176 R
0 95 V
0 13 V
0 16 V
0 3 V
0 2 V
42 -123 R
0 92 V
0 8 V
0 15 V
0 5 V
0 3 V
42 -113 R
0 85 V
0 13 V
0 7 V
0 2 V
0 4 V
42 -313 R
0 287 V
0 13 V
0 7 V
0 4 V
43 -91 R
0 68 V
0 14 V
0 4 V
0 2 V
0 2 V
42 -80 R
0 59 V
0 13 V
0 7 V
0 -1 V
0 1 V
42 -70 R
0 58 V
0 10 V
0 4 V
0 -3 V
42 -61 R
0 52 V
0 5 V
0 5 V
0 -2 V
43 -63 R
0 57 V
0 4 V
0 2 V
0 -2 V
42 -50 R
0 44 V
0 7 V
0 -1 V
42 -44 R
0 39 V
0 7 V
0 -4 V
0 -2 V
42 -37 R
0 37 V
0 6 V
0 -5 V
0 -2 V
42 -33 R
0 37 V
0 1 V
0 -4 V
0 -1 V
43 -26 R
0 27 V
0 5 V
0 -7 V
42 -22 R
0 30 V
0 -7 V
42 -20 R
0 24 V
0 1 V
0 -6 V
42 -14 R
0 23 V
0 -2 V
0 -7 V
43 -16 R
0 25 V
0 -2 V
0 -7 V
42 -11 R
0 21 V
0 -3 V
0 -9 V
42 -6 R
0 18 V
0 -3 V
0 -10 V
42 -7 R
0 20 V
0 -10 V
0 -5 V
43 4 R
0 9 V
0 -4 V
42 -7 R
0 11 V
0 -4 V
42 -3 R
0 8 V
0 -6 V
42 -1 R
0 5 V
0 -7 V
42 0 R
0 7 V
0 -9 V
43 3 R
0 7 V
0 -11 V
42 5 R
0 4 V
0 -10 V
42 7 R
0 2 V
42 -5 R
0 4 V
43 -1 R
0 -1 V
42 0 R
42 2 R
0 -3 V
42 2 R
0 -4 V
42 4 R
0 -4 V
43 3 R
42 0 R
42 -1 R
42 -2 R
43 0 R
42 -1 R
42 -1 R
770 1101 CircleF
770 1542 CircleF
770 1753 CircleF
770 1930 CircleF
770 2087 CircleF
770 2219 CircleF
770 2310 CircleF
770 2362 CircleF
770 2393 CircleF
770 2386 CircleF
770 2396 CircleF
770 2401 CircleF
770 2403 CircleF
770 2406 CircleF
770 2406 CircleF
770 2406 CircleF
770 2406 CircleF
770 2406 CircleF
770 2406 CircleF
770 2406 CircleF
770 2406 CircleF
810 1204 CircleF
810 1570 CircleF
810 1793 CircleF
810 1967 CircleF
810 2119 CircleF
810 2236 CircleF
810 2326 CircleF
810 2367 CircleF
810 2409 CircleF
810 2402 CircleF
810 2412 CircleF
810 2417 CircleF
810 2420 CircleF
810 2420 CircleF
810 2420 CircleF
810 2420 CircleF
810 2421 CircleF
810 2421 CircleF
810 2421 CircleF
810 2421 CircleF
852 1237 CircleF
852 1622 CircleF
852 1827 CircleF
852 2001 CircleF
852 2151 CircleF
852 2256 CircleF
852 2346 CircleF
852 2403 CircleF
852 2409 CircleF
852 2429 CircleF
852 2439 CircleF
852 2445 CircleF
852 2446 CircleF
852 2447 CircleF
852 2448 CircleF
852 2448 CircleF
852 2448 CircleF
852 2448 CircleF
852 2448 CircleF
852 2448 CircleF
893 1223 CircleF
893 1616 CircleF
893 1848 CircleF
893 2026 CircleF
893 2169 CircleF
893 2289 CircleF
893 2380 CircleF
893 2436 CircleF
893 2441 CircleF
893 2459 CircleF
893 2468 CircleF
893 2476 CircleF
893 2477 CircleF
893 2476 CircleF
893 2477 CircleF
893 2477 CircleF
893 2478 CircleF
893 2478 CircleF
893 2478 CircleF
893 2478 CircleF
933 1275 CircleF
933 1661 CircleF
933 1879 CircleF
933 2053 CircleF
933 2200 CircleF
933 2316 CircleF
933 2406 CircleF
933 2458 CircleF
933 2467 CircleF
933 2484 CircleF
933 2493 CircleF
933 2501 CircleF
933 2502 CircleF
933 2502 CircleF
933 2503 CircleF
933 2503 CircleF
933 2503 CircleF
933 2503 CircleF
933 2503 CircleF
933 2503 CircleF
974 1315 CircleF
974 1683 CircleF
974 1907 CircleF
974 2081 CircleF
974 2233 CircleF
974 2341 CircleF
974 2438 CircleF
974 2489 CircleF
974 2495 CircleF
974 2514 CircleF
974 2524 CircleF
974 2530 CircleF
974 2532 CircleF
974 2532 CircleF
974 2532 CircleF
974 2533 CircleF
974 2533 CircleF
974 2533 CircleF
974 2533 CircleF
974 2533 CircleF
1016 1327 CircleF
1016 1714 CircleF
1016 1940 CircleF
1016 2089 CircleF
1016 2253 CircleF
1016 2367 CircleF
1016 2447 CircleF
1016 2497 CircleF
1016 2545 CircleF
1016 2537 CircleF
1016 2555 CircleF
1016 2555 CircleF
1016 2557 CircleF
1016 2558 CircleF
1016 2559 CircleF
1016 2559 CircleF
1016 2560 CircleF
1016 2559 CircleF
1016 2560 CircleF
1016 2560 CircleF
1058 1372 CircleF
1058 1729 CircleF
1058 1953 CircleF
1058 2127 CircleF
1058 2293 CircleF
1058 2396 CircleF
1058 2496 CircleF
1058 2548 CircleF
1058 2551 CircleF
1058 2569 CircleF
1058 2578 CircleF
1058 2584 CircleF
1058 2586 CircleF
1058 2587 CircleF
1058 2587 CircleF
1058 2588 CircleF
1058 2588 CircleF
1058 2588 CircleF
1058 2588 CircleF
1058 2588 CircleF
1099 1373 CircleF
1099 1792 CircleF
1099 1969 CircleF
1099 2148 CircleF
1099 2296 CircleF
1099 2417 CircleF
1099 2493 CircleF
1099 2544 CircleF
1099 2563 CircleF
1099 2584 CircleF
1099 2586 CircleF
1099 2591 CircleF
1099 2592 CircleF
1099 2594 CircleF
1099 2595 CircleF
1099 2595 CircleF
1099 2595 CircleF
1099 2595 CircleF
1099 2595 CircleF
1140 1439 CircleF
1140 1752 CircleF
1140 2010 CircleF
1140 2186 CircleF
1140 2307 CircleF
1140 2441 CircleF
1140 2519 CircleF
1140 2571 CircleF
1140 2581 CircleF
1140 2597 CircleF
1140 2609 CircleF
1140 2610 CircleF
1140 2613 CircleF
1140 2615 CircleF
1140 2615 CircleF
1140 2615 CircleF
1140 2615 CircleF
1140 2615 CircleF
1140 2615 CircleF
1181 1474 CircleF
1181 1838 CircleF
1181 2024 CircleF
1181 2201 CircleF
1181 2356 CircleF
1181 2475 CircleF
1181 2544 CircleF
1181 2597 CircleF
1181 2608 CircleF
1181 2626 CircleF
1181 2637 CircleF
1181 2639 CircleF
1181 2641 CircleF
1181 2642 CircleF
1181 2643 CircleF
1181 2643 CircleF
1181 2643 CircleF
1181 2643 CircleF
1181 2643 CircleF
1223 1497 CircleF
1223 1868 CircleF
1223 2053 CircleF
1223 2229 CircleF
1223 2373 CircleF
1223 2499 CircleF
1223 2575 CircleF
1223 2625 CircleF
1223 2644 CircleF
1223 2659 CircleF
1223 2666 CircleF
1223 2669 CircleF
1223 2669 CircleF
1223 2671 CircleF
1223 2671 CircleF
1223 2671 CircleF
1223 2672 CircleF
1223 2672 CircleF
1223 2672 CircleF
1265 1540 CircleF
1265 1897 CircleF
1265 2069 CircleF
1265 2242 CircleF
1265 2358 CircleF
1265 2490 CircleF
1265 2566 CircleF
1265 2609 CircleF
1265 2635 CircleF
1265 2633 CircleF
1265 2646 CircleF
1265 2648 CircleF
1265 2650 CircleF
1265 2650 CircleF
1265 2652 CircleF
1265 2651 CircleF
1265 2652 CircleF
1265 2652 CircleF
1265 2652 CircleF
1307 1526 CircleF
1307 1910 CircleF
1307 2107 CircleF
1307 2271 CircleF
1307 2409 CircleF
1307 2524 CircleF
1307 2595 CircleF
1307 2637 CircleF
1307 2662 CircleF
1307 2672 CircleF
1307 2673 CircleF
1307 2677 CircleF
1307 2678 CircleF
1307 2679 CircleF
1307 2679 CircleF
1307 2679 CircleF
1307 2679 CircleF
1307 2680 CircleF
1307 2680 CircleF
1349 1580 CircleF
1349 1955 CircleF
1349 2132 CircleF
1349 2303 CircleF
1349 2449 CircleF
1349 2557 CircleF
1349 2611 CircleF
1349 2666 CircleF
1349 2679 CircleF
1349 2689 CircleF
1349 2702 CircleF
1349 2705 CircleF
1349 2707 CircleF
1349 2707 CircleF
1349 2708 CircleF
1349 2708 CircleF
1349 2708 CircleF
1349 2708 CircleF
1349 2708 CircleF
1391 1613 CircleF
1391 1973 CircleF
1391 2145 CircleF
1391 2307 CircleF
1391 2452 CircleF
1391 2533 CircleF
1391 2606 CircleF
1391 2647 CircleF
1391 2662 CircleF
1391 2668 CircleF
1391 2678 CircleF
1391 2680 CircleF
1391 2681 CircleF
1391 2681 CircleF
1391 2682 CircleF
1391 2682 CircleF
1391 2682 CircleF
1391 2683 CircleF
1433 1638 CircleF
1433 2007 CircleF
1433 2194 CircleF
1433 2341 CircleF
1433 2479 CircleF
1433 2574 CircleF
1433 2640 CircleF
1433 2673 CircleF
1433 2696 CircleF
1433 2699 CircleF
1433 2706 CircleF
1433 2709 CircleF
1433 2710 CircleF
1433 2711 CircleF
1433 2711 CircleF
1433 2711 CircleF
1433 2711 CircleF
1433 2711 CircleF
1475 1664 CircleF
1475 2029 CircleF
1475 2217 CircleF
1475 2380 CircleF
1475 2510 CircleF
1475 2606 CircleF
1475 2666 CircleF
1475 2700 CircleF
1475 2721 CircleF
1475 2733 CircleF
1475 2734 CircleF
1475 2737 CircleF
1475 2739 CircleF
1475 2739 CircleF
1475 2740 CircleF
1475 2740 CircleF
1475 2740 CircleF
1475 2740 CircleF
1517 1699 CircleF
1517 2050 CircleF
1517 2220 CircleF
1517 2390 CircleF
1517 2517 CircleF
1517 2597 CircleF
1517 2658 CircleF
1517 2684 CircleF
1517 2706 CircleF
1517 2714 CircleF
1517 2717 CircleF
1517 2719 CircleF
1517 2720 CircleF
1517 2721 CircleF
1517 2721 CircleF
1517 2722 CircleF
1517 2722 CircleF
1517 2722 CircleF
1559 1725 CircleF
1559 2085 CircleF
1559 2262 CircleF
1559 2422 CircleF
1559 2542 CircleF
1559 2631 CircleF
1559 2685 CircleF
1559 2717 CircleF
1559 2731 CircleF
1559 2740 CircleF
1559 2746 CircleF
1559 2748 CircleF
1559 2749 CircleF
1559 2750 CircleF
1559 2750 CircleF
1559 2750 CircleF
1559 2751 CircleF
1559 2751 CircleF
1601 1744 CircleF
1601 2107 CircleF
1601 2286 CircleF
1601 2422 CircleF
1601 2549 CircleF
1601 2628 CircleF
1601 2681 CircleF
1601 2704 CircleF
1601 2723 CircleF
1601 2730 CircleF
1601 2733 CircleF
1601 2735 CircleF
1601 2736 CircleF
1601 2737 CircleF
1601 2737 CircleF
1601 2738 CircleF
1601 2738 CircleF
1601 2738 CircleF
1643 1768 CircleF
1643 2139 CircleF
1643 2305 CircleF
1643 2449 CircleF
1643 2563 CircleF
1643 2628 CircleF
1643 2678 CircleF
1643 2702 CircleF
1643 2717 CircleF
1643 2723 CircleF
1643 2726 CircleF
1643 2728 CircleF
1643 2729 CircleF
1643 2729 CircleF
1643 2729 CircleF
1643 2730 CircleF
1643 2730 CircleF
1643 2730 CircleF
1685 1799 CircleF
1685 2148 CircleF
1685 2296 CircleF
1685 2462 CircleF
1685 2591 CircleF
1685 2653 CircleF
1685 2703 CircleF
1685 2730 CircleF
1685 2745 CircleF
1685 2750 CircleF
1685 2754 CircleF
1685 2756 CircleF
1685 2757 CircleF
1685 2757 CircleF
1685 2758 CircleF
1685 2758 CircleF
1685 2758 CircleF
1685 2758 CircleF
1727 1833 CircleF
1727 2165 CircleF
1727 2366 CircleF
1727 2496 CircleF
1727 2601 CircleF
1727 2684 CircleF
1727 2734 CircleF
1727 2757 CircleF
1727 2770 CircleF
1727 2779 CircleF
1727 2782 CircleF
1727 2784 CircleF
1727 2786 CircleF
1727 2786 CircleF
1727 2786 CircleF
1727 2787 CircleF
1727 2787 CircleF
1770 1839 CircleF
1770 2210 CircleF
1770 2385 CircleF
1770 2538 CircleF
1770 2641 CircleF
1770 2714 CircleF
1770 2759 CircleF
1770 2789 CircleF
1770 2802 CircleF
1770 2808 CircleF
1770 2812 CircleF
1770 2814 CircleF
1770 2815 CircleF
1770 2815 CircleF
1770 2815 CircleF
1770 2815 CircleF
1770 2815 CircleF
1812 1865 CircleF
1812 2240 CircleF
1812 2417 CircleF
1812 2561 CircleF
1812 2669 CircleF
1812 2742 CircleF
1812 2790 CircleF
1812 2817 CircleF
1812 2828 CircleF
1812 2838 CircleF
1812 2840 CircleF
1812 2842 CircleF
1812 2843 CircleF
1812 2844 CircleF
1812 2844 CircleF
1812 2844 CircleF
1812 2844 CircleF
1854 1900 CircleF
1854 2265 CircleF
1854 2452 CircleF
1854 2591 CircleF
1854 2700 CircleF
1854 2772 CircleF
1854 2820 CircleF
1854 2845 CircleF
1854 2859 CircleF
1854 2866 CircleF
1854 2868 CircleF
1854 2870 CircleF
1854 2872 CircleF
1854 2872 CircleF
1854 2873 CircleF
1854 2873 CircleF
1854 2873 CircleF
1896 1934 CircleF
1896 2287 CircleF
1896 2477 CircleF
1896 2623 CircleF
1896 2700 CircleF
1896 2789 CircleF
1896 2843 CircleF
1896 2874 CircleF
1896 2885 CircleF
1896 2893 CircleF
1896 2897 CircleF
1896 2899 CircleF
1896 2901 CircleF
1896 2901 CircleF
1896 2901 CircleF
1896 2901 CircleF
1896 2901 CircleF
1938 1959 CircleF
1938 2318 CircleF
1938 2506 CircleF
1938 2649 CircleF
1938 2761 CircleF
1938 2827 CircleF
1938 2878 CircleF
1938 2901 CircleF
1938 2916 CircleF
1938 2922 CircleF
1938 2926 CircleF
1938 2928 CircleF
1938 2929 CircleF
1938 2930 CircleF
1938 2930 CircleF
1938 2930 CircleF
1938 2930 CircleF
1980 2017 CircleF
1980 2356 CircleF
1980 2531 CircleF
1980 2640 CircleF
1980 2785 CircleF
1980 2863 CircleF
1980 2907 CircleF
1980 2929 CircleF
1980 2944 CircleF
1980 2949 CircleF
1980 2954 CircleF
1980 2957 CircleF
1980 2958 CircleF
1980 2958 CircleF
1980 2959 CircleF
1980 2959 CircleF
1980 2959 CircleF
2022 2036 CircleF
2022 2375 CircleF
2022 2560 CircleF
2022 2718 CircleF
2022 2814 CircleF
2022 2883 CircleF
2022 2933 CircleF
2022 2960 CircleF
2022 2973 CircleF
2022 2981 CircleF
2022 2983 CircleF
2022 2985 CircleF
2022 2986 CircleF
2022 2987 CircleF
2022 2987 CircleF
2022 2987 CircleF
2064 2071 CircleF
2064 2402 CircleF
2064 2584 CircleF
2064 2734 CircleF
2064 2840 CircleF
2064 2914 CircleF
2064 2956 CircleF
2064 2988 CircleF
2064 3001 CircleF
2064 3008 CircleF
2064 3012 CircleF
2064 3014 CircleF
2064 3015 CircleF
2064 3016 CircleF
2064 3016 CircleF
2064 3016 CircleF
2106 2089 CircleF
2106 2439 CircleF
2106 2608 CircleF
2106 2757 CircleF
2106 2874 CircleF
2106 2947 CircleF
2106 2991 CircleF
2106 3018 CircleF
2106 3031 CircleF
2106 3037 CircleF
2106 3041 CircleF
2106 3043 CircleF
2106 3044 CircleF
2106 3044 CircleF
2106 3045 CircleF
2106 3045 CircleF
2149 2117 CircleF
2149 2467 CircleF
2149 2605 CircleF
2149 2782 CircleF
2149 2888 CircleF
2149 2972 CircleF
2149 3017 CircleF
2149 3045 CircleF
2149 3057 CircleF
2149 3065 CircleF
2149 3069 CircleF
2149 3072 CircleF
2149 3073 CircleF
2149 3073 CircleF
2149 3073 CircleF
2149 3074 CircleF
2191 2160 CircleF
2191 2493 CircleF
2191 2670 CircleF
2191 2821 CircleF
2191 2929 CircleF
2191 3004 CircleF
2191 3048 CircleF
2191 3075 CircleF
2191 3086 CircleF
2191 3095 CircleF
2191 3098 CircleF
2191 3100 CircleF
2191 3101 CircleF
2191 3102 CircleF
2191 3102 CircleF
2191 3102 CircleF
2233 2174 CircleF
2233 2521 CircleF
2233 2688 CircleF
2233 2854 CircleF
2233 2957 CircleF
2233 3034 CircleF
2233 3078 CircleF
2233 3101 CircleF
2233 3116 CircleF
2233 3123 CircleF
2233 3127 CircleF
2233 3129 CircleF
2233 3130 CircleF
2233 3131 CircleF
2233 3131 CircleF
2233 3131 CircleF
2275 2205 CircleF
2275 2552 CircleF
2275 2643 CircleF
2275 2875 CircleF
2275 2986 CircleF
2275 3061 CircleF
2275 3103 CircleF
2275 3129 CircleF
2275 3146 CircleF
2275 3151 CircleF
2275 3155 CircleF
2275 3158 CircleF
2275 3159 CircleF
2275 3159 CircleF
2275 3160 CircleF
2275 3160 CircleF
2317 2203 CircleF
2317 2553 CircleF
2317 2762 CircleF
2317 2908 CircleF
2317 3011 CircleF
2317 3072 CircleF
2317 3128 CircleF
2317 3156 CircleF
2317 3173 CircleF
2317 3179 CircleF
2317 3184 CircleF
2317 3186 CircleF
2317 3188 CircleF
2317 3188 CircleF
2317 3188 CircleF
2359 2251 CircleF
2359 2610 CircleF
2359 2803 CircleF
2359 2921 CircleF
2359 3043 CircleF
2359 3120 CircleF
2359 3164 CircleF
2359 3187 CircleF
2359 3202 CircleF
2359 3209 CircleF
2359 3213 CircleF
2359 3215 CircleF
2359 3216 CircleF
2359 3217 CircleF
2359 3217 CircleF
2402 2272 CircleF
2402 2589 CircleF
2402 2790 CircleF
2402 2960 CircleF
2402 3069 CircleF
2402 3134 CircleF
2402 3192 CircleF
2402 3214 CircleF
2402 3230 CircleF
2402 3237 CircleF
2402 3242 CircleF
2402 3244 CircleF
2402 3245 CircleF
2402 3246 CircleF
2402 3246 CircleF
2444 2336 CircleF
2444 2669 CircleF
2444 2843 CircleF
2444 2987 CircleF
2444 3103 CircleF
2444 3177 CircleF
2444 3222 CircleF
2444 3245 CircleF
2444 3260 CircleF
2444 3265 CircleF
2444 3271 CircleF
2444 3272 CircleF
2444 3274 CircleF
2444 3274 CircleF
2444 3275 CircleF
2486 2352 CircleF
2486 2704 CircleF
2486 2870 CircleF
2486 3015 CircleF
2486 3131 CircleF
2486 3207 CircleF
2486 3242 CircleF
2486 3275 CircleF
2486 3276 CircleF
2486 3295 CircleF
2486 3299 CircleF
2486 3301 CircleF
2486 3302 CircleF
2486 3303 CircleF
2486 3303 CircleF
2528 2379 CircleF
2528 2729 CircleF
2528 2920 CircleF
2528 3047 CircleF
2528 3156 CircleF
2528 3235 CircleF
2528 3279 CircleF
2528 3304 CircleF
2528 3317 CircleF
2528 3325 CircleF
2528 3328 CircleF
2528 3330 CircleF
2528 3331 CircleF
2528 3332 CircleF
2528 3332 CircleF
2570 2399 CircleF
2570 2742 CircleF
2570 2940 CircleF
2570 3067 CircleF
2570 3190 CircleF
2570 3264 CircleF
2570 3308 CircleF
2570 3331 CircleF
2570 3345 CircleF
2570 3353 CircleF
2570 3357 CircleF
2570 3359 CircleF
2570 3360 CircleF
2570 3361 CircleF
2570 3361 CircleF
2612 2445 CircleF
2612 2787 CircleF
2612 2957 CircleF
2612 3101 CircleF
2612 3217 CircleF
2612 3294 CircleF
2612 3335 CircleF
2612 3361 CircleF
2612 3375 CircleF
2612 3380 CircleF
2612 3386 CircleF
2612 3387 CircleF
2612 3389 CircleF
2612 3389 CircleF
2612 3390 CircleF
2655 2445 CircleF
2655 2807 CircleF
2655 2989 CircleF
2655 3140 CircleF
2655 3245 CircleF
2655 3320 CircleF
2655 3363 CircleF
2655 3391 CircleF
2655 3401 CircleF
2655 3410 CircleF
2655 3414 CircleF
2655 3416 CircleF
2655 3417 CircleF
2655 3418 CircleF
2697 2459 CircleF
2697 2826 CircleF
2697 2991 CircleF
2697 3127 CircleF
2697 3236 CircleF
2697 3303 CircleF
2697 3344 CircleF
2697 3368 CircleF
2697 3381 CircleF
2697 3386 CircleF
2697 3389 CircleF
2697 3391 CircleF
2697 3392 CircleF
2697 3392 CircleF
2739 2493 CircleF
2739 2848 CircleF
2739 3029 CircleF
2739 3167 CircleF
2739 3270 CircleF
2739 3334 CircleF
2739 3376 CircleF
2739 3397 CircleF
2739 3411 CircleF
2739 3417 CircleF
2739 3420 CircleF
2739 3422 CircleF
2739 3424 CircleF
2739 3424 CircleF
2781 2526 CircleF
2781 2885 CircleF
2781 3057 CircleF
2781 3197 CircleF
2781 3294 CircleF
2781 3361 CircleF
2781 3403 CircleF
2781 3426 CircleF
2781 3440 CircleF
2781 3446 CircleF
2781 3449 CircleF
2781 3452 CircleF
2781 3453 CircleF
2781 3453 CircleF
2824 2544 CircleF
2824 2915 CircleF
2824 3084 CircleF
2824 3215 CircleF
2824 3322 CircleF
2824 3394 CircleF
2824 3434 CircleF
2824 3455 CircleF
2824 3468 CircleF
2824 3475 CircleF
2824 3478 CircleF
2824 3480 CircleF
2824 3481 CircleF
2824 3482 CircleF
2866 2571 CircleF
2866 2936 CircleF
2866 3111 CircleF
2866 3249 CircleF
2866 3351 CircleF
2866 3422 CircleF
2866 3460 CircleF
2866 3483 CircleF
2866 3496 CircleF
2866 3504 CircleF
2866 3507 CircleF
2866 3509 CircleF
2866 3510 CircleF
2866 3511 CircleF
2908 2078 CircleF
2908 2967 CircleF
2908 3140 CircleF
2908 3273 CircleF
2908 3373 CircleF
2908 3449 CircleF
2908 3489 CircleF
2908 3514 CircleF
2908 3525 CircleF
2908 3534 CircleF
2908 3536 CircleF
2908 3538 CircleF
2908 3539 CircleF
2908 3540 CircleF
2950 2644 CircleF
2950 2998 CircleF
2950 3169 CircleF
2950 3310 CircleF
2950 3409 CircleF
2950 3478 CircleF
2950 3518 CircleF
2950 3545 CircleF
2950 3556 CircleF
2950 3562 CircleF
2950 3564 CircleF
2950 3567 CircleF
2950 3568 CircleF
2992 2660 CircleF
2992 3034 CircleF
2992 3188 CircleF
2992 3329 CircleF
2992 3420 CircleF
2992 3510 CircleF
2992 3549 CircleF
2992 3569 CircleF
2992 3583 CircleF
2992 3589 CircleF
2992 3593 CircleF
2992 3595 CircleF
2992 3597 CircleF
3035 2694 CircleF
3035 3055 CircleF
3035 3221 CircleF
3035 3366 CircleF
3035 3462 CircleF
3035 3536 CircleF
3035 3579 CircleF
3035 3601 CircleF
3035 3612 CircleF
3035 3618 CircleF
3035 3623 CircleF
3035 3624 CircleF
3035 3625 CircleF
3077 2708 CircleF
3077 3077 CircleF
3077 3254 CircleF
3077 3392 CircleF
3077 3490 CircleF
3077 3567 CircleF
3077 3603 CircleF
3077 3629 CircleF
3077 3641 CircleF
3077 3647 CircleF
3077 3651 CircleF
3077 3653 CircleF
3077 3654 CircleF
3119 2753 CircleF
3119 3079 CircleF
3119 3263 CircleF
3119 3413 CircleF
3119 3523 CircleF
3119 3582 CircleF
3119 3631 CircleF
3119 3655 CircleF
3119 3669 CircleF
3119 3676 CircleF
3119 3680 CircleF
3119 3682 CircleF
3119 3683 CircleF
3161 2782 CircleF
3161 3144 CircleF
3161 3306 CircleF
3161 3444 CircleF
3161 3550 CircleF
3161 3622 CircleF
3161 3662 CircleF
3161 3685 CircleF
3161 3697 CircleF
3161 3705 CircleF
3161 3708 CircleF
3161 3710 CircleF
3161 3711 CircleF
3204 2798 CircleF
3204 3167 CircleF
3204 3336 CircleF
3204 3473 CircleF
3204 3580 CircleF
3204 3650 CircleF
3204 3691 CircleF
3204 3716 CircleF
3204 3726 CircleF
3204 3733 CircleF
3204 3737 CircleF
3204 3739 CircleF
3204 3740 CircleF
3246 2829 CircleF
3246 3195 CircleF
3246 3375 CircleF
3246 3500 CircleF
3246 3612 CircleF
3246 3677 CircleF
3246 3720 CircleF
3246 3743 CircleF
3246 3757 CircleF
3246 3763 CircleF
3246 3766 CircleF
3246 3768 CircleF
3288 2865 CircleF
3288 3224 CircleF
3288 3396 CircleF
3288 3521 CircleF
3288 3634 CircleF
3288 3704 CircleF
3288 3749 CircleF
3288 3771 CircleF
3288 3786 CircleF
3288 3791 CircleF
3288 3795 CircleF
3288 3797 CircleF
3330 2886 CircleF
3330 3232 CircleF
3330 3425 CircleF
3330 3561 CircleF
3330 3659 CircleF
3330 3736 CircleF
3330 3780 CircleF
3330 3801 CircleF
3330 3812 CircleF
3330 3820 CircleF
3330 3823 CircleF
3330 3826 CircleF
3372 2903 CircleF
3372 3279 CircleF
3372 3452 CircleF
3372 3597 CircleF
3372 3701 CircleF
3372 3758 CircleF
3372 3806 CircleF
3372 3831 CircleF
3372 3844 CircleF
3372 3850 CircleF
3372 3852 CircleF
3372 3854 CircleF
3415 2950 CircleF
3415 3308 CircleF
3415 3481 CircleF
3415 3621 CircleF
3415 3719 CircleF
3415 3794 CircleF
3415 3834 CircleF
3415 3859 CircleF
3415 3872 CircleF
3415 3878 CircleF
3415 3881 CircleF
3415 3883 CircleF
3457 2990 CircleF
3457 3328 CircleF
3457 3502 CircleF
3457 3655 CircleF
3457 3756 CircleF
3457 3821 CircleF
3457 3862 CircleF
3457 3889 CircleF
3457 3899 CircleF
3457 3906 CircleF
3457 3909 CircleF
3457 3912 CircleF
3499 3010 CircleF
3499 3366 CircleF
3499 3539 CircleF
3499 3673 CircleF
3499 3776 CircleF
3499 3848 CircleF
3499 3893 CircleF
3499 3917 CircleF
3499 3929 CircleF
3499 3935 CircleF
3499 3939 CircleF
3499 3940 CircleF
3541 3036 CircleF
3541 3392 CircleF
3541 3568 CircleF
3541 3698 CircleF
3541 3803 CircleF
3541 3879 CircleF
3541 3921 CircleF
3541 3946 CircleF
3541 3957 CircleF
3541 3963 CircleF
3541 3967 CircleF
3584 3056 CircleF
3584 3419 CircleF
3584 3589 CircleF
3584 3733 CircleF
3584 3830 CircleF
3584 3906 CircleF
3584 3948 CircleF
3584 3974 CircleF
3584 3985 CircleF
3584 3992 CircleF
3584 3996 CircleF
3626 3084 CircleF
3626 3410 CircleF
3626 3625 CircleF
3626 3760 CircleF
3626 3859 CircleF
3626 3933 CircleF
3626 3979 CircleF
3626 4003 CircleF
3626 4015 CircleF
3626 4021 CircleF
3626 4025 CircleF
3668 3112 CircleF
3668 3451 CircleF
3668 3583 CircleF
3668 3698 CircleF
3668 3761 CircleF
3668 3807 CircleF
3668 3832 CircleF
3668 3846 CircleF
3668 3853 CircleF
3668 3857 CircleF
3668 3858 CircleF
3710 3149 CircleF
3710 3476 CircleF
3710 3609 CircleF
3710 3726 CircleF
3710 3790 CircleF
3710 3837 CircleF
3710 3861 CircleF
3710 3875 CircleF
3710 3882 CircleF
3710 3886 CircleF
3710 3888 CircleF
3752 3179 CircleF
3752 3486 CircleF
3752 3642 CircleF
3752 3755 CircleF
3752 3820 CircleF
3752 3867 CircleF
3752 3889 CircleF
3752 3903 CircleF
3752 3911 CircleF
3752 3914 CircleF
3752 3916 CircleF
3795 3152 CircleF
3795 3497 CircleF
3795 3659 CircleF
3795 3777 CircleF
3795 3845 CircleF
3795 3893 CircleF
3795 3916 CircleF
3795 3932 CircleF
3795 3939 CircleF
3795 3943 CircleF
3795 3945 CircleF
3837 3220 CircleF
3837 3560 CircleF
3837 3699 CircleF
3837 3810 CircleF
3837 3877 CircleF
3837 3924 CircleF
3837 3943 CircleF
3837 3961 CircleF
3837 3969 CircleF
3837 3972 CircleF
3837 3974 CircleF
3879 3253 CircleF
3879 3590 CircleF
3879 3727 CircleF
3879 3834 CircleF
3879 3908 CircleF
3879 3950 CircleF
3879 3976 CircleF
3879 3990 CircleF
3879 3997 CircleF
3879 4001 CircleF
3921 3285 CircleF
3921 3611 CircleF
3921 3754 CircleF
3921 3865 CircleF
3921 3937 CircleF
3921 3978 CircleF
3921 4003 CircleF
3921 4019 CircleF
3921 4026 CircleF
3921 4030 CircleF
3964 3292 CircleF
3964 3608 CircleF
3964 3728 CircleF
3964 3824 CircleF
3964 3873 CircleF
3964 3904 CircleF
3964 3923 CircleF
3964 3934 CircleF
3964 3936 CircleF
3964 3941 CircleF
4006 3329 CircleF
4006 3636 CircleF
4006 3753 CircleF
4006 3852 CircleF
4006 3903 CircleF
4006 3936 CircleF
4006 3953 CircleF
4006 3962 CircleF
4006 3968 CircleF
4006 3970 CircleF
4048 3351 CircleF
4048 3662 CircleF
4048 3784 CircleF
4048 3876 CircleF
4048 3931 CircleF
4048 3965 CircleF
4048 3982 CircleF
4048 3991 CircleF
4048 3996 CircleF
4048 3999 CircleF
4090 3378 CircleF
4090 3690 CircleF
4090 3809 CircleF
4090 3901 CircleF
4090 3960 CircleF
4090 3988 CircleF
4090 4010 CircleF
4090 4021 CircleF
4090 4025 CircleF
4090 4027 CircleF
4132 3408 CircleF
4132 3688 CircleF
4132 3796 CircleF
4132 3877 CircleF
4132 3921 CircleF
4132 3946 CircleF
4132 3959 CircleF
4132 3966 CircleF
4132 3970 CircleF
4132 3972 CircleF
4175 3435 CircleF
4175 3722 CircleF
4175 3823 CircleF
4175 3903 CircleF
4175 3947 CircleF
4175 3974 CircleF
4175 3988 CircleF
4175 3995 CircleF
4175 3998 CircleF
4217 3436 CircleF
4217 3743 CircleF
4217 3859 CircleF
4217 3932 CircleF
4217 3978 CircleF
4217 4003 CircleF
4217 4017 CircleF
4217 4025 CircleF
4217 4028 CircleF
4259 3454 CircleF
4259 3743 CircleF
4259 3833 CircleF
4259 3904 CircleF
4259 3945 CircleF
4259 3972 CircleF
4259 3980 CircleF
4259 3988 CircleF
4259 3991 CircleF
4301 3499 CircleF
4301 3774 CircleF
4301 3874 CircleF
4301 3939 CircleF
4301 3978 CircleF
4301 4000 CircleF
4301 4011 CircleF
4301 4017 CircleF
4301 4020 CircleF
4344 3539 CircleF
4344 3799 CircleF
4344 3900 CircleF
4344 3966 CircleF
4344 4008 CircleF
4344 4029 CircleF
4344 4040 CircleF
4344 4046 CircleF
4344 4049 CircleF
4386 3526 CircleF
4386 3805 CircleF
4386 3889 CircleF
4386 3951 CircleF
4386 3988 CircleF
4386 4006 CircleF
4386 4015 CircleF
4386 4021 CircleF
4386 4024 CircleF
4428 3563 CircleF
4428 3816 CircleF
4428 3898 CircleF
4428 3951 CircleF
4428 3977 CircleF
4428 3993 CircleF
4428 4001 CircleF
4428 4005 CircleF
4428 4007 CircleF
4470 3503 CircleF
4470 3833 CircleF
4470 3924 CircleF
4470 3975 CircleF
4470 4005 CircleF
4470 4021 CircleF
4470 4030 CircleF
4470 4034 CircleF
4512 3607 CircleF
4512 3842 CircleF
4512 3924 CircleF
4512 3973 CircleF
4512 3997 CircleF
4512 4013 CircleF
4512 4019 CircleF
4512 4022 CircleF
4555 3632 CircleF
4555 3859 CircleF
4555 3931 CircleF
4555 3974 CircleF
4555 3996 CircleF
4555 4009 CircleF
4555 4014 CircleF
4555 4017 CircleF
4597 3656 CircleF
4597 3879 CircleF
4597 3954 CircleF
4597 4000 CircleF
4597 4024 CircleF
4597 4036 CircleF
4597 4043 CircleF
4597 4046 CircleF
4639 3659 CircleF
4639 3875 CircleF
4639 3949 CircleF
4639 3994 CircleF
4639 4021 CircleF
4639 4035 CircleF
4639 4040 CircleF
4639 4043 CircleF
4681 3622 CircleF
4681 3855 CircleF
4681 3955 CircleF
4681 3984 CircleF
4681 4023 CircleF
4681 4035 CircleF
4681 4041 CircleF
4681 4044 CircleF
4724 3617 CircleF
4724 3838 CircleF
4724 3947 CircleF
4724 3998 CircleF
4724 4022 CircleF
4724 4037 CircleF
4724 4044 CircleF
4724 4046 CircleF
4766 3631 CircleF
4766 3830 CircleF
4766 3945 CircleF
4766 4001 CircleF
4766 4030 CircleF
4766 4040 CircleF
4766 4047 CircleF
4808 3627 CircleF
4808 3832 CircleF
4808 3934 CircleF
4808 3978 CircleF
4808 4014 CircleF
4808 4027 CircleF
4808 4034 CircleF
4850 3640 CircleF
4850 3828 CircleF
4850 3934 CircleF
4850 3978 CircleF
4850 4003 CircleF
4850 4011 CircleF
4850 4012 CircleF
4892 3656 CircleF
4892 3829 CircleF
4892 3916 CircleF
4892 3951 CircleF
4892 3963 CircleF
4892 3972 CircleF
4892 3968 CircleF
4935 3672 CircleF
4935 3828 CircleF
4935 3910 CircleF
4935 3931 CircleF
4935 3954 CircleF
4935 3961 CircleF
4935 3970 CircleF
4977 3676 CircleF
4977 3816 CircleF
4977 3889 CircleF
4977 3918 CircleF
4977 3947 CircleF
4977 3959 CircleF
4977 3960 CircleF
5019 3690 CircleF
5019 3817 CircleF
5019 3872 CircleF
5019 3917 CircleF
5019 3939 CircleF
5019 3945 CircleF
5019 3945 CircleF
5061 3699 CircleF
5061 3816 CircleF
5061 3840 CircleF
5061 3879 CircleF
5061 3900 CircleF
5061 3910 CircleF
5061 3917 CircleF
5104 3719 CircleF
5104 3812 CircleF
5104 3838 CircleF
5104 3857 CircleF
5104 3879 CircleF
5104 3903 CircleF
5146 3727 CircleF
5146 3822 CircleF
5146 3835 CircleF
5146 3851 CircleF
5146 3854 CircleF
5146 3856 CircleF
5188 3733 CircleF
5188 3825 CircleF
5188 3833 CircleF
5188 3848 CircleF
5188 3853 CircleF
5188 3856 CircleF
5230 3743 CircleF
5230 3828 CircleF
5230 3841 CircleF
5230 3848 CircleF
5230 3850 CircleF
5230 3854 CircleF
5272 3541 CircleF
5272 3828 CircleF
5272 3841 CircleF
5272 3848 CircleF
5272 3848 CircleF
5272 3852 CircleF
5315 3761 CircleF
5315 3829 CircleF
5315 3843 CircleF
5315 3847 CircleF
5315 3849 CircleF
5315 3851 CircleF
5357 3771 CircleF
5357 3830 CircleF
5357 3843 CircleF
5357 3850 CircleF
5357 3849 CircleF
5357 3850 CircleF
5399 3780 CircleF
5399 3838 CircleF
5399 3848 CircleF
5399 3852 CircleF
5399 3849 CircleF
5441 3788 CircleF
5441 3840 CircleF
5441 3845 CircleF
5441 3850 CircleF
5441 3848 CircleF
5484 3785 CircleF
5484 3842 CircleF
5484 3846 CircleF
5484 3848 CircleF
5484 3846 CircleF
5526 3796 CircleF
5526 3840 CircleF
5526 3847 CircleF
5526 3847 CircleF
5526 3846 CircleF
5568 3802 CircleF
5568 3841 CircleF
5568 3848 CircleF
5568 3844 CircleF
5568 3842 CircleF
5610 3805 CircleF
5610 3842 CircleF
5610 3848 CircleF
5610 3843 CircleF
5610 3841 CircleF
5652 3808 CircleF
5652 3845 CircleF
5652 3846 CircleF
5652 3842 CircleF
5652 3841 CircleF
5695 3815 CircleF
5695 3842 CircleF
5695 3847 CircleF
5695 3840 CircleF
5737 3818 CircleF
5737 3848 CircleF
5737 3848 CircleF
5737 3841 CircleF
5779 3821 CircleF
5779 3845 CircleF
5779 3846 CircleF
5779 3840 CircleF
5821 3826 CircleF
5821 3849 CircleF
5821 3847 CircleF
5821 3840 CircleF
5864 3824 CircleF
5864 3849 CircleF
5864 3847 CircleF
5864 3840 CircleF
5906 3829 CircleF
5906 3850 CircleF
5906 3847 CircleF
5906 3838 CircleF
5948 3832 CircleF
5948 3850 CircleF
5948 3847 CircleF
5948 3837 CircleF
5990 3830 CircleF
5990 3850 CircleF
5990 3840 CircleF
5990 3835 CircleF
6033 3839 CircleF
6033 3848 CircleF
6033 3844 CircleF
6075 3837 CircleF
6075 3848 CircleF
6075 3844 CircleF
6117 3841 CircleF
6117 3849 CircleF
6117 3843 CircleF
6159 3842 CircleF
6159 3847 CircleF
6159 3840 CircleF
6201 3840 CircleF
6201 3847 CircleF
6201 3838 CircleF
6244 3841 CircleF
6244 3848 CircleF
6244 3837 CircleF
6286 3842 CircleF
6286 3846 CircleF
6286 3836 CircleF
6328 3843 CircleF
6328 3845 CircleF
6370 3840 CircleF
6370 3844 CircleF
6413 3843 CircleF
6413 3842 CircleF
6455 3842 CircleF
6455 3842 CircleF
6497 3844 CircleF
6497 3841 CircleF
6539 3843 CircleF
6539 3839 CircleF
6581 3843 CircleF
6581 3839 CircleF
6624 3842 CircleF
6666 3842 CircleF
6708 3841 CircleF
6750 3839 CircleF
6793 3839 CircleF
6835 3838 CircleF
6877 3837 CircleF
% End plot #1
2.000 UL
LTb
LCb setrgbcolor
1.000 UL
LTB
LCb setrgbcolor
770 4619 N
770 448 L
6107 0 V
0 4171 V
-6107 0 V
Z stroke
1.000 UP
1.000 UL
LTb
LCb setrgbcolor
stroke
grestore
end
showpage
%%Trailer
%%DocumentFonts: Helvetica
%%Pages: 1
