%!PS-Adobe-2.0
%%Title: Results.daisy.v100/Run.001/FLOPS.256/GPU_Blocks.0320/GPU_Threads.0512/graph2.ps
%%Creator: gnuplot 5.2 patchlevel 7
%%CreationDate: Sun Jan 19 15:24:43 2020
%%DocumentFonts: (atend)
%%BoundingBox: 50 50 554 770
%%Orientation: Landscape
%%Pages: (atend)
%%EndComments
%%BeginProlog
/gnudict 256 dict def
gnudict begin
%
% The following true/false flags may be edited by hand if desired.
% The unit line width and grayscale image gamma correction may also be changed.
%
/Color true def
/Blacktext false def
/Solid false def
/Dashlength 1 def
/Landscape true def
/Level1 false def
/Level3 false def
/Rounded false def
/ClipToBoundingBox false def
/SuppressPDFMark false def
/TransparentPatterns false def
/gnulinewidth 5.000 def
/userlinewidth gnulinewidth def
/Gamma 1.0 def
/BackgroundColor {-1.000 -1.000 -1.000} def
%
/vshift -46 def
/dl1 {
  10.0 Dashlength userlinewidth gnulinewidth div mul mul mul
  Rounded { currentlinewidth 0.75 mul sub dup 0 le { pop 0.01 } if } if
} def
/dl2 {
  10.0 Dashlength userlinewidth gnulinewidth div mul mul mul
  Rounded { currentlinewidth 0.75 mul add } if
} def
/hpt_ 31.5 def
/vpt_ 31.5 def
/hpt hpt_ def
/vpt vpt_ def
/doclip {
  ClipToBoundingBox {
    newpath 50 50 moveto 554 50 lineto 554 770 lineto 50 770 lineto closepath
    clip
  } if
} def
%
% Gnuplot Prolog Version 5.2 (Dec 2017)
%
%/SuppressPDFMark true def
%
/M {moveto} bind def
/L {lineto} bind def
/R {rmoveto} bind def
/V {rlineto} bind def
/N {newpath moveto} bind def
/Z {closepath} bind def
/C {setrgbcolor} bind def
/f {rlineto fill} bind def
/g {setgray} bind def
/Gshow {show} def   % May be redefined later in the file to support UTF-8
/vpt2 vpt 2 mul def
/hpt2 hpt 2 mul def
/Lshow {currentpoint stroke M 0 vshift R 
	Blacktext {gsave 0 setgray textshow grestore} {textshow} ifelse} def
/Rshow {currentpoint stroke M dup stringwidth pop neg vshift R
	Blacktext {gsave 0 setgray textshow grestore} {textshow} ifelse} def
/Cshow {currentpoint stroke M dup stringwidth pop -2 div vshift R 
	Blacktext {gsave 0 setgray textshow grestore} {textshow} ifelse} def
/UP {dup vpt_ mul /vpt exch def hpt_ mul /hpt exch def
  /hpt2 hpt 2 mul def /vpt2 vpt 2 mul def} def
/DL {Color {setrgbcolor Solid {pop []} if 0 setdash}
 {pop pop pop 0 setgray Solid {pop []} if 0 setdash} ifelse} def
/BL {stroke userlinewidth 2 mul setlinewidth
	Rounded {1 setlinejoin 1 setlinecap} if} def
/AL {stroke userlinewidth 2 div setlinewidth
	Rounded {1 setlinejoin 1 setlinecap} if} def
/UL {dup gnulinewidth mul /userlinewidth exch def
	dup 1 lt {pop 1} if 10 mul /udl exch def} def
/PL {stroke userlinewidth setlinewidth
	Rounded {1 setlinejoin 1 setlinecap} if} def
3.8 setmiterlimit
% Classic Line colors (version 5.0)
/LCw {1 1 1} def
/LCb {0 0 0} def
/LCa {0 0 0} def
/LC0 {1 0 0} def
/LC1 {0 1 0} def
/LC2 {0 0 1} def
/LC3 {1 0 1} def
/LC4 {0 1 1} def
/LC5 {1 1 0} def
/LC6 {0 0 0} def
/LC7 {1 0.3 0} def
/LC8 {0.5 0.5 0.5} def
% Default dash patterns (version 5.0)
/LTB {BL [] LCb DL} def
/LTw {PL [] 1 setgray} def
/LTb {PL [] LCb DL} def
/LTa {AL [1 udl mul 2 udl mul] 0 setdash LCa setrgbcolor} def
/LT0 {PL [] LC0 DL} def
/LT1 {PL [2 dl1 3 dl2] LC1 DL} def
/LT2 {PL [1 dl1 1.5 dl2] LC2 DL} def
/LT3 {PL [6 dl1 2 dl2 1 dl1 2 dl2] LC3 DL} def
/LT4 {PL [1 dl1 2 dl2 6 dl1 2 dl2 1 dl1 2 dl2] LC4 DL} def
/LT5 {PL [4 dl1 2 dl2] LC5 DL} def
/LT6 {PL [1.5 dl1 1.5 dl2 1.5 dl1 1.5 dl2 1.5 dl1 6 dl2] LC6 DL} def
/LT7 {PL [3 dl1 3 dl2 1 dl1 3 dl2] LC7 DL} def
/LT8 {PL [2 dl1 2 dl2 2 dl1 6 dl2] LC8 DL} def
/SL {[] 0 setdash} def
/Pnt {stroke [] 0 setdash gsave 1 setlinecap M 0 0 V stroke grestore} def
/Dia {stroke [] 0 setdash 2 copy vpt add M
  hpt neg vpt neg V hpt vpt neg V
  hpt vpt V hpt neg vpt V closepath stroke
  Pnt} def
/Pls {stroke [] 0 setdash vpt sub M 0 vpt2 V
  currentpoint stroke M
  hpt neg vpt neg R hpt2 0 V stroke
 } def
/Box {stroke [] 0 setdash 2 copy exch hpt sub exch vpt add M
  0 vpt2 neg V hpt2 0 V 0 vpt2 V
  hpt2 neg 0 V closepath stroke
  Pnt} def
/Crs {stroke [] 0 setdash exch hpt sub exch vpt add M
  hpt2 vpt2 neg V currentpoint stroke M
  hpt2 neg 0 R hpt2 vpt2 V stroke} def
/TriU {stroke [] 0 setdash 2 copy vpt 1.12 mul add M
  hpt neg vpt -1.62 mul V
  hpt 2 mul 0 V
  hpt neg vpt 1.62 mul V closepath stroke
  Pnt} def
/Star {2 copy Pls Crs} def
/BoxF {stroke [] 0 setdash exch hpt sub exch vpt add M
  0 vpt2 neg V hpt2 0 V 0 vpt2 V
  hpt2 neg 0 V closepath fill} def
/TriUF {stroke [] 0 setdash vpt 1.12 mul add M
  hpt neg vpt -1.62 mul V
  hpt 2 mul 0 V
  hpt neg vpt 1.62 mul V closepath fill} def
/TriD {stroke [] 0 setdash 2 copy vpt 1.12 mul sub M
  hpt neg vpt 1.62 mul V
  hpt 2 mul 0 V
  hpt neg vpt -1.62 mul V closepath stroke
  Pnt} def
/TriDF {stroke [] 0 setdash vpt 1.12 mul sub M
  hpt neg vpt 1.62 mul V
  hpt 2 mul 0 V
  hpt neg vpt -1.62 mul V closepath fill} def
/DiaF {stroke [] 0 setdash vpt add M
  hpt neg vpt neg V hpt vpt neg V
  hpt vpt V hpt neg vpt V closepath fill} def
/Pent {stroke [] 0 setdash 2 copy gsave
  translate 0 hpt M 4 {72 rotate 0 hpt L} repeat
  closepath stroke grestore Pnt} def
/PentF {stroke [] 0 setdash gsave
  translate 0 hpt M 4 {72 rotate 0 hpt L} repeat
  closepath fill grestore} def
/Circle {stroke [] 0 setdash 2 copy
  hpt 0 360 arc stroke Pnt} def
/CircleF {stroke [] 0 setdash hpt 0 360 arc fill} def
/C0 {BL [] 0 setdash 2 copy moveto vpt 90 450 arc} bind def
/C1 {BL [] 0 setdash 2 copy moveto
	2 copy vpt 0 90 arc closepath fill
	vpt 0 360 arc closepath} bind def
/C2 {BL [] 0 setdash 2 copy moveto
	2 copy vpt 90 180 arc closepath fill
	vpt 0 360 arc closepath} bind def
/C3 {BL [] 0 setdash 2 copy moveto
	2 copy vpt 0 180 arc closepath fill
	vpt 0 360 arc closepath} bind def
/C4 {BL [] 0 setdash 2 copy moveto
	2 copy vpt 180 270 arc closepath fill
	vpt 0 360 arc closepath} bind def
/C5 {BL [] 0 setdash 2 copy moveto
	2 copy vpt 0 90 arc
	2 copy moveto
	2 copy vpt 180 270 arc closepath fill
	vpt 0 360 arc} bind def
/C6 {BL [] 0 setdash 2 copy moveto
	2 copy vpt 90 270 arc closepath fill
	vpt 0 360 arc closepath} bind def
/C7 {BL [] 0 setdash 2 copy moveto
	2 copy vpt 0 270 arc closepath fill
	vpt 0 360 arc closepath} bind def
/C8 {BL [] 0 setdash 2 copy moveto
	2 copy vpt 270 360 arc closepath fill
	vpt 0 360 arc closepath} bind def
/C9 {BL [] 0 setdash 2 copy moveto
	2 copy vpt 270 450 arc closepath fill
	vpt 0 360 arc closepath} bind def
/C10 {BL [] 0 setdash 2 copy 2 copy moveto vpt 270 360 arc closepath fill
	2 copy moveto
	2 copy vpt 90 180 arc closepath fill
	vpt 0 360 arc closepath} bind def
/C11 {BL [] 0 setdash 2 copy moveto
	2 copy vpt 0 180 arc closepath fill
	2 copy moveto
	2 copy vpt 270 360 arc closepath fill
	vpt 0 360 arc closepath} bind def
/C12 {BL [] 0 setdash 2 copy moveto
	2 copy vpt 180 360 arc closepath fill
	vpt 0 360 arc closepath} bind def
/C13 {BL [] 0 setdash 2 copy moveto
	2 copy vpt 0 90 arc closepath fill
	2 copy moveto
	2 copy vpt 180 360 arc closepath fill
	vpt 0 360 arc closepath} bind def
/C14 {BL [] 0 setdash 2 copy moveto
	2 copy vpt 90 360 arc closepath fill
	vpt 0 360 arc} bind def
/C15 {BL [] 0 setdash 2 copy vpt 0 360 arc closepath fill
	vpt 0 360 arc closepath} bind def
/Rec {newpath 4 2 roll moveto 1 index 0 rlineto 0 exch rlineto
	neg 0 rlineto closepath} bind def
/Square {dup Rec} bind def
/Bsquare {vpt sub exch vpt sub exch vpt2 Square} bind def
/S0 {BL [] 0 setdash 2 copy moveto 0 vpt rlineto BL Bsquare} bind def
/S1 {BL [] 0 setdash 2 copy vpt Square fill Bsquare} bind def
/S2 {BL [] 0 setdash 2 copy exch vpt sub exch vpt Square fill Bsquare} bind def
/S3 {BL [] 0 setdash 2 copy exch vpt sub exch vpt2 vpt Rec fill Bsquare} bind def
/S4 {BL [] 0 setdash 2 copy exch vpt sub exch vpt sub vpt Square fill Bsquare} bind def
/S5 {BL [] 0 setdash 2 copy 2 copy vpt Square fill
	exch vpt sub exch vpt sub vpt Square fill Bsquare} bind def
/S6 {BL [] 0 setdash 2 copy exch vpt sub exch vpt sub vpt vpt2 Rec fill Bsquare} bind def
/S7 {BL [] 0 setdash 2 copy exch vpt sub exch vpt sub vpt vpt2 Rec fill
	2 copy vpt Square fill Bsquare} bind def
/S8 {BL [] 0 setdash 2 copy vpt sub vpt Square fill Bsquare} bind def
/S9 {BL [] 0 setdash 2 copy vpt sub vpt vpt2 Rec fill Bsquare} bind def
/S10 {BL [] 0 setdash 2 copy vpt sub vpt Square fill 2 copy exch vpt sub exch vpt Square fill
	Bsquare} bind def
/S11 {BL [] 0 setdash 2 copy vpt sub vpt Square fill 2 copy exch vpt sub exch vpt2 vpt Rec fill
	Bsquare} bind def
/S12 {BL [] 0 setdash 2 copy exch vpt sub exch vpt sub vpt2 vpt Rec fill Bsquare} bind def
/S13 {BL [] 0 setdash 2 copy exch vpt sub exch vpt sub vpt2 vpt Rec fill
	2 copy vpt Square fill Bsquare} bind def
/S14 {BL [] 0 setdash 2 copy exch vpt sub exch vpt sub vpt2 vpt Rec fill
	2 copy exch vpt sub exch vpt Square fill Bsquare} bind def
/S15 {BL [] 0 setdash 2 copy Bsquare fill Bsquare} bind def
/D0 {gsave translate 45 rotate 0 0 S0 stroke grestore} bind def
/D1 {gsave translate 45 rotate 0 0 S1 stroke grestore} bind def
/D2 {gsave translate 45 rotate 0 0 S2 stroke grestore} bind def
/D3 {gsave translate 45 rotate 0 0 S3 stroke grestore} bind def
/D4 {gsave translate 45 rotate 0 0 S4 stroke grestore} bind def
/D5 {gsave translate 45 rotate 0 0 S5 stroke grestore} bind def
/D6 {gsave translate 45 rotate 0 0 S6 stroke grestore} bind def
/D7 {gsave translate 45 rotate 0 0 S7 stroke grestore} bind def
/D8 {gsave translate 45 rotate 0 0 S8 stroke grestore} bind def
/D9 {gsave translate 45 rotate 0 0 S9 stroke grestore} bind def
/D10 {gsave translate 45 rotate 0 0 S10 stroke grestore} bind def
/D11 {gsave translate 45 rotate 0 0 S11 stroke grestore} bind def
/D12 {gsave translate 45 rotate 0 0 S12 stroke grestore} bind def
/D13 {gsave translate 45 rotate 0 0 S13 stroke grestore} bind def
/D14 {gsave translate 45 rotate 0 0 S14 stroke grestore} bind def
/D15 {gsave translate 45 rotate 0 0 S15 stroke grestore} bind def
/DiaE {stroke [] 0 setdash vpt add M
  hpt neg vpt neg V hpt vpt neg V
  hpt vpt V hpt neg vpt V closepath stroke} def
/BoxE {stroke [] 0 setdash exch hpt sub exch vpt add M
  0 vpt2 neg V hpt2 0 V 0 vpt2 V
  hpt2 neg 0 V closepath stroke} def
/TriUE {stroke [] 0 setdash vpt 1.12 mul add M
  hpt neg vpt -1.62 mul V
  hpt 2 mul 0 V
  hpt neg vpt 1.62 mul V closepath stroke} def
/TriDE {stroke [] 0 setdash vpt 1.12 mul sub M
  hpt neg vpt 1.62 mul V
  hpt 2 mul 0 V
  hpt neg vpt -1.62 mul V closepath stroke} def
/PentE {stroke [] 0 setdash gsave
  translate 0 hpt M 4 {72 rotate 0 hpt L} repeat
  closepath stroke grestore} def
/CircE {stroke [] 0 setdash 
  hpt 0 360 arc stroke} def
/Opaque {gsave closepath 1 setgray fill grestore 0 setgray closepath} def
/DiaW {stroke [] 0 setdash vpt add M
  hpt neg vpt neg V hpt vpt neg V
  hpt vpt V hpt neg vpt V Opaque stroke} def
/BoxW {stroke [] 0 setdash exch hpt sub exch vpt add M
  0 vpt2 neg V hpt2 0 V 0 vpt2 V
  hpt2 neg 0 V Opaque stroke} def
/TriUW {stroke [] 0 setdash vpt 1.12 mul add M
  hpt neg vpt -1.62 mul V
  hpt 2 mul 0 V
  hpt neg vpt 1.62 mul V Opaque stroke} def
/TriDW {stroke [] 0 setdash vpt 1.12 mul sub M
  hpt neg vpt 1.62 mul V
  hpt 2 mul 0 V
  hpt neg vpt -1.62 mul V Opaque stroke} def
/PentW {stroke [] 0 setdash gsave
  translate 0 hpt M 4 {72 rotate 0 hpt L} repeat
  Opaque stroke grestore} def
/CircW {stroke [] 0 setdash 
  hpt 0 360 arc Opaque stroke} def
/BoxFill {gsave Rec 1 setgray fill grestore} def
/Density {
  /Fillden exch def
  currentrgbcolor
  /ColB exch def /ColG exch def /ColR exch def
  /ColR ColR Fillden mul Fillden sub 1 add def
  /ColG ColG Fillden mul Fillden sub 1 add def
  /ColB ColB Fillden mul Fillden sub 1 add def
  ColR ColG ColB setrgbcolor} def
/BoxColFill {gsave Rec PolyFill} def
/PolyFill {gsave Density fill grestore grestore} def
/h {rlineto rlineto rlineto closepath gsave fill grestore stroke} bind def
%
% PostScript Level 1 Pattern Fill routine for rectangles
% Usage: x y w h s a XX PatternFill
%	x,y = lower left corner of box to be filled
%	w,h = width and height of box
%	  a = angle in degrees between lines and x-axis
%	 XX = 0/1 for no/yes cross-hatch
%
/PatternFill {gsave /PFa [ 9 2 roll ] def
  PFa 0 get PFa 2 get 2 div add PFa 1 get PFa 3 get 2 div add translate
  PFa 2 get -2 div PFa 3 get -2 div PFa 2 get PFa 3 get Rec
  TransparentPatterns {} {gsave 1 setgray fill grestore} ifelse
  clip
  currentlinewidth 0.5 mul setlinewidth
  /PFs PFa 2 get dup mul PFa 3 get dup mul add sqrt def
  0 0 M PFa 5 get rotate PFs -2 div dup translate
  0 1 PFs PFa 4 get div 1 add floor cvi
	{PFa 4 get mul 0 M 0 PFs V} for
  0 PFa 6 get ne {
	0 1 PFs PFa 4 get div 1 add floor cvi
	{PFa 4 get mul 0 2 1 roll M PFs 0 V} for
 } if
  stroke grestore} def
%
/languagelevel where
 {pop languagelevel} {1} ifelse
dup 2 lt
	{/InterpretLevel1 true def
	 /InterpretLevel3 false def}
	{/InterpretLevel1 Level1 def
	 2 gt
	    {/InterpretLevel3 Level3 def}
	    {/InterpretLevel3 false def}
	 ifelse }
 ifelse
%
% PostScript level 2 pattern fill definitions
%
/Level2PatternFill {
/Tile8x8 {/PaintType 2 /PatternType 1 /TilingType 1 /BBox [0 0 8 8] /XStep 8 /YStep 8}
	bind def
/KeepColor {currentrgbcolor [/Pattern /DeviceRGB] setcolorspace} bind def
<< Tile8x8
 /PaintProc {0.5 setlinewidth pop 0 0 M 8 8 L 0 8 M 8 0 L stroke} 
>> matrix makepattern
/Pat1 exch def
<< Tile8x8
 /PaintProc {0.5 setlinewidth pop 0 0 M 8 8 L 0 8 M 8 0 L stroke
	0 4 M 4 8 L 8 4 L 4 0 L 0 4 L stroke}
>> matrix makepattern
/Pat2 exch def
<< Tile8x8
 /PaintProc {0.5 setlinewidth pop 0 0 M 0 8 L
	8 8 L 8 0 L 0 0 L fill}
>> matrix makepattern
/Pat3 exch def
<< Tile8x8
 /PaintProc {0.5 setlinewidth pop -4 8 M 8 -4 L
	0 12 M 12 0 L stroke}
>> matrix makepattern
/Pat4 exch def
<< Tile8x8
 /PaintProc {0.5 setlinewidth pop -4 0 M 8 12 L
	0 -4 M 12 8 L stroke}
>> matrix makepattern
/Pat5 exch def
<< Tile8x8
 /PaintProc {0.5 setlinewidth pop -2 8 M 4 -4 L
	0 12 M 8 -4 L 4 12 M 10 0 L stroke}
>> matrix makepattern
/Pat6 exch def
<< Tile8x8
 /PaintProc {0.5 setlinewidth pop -2 0 M 4 12 L
	0 -4 M 8 12 L 4 -4 M 10 8 L stroke}
>> matrix makepattern
/Pat7 exch def
<< Tile8x8
 /PaintProc {0.5 setlinewidth pop 8 -2 M -4 4 L
	12 0 M -4 8 L 12 4 M 0 10 L stroke}
>> matrix makepattern
/Pat8 exch def
<< Tile8x8
 /PaintProc {0.5 setlinewidth pop 0 -2 M 12 4 L
	-4 0 M 12 8 L -4 4 M 8 10 L stroke}
>> matrix makepattern
/Pat9 exch def
/Pattern1 {PatternBgnd KeepColor Pat1 setpattern} bind def
/Pattern2 {PatternBgnd KeepColor Pat2 setpattern} bind def
/Pattern3 {PatternBgnd KeepColor Pat3 setpattern} bind def
/Pattern4 {PatternBgnd KeepColor Landscape {Pat5} {Pat4} ifelse setpattern} bind def
/Pattern5 {PatternBgnd KeepColor Landscape {Pat4} {Pat5} ifelse setpattern} bind def
/Pattern6 {PatternBgnd KeepColor Landscape {Pat9} {Pat6} ifelse setpattern} bind def
/Pattern7 {PatternBgnd KeepColor Landscape {Pat8} {Pat7} ifelse setpattern} bind def
} def
%
%
%End of PostScript Level 2 code
%
/PatternBgnd {
  TransparentPatterns {} {gsave 1 setgray fill grestore} ifelse
} def
%
% Substitute for Level 2 pattern fill codes with
% grayscale if Level 2 support is not selected.
%
/Level1PatternFill {
/Pattern1 {0.250 Density} bind def
/Pattern2 {0.500 Density} bind def
/Pattern3 {0.750 Density} bind def
/Pattern4 {0.125 Density} bind def
/Pattern5 {0.375 Density} bind def
/Pattern6 {0.625 Density} bind def
/Pattern7 {0.875 Density} bind def
} def
%
% Now test for support of Level 2 code
%
Level1 {Level1PatternFill} {Level2PatternFill} ifelse
%
/Symbol-Oblique /Symbol findfont [1 0 .167 1 0 0] makefont
dup length dict begin {1 index /FID eq {pop pop} {def} ifelse} forall
currentdict end definefont pop
%
/Metrics {ExtendTextBox Gswidth} def
/Lwidth {currentpoint stroke M 0 vshift R Metrics} def
/Rwidth {currentpoint stroke M dup stringwidth pop neg vshift R Metrics} def
/Cwidth {currentpoint stroke M dup stringwidth pop -2 div vshift R Metrics} def
/GLwidth {currentpoint stroke M 0 vshift R {ExtendTextBox} forall} def
/GRwidth {currentpoint stroke M dup Gwidth vshift R {ExtendTextBox} forall} def
/GCwidth {currentpoint stroke M dup Gwidth 2 div vshift R {ExtendTextBox} forall} def
/GLwidth2 {0 Gwidth AddGlyphWidth} def
/GRwidth2 {Gwidth -1 mul 0 AddGlyphWidth} def
/GCwidth2 {Gwidth 2 div dup -1 mul AddGlyphWidth} def
/AddGlyphWidth { dup TBx2 gt {userdict /TBx2 3 -1 roll put} {pop} ifelse
                 dup TBx1 lt {userdict /TBx1 3 -1 roll put} {pop} ifelse } def
/MFshow {
   { dup 5 get 3 ge
     { 5 get 3 eq {gsave} {grestore} ifelse }
     {dup dup 0 get findfont exch 1 get scalefont setfont
     [ currentpoint ] exch dup 2 get 0 exch R dup 5 get 2 ne {dup dup 6
     get exch 4 get {textshow} {Metrics pop 0 R} ifelse }if dup 5 get 0 eq
     {dup 3 get {2 get neg 0 exch R pop} {pop aload pop M} ifelse} {dup 5
     get 1 eq {dup 2 get exch dup 3 get exch 6 get Gswidth pop -2 div
     dup 0 R} {dup 6 get Gswidth pop -2 div 0 R 6 get
     textshow 2 index {aload pop M neg 3 -1 roll neg R pop pop} {pop pop pop
     pop aload pop M} ifelse }ifelse }ifelse }
     ifelse }
   forall} def
/Gswidth {dup type /stringtype eq {stringwidth} {pop (n) stringwidth} ifelse} def
/MFwidth {0 exch { dup 5 get 3 ge { 5 get 3 eq { 0 } { pop } ifelse }
 {dup 3 get{dup dup 0 get findfont exch 1 get scalefont setfont
     6 get Gswidth pop add} {pop} ifelse} ifelse} forall} def
/MLshow { currentpoint stroke M
  0 exch R
  Blacktext {gsave 0 setgray MFshow grestore} {MFshow} ifelse } bind def
/MRshow { currentpoint stroke M
  exch dup MFwidth neg 3 -1 roll R
  Blacktext {gsave 0 setgray MFshow grestore} {MFshow} ifelse } bind def
/MCshow { currentpoint stroke M
  exch dup MFwidth -2 div 3 -1 roll R
  Blacktext {gsave 0 setgray MFshow grestore} {MFshow} ifelse } bind def
/XYsave    { [( ) 1 2 true false 3 ()] } bind def
/XYrestore { [( ) 1 2 true false 4 ()] } bind def
Level1 SuppressPDFMark or 
{} {
/SDict 10 dict def
systemdict /pdfmark known not {
  userdict /pdfmark systemdict /cleartomark get put
} if
SDict begin [
  /Title (Results.daisy.v100/Run.001/FLOPS.256/GPU_Blocks.0320/GPU_Threads.0512/graph2.ps)
  /Subject (gnuplot plot)
  /Creator (gnuplot 5.2 patchlevel 7)
%  /Producer (gnuplot)
%  /Keywords ()
  /CreationDate (Sun Jan 19 15:24:43 2020)
  /DOCINFO pdfmark
end
} ifelse
%
% Support for boxed text - Ethan A Merritt Sep 2016
%
/InitTextBox { userdict /TBy2 3 -1 roll put userdict /TBx2 3 -1 roll put
           userdict /TBy1 3 -1 roll put userdict /TBx1 3 -1 roll put
	   /Boxing true def } def
/ExtendTextBox { dup type /stringtype eq
    { Boxing { gsave dup false charpath pathbbox
      dup TBy2 gt {userdict /TBy2 3 -1 roll put} {pop} ifelse
      dup TBx2 gt {userdict /TBx2 3 -1 roll put} {pop} ifelse
      dup TBy1 lt {userdict /TBy1 3 -1 roll put} {pop} ifelse
      dup TBx1 lt {userdict /TBx1 3 -1 roll put} {pop} ifelse
      grestore } if }
    {} ifelse} def
/PopTextBox { newpath TBx1 TBxmargin sub TBy1 TBymargin sub M
               TBx1 TBxmargin sub TBy2 TBymargin add L
	       TBx2 TBxmargin add TBy2 TBymargin add L
	       TBx2 TBxmargin add TBy1 TBymargin sub L closepath } def
/DrawTextBox { PopTextBox stroke /Boxing false def} def
/FillTextBox { gsave PopTextBox fill grestore /Boxing false def} def
0 0 0 0 InitTextBox
/TBxmargin 20 def
/TBymargin 20 def
/Boxing false def
/textshow { ExtendTextBox Gshow } def
%
end
%%EndProlog
%%Page: 1 1
gnudict begin
gsave
doclip
50 50 translate
0.100 0.100 scale
90 rotate
0 -5040 translate
0 setgray
newpath
(Helvetica) findfont 140 scalefont setfont
BackgroundColor 0 lt 3 1 roll 0 lt exch 0 lt or or not {gsave BackgroundColor C clippath fill grestore} if
1.000 UL
LTb
LCb setrgbcolor
1.000 UL
LTa
LCa setrgbcolor
770 448 M
6107 0 V
stroke
LTb
LCb setrgbcolor
770 448 M
63 0 V
6044 0 R
-63 0 V
stroke
686 448 M
[ [(Helvetica) 140.0 0.0 true true 0 (1e-02)]
] -46.7 MRshow
/Helvetica findfont 140 scalefont setfont
/vshift -46 def
1.000 UL
LTb
LCb setrgbcolor
1.000 UL
LTa
LCa setrgbcolor
770 699 M
6107 0 V
stroke
LTb
LCb setrgbcolor
770 699 M
31 0 V
6076 0 R
-31 0 V
stroke
LTa
LCa setrgbcolor
770 846 M
6107 0 V
stroke
LTb
LCb setrgbcolor
770 846 M
31 0 V
6076 0 R
-31 0 V
stroke
LTa
LCa setrgbcolor
770 950 M
6107 0 V
stroke
LTb
LCb setrgbcolor
770 950 M
31 0 V
6076 0 R
-31 0 V
stroke
LTa
LCa setrgbcolor
770 1031 M
6107 0 V
stroke
LTb
LCb setrgbcolor
770 1031 M
31 0 V
6076 0 R
-31 0 V
stroke
LTa
LCa setrgbcolor
770 1097 M
6107 0 V
stroke
LTb
LCb setrgbcolor
770 1097 M
31 0 V
6076 0 R
-31 0 V
stroke
LTa
LCa setrgbcolor
770 1153 M
6107 0 V
stroke
LTb
LCb setrgbcolor
770 1153 M
31 0 V
6076 0 R
-31 0 V
stroke
LTa
LCa setrgbcolor
770 1201 M
6107 0 V
stroke
LTb
LCb setrgbcolor
770 1201 M
31 0 V
6076 0 R
-31 0 V
stroke
LTa
LCa setrgbcolor
770 1244 M
6107 0 V
stroke
LTb
LCb setrgbcolor
770 1244 M
31 0 V
6076 0 R
-31 0 V
stroke
LTa
LCa setrgbcolor
770 1282 M
6107 0 V
stroke
LTb
LCb setrgbcolor
770 1282 M
63 0 V
6044 0 R
-63 0 V
stroke
686 1282 M
[ [(Helvetica) 140.0 0.0 true true 0 (1e-01)]
] -46.7 MRshow
/Helvetica findfont 140 scalefont setfont
1.000 UL
LTb
LCb setrgbcolor
1.000 UL
LTa
LCa setrgbcolor
770 1533 M
6107 0 V
stroke
LTb
LCb setrgbcolor
770 1533 M
31 0 V
6076 0 R
-31 0 V
stroke
LTa
LCa setrgbcolor
770 1680 M
6107 0 V
stroke
LTb
LCb setrgbcolor
770 1680 M
31 0 V
6076 0 R
-31 0 V
stroke
LTa
LCa setrgbcolor
770 1784 M
6107 0 V
stroke
LTb
LCb setrgbcolor
770 1784 M
31 0 V
6076 0 R
-31 0 V
stroke
LTa
LCa setrgbcolor
770 1865 M
6107 0 V
stroke
LTb
LCb setrgbcolor
770 1865 M
31 0 V
6076 0 R
-31 0 V
stroke
LTa
LCa setrgbcolor
770 1931 M
6107 0 V
stroke
LTb
LCb setrgbcolor
770 1931 M
31 0 V
6076 0 R
-31 0 V
stroke
LTa
LCa setrgbcolor
770 1987 M
6107 0 V
stroke
LTb
LCb setrgbcolor
770 1987 M
31 0 V
6076 0 R
-31 0 V
stroke
LTa
LCa setrgbcolor
770 2036 M
6107 0 V
stroke
LTb
LCb setrgbcolor
770 2036 M
31 0 V
6076 0 R
-31 0 V
stroke
LTa
LCa setrgbcolor
770 2078 M
6107 0 V
stroke
LTb
LCb setrgbcolor
770 2078 M
31 0 V
6076 0 R
-31 0 V
stroke
LTa
LCa setrgbcolor
770 2116 M
6107 0 V
stroke
LTb
LCb setrgbcolor
770 2116 M
63 0 V
6044 0 R
-63 0 V
stroke
686 2116 M
[ [(Helvetica) 140.0 0.0 true true 0 (1e+00)]
] -46.7 MRshow
/Helvetica findfont 140 scalefont setfont
1.000 UL
LTb
LCb setrgbcolor
1.000 UL
LTa
LCa setrgbcolor
770 2368 M
6107 0 V
stroke
LTb
LCb setrgbcolor
770 2368 M
31 0 V
6076 0 R
-31 0 V
stroke
LTa
LCa setrgbcolor
770 2514 M
6107 0 V
stroke
LTb
LCb setrgbcolor
770 2514 M
31 0 V
6076 0 R
-31 0 V
stroke
LTa
LCa setrgbcolor
770 2619 M
6107 0 V
stroke
LTb
LCb setrgbcolor
770 2619 M
31 0 V
6076 0 R
-31 0 V
stroke
LTa
LCa setrgbcolor
770 2699 M
6107 0 V
stroke
LTb
LCb setrgbcolor
770 2699 M
31 0 V
6076 0 R
-31 0 V
stroke
LTa
LCa setrgbcolor
770 2766 M
6107 0 V
stroke
LTb
LCb setrgbcolor
770 2766 M
31 0 V
6076 0 R
-31 0 V
stroke
LTa
LCa setrgbcolor
770 2821 M
6107 0 V
stroke
LTb
LCb setrgbcolor
770 2821 M
31 0 V
6076 0 R
-31 0 V
stroke
LTa
LCa setrgbcolor
770 2870 M
6107 0 V
stroke
LTb
LCb setrgbcolor
770 2870 M
31 0 V
6076 0 R
-31 0 V
stroke
LTa
LCa setrgbcolor
770 2912 M
6107 0 V
stroke
LTb
LCb setrgbcolor
770 2912 M
31 0 V
6076 0 R
-31 0 V
stroke
LTa
LCa setrgbcolor
770 2951 M
6107 0 V
stroke
LTb
LCb setrgbcolor
770 2951 M
63 0 V
6044 0 R
-63 0 V
stroke
686 2951 M
[ [(Helvetica) 140.0 0.0 true true 0 (1e+01)]
] -46.7 MRshow
/Helvetica findfont 140 scalefont setfont
1.000 UL
LTb
LCb setrgbcolor
1.000 UL
LTa
LCa setrgbcolor
770 3202 M
6107 0 V
stroke
LTb
LCb setrgbcolor
770 3202 M
31 0 V
6076 0 R
-31 0 V
stroke
LTa
LCa setrgbcolor
770 3349 M
6107 0 V
stroke
LTb
LCb setrgbcolor
770 3349 M
31 0 V
6076 0 R
-31 0 V
stroke
LTa
LCa setrgbcolor
770 3453 M
6107 0 V
stroke
LTb
LCb setrgbcolor
770 3453 M
31 0 V
6076 0 R
-31 0 V
stroke
LTa
LCa setrgbcolor
770 3534 M
6107 0 V
stroke
LTb
LCb setrgbcolor
770 3534 M
31 0 V
6076 0 R
-31 0 V
stroke
LTa
LCa setrgbcolor
770 3600 M
6107 0 V
stroke
LTb
LCb setrgbcolor
770 3600 M
31 0 V
6076 0 R
-31 0 V
stroke
LTa
LCa setrgbcolor
770 3656 M
6107 0 V
stroke
LTb
LCb setrgbcolor
770 3656 M
31 0 V
6076 0 R
-31 0 V
stroke
LTa
LCa setrgbcolor
770 3704 M
6107 0 V
stroke
LTb
LCb setrgbcolor
770 3704 M
31 0 V
6076 0 R
-31 0 V
stroke
LTa
LCa setrgbcolor
770 3747 M
6107 0 V
stroke
LTb
LCb setrgbcolor
770 3747 M
31 0 V
6076 0 R
-31 0 V
stroke
LTa
LCa setrgbcolor
770 3785 M
6107 0 V
stroke
LTb
LCb setrgbcolor
770 3785 M
63 0 V
6044 0 R
-63 0 V
stroke
686 3785 M
[ [(Helvetica) 140.0 0.0 true true 0 (1e+02)]
] -46.7 MRshow
/Helvetica findfont 140 scalefont setfont
1.000 UL
LTb
LCb setrgbcolor
1.000 UL
LTa
LCa setrgbcolor
770 4036 M
6107 0 V
stroke
LTb
LCb setrgbcolor
770 4036 M
31 0 V
6076 0 R
-31 0 V
stroke
LTa
LCa setrgbcolor
770 4183 M
6107 0 V
stroke
LTb
LCb setrgbcolor
770 4183 M
31 0 V
6076 0 R
-31 0 V
stroke
LTa
LCa setrgbcolor
770 4287 M
6107 0 V
stroke
LTb
LCb setrgbcolor
770 4287 M
31 0 V
6076 0 R
-31 0 V
stroke
LTa
LCa setrgbcolor
770 4368 M
6107 0 V
stroke
LTb
LCb setrgbcolor
770 4368 M
31 0 V
6076 0 R
-31 0 V
stroke
LTa
LCa setrgbcolor
770 4434 M
6107 0 V
stroke
LTb
LCb setrgbcolor
770 4434 M
31 0 V
6076 0 R
-31 0 V
stroke
LTa
LCa setrgbcolor
770 4490 M
6107 0 V
stroke
LTb
LCb setrgbcolor
770 4490 M
31 0 V
6076 0 R
-31 0 V
stroke
LTa
LCa setrgbcolor
770 4538 M
6107 0 V
stroke
LTb
LCb setrgbcolor
770 4538 M
31 0 V
6076 0 R
-31 0 V
stroke
LTa
LCa setrgbcolor
770 4581 M
6107 0 V
stroke
LTb
LCb setrgbcolor
770 4581 M
31 0 V
6076 0 R
-31 0 V
stroke
LTa
LCa setrgbcolor
770 4619 M
6107 0 V
stroke
LTb
LCb setrgbcolor
770 4619 M
63 0 V
6044 0 R
-63 0 V
stroke
686 4619 M
[ [(Helvetica) 140.0 0.0 true true 0 (1e+03)]
] -46.7 MRshow
/Helvetica findfont 140 scalefont setfont
1.000 UL
LTb
LCb setrgbcolor
1.000 UL
LTa
LCa setrgbcolor
1067 448 M
0 4171 V
stroke
LTb
LCb setrgbcolor
1067 448 M
0 31 V
0 4140 R
0 -31 V
stroke
LTa
LCa setrgbcolor
1246 448 M
0 4171 V
stroke
LTb
LCb setrgbcolor
1246 448 M
0 31 V
0 4140 R
0 -31 V
stroke
LTa
LCa setrgbcolor
1374 448 M
0 4171 V
stroke
LTb
LCb setrgbcolor
1374 448 M
0 31 V
0 4140 R
0 -31 V
stroke
LTa
LCa setrgbcolor
1473 448 M
0 4171 V
stroke
LTb
LCb setrgbcolor
1473 448 M
0 31 V
0 4140 R
0 -31 V
stroke
LTa
LCa setrgbcolor
1553 448 M
0 4171 V
stroke
LTb
LCb setrgbcolor
1553 448 M
0 31 V
0 4140 R
0 -31 V
stroke
LTa
LCa setrgbcolor
1622 448 M
0 4171 V
stroke
LTb
LCb setrgbcolor
1622 448 M
0 31 V
0 4140 R
0 -31 V
stroke
LTa
LCa setrgbcolor
1681 448 M
0 4171 V
stroke
LTb
LCb setrgbcolor
1681 448 M
0 31 V
0 4140 R
0 -31 V
stroke
LTa
LCa setrgbcolor
1733 448 M
0 4171 V
stroke
LTb
LCb setrgbcolor
1733 448 M
0 31 V
0 4140 R
0 -31 V
stroke
LTa
LCa setrgbcolor
1780 448 M
0 4171 V
stroke
LTb
LCb setrgbcolor
1780 448 M
0 63 V
0 4108 R
0 -63 V
stroke
1780 308 M
[ [(Helvetica) 140.0 0.0 true true 0 (1e+04)]
] -46.7 MCshow
/Helvetica findfont 140 scalefont setfont
1.000 UL
LTb
LCb setrgbcolor
1.000 UL
LTa
LCa setrgbcolor
2087 448 M
0 4171 V
stroke
LTb
LCb setrgbcolor
2087 448 M
0 31 V
0 4140 R
0 -31 V
stroke
LTa
LCa setrgbcolor
2266 448 M
0 4171 V
stroke
LTb
LCb setrgbcolor
2266 448 M
0 31 V
0 4140 R
0 -31 V
stroke
LTa
LCa setrgbcolor
2394 448 M
0 4171 V
stroke
LTb
LCb setrgbcolor
2394 448 M
0 31 V
0 4140 R
0 -31 V
stroke
LTa
LCa setrgbcolor
2493 448 M
0 4171 V
stroke
LTb
LCb setrgbcolor
2493 448 M
0 31 V
0 4140 R
0 -31 V
stroke
LTa
LCa setrgbcolor
2573 448 M
0 4171 V
stroke
LTb
LCb setrgbcolor
2573 448 M
0 31 V
0 4140 R
0 -31 V
stroke
LTa
LCa setrgbcolor
2642 448 M
0 4171 V
stroke
LTb
LCb setrgbcolor
2642 448 M
0 31 V
0 4140 R
0 -31 V
stroke
LTa
LCa setrgbcolor
2701 448 M
0 4171 V
stroke
LTb
LCb setrgbcolor
2701 448 M
0 31 V
0 4140 R
0 -31 V
stroke
LTa
LCa setrgbcolor
2753 448 M
0 4171 V
stroke
LTb
LCb setrgbcolor
2753 448 M
0 31 V
0 4140 R
0 -31 V
stroke
LTa
LCa setrgbcolor
2800 448 M
0 4171 V
stroke
LTb
LCb setrgbcolor
2800 448 M
0 63 V
0 4108 R
0 -63 V
stroke
2800 308 M
[ [(Helvetica) 140.0 0.0 true true 0 (1e+05)]
] -46.7 MCshow
/Helvetica findfont 140 scalefont setfont
1.000 UL
LTb
LCb setrgbcolor
1.000 UL
LTa
LCa setrgbcolor
3107 448 M
0 4171 V
stroke
LTb
LCb setrgbcolor
3107 448 M
0 31 V
0 4140 R
0 -31 V
stroke
LTa
LCa setrgbcolor
3286 448 M
0 4171 V
stroke
LTb
LCb setrgbcolor
3286 448 M
0 31 V
0 4140 R
0 -31 V
stroke
LTa
LCa setrgbcolor
3414 448 M
0 4171 V
stroke
LTb
LCb setrgbcolor
3414 448 M
0 31 V
0 4140 R
0 -31 V
stroke
LTa
LCa setrgbcolor
3513 448 M
0 4171 V
stroke
LTb
LCb setrgbcolor
3513 448 M
0 31 V
0 4140 R
0 -31 V
stroke
LTa
LCa setrgbcolor
3593 448 M
0 4171 V
stroke
LTb
LCb setrgbcolor
3593 448 M
0 31 V
0 4140 R
0 -31 V
stroke
LTa
LCa setrgbcolor
3662 448 M
0 4171 V
stroke
LTb
LCb setrgbcolor
3662 448 M
0 31 V
0 4140 R
0 -31 V
stroke
LTa
LCa setrgbcolor
3721 448 M
0 4171 V
stroke
LTb
LCb setrgbcolor
3721 448 M
0 31 V
0 4140 R
0 -31 V
stroke
LTa
LCa setrgbcolor
3773 448 M
0 4171 V
stroke
LTb
LCb setrgbcolor
3773 448 M
0 31 V
0 4140 R
0 -31 V
stroke
LTa
LCa setrgbcolor
3820 448 M
0 4171 V
stroke
LTb
LCb setrgbcolor
3820 448 M
0 63 V
0 4108 R
0 -63 V
stroke
3820 308 M
[ [(Helvetica) 140.0 0.0 true true 0 (1e+06)]
] -46.7 MCshow
/Helvetica findfont 140 scalefont setfont
1.000 UL
LTb
LCb setrgbcolor
1.000 UL
LTa
LCa setrgbcolor
4127 448 M
0 4171 V
stroke
LTb
LCb setrgbcolor
4127 448 M
0 31 V
0 4140 R
0 -31 V
stroke
LTa
LCa setrgbcolor
4306 448 M
0 4171 V
stroke
LTb
LCb setrgbcolor
4306 448 M
0 31 V
0 4140 R
0 -31 V
stroke
LTa
LCa setrgbcolor
4434 448 M
0 4171 V
stroke
LTb
LCb setrgbcolor
4434 448 M
0 31 V
0 4140 R
0 -31 V
stroke
LTa
LCa setrgbcolor
4533 448 M
0 4171 V
stroke
LTb
LCb setrgbcolor
4533 448 M
0 31 V
0 4140 R
0 -31 V
stroke
LTa
LCa setrgbcolor
4614 448 M
0 4171 V
stroke
LTb
LCb setrgbcolor
4614 448 M
0 31 V
0 4140 R
0 -31 V
stroke
LTa
LCa setrgbcolor
4682 448 M
0 4171 V
stroke
LTb
LCb setrgbcolor
4682 448 M
0 31 V
0 4140 R
0 -31 V
stroke
LTa
LCa setrgbcolor
4741 448 M
0 4171 V
stroke
LTb
LCb setrgbcolor
4741 448 M
0 31 V
0 4140 R
0 -31 V
stroke
LTa
LCa setrgbcolor
4793 448 M
0 4171 V
stroke
LTb
LCb setrgbcolor
4793 448 M
0 31 V
0 4140 R
0 -31 V
stroke
LTa
LCa setrgbcolor
4840 448 M
0 4171 V
stroke
LTb
LCb setrgbcolor
4840 448 M
0 63 V
0 4108 R
0 -63 V
stroke
4840 308 M
[ [(Helvetica) 140.0 0.0 true true 0 (1e+07)]
] -46.7 MCshow
/Helvetica findfont 140 scalefont setfont
1.000 UL
LTb
LCb setrgbcolor
1.000 UL
LTa
LCa setrgbcolor
5147 448 M
0 4171 V
stroke
LTb
LCb setrgbcolor
5147 448 M
0 31 V
0 4140 R
0 -31 V
stroke
LTa
LCa setrgbcolor
5327 448 M
0 4171 V
stroke
LTb
LCb setrgbcolor
5327 448 M
0 31 V
0 4140 R
0 -31 V
stroke
LTa
LCa setrgbcolor
5454 448 M
0 4171 V
stroke
LTb
LCb setrgbcolor
5454 448 M
0 31 V
0 4140 R
0 -31 V
stroke
LTa
LCa setrgbcolor
5553 448 M
0 4171 V
stroke
LTb
LCb setrgbcolor
5553 448 M
0 31 V
0 4140 R
0 -31 V
stroke
LTa
LCa setrgbcolor
5634 448 M
0 4171 V
stroke
LTb
LCb setrgbcolor
5634 448 M
0 31 V
0 4140 R
0 -31 V
stroke
LTa
LCa setrgbcolor
5702 448 M
0 4171 V
stroke
LTb
LCb setrgbcolor
5702 448 M
0 31 V
0 4140 R
0 -31 V
stroke
LTa
LCa setrgbcolor
5761 448 M
0 4171 V
stroke
LTb
LCb setrgbcolor
5761 448 M
0 31 V
0 4140 R
0 -31 V
stroke
LTa
LCa setrgbcolor
5813 448 M
0 4171 V
stroke
LTb
LCb setrgbcolor
5813 448 M
0 31 V
0 4140 R
0 -31 V
stroke
LTa
LCa setrgbcolor
5860 448 M
0 4171 V
stroke
LTb
LCb setrgbcolor
5860 448 M
0 63 V
0 4108 R
0 -63 V
stroke
5860 308 M
[ [(Helvetica) 140.0 0.0 true true 0 (1e+08)]
] -46.7 MCshow
/Helvetica findfont 140 scalefont setfont
1.000 UL
LTb
LCb setrgbcolor
1.000 UL
LTa
LCa setrgbcolor
6167 448 M
0 4171 V
stroke
LTb
LCb setrgbcolor
6167 448 M
0 31 V
0 4140 R
0 -31 V
stroke
LTa
LCa setrgbcolor
6347 448 M
0 4171 V
stroke
LTb
LCb setrgbcolor
6347 448 M
0 31 V
0 4140 R
0 -31 V
stroke
LTa
LCa setrgbcolor
6474 448 M
0 4171 V
stroke
LTb
LCb setrgbcolor
6474 448 M
0 31 V
0 4140 R
0 -31 V
stroke
LTa
LCa setrgbcolor
6573 448 M
0 4171 V
stroke
LTb
LCb setrgbcolor
6573 448 M
0 31 V
0 4140 R
0 -31 V
stroke
LTa
LCa setrgbcolor
6654 448 M
0 4171 V
stroke
LTb
LCb setrgbcolor
6654 448 M
0 31 V
0 4140 R
0 -31 V
stroke
LTa
LCa setrgbcolor
6722 448 M
0 4171 V
stroke
LTb
LCb setrgbcolor
6722 448 M
0 31 V
0 4140 R
0 -31 V
stroke
LTa
LCa setrgbcolor
6781 448 M
0 4171 V
stroke
LTb
LCb setrgbcolor
6781 448 M
0 31 V
0 4140 R
0 -31 V
stroke
LTa
LCa setrgbcolor
6833 448 M
0 4171 V
stroke
LTb
LCb setrgbcolor
6833 448 M
0 31 V
0 4140 R
0 -31 V
stroke
LTa
LCa setrgbcolor
6880 448 M
0 4171 V
stroke
LTb
LCb setrgbcolor
1.000 UL
LTB
LCb setrgbcolor
770 4619 N
770 448 L
6107 0 V
0 4171 V
-6107 0 V
Z stroke
1.000 UP
1.000 UL
LTb
LCb setrgbcolor
LCb setrgbcolor
196 2533 M
currentpoint gsave translate -270 rotate 0 0 moveto
[ [(Helvetica) 140.0 0.0 true true 0 (Total Bandwidth \(GB/s\))]
] -46.7 MCshow
grestore
/Helvetica findfont 140 scalefont setfont
LTb
LCb setrgbcolor
LTb
LCb setrgbcolor
3823 98 M
[ [(Helvetica) 140.0 0.0 true true 0 (Working Set Size \(bytes\))]
] -46.7 MCshow
/Helvetica findfont 140 scalefont setfont
LTb
LCb setrgbcolor
3823 4829 M
[ [(Helvetica) 140.0 0.0 true true 0 (Graph 2 \(Results.daisy.v100/Run.001/FLOPS.256/GPU)]
[(Helvetica) 112.0 -42.0 true true 0 (B)]
[(Helvetica) 140.0 0.0 true true 0 (locks.0320/GPU)]
[(Helvetica) 112.0 -42.0 true true 0 (T)]
[(Helvetica) 140.0 0.0 true true 0 (hreads.0512\))]
] -32.7 MCshow
/Helvetica findfont 140 scalefont setfont
LTb
LCb setrgbcolor
LTb
LCb setrgbcolor
% Begin plot #1
0.400 UP
1.000 UL
LTb
0.58 0.00 0.83 C
770 1236 M
0 502 V
0 203 V
0 200 V
0 119 V
0 93 V
0 53 V
0 29 V
0 15 V
0 -1 V
0 1 V
0 3 V
0 1 V
0 1 V
810 1306 M
0 470 V
0 224 V
0 168 V
0 129 V
0 75 V
0 59 V
0 26 V
0 16 V
0 -3 V
0 1 V
0 8 V
852 1361 M
0 447 V
0 222 V
0 184 V
0 114 V
0 83 V
0 52 V
0 30 V
0 -3 V
0 16 V
0 -1 V
0 8 V
0 -1 V
0 1 V
893 1366 M
0 487 V
0 189 V
0 194 V
0 129 V
0 79 V
0 52 V
0 31 V
0 11 V
0 -5 V
0 8 V
0 4 V
0 2 V
0 1 V
933 1434 M
0 444 V
0 219 V
0 161 V
0 132 V
0 88 V
0 54 V
0 25 V
0 16 V
0 -3 V
0 7 V
0 2 V
0 1 V
974 1416 M
0 505 V
0 220 V
0 158 V
0 132 V
0 82 V
0 54 V
0 25 V
0 14 V
0 -3 V
0 8 V
0 2 V
0 1 V
42 -1128 R
0 460 V
0 216 V
0 172 V
0 124 V
0 88 V
0 50 V
0 17 V
0 11 V
0 16 V
0 -1 V
0 8 V
0 -1 V
0 1 V
42 -1103 R
0 420 V
0 232 V
0 176 V
0 132 V
0 76 V
0 41 V
0 38 V
0 14 V
0 -6 V
0 9 V
0 3 V
0 2 V
0 1 V
41 -1135 R
0 453 V
0 201 V
0 149 V
0 110 V
0 70 V
0 40 V
0 21 V
0 10 V
0 5 V
0 2 V
0 1 V
41 -1008 R
0 378 V
0 244 V
0 163 V
0 103 V
0 70 V
0 43 V
0 22 V
0 12 V
0 5 V
0 -5 V
0 6 V
0 1 V
41 -1016 R
0 454 V
0 176 V
0 162 V
0 98 V
0 78 V
0 38 V
0 24 V
0 13 V
0 5 V
0 -5 V
0 6 V
0 1 V
42 -997 R
0 418 V
0 204 V
0 152 V
0 96 V
0 75 V
0 46 V
0 21 V
0 11 V
0 5 V
0 -5 V
0 7 V
0 1 V
42 -1019 R
0 438 V
0 175 V
0 120 V
0 79 V
0 81 V
0 36 V
0 12 V
0 12 V
0 1 V
0 3 V
0 2 V
0 1 V
0 1 V
42 -974 R
0 459 V
0 184 V
0 151 V
0 93 V
0 53 V
0 36 V
0 17 V
0 2 V
0 12 V
0 -4 V
0 4 V
0 1 V
42 -912 R
0 419 V
0 178 V
0 132 V
0 97 V
0 57 V
0 27 V
0 21 V
0 10 V
0 4 V
0 -4 V
0 4 V
0 1 V
0 1 V
0 -1 V
42 -1031 R
0 512 V
0 211 V
0 120 V
0 94 V
0 54 V
0 43 V
0 15 V
0 9 V
0 6 V
0 -4 V
0 4 V
0 1 V
0 1 V
42 -916 R
0 410 V
0 204 V
0 117 V
0 88 V
0 63 V
0 37 V
0 12 V
0 13 V
0 3 V
0 2 V
0 1 V
42 -942 R
0 440 V
0 191 V
0 127 V
0 100 V
0 53 V
0 33 V
0 16 V
0 10 V
0 6 V
0 -4 V
0 4 V
0 1 V
42 -920 R
0 417 V
0 191 V
0 135 V
0 90 V
0 52 V
0 36 V
0 18 V
0 9 V
0 3 V
stroke 1517 2856 M
0 -3 V
0 4 V
0 1 V
0 1 V
42 -970 R
0 431 V
0 190 V
0 149 V
0 113 V
0 50 V
0 37 V
0 17 V
0 10 V
0 6 V
0 -4 V
0 4 V
0 1 V
42 -914 R
0 398 V
0 208 V
0 129 V
0 85 V
0 64 V
0 32 V
0 18 V
0 9 V
0 4 V
0 -4 V
0 4 V
0 1 V
0 1 V
42 -929 R
0 421 V
0 194 V
0 123 V
0 104 V
0 56 V
0 32 V
0 11 V
0 13 V
0 1 V
0 3 V
0 2 V
0 -5 V
0 6 V
42 -958 R
0 439 V
0 153 V
0 187 V
0 94 V
0 52 V
0 36 V
0 17 V
0 1 V
0 8 V
0 4 V
0 1 V
42 -910 R
0 416 V
0 179 V
0 134 V
0 93 V
0 59 V
0 32 V
0 16 V
0 3 V
0 12 V
0 -7 V
0 6 V
0 1 V
0 1 V
43 -944 R
0 449 V
0 171 V
0 152 V
0 87 V
0 55 V
0 32 V
0 18 V
0 9 V
0 3 V
0 -3 V
0 4 V
0 1 V
42 -896 R
0 392 V
0 201 V
0 128 V
0 83 V
0 61 V
0 34 V
0 17 V
0 2 V
0 10 V
0 -4 V
0 5 V
0 1 V
0 1 V
42 -926 R
0 434 V
0 177 V
0 133 V
0 98 V
0 53 V
0 33 V
0 16 V
0 11 V
0 1 V
0 -1 V
0 4 V
0 1 V
0 1 V
42 -931 R
0 433 V
0 170 V
0 152 V
0 79 V
0 64 V
0 27 V
0 20 V
0 9 V
0 4 V
0 2 V
0 3 V
0 1 V
0 1 V
42 -901 R
0 395 V
0 205 V
0 125 V
0 89 V
0 52 V
0 37 V
0 10 V
0 12 V
0 1 V
0 3 V
0 5 V
0 1 V
42 -928 R
0 448 V
0 163 V
0 110 V
0 117 V
0 55 V
0 37 V
0 18 V
0 3 V
0 6 V
0 4 V
0 1 V
42 -914 R
0 414 V
0 171 V
0 158 V
0 88 V
0 53 V
0 33 V
0 12 V
0 8 V
0 2 V
0 4 V
0 4 V
0 1 V
0 1 V
42 -926 R
0 430 V
0 172 V
0 142 V
0 91 V
0 61 V
0 32 V
0 9 V
0 13 V
0 2 V
0 2 V
0 5 V
0 1 V
42 -884 R
0 379 V
0 161 V
0 163 V
0 96 V
0 50 V
0 36 V
0 13 V
0 14 V
0 1 V
0 -1 V
0 5 V
0 1 V
0 1 V
43 -905 R
0 412 V
0 176 V
0 144 V
0 86 V
0 58 V
0 27 V
0 20 V
0 11 V
0 4 V
0 1 V
42 -893 R
0 390 V
0 173 V
0 145 V
0 95 V
0 60 V
0 31 V
0 14 V
0 9 V
0 3 V
0 3 V
0 3 V
0 1 V
0 1 V
42 -920 R
0 429 V
0 170 V
0 144 V
0 90 V
0 58 V
0 30 V
0 20 V
0 1 V
0 4 V
0 3 V
0 4 V
0 1 V
42 -896 R
0 405 V
0 171 V
0 138 V
0 94 V
0 59 V
0 31 V
0 18 V
0 1 V
0 8 V
0 -1 V
0 5 V
0 1 V
0 1 V
42 -935 R
0 420 V
0 159 V
0 156 V
0 111 V
stroke 2317 3388 M
0 51 V
0 40 V
0 12 V
0 8 V
0 5 V
0 1 V
0 5 V
0 1 V
42 -906 R
0 413 V
0 184 V
0 128 V
0 95 V
0 56 V
0 33 V
0 10 V
0 12 V
0 1 V
0 3 V
0 4 V
0 1 V
43 -897 R
0 388 V
0 202 V
0 127 V
0 94 V
0 44 V
0 40 V
0 16 V
0 13 V
0 1 V
0 2 V
0 3 V
0 1 V
0 1 V
42 -892 R
0 396 V
0 178 V
0 138 V
0 97 V
0 52 V
0 33 V
0 12 V
0 12 V
0 3 V
0 4 V
0 1 V
42 -925 R
0 412 V
0 202 V
0 126 V
0 102 V
0 52 V
0 31 V
0 21 V
0 2 V
0 3 V
0 3 V
0 4 V
0 1 V
0 1 V
42 -888 R
0 380 V
0 199 V
0 128 V
0 98 V
0 54 V
0 28 V
0 20 V
0 5 V
0 2 V
0 3 V
0 4 V
0 1 V
42 -887 R
0 403 V
0 168 V
0 135 V
0 97 V
0 53 V
0 34 V
0 13 V
0 6 V
0 4 V
0 3 V
0 4 V
0 1 V
0 1 V
42 -912 R
0 418 V
0 188 V
0 118 V
0 97 V
0 59 V
0 34 V
0 18 V
0 2 V
0 4 V
0 3 V
0 3 V
0 2 V
43 -926 R
0 428 V
0 173 V
0 151 V
0 89 V
0 57 V
0 30 V
0 17 V
0 3 V
0 4 V
0 2 V
0 6 V
42 -902 R
0 401 V
0 185 V
0 144 V
0 83 V
0 62 V
0 30 V
0 18 V
0 2 V
0 3 V
0 3 V
0 5 V
0 1 V
42 -925 R
0 424 V
0 180 V
0 139 V
0 91 V
0 60 V
0 33 V
0 18 V
0 1 V
0 6 V
0 2 V
0 4 V
0 1 V
42 -909 R
0 394 V
0 195 V
0 141 V
0 93 V
0 50 V
0 34 V
0 17 V
0 13 V
0 1 V
0 5 V
0 1 V
43 -921 R
0 429 V
0 172 V
0 142 V
0 95 V
0 52 V
0 32 V
0 20 V
0 1 V
0 5 V
0 1 V
0 5 V
0 1 V
42 -968 R
0 462 V
0 173 V
0 154 V
0 83 V
0 57 V
0 35 V
0 18 V
0 8 V
0 6 V
0 1 V
0 5 V
0 1 V
42 -901 R
0 407 V
0 180 V
0 130 V
0 94 V
0 62 V
0 29 V
0 15 V
0 5 V
0 6 V
0 2 V
0 4 V
0 1 V
42 -927 R
0 433 V
0 181 V
0 140 V
0 83 V
0 60 V
0 32 V
0 6 V
0 19 V
0 1 V
0 1 V
0 5 V
42 -1512 R
0 1027 V
0 169 V
0 140 V
0 64 V
0 82 V
0 32 V
0 18 V
0 10 V
0 3 V
0 -3 V
0 4 V
0 1 V
43 -957 R
0 464 V
0 169 V
0 152 V
0 79 V
0 57 V
0 39 V
0 15 V
0 6 V
0 2 V
0 4 V
0 3 V
0 1 V
42 -991 R
0 470 V
0 164 V
0 136 V
0 86 V
0 53 V
0 26 V
0 13 V
0 5 V
0 7 V
0 2 V
0 5 V
42 -883 R
0 409 V
0 185 V
0 121 V
0 91 V
0 51 V
0 33 V
0 14 V
0 8 V
stroke 3119 4101 M
0 1 V
0 4 V
0 1 V
42 -940 R
0 474 V
0 177 V
0 126 V
0 78 V
0 61 V
0 26 V
0 20 V
0 1 V
0 2 V
0 4 V
0 5 V
43 -900 R
0 414 V
0 163 V
0 156 V
0 90 V
0 45 V
0 33 V
0 19 V
0 6 V
0 2 V
0 2 V
0 4 V
0 1 V
42 -870 R
0 398 V
0 182 V
0 118 V
0 94 V
0 52 V
0 27 V
0 11 V
0 9 V
0 5 V
0 3 V
0 5 V
42 -904 R
0 435 V
0 169 V
0 140 V
0 83 V
0 53 V
0 25 V
0 14 V
0 8 V
0 6 V
0 1 V
0 4 V
42 -910 R
0 367 V
0 139 V
0 87 V
0 47 V
0 33 V
0 15 V
0 9 V
0 5 V
0 2 V
0 1 V
42 -680 R
0 384 V
0 122 V
0 92 V
0 55 V
0 28 V
0 14 V
0 10 V
0 6 V
0 2 V
0 1 V
43 -664 R
0 361 V
0 129 V
0 91 V
0 53 V
0 31 V
0 17 V
0 9 V
0 4 V
0 3 V
0 1 V
42 -679 R
0 365 V
0 145 V
0 86 V
0 56 V
0 28 V
0 16 V
0 9 V
0 5 V
0 2 V
0 1 V
42 -679 R
0 374 V
0 130 V
0 94 V
0 52 V
0 30 V
0 17 V
0 9 V
0 4 V
0 2 V
0 2 V
42 -675 R
0 367 V
0 141 V
0 80 V
0 58 V
0 30 V
0 17 V
0 9 V
0 4 V
0 2 V
0 1 V
43 -664 R
0 358 V
0 129 V
0 96 V
0 53 V
0 29 V
0 17 V
0 9 V
0 4 V
0 3 V
0 1 V
42 -676 R
0 330 V
0 172 V
0 85 V
0 60 V
0 30 V
0 17 V
0 8 V
0 5 V
0 2 V
0 1 V
42 -706 R
0 338 V
0 103 V
0 73 V
0 37 V
0 23 V
0 10 V
0 6 V
0 4 V
0 2 V
42 -546 R
0 330 V
0 101 V
0 70 V
0 36 V
0 22 V
0 11 V
0 6 V
0 3 V
0 1 V
0 1 V
42 -541 R
0 313 V
0 105 V
0 73 V
0 41 V
0 22 V
0 10 V
0 7 V
0 2 V
0 2 V
0 1 V
43 -561 R
0 334 V
0 111 V
0 67 V
0 39 V
0 22 V
0 11 V
0 6 V
0 3 V
0 1 V
0 1 V
42 -577 R
0 298 V
0 90 V
0 57 V
0 29 V
0 18 V
0 7 V
0 6 V
0 2 V
0 1 V
0 1 V
42 -460 R
0 288 V
0 90 V
0 50 V
0 33 V
0 17 V
0 8 V
0 4 V
0 2 V
0 2 V
42 -478 R
0 306 V
0 86 V
0 57 V
0 30 V
0 17 V
0 8 V
0 5 V
0 2 V
0 1 V
43 -477 R
0 242 V
0 83 V
0 53 V
0 27 V
0 14 V
0 6 V
0 3 V
0 3 V
0 1 V
42 -419 R
0 274 V
0 77 V
0 51 V
0 25 V
0 14 V
0 6 V
0 3 V
0 3 V
42 -427 R
0 244 V
0 68 V
0 41 V
0 22 V
0 10 V
0 6 V
0 3 V
0 2 V
0 1 V
42 -362 R
0 239 V
0 72 V
0 42 V
0 20 V
0 9 V
stroke 4090 4253 M
0 9 V
0 3 V
0 1 V
0 1 V
42 -393 R
0 235 V
0 63 V
0 37 V
0 18 V
0 10 V
0 4 V
0 3 V
0 2 V
0 1 V
43 -333 R
0 236 V
0 56 V
0 35 V
0 19 V
0 12 V
0 4 V
0 3 V
0 1 V
42 -367 R
0 228 V
0 60 V
0 32 V
0 18 V
0 8 V
0 5 V
0 2 V
0 1 V
42 -324 R
0 207 V
0 49 V
0 31 V
0 14 V
0 8 V
0 4 V
0 2 V
0 1 V
42 -301 R
0 199 V
0 46 V
0 28 V
0 11 V
0 8 V
0 3 V
0 2 V
0 1 V
43 -265 R
0 195 V
0 50 V
0 26 V
0 15 V
0 7 V
0 2 V
0 3 V
0 1 V
42 -295 R
0 198 V
0 48 V
0 24 V
0 13 V
0 7 V
0 3 V
0 1 V
0 1 V
42 -264 R
0 160 V
0 34 V
0 25 V
0 10 V
0 5 V
0 3 V
0 1 V
0 1 V
42 -274 R
0 201 V
0 41 V
0 19 V
0 11 V
0 5 V
0 2 V
0 2 V
42 -216 R
0 153 V
0 37 V
0 18 V
0 9 V
0 5 V
0 2 V
0 2 V
43 -221 R
0 148 V
0 31 V
0 16 V
0 8 V
0 4 V
0 2 V
0 1 V
42 -175 R
0 130 V
0 28 V
0 17 V
0 7 V
0 4 V
0 2 V
0 1 V
42 -197 R
0 133 V
0 32 V
0 15 V
0 7 V
0 3 V
0 3 V
0 1 V
42 -184 R
0 127 V
0 30 V
0 11 V
0 10 V
0 2 V
0 3 V
0 1 V
43 -169 R
0 119 V
0 29 V
0 12 V
0 6 V
0 3 V
0 2 V
0 1 V
42 -160 R
0 116 V
0 23 V
0 14 V
0 7 V
0 3 V
0 2 V
42 -161 R
0 111 V
0 24 V
0 12 V
0 5 V
0 2 V
0 2 V
42 -142 R
0 101 V
0 22 V
0 9 V
0 6 V
0 2 V
0 1 V
42 -134 R
0 100 V
0 18 V
0 10 V
0 5 V
0 2 V
0 1 V
43 -126 R
0 97 V
0 16 V
0 10 V
0 4 V
0 3 V
0 1 V
42 -131 R
0 96 V
0 15 V
0 10 V
0 5 V
0 2 V
0 1 V
42 -101 R
0 72 V
0 13 V
0 11 V
0 4 V
0 1 V
0 2 V
42 -105 R
0 70 V
0 17 V
0 8 V
0 3 V
0 3 V
0 1 V
43 -95 R
0 64 V
0 18 V
0 7 V
0 4 V
0 2 V
42 -87 R
0 61 V
0 16 V
0 7 V
0 5 V
0 1 V
42 -75 R
0 50 V
0 15 V
0 6 V
0 3 V
0 2 V
42 -71 R
0 49 V
0 9 V
0 7 V
0 3 V
0 2 V
42 -76 R
0 55 V
0 11 V
0 4 V
0 2 V
0 1 V
43 -221 R
0 204 V
0 9 V
0 4 V
0 4 V
0 1 V
42 -59 R
0 45 V
0 6 V
0 4 V
0 2 V
0 2 V
42 -52 R
0 37 V
0 9 V
0 4 V
0 3 V
42 -53 R
0 37 V
0 10 V
0 3 V
0 2 V
43 -40 R
0 30 V
0 6 V
0 3 V
0 2 V
42 -35 R
0 22 V
0 5 V
stroke 5526 4282 M
0 7 V
0 1 V
42 -36 R
0 26 V
0 6 V
0 2 V
0 3 V
42 -31 R
0 21 V
0 6 V
0 2 V
0 2 V
42 -30 R
0 22 V
0 4 V
0 2 V
0 2 V
43 -27 R
0 19 V
0 4 V
0 3 V
42 -27 R
0 21 V
0 4 V
0 2 V
42 -23 R
0 18 V
0 4 V
0 1 V
42 -18 R
0 14 V
0 3 V
0 2 V
43 -18 R
0 12 V
0 4 V
0 2 V
42 -17 R
0 12 V
0 3 V
0 2 V
42 -17 R
0 12 V
0 3 V
0 2 V
42 -13 R
0 10 V
0 2 V
0 2 V
43 -14 R
0 11 V
0 1 V
42 -11 R
0 8 V
0 3 V
42 -10 R
0 8 V
0 3 V
42 -10 R
0 8 V
0 2 V
42 -9 R
0 8 V
0 1 V
43 -8 R
0 6 V
0 3 V
42 -8 R
0 6 V
0 2 V
42 -8 R
0 6 V
42 -4 R
0 5 V
43 -5 R
0 5 V
42 -4 R
0 4 V
42 -3 R
0 3 V
42 -3 R
0 4 V
42 -4 R
0 4 V
43 -3 R
42 0 R
42 0 R
42 1 R
43 0 R
42 36 R
42 1 R
770 1236 CircleF
770 1738 CircleF
770 1941 CircleF
770 2141 CircleF
770 2260 CircleF
770 2353 CircleF
770 2406 CircleF
770 2435 CircleF
770 2450 CircleF
770 2449 CircleF
770 2450 CircleF
770 2453 CircleF
770 2453 CircleF
770 2454 CircleF
770 2455 CircleF
770 2455 CircleF
770 2455 CircleF
770 2455 CircleF
770 2455 CircleF
770 2455 CircleF
770 2455 CircleF
810 1306 CircleF
810 1776 CircleF
810 2000 CircleF
810 2168 CircleF
810 2297 CircleF
810 2372 CircleF
810 2431 CircleF
810 2457 CircleF
810 2473 CircleF
810 2470 CircleF
810 2471 CircleF
810 2479 CircleF
810 2479 CircleF
810 2479 CircleF
810 2479 CircleF
810 2479 CircleF
810 2479 CircleF
810 2479 CircleF
810 2479 CircleF
810 2479 CircleF
852 1361 CircleF
852 1808 CircleF
852 2030 CircleF
852 2214 CircleF
852 2328 CircleF
852 2411 CircleF
852 2463 CircleF
852 2493 CircleF
852 2490 CircleF
852 2506 CircleF
852 2505 CircleF
852 2513 CircleF
852 2512 CircleF
852 2512 CircleF
852 2513 CircleF
852 2513 CircleF
852 2513 CircleF
852 2513 CircleF
852 2513 CircleF
852 2513 CircleF
893 1366 CircleF
893 1853 CircleF
893 2042 CircleF
893 2236 CircleF
893 2365 CircleF
893 2444 CircleF
893 2496 CircleF
893 2527 CircleF
893 2538 CircleF
893 2533 CircleF
893 2541 CircleF
893 2545 CircleF
893 2545 CircleF
893 2547 CircleF
893 2547 CircleF
893 2547 CircleF
893 2548 CircleF
893 2548 CircleF
893 2548 CircleF
893 2548 CircleF
933 1434 CircleF
933 1878 CircleF
933 2097 CircleF
933 2258 CircleF
933 2390 CircleF
933 2478 CircleF
933 2532 CircleF
933 2557 CircleF
933 2573 CircleF
933 2570 CircleF
933 2577 CircleF
933 2579 CircleF
933 2579 CircleF
933 2579 CircleF
933 2579 CircleF
933 2580 CircleF
933 2580 CircleF
933 2580 CircleF
933 2580 CircleF
933 2580 CircleF
974 1416 CircleF
974 1921 CircleF
974 2141 CircleF
974 2299 CircleF
974 2431 CircleF
974 2513 CircleF
974 2567 CircleF
974 2592 CircleF
974 2606 CircleF
974 2603 CircleF
974 2611 CircleF
974 2613 CircleF
974 2613 CircleF
974 2613 CircleF
974 2614 CircleF
974 2614 CircleF
974 2614 CircleF
974 2614 CircleF
974 2614 CircleF
974 2614 CircleF
1016 1486 CircleF
1016 1946 CircleF
1016 2162 CircleF
1016 2334 CircleF
1016 2458 CircleF
1016 2546 CircleF
1016 2596 CircleF
1016 2613 CircleF
1016 2624 CircleF
1016 2640 CircleF
1016 2639 CircleF
1016 2647 CircleF
1016 2646 CircleF
1016 2647 CircleF
1016 2647 CircleF
1016 2647 CircleF
1016 2647 CircleF
1016 2647 CircleF
1016 2647 CircleF
1016 2647 CircleF
1058 1544 CircleF
1058 1964 CircleF
1058 2196 CircleF
1058 2372 CircleF
1058 2504 CircleF
1058 2580 CircleF
1058 2621 CircleF
1058 2659 CircleF
1058 2673 CircleF
1058 2667 CircleF
1058 2676 CircleF
1058 2679 CircleF
1058 2679 CircleF
1058 2681 CircleF
1058 2681 CircleF
1058 2681 CircleF
1058 2681 CircleF
1058 2682 CircleF
1058 2682 CircleF
1058 2682 CircleF
1099 1547 CircleF
1099 2000 CircleF
1099 2201 CircleF
1099 2350 CircleF
1099 2460 CircleF
1099 2530 CircleF
1099 2570 CircleF
1099 2591 CircleF
1099 2601 CircleF
1099 2606 CircleF
1099 2606 CircleF
1099 2608 CircleF
1099 2608 CircleF
1099 2609 CircleF
1099 2609 CircleF
1099 2609 CircleF
1099 2609 CircleF
1099 2609 CircleF
1099 2609 CircleF
1140 1601 CircleF
1140 1979 CircleF
1140 2223 CircleF
1140 2386 CircleF
1140 2489 CircleF
1140 2559 CircleF
1140 2602 CircleF
1140 2624 CircleF
1140 2636 CircleF
1140 2641 CircleF
1140 2636 CircleF
1140 2642 CircleF
1140 2642 CircleF
1140 2642 CircleF
1140 2642 CircleF
1140 2643 CircleF
1140 2643 CircleF
1140 2643 CircleF
1140 2643 CircleF
1181 1627 CircleF
1181 2081 CircleF
1181 2257 CircleF
1181 2419 CircleF
1181 2517 CircleF
1181 2595 CircleF
1181 2633 CircleF
1181 2657 CircleF
1181 2670 CircleF
1181 2675 CircleF
1181 2670 CircleF
1181 2676 CircleF
1181 2676 CircleF
1181 2676 CircleF
1181 2676 CircleF
1181 2676 CircleF
1181 2677 CircleF
1181 2677 CircleF
1181 2677 CircleF
1223 1680 CircleF
1223 2098 CircleF
1223 2302 CircleF
1223 2454 CircleF
1223 2550 CircleF
1223 2625 CircleF
1223 2671 CircleF
1223 2692 CircleF
1223 2703 CircleF
1223 2708 CircleF
1223 2703 CircleF
1223 2710 CircleF
1223 2710 CircleF
1223 2710 CircleF
1223 2710 CircleF
1223 2711 CircleF
1223 2711 CircleF
1223 2711 CircleF
1223 2711 CircleF
1265 1692 CircleF
1265 2130 CircleF
1265 2305 CircleF
1265 2425 CircleF
1265 2504 CircleF
1265 2585 CircleF
1265 2621 CircleF
1265 2633 CircleF
1265 2645 CircleF
1265 2646 CircleF
1265 2649 CircleF
1265 2651 CircleF
1265 2652 CircleF
1265 2652 CircleF
1265 2652 CircleF
1265 2653 CircleF
1265 2653 CircleF
1265 2653 CircleF
1265 2653 CircleF
1307 1679 CircleF
1307 2138 CircleF
1307 2322 CircleF
1307 2473 CircleF
1307 2566 CircleF
1307 2619 CircleF
1307 2655 CircleF
1307 2672 CircleF
1307 2674 CircleF
1307 2686 CircleF
1307 2682 CircleF
1307 2686 CircleF
1307 2686 CircleF
1307 2687 CircleF
1307 2687 CircleF
1307 2687 CircleF
1307 2687 CircleF
1307 2687 CircleF
1307 2687 CircleF
1349 1775 CircleF
1349 2194 CircleF
1349 2372 CircleF
1349 2504 CircleF
1349 2601 CircleF
1349 2658 CircleF
1349 2685 CircleF
1349 2706 CircleF
1349 2716 CircleF
1349 2720 CircleF
1349 2716 CircleF
1349 2720 CircleF
1349 2721 CircleF
1349 2721 CircleF
1349 2721 CircleF
1349 2721 CircleF
1349 2721 CircleF
1349 2722 CircleF
1349 2721 CircleF
1391 1690 CircleF
1391 2202 CircleF
1391 2413 CircleF
1391 2533 CircleF
1391 2627 CircleF
1391 2681 CircleF
1391 2724 CircleF
1391 2739 CircleF
1391 2748 CircleF
1391 2754 CircleF
1391 2750 CircleF
1391 2754 CircleF
1391 2755 CircleF
1391 2755 CircleF
1391 2756 CircleF
1391 2756 CircleF
1391 2756 CircleF
1391 2756 CircleF
1433 1840 CircleF
1433 2250 CircleF
1433 2454 CircleF
1433 2571 CircleF
1433 2659 CircleF
1433 2722 CircleF
1433 2759 CircleF
1433 2771 CircleF
1433 2784 CircleF
1433 2784 CircleF
1433 2787 CircleF
1433 2789 CircleF
1433 2790 CircleF
1433 2790 CircleF
1433 2790 CircleF
1433 2790 CircleF
1433 2790 CircleF
1433 2790 CircleF
1475 1848 CircleF
1475 2288 CircleF
1475 2479 CircleF
1475 2606 CircleF
1475 2706 CircleF
1475 2759 CircleF
1475 2792 CircleF
1475 2808 CircleF
1475 2818 CircleF
1475 2824 CircleF
1475 2820 CircleF
1475 2824 CircleF
1475 2824 CircleF
1475 2824 CircleF
1475 2825 CircleF
1475 2825 CircleF
1475 2825 CircleF
1475 2825 CircleF
1517 1905 CircleF
1517 2322 CircleF
1517 2513 CircleF
1517 2648 CircleF
1517 2738 CircleF
1517 2790 CircleF
1517 2826 CircleF
1517 2844 CircleF
1517 2853 CircleF
1517 2856 CircleF
1517 2853 CircleF
1517 2857 CircleF
1517 2858 CircleF
1517 2859 CircleF
1517 2859 CircleF
1517 2859 CircleF
1517 2859 CircleF
1517 2859 CircleF
1559 1889 CircleF
1559 2320 CircleF
1559 2510 CircleF
1559 2659 CircleF
1559 2772 CircleF
1559 2822 CircleF
1559 2859 CircleF
1559 2876 CircleF
1559 2886 CircleF
1559 2892 CircleF
1559 2888 CircleF
1559 2892 CircleF
1559 2893 CircleF
1559 2893 CircleF
1559 2893 CircleF
1559 2893 CircleF
1559 2893 CircleF
1559 2893 CircleF
1601 1979 CircleF
1601 2377 CircleF
1601 2585 CircleF
1601 2714 CircleF
1601 2799 CircleF
1601 2863 CircleF
1601 2895 CircleF
1601 2913 CircleF
1601 2922 CircleF
1601 2926 CircleF
1601 2922 CircleF
1601 2926 CircleF
1601 2927 CircleF
1601 2927 CircleF
1601 2928 CircleF
1601 2928 CircleF
1601 2928 CircleF
1601 2928 CircleF
1643 1999 CircleF
1643 2420 CircleF
1643 2614 CircleF
1643 2737 CircleF
1643 2841 CircleF
1643 2897 CircleF
1643 2929 CircleF
1643 2940 CircleF
1643 2953 CircleF
1643 2954 CircleF
1643 2957 CircleF
1643 2959 CircleF
1643 2959 CircleF
1643 2954 CircleF
1643 2960 CircleF
1643 2960 CircleF
1643 2960 CircleF
1643 2960 CircleF
1685 2002 CircleF
1685 2441 CircleF
1685 2594 CircleF
1685 2781 CircleF
1685 2875 CircleF
1685 2927 CircleF
1685 2963 CircleF
1685 2980 CircleF
1685 2981 CircleF
1685 2989 CircleF
1685 2989 CircleF
1685 2993 CircleF
1685 2993 CircleF
1685 2994 CircleF
1685 2994 CircleF
1685 2994 CircleF
1685 2994 CircleF
1685 2994 CircleF
1727 2084 CircleF
1727 2500 CircleF
1727 2679 CircleF
1727 2813 CircleF
1727 2906 CircleF
1727 2965 CircleF
1727 2997 CircleF
1727 3013 CircleF
1727 3016 CircleF
1727 3028 CircleF
1727 3021 CircleF
1727 3027 CircleF
1727 3028 CircleF
1727 3028 CircleF
1727 3028 CircleF
1727 3029 CircleF
1727 3029 CircleF
1770 2085 CircleF
1770 2534 CircleF
1770 2705 CircleF
1770 2857 CircleF
1770 2944 CircleF
1770 2999 CircleF
1770 3031 CircleF
1770 3049 CircleF
1770 3058 CircleF
1770 3061 CircleF
1770 3058 CircleF
1770 3062 CircleF
1770 3063 CircleF
1770 3063 CircleF
1770 3063 CircleF
1770 3063 CircleF
1770 3063 CircleF
1812 2167 CircleF
1812 2559 CircleF
1812 2760 CircleF
1812 2888 CircleF
1812 2971 CircleF
1812 3032 CircleF
1812 3066 CircleF
1812 3083 CircleF
1812 3085 CircleF
1812 3095 CircleF
1812 3091 CircleF
1812 3096 CircleF
1812 3097 CircleF
1812 3097 CircleF
1812 3098 CircleF
1812 3098 CircleF
1812 3098 CircleF
1854 2172 CircleF
1854 2606 CircleF
1854 2783 CircleF
1854 2916 CircleF
1854 3014 CircleF
1854 3067 CircleF
1854 3100 CircleF
1854 3116 CircleF
1854 3127 CircleF
1854 3128 CircleF
1854 3127 CircleF
1854 3131 CircleF
1854 3132 CircleF
1854 3132 CircleF
1854 3132 CircleF
1854 3132 CircleF
1854 3133 CircleF
1896 2202 CircleF
1896 2635 CircleF
1896 2805 CircleF
1896 2957 CircleF
1896 3036 CircleF
1896 3100 CircleF
1896 3127 CircleF
1896 3147 CircleF
1896 3156 CircleF
1896 3160 CircleF
1896 3162 CircleF
1896 3165 CircleF
1896 3166 CircleF
1896 3166 CircleF
1896 3167 CircleF
1896 3167 CircleF
1896 3167 CircleF
1938 2266 CircleF
1938 2661 CircleF
1938 2866 CircleF
1938 2991 CircleF
1938 3080 CircleF
1938 3132 CircleF
1938 3169 CircleF
1938 3179 CircleF
1938 3191 CircleF
1938 3192 CircleF
1938 3195 CircleF
1938 3200 CircleF
1938 3201 CircleF
1938 3201 CircleF
1938 3201 CircleF
1938 3201 CircleF
1938 3201 CircleF
1980 2273 CircleF
1980 2721 CircleF
1980 2884 CircleF
1980 2994 CircleF
1980 3111 CircleF
1980 3166 CircleF
1980 3203 CircleF
1980 3221 CircleF
1980 3224 CircleF
1980 3230 CircleF
1980 3230 CircleF
1980 3234 CircleF
1980 3235 CircleF
1980 3235 CircleF
1980 3235 CircleF
1980 3235 CircleF
1980 3235 CircleF
2022 2321 CircleF
2022 2735 CircleF
2022 2906 CircleF
2022 3064 CircleF
2022 3152 CircleF
2022 3205 CircleF
2022 3238 CircleF
2022 3250 CircleF
2022 3258 CircleF
2022 3260 CircleF
2022 3264 CircleF
2022 3268 CircleF
2022 3269 CircleF
2022 3269 CircleF
2022 3270 CircleF
2022 3270 CircleF
2064 2344 CircleF
2064 2774 CircleF
2064 2946 CircleF
2064 3088 CircleF
2064 3179 CircleF
2064 3240 CircleF
2064 3272 CircleF
2064 3281 CircleF
2064 3294 CircleF
2064 3296 CircleF
2064 3298 CircleF
2064 3303 CircleF
2064 3303 CircleF
2064 3304 CircleF
2064 3304 CircleF
2064 3304 CircleF
2106 2420 CircleF
2106 2799 CircleF
2106 2960 CircleF
2106 3123 CircleF
2106 3219 CircleF
2106 3269 CircleF
2106 3305 CircleF
2106 3318 CircleF
2106 3332 CircleF
2106 3333 CircleF
2106 3332 CircleF
2106 3337 CircleF
2106 3338 CircleF
2106 3338 CircleF
2106 3339 CircleF
2106 3339 CircleF
2149 2434 CircleF
2149 2846 CircleF
2149 3022 CircleF
2149 3166 CircleF
2149 3252 CircleF
2149 3310 CircleF
2149 3337 CircleF
2149 3357 CircleF
2149 3368 CircleF
2149 3368 CircleF
2149 3368 CircleF
2149 3372 CircleF
2149 3372 CircleF
2149 3373 CircleF
2149 3373 CircleF
2149 3373 CircleF
2191 2480 CircleF
2191 2870 CircleF
2191 3043 CircleF
2191 3188 CircleF
2191 3283 CircleF
2191 3343 CircleF
2191 3374 CircleF
2191 3388 CircleF
2191 3397 CircleF
2191 3400 CircleF
2191 3403 CircleF
2191 3406 CircleF
2191 3407 CircleF
2191 3407 CircleF
2191 3407 CircleF
2191 3408 CircleF
2233 2488 CircleF
2233 2917 CircleF
2233 3087 CircleF
2233 3231 CircleF
2233 3321 CircleF
2233 3379 CircleF
2233 3409 CircleF
2233 3429 CircleF
2233 3430 CircleF
2233 3434 CircleF
2233 3437 CircleF
2233 3441 CircleF
2233 3441 CircleF
2233 3442 CircleF
2233 3442 CircleF
2233 3442 CircleF
2275 2546 CircleF
2275 2951 CircleF
2275 3122 CircleF
2275 3260 CircleF
2275 3354 CircleF
2275 3413 CircleF
2275 3444 CircleF
2275 3462 CircleF
2275 3463 CircleF
2275 3471 CircleF
2275 3470 CircleF
2275 3475 CircleF
2275 3476 CircleF
2275 3476 CircleF
2275 3477 CircleF
2275 3477 CircleF
2317 2542 CircleF
2317 2962 CircleF
2317 3121 CircleF
2317 3277 CircleF
2317 3388 CircleF
2317 3439 CircleF
2317 3479 CircleF
2317 3491 CircleF
2317 3499 CircleF
2317 3504 CircleF
2317 3505 CircleF
2317 3510 CircleF
2317 3511 CircleF
2317 3511 CircleF
2317 3511 CircleF
2359 2605 CircleF
2359 3018 CircleF
2359 3202 CircleF
2359 3330 CircleF
2359 3425 CircleF
2359 3481 CircleF
2359 3514 CircleF
2359 3524 CircleF
2359 3536 CircleF
2359 3537 CircleF
2359 3540 CircleF
2359 3544 CircleF
2359 3545 CircleF
2359 3545 CircleF
2359 3545 CircleF
2402 2648 CircleF
2402 3036 CircleF
2402 3238 CircleF
2402 3365 CircleF
2402 3459 CircleF
2402 3503 CircleF
2402 3543 CircleF
2402 3559 CircleF
2402 3572 CircleF
2402 3573 CircleF
2402 3575 CircleF
2402 3578 CircleF
2402 3579 CircleF
2402 3580 CircleF
2402 3580 CircleF
2444 2688 CircleF
2444 3084 CircleF
2444 3262 CircleF
2444 3400 CircleF
2444 3497 CircleF
2444 3549 CircleF
2444 3582 CircleF
2444 3594 CircleF
2444 3606 CircleF
2444 3606 CircleF
2444 3609 CircleF
2444 3613 CircleF
2444 3614 CircleF
2444 3614 CircleF
2444 3614 CircleF
2486 2689 CircleF
2486 3101 CircleF
2486 3303 CircleF
2486 3429 CircleF
2486 3531 CircleF
2486 3583 CircleF
2486 3614 CircleF
2486 3635 CircleF
2486 3637 CircleF
2486 3640 CircleF
2486 3643 CircleF
2486 3647 CircleF
2486 3648 CircleF
2486 3649 CircleF
2486 3649 CircleF
2528 2761 CircleF
2528 3141 CircleF
2528 3340 CircleF
2528 3468 CircleF
2528 3566 CircleF
2528 3620 CircleF
2528 3648 CircleF
2528 3668 CircleF
2528 3673 CircleF
2528 3675 CircleF
2528 3678 CircleF
2528 3682 CircleF
2528 3683 CircleF
2528 3683 CircleF
2528 3683 CircleF
2570 2796 CircleF
2570 3199 CircleF
2570 3367 CircleF
2570 3502 CircleF
2570 3599 CircleF
2570 3652 CircleF
2570 3686 CircleF
2570 3699 CircleF
2570 3705 CircleF
2570 3709 CircleF
2570 3712 CircleF
2570 3716 CircleF
2570 3717 CircleF
2570 3718 CircleF
2570 3718 CircleF
2612 2806 CircleF
2612 3224 CircleF
2612 3412 CircleF
2612 3530 CircleF
2612 3627 CircleF
2612 3686 CircleF
2612 3720 CircleF
2612 3738 CircleF
2612 3740 CircleF
2612 3744 CircleF
2612 3747 CircleF
2612 3750 CircleF
2612 3752 CircleF
2612 3752 CircleF
2612 3752 CircleF
2655 2826 CircleF
2655 3254 CircleF
2655 3427 CircleF
2655 3578 CircleF
2655 3667 CircleF
2655 3724 CircleF
2655 3754 CircleF
2655 3771 CircleF
2655 3774 CircleF
2655 3778 CircleF
2655 3780 CircleF
2655 3786 CircleF
2655 3786 CircleF
2655 3786 CircleF
2697 2884 CircleF
2697 3285 CircleF
2697 3470 CircleF
2697 3614 CircleF
2697 3697 CircleF
2697 3759 CircleF
2697 3789 CircleF
2697 3807 CircleF
2697 3809 CircleF
2697 3812 CircleF
2697 3815 CircleF
2697 3820 CircleF
2697 3821 CircleF
2697 3821 CircleF
2739 2896 CircleF
2739 3320 CircleF
2739 3500 CircleF
2739 3639 CircleF
2739 3730 CircleF
2739 3790 CircleF
2739 3823 CircleF
2739 3841 CircleF
2739 3842 CircleF
2739 3848 CircleF
2739 3850 CircleF
2739 3854 CircleF
2739 3855 CircleF
2739 3855 CircleF
2781 2946 CircleF
2781 3340 CircleF
2781 3535 CircleF
2781 3676 CircleF
2781 3769 CircleF
2781 3819 CircleF
2781 3853 CircleF
2781 3870 CircleF
2781 3883 CircleF
2781 3883 CircleF
2781 3884 CircleF
2781 3889 CircleF
2781 3889 CircleF
2781 3890 CircleF
2824 2969 CircleF
2824 3398 CircleF
2824 3570 CircleF
2824 3712 CircleF
2824 3807 CircleF
2824 3859 CircleF
2824 3891 CircleF
2824 3911 CircleF
2824 3912 CircleF
2824 3917 CircleF
2824 3918 CircleF
2824 3923 CircleF
2824 3924 CircleF
2824 3924 CircleF
2866 2956 CircleF
2866 3418 CircleF
2866 3591 CircleF
2866 3745 CircleF
2866 3828 CircleF
2866 3885 CircleF
2866 3920 CircleF
2866 3938 CircleF
2866 3946 CircleF
2866 3952 CircleF
2866 3953 CircleF
2866 3958 CircleF
2866 3958 CircleF
2866 3959 CircleF
2908 3058 CircleF
2908 3465 CircleF
2908 3645 CircleF
2908 3775 CircleF
2908 3869 CircleF
2908 3931 CircleF
2908 3960 CircleF
2908 3975 CircleF
2908 3980 CircleF
2908 3986 CircleF
2908 3988 CircleF
2908 3992 CircleF
2908 3993 CircleF
2908 3993 CircleF
2950 3066 CircleF
2950 3499 CircleF
2950 3680 CircleF
2950 3820 CircleF
2950 3903 CircleF
2950 3963 CircleF
2950 3995 CircleF
2950 4001 CircleF
2950 4020 CircleF
2950 4021 CircleF
2950 4022 CircleF
2950 4027 CircleF
2950 4027 CircleF
2992 2515 CircleF
2992 3542 CircleF
2992 3711 CircleF
2992 3851 CircleF
2992 3915 CircleF
2992 3997 CircleF
2992 4029 CircleF
2992 4047 CircleF
2992 4057 CircleF
2992 4060 CircleF
2992 4057 CircleF
2992 4061 CircleF
2992 4062 CircleF
3035 3105 CircleF
3035 3569 CircleF
3035 3738 CircleF
3035 3890 CircleF
3035 3969 CircleF
3035 4026 CircleF
3035 4065 CircleF
3035 4080 CircleF
3035 4086 CircleF
3035 4088 CircleF
3035 4092 CircleF
3035 4095 CircleF
3035 4096 CircleF
3077 3105 CircleF
3077 3575 CircleF
3077 3739 CircleF
3077 3875 CircleF
3077 3961 CircleF
3077 4014 CircleF
3077 4040 CircleF
3077 4053 CircleF
3077 4058 CircleF
3077 4065 CircleF
3077 4067 CircleF
3077 4072 CircleF
3077 4072 CircleF
3119 3189 CircleF
3119 3598 CircleF
3119 3783 CircleF
3119 3904 CircleF
3119 3995 CircleF
3119 4046 CircleF
3119 4079 CircleF
3119 4093 CircleF
3119 4101 CircleF
3119 4102 CircleF
3119 4102 CircleF
3119 4106 CircleF
3119 4107 CircleF
3161 3167 CircleF
3161 3641 CircleF
3161 3818 CircleF
3161 3944 CircleF
3161 4022 CircleF
3161 4083 CircleF
3161 4109 CircleF
3161 4129 CircleF
3161 4130 CircleF
3161 4132 CircleF
3161 4136 CircleF
3161 4141 CircleF
3161 4141 CircleF
3204 3241 CircleF
3204 3655 CircleF
3204 3818 CircleF
3204 3974 CircleF
3204 4064 CircleF
3204 4109 CircleF
3204 4142 CircleF
3204 4161 CircleF
3204 4167 CircleF
3204 4169 CircleF
3204 4171 CircleF
3204 4175 CircleF
3204 4176 CircleF
3246 3306 CircleF
3246 3704 CircleF
3246 3886 CircleF
3246 4004 CircleF
3246 4098 CircleF
3246 4150 CircleF
3246 4177 CircleF
3246 4188 CircleF
3246 4197 CircleF
3246 4202 CircleF
3246 4205 CircleF
3246 4210 CircleF
3288 3306 CircleF
3288 3741 CircleF
3288 3910 CircleF
3288 4050 CircleF
3288 4133 CircleF
3288 4186 CircleF
3288 4211 CircleF
3288 4225 CircleF
3288 4233 CircleF
3288 4239 CircleF
3288 4240 CircleF
3288 4244 CircleF
3330 3334 CircleF
3330 3701 CircleF
3330 3840 CircleF
3330 3927 CircleF
3330 3974 CircleF
3330 4007 CircleF
3330 4022 CircleF
3330 4031 CircleF
3330 4036 CircleF
3330 4038 CircleF
3330 4039 CircleF
3330 4039 CircleF
3372 3359 CircleF
3372 3743 CircleF
3372 3865 CircleF
3372 3957 CircleF
3372 4012 CircleF
3372 4040 CircleF
3372 4054 CircleF
3372 4064 CircleF
3372 4070 CircleF
3372 4072 CircleF
3372 4073 CircleF
3372 4073 CircleF
3415 3409 CircleF
3415 3770 CircleF
3415 3899 CircleF
3415 3990 CircleF
3415 4043 CircleF
3415 4074 CircleF
3415 4091 CircleF
3415 4100 CircleF
3415 4104 CircleF
3415 4107 CircleF
3415 4108 CircleF
3415 4108 CircleF
3457 3429 CircleF
3457 3794 CircleF
3457 3939 CircleF
3457 4025 CircleF
3457 4081 CircleF
3457 4109 CircleF
3457 4125 CircleF
3457 4134 CircleF
3457 4139 CircleF
3457 4141 CircleF
3457 4142 CircleF
3457 4142 CircleF
3499 3463 CircleF
3499 3837 CircleF
3499 3967 CircleF
3499 4061 CircleF
3499 4113 CircleF
3499 4143 CircleF
3499 4160 CircleF
3499 4169 CircleF
3499 4173 CircleF
3499 4175 CircleF
3499 4177 CircleF
3499 4177 CircleF
3541 3502 CircleF
3541 3869 CircleF
3541 4010 CircleF
3541 4090 CircleF
3541 4148 CircleF
3541 4178 CircleF
3541 4195 CircleF
3541 4204 CircleF
3541 4208 CircleF
3541 4210 CircleF
3541 4211 CircleF
3584 3547 CircleF
3584 3905 CircleF
3584 4034 CircleF
3584 4130 CircleF
3584 4183 CircleF
3584 4212 CircleF
3584 4229 CircleF
3584 4238 CircleF
3584 4242 CircleF
3584 4245 CircleF
3584 4246 CircleF
3626 3570 CircleF
3626 3900 CircleF
3626 4072 CircleF
3626 4157 CircleF
3626 4217 CircleF
3626 4247 CircleF
3626 4264 CircleF
3626 4272 CircleF
3626 4277 CircleF
3626 4279 CircleF
3626 4280 CircleF
3668 3574 CircleF
3668 3912 CircleF
3668 4015 CircleF
3668 4088 CircleF
3668 4125 CircleF
3668 4148 CircleF
3668 4158 CircleF
3668 4164 CircleF
3668 4168 CircleF
3668 4170 CircleF
3668 4170 CircleF
3710 3624 CircleF
3710 3954 CircleF
3710 4055 CircleF
3710 4125 CircleF
3710 4161 CircleF
3710 4183 CircleF
3710 4194 CircleF
3710 4200 CircleF
3710 4203 CircleF
3710 4204 CircleF
3710 4205 CircleF
3752 3664 CircleF
3752 3977 CircleF
3752 4082 CircleF
3752 4155 CircleF
3752 4196 CircleF
3752 4218 CircleF
3752 4228 CircleF
3752 4235 CircleF
3752 4237 CircleF
3752 4239 CircleF
3752 4240 CircleF
3795 3679 CircleF
3795 4013 CircleF
3795 4124 CircleF
3795 4191 CircleF
3795 4230 CircleF
3795 4252 CircleF
3795 4263 CircleF
3795 4269 CircleF
3795 4272 CircleF
3795 4273 CircleF
3795 4274 CircleF
3837 3697 CircleF
3837 3995 CircleF
3837 4085 CircleF
3837 4142 CircleF
3837 4171 CircleF
3837 4189 CircleF
3837 4196 CircleF
3837 4202 CircleF
3837 4204 CircleF
3837 4205 CircleF
3837 4206 CircleF
3879 3746 CircleF
3879 4034 CircleF
3879 4124 CircleF
3879 4174 CircleF
3879 4207 CircleF
3879 4224 CircleF
3879 4232 CircleF
3879 4236 CircleF
3879 4238 CircleF
3879 4240 CircleF
3921 3762 CircleF
3921 4068 CircleF
3921 4154 CircleF
3921 4211 CircleF
3921 4241 CircleF
3921 4258 CircleF
3921 4266 CircleF
3921 4271 CircleF
3921 4273 CircleF
3921 4274 CircleF
3964 3797 CircleF
3964 4039 CircleF
3964 4122 CircleF
3964 4175 CircleF
3964 4202 CircleF
3964 4216 CircleF
3964 4222 CircleF
3964 4225 CircleF
3964 4228 CircleF
3964 4229 CircleF
4006 3810 CircleF
4006 4084 CircleF
4006 4161 CircleF
4006 4212 CircleF
4006 4237 CircleF
4006 4251 CircleF
4006 4257 CircleF
4006 4260 CircleF
4006 4263 CircleF
4006 4263 CircleF
4048 3836 CircleF
4048 4080 CircleF
4048 4148 CircleF
4048 4189 CircleF
4048 4211 CircleF
4048 4221 CircleF
4048 4227 CircleF
4048 4230 CircleF
4048 4232 CircleF
4048 4233 CircleF
4090 3871 CircleF
4090 4110 CircleF
4090 4182 CircleF
4090 4224 CircleF
4090 4244 CircleF
4090 4253 CircleF
4090 4262 CircleF
4090 4265 CircleF
4090 4266 CircleF
4090 4267 CircleF
4132 3874 CircleF
4132 4109 CircleF
4132 4172 CircleF
4132 4209 CircleF
4132 4227 CircleF
4132 4237 CircleF
4132 4241 CircleF
4132 4244 CircleF
4132 4246 CircleF
4132 4247 CircleF
4175 3914 CircleF
4175 4150 CircleF
4175 4206 CircleF
4175 4241 CircleF
4175 4260 CircleF
4175 4272 CircleF
4175 4276 CircleF
4175 4279 CircleF
4175 4280 CircleF
4217 3913 CircleF
4217 4141 CircleF
4217 4201 CircleF
4217 4233 CircleF
4217 4251 CircleF
4217 4259 CircleF
4217 4264 CircleF
4217 4266 CircleF
4217 4267 CircleF
4259 3943 CircleF
4259 4150 CircleF
4259 4199 CircleF
4259 4230 CircleF
4259 4244 CircleF
4259 4252 CircleF
4259 4256 CircleF
4259 4258 CircleF
4259 4259 CircleF
4301 3958 CircleF
4301 4157 CircleF
4301 4203 CircleF
4301 4231 CircleF
4301 4242 CircleF
4301 4250 CircleF
4301 4253 CircleF
4301 4255 CircleF
4301 4256 CircleF
4344 3991 CircleF
4344 4186 CircleF
4344 4236 CircleF
4344 4262 CircleF
4344 4277 CircleF
4344 4284 CircleF
4344 4286 CircleF
4344 4289 CircleF
4344 4290 CircleF
4386 3995 CircleF
4386 4193 CircleF
4386 4241 CircleF
4386 4265 CircleF
4386 4278 CircleF
4386 4285 CircleF
4386 4288 CircleF
4386 4289 CircleF
4386 4290 CircleF
4428 4026 CircleF
4428 4186 CircleF
4428 4220 CircleF
4428 4245 CircleF
4428 4255 CircleF
4428 4260 CircleF
4428 4263 CircleF
4428 4264 CircleF
4428 4265 CircleF
4470 3991 CircleF
4470 4192 CircleF
4470 4233 CircleF
4470 4252 CircleF
4470 4263 CircleF
4470 4268 CircleF
4470 4270 CircleF
4470 4272 CircleF
4512 4056 CircleF
4512 4209 CircleF
4512 4246 CircleF
4512 4264 CircleF
4512 4273 CircleF
4512 4278 CircleF
4512 4280 CircleF
4512 4282 CircleF
4555 4061 CircleF
4555 4209 CircleF
4555 4240 CircleF
4555 4256 CircleF
4555 4264 CircleF
4555 4268 CircleF
4555 4270 CircleF
4555 4271 CircleF
4597 4096 CircleF
4597 4226 CircleF
4597 4254 CircleF
4597 4271 CircleF
4597 4278 CircleF
4597 4282 CircleF
4597 4284 CircleF
4597 4285 CircleF
4639 4088 CircleF
4639 4221 CircleF
4639 4253 CircleF
4639 4268 CircleF
4639 4275 CircleF
4639 4278 CircleF
4639 4281 CircleF
4639 4282 CircleF
4681 4098 CircleF
4681 4225 CircleF
4681 4255 CircleF
4681 4266 CircleF
4681 4276 CircleF
4681 4278 CircleF
4681 4281 CircleF
4681 4282 CircleF
4724 4113 CircleF
4724 4232 CircleF
4724 4261 CircleF
4724 4273 CircleF
4724 4279 CircleF
4724 4282 CircleF
4724 4284 CircleF
4724 4285 CircleF
4766 4125 CircleF
4766 4241 CircleF
4766 4264 CircleF
4766 4278 CircleF
4766 4285 CircleF
4766 4288 CircleF
4766 4290 CircleF
4808 4129 CircleF
4808 4240 CircleF
4808 4264 CircleF
4808 4276 CircleF
4808 4281 CircleF
4808 4283 CircleF
4808 4285 CircleF
4850 4143 CircleF
4850 4244 CircleF
4850 4266 CircleF
4850 4275 CircleF
4850 4281 CircleF
4850 4283 CircleF
4850 4284 CircleF
4892 4150 CircleF
4892 4250 CircleF
4892 4268 CircleF
4892 4278 CircleF
4892 4283 CircleF
4892 4285 CircleF
4892 4286 CircleF
4935 4160 CircleF
4935 4257 CircleF
4935 4273 CircleF
4935 4283 CircleF
4935 4287 CircleF
4935 4290 CircleF
4935 4291 CircleF
4977 4160 CircleF
4977 4256 CircleF
4977 4271 CircleF
4977 4281 CircleF
4977 4286 CircleF
4977 4288 CircleF
4977 4289 CircleF
5019 4188 CircleF
5019 4260 CircleF
5019 4273 CircleF
5019 4284 CircleF
5019 4288 CircleF
5019 4289 CircleF
5019 4291 CircleF
5061 4186 CircleF
5061 4256 CircleF
5061 4273 CircleF
5061 4281 CircleF
5061 4284 CircleF
5061 4287 CircleF
5061 4288 CircleF
5104 4193 CircleF
5104 4257 CircleF
5104 4275 CircleF
5104 4282 CircleF
5104 4286 CircleF
5104 4288 CircleF
5146 4201 CircleF
5146 4262 CircleF
5146 4278 CircleF
5146 4285 CircleF
5146 4290 CircleF
5146 4291 CircleF
5188 4216 CircleF
5188 4266 CircleF
5188 4281 CircleF
5188 4287 CircleF
5188 4290 CircleF
5188 4292 CircleF
5230 4221 CircleF
5230 4270 CircleF
5230 4279 CircleF
5230 4286 CircleF
5230 4289 CircleF
5230 4291 CircleF
5272 4215 CircleF
5272 4270 CircleF
5272 4281 CircleF
5272 4285 CircleF
5272 4287 CircleF
5272 4288 CircleF
5315 4067 CircleF
5315 4271 CircleF
5315 4280 CircleF
5315 4284 CircleF
5315 4288 CircleF
5315 4289 CircleF
5357 4230 CircleF
5357 4275 CircleF
5357 4281 CircleF
5357 4285 CircleF
5357 4287 CircleF
5357 4289 CircleF
5399 4237 CircleF
5399 4274 CircleF
5399 4283 CircleF
5399 4287 CircleF
5399 4290 CircleF
5441 4237 CircleF
5441 4274 CircleF
5441 4284 CircleF
5441 4287 CircleF
5441 4289 CircleF
5484 4249 CircleF
5484 4279 CircleF
5484 4285 CircleF
5484 4288 CircleF
5484 4290 CircleF
5526 4255 CircleF
5526 4277 CircleF
5526 4282 CircleF
5526 4289 CircleF
5526 4290 CircleF
5568 4254 CircleF
5568 4280 CircleF
5568 4286 CircleF
5568 4288 CircleF
5568 4291 CircleF
5610 4260 CircleF
5610 4281 CircleF
5610 4287 CircleF
5610 4289 CircleF
5610 4291 CircleF
5652 4261 CircleF
5652 4283 CircleF
5652 4287 CircleF
5652 4289 CircleF
5652 4291 CircleF
5695 4264 CircleF
5695 4283 CircleF
5695 4287 CircleF
5695 4290 CircleF
5737 4263 CircleF
5737 4284 CircleF
5737 4288 CircleF
5737 4290 CircleF
5779 4267 CircleF
5779 4285 CircleF
5779 4289 CircleF
5779 4290 CircleF
5821 4272 CircleF
5821 4286 CircleF
5821 4289 CircleF
5821 4291 CircleF
5864 4273 CircleF
5864 4285 CircleF
5864 4289 CircleF
5864 4291 CircleF
5906 4274 CircleF
5906 4286 CircleF
5906 4289 CircleF
5906 4291 CircleF
5948 4274 CircleF
5948 4286 CircleF
5948 4289 CircleF
5948 4291 CircleF
5990 4278 CircleF
5990 4288 CircleF
5990 4290 CircleF
5990 4292 CircleF
6033 4278 CircleF
6033 4289 CircleF
6033 4290 CircleF
6075 4279 CircleF
6075 4287 CircleF
6075 4290 CircleF
6117 4280 CircleF
6117 4288 CircleF
6117 4291 CircleF
6159 4281 CircleF
6159 4289 CircleF
6159 4291 CircleF
6201 4282 CircleF
6201 4290 CircleF
6201 4291 CircleF
6244 4283 CircleF
6244 4289 CircleF
6244 4292 CircleF
6286 4284 CircleF
6286 4290 CircleF
6286 4292 CircleF
6328 4284 CircleF
6328 4290 CircleF
6370 4286 CircleF
6370 4291 CircleF
6413 4286 CircleF
6413 4291 CircleF
6455 4287 CircleF
6455 4291 CircleF
6497 4288 CircleF
6497 4291 CircleF
6539 4288 CircleF
6539 4292 CircleF
6581 4288 CircleF
6581 4292 CircleF
6624 4289 CircleF
6666 4289 CircleF
6708 4289 CircleF
6750 4290 CircleF
6793 4290 CircleF
6835 4326 CircleF
6877 4327 CircleF
% End plot #1
2.000 UL
LTb
LCb setrgbcolor
1.000 UL
LTB
LCb setrgbcolor
770 4619 N
770 448 L
6107 0 V
0 4171 V
-6107 0 V
Z stroke
1.000 UP
1.000 UL
LTb
LCb setrgbcolor
stroke
grestore
end
showpage
%%Trailer
%%DocumentFonts: Helvetica
%%Pages: 1
