%!PS-Adobe-2.0
%%Title: Results.daisy.v100/Run.001/FLOPS.128/GPU_Blocks.0320/GPU_Threads.0512/graph2.ps
%%Creator: gnuplot 5.2 patchlevel 7
%%CreationDate: Sun Jan 19 15:23:19 2020
%%DocumentFonts: (atend)
%%BoundingBox: 50 50 554 770
%%Orientation: Landscape
%%Pages: (atend)
%%EndComments
%%BeginProlog
/gnudict 256 dict def
gnudict begin
%
% The following true/false flags may be edited by hand if desired.
% The unit line width and grayscale image gamma correction may also be changed.
%
/Color true def
/Blacktext false def
/Solid false def
/Dashlength 1 def
/Landscape true def
/Level1 false def
/Level3 false def
/Rounded false def
/ClipToBoundingBox false def
/SuppressPDFMark false def
/TransparentPatterns false def
/gnulinewidth 5.000 def
/userlinewidth gnulinewidth def
/Gamma 1.0 def
/BackgroundColor {-1.000 -1.000 -1.000} def
%
/vshift -46 def
/dl1 {
  10.0 Dashlength userlinewidth gnulinewidth div mul mul mul
  Rounded { currentlinewidth 0.75 mul sub dup 0 le { pop 0.01 } if } if
} def
/dl2 {
  10.0 Dashlength userlinewidth gnulinewidth div mul mul mul
  Rounded { currentlinewidth 0.75 mul add } if
} def
/hpt_ 31.5 def
/vpt_ 31.5 def
/hpt hpt_ def
/vpt vpt_ def
/doclip {
  ClipToBoundingBox {
    newpath 50 50 moveto 554 50 lineto 554 770 lineto 50 770 lineto closepath
    clip
  } if
} def
%
% Gnuplot Prolog Version 5.2 (Dec 2017)
%
%/SuppressPDFMark true def
%
/M {moveto} bind def
/L {lineto} bind def
/R {rmoveto} bind def
/V {rlineto} bind def
/N {newpath moveto} bind def
/Z {closepath} bind def
/C {setrgbcolor} bind def
/f {rlineto fill} bind def
/g {setgray} bind def
/Gshow {show} def   % May be redefined later in the file to support UTF-8
/vpt2 vpt 2 mul def
/hpt2 hpt 2 mul def
/Lshow {currentpoint stroke M 0 vshift R 
	Blacktext {gsave 0 setgray textshow grestore} {textshow} ifelse} def
/Rshow {currentpoint stroke M dup stringwidth pop neg vshift R
	Blacktext {gsave 0 setgray textshow grestore} {textshow} ifelse} def
/Cshow {currentpoint stroke M dup stringwidth pop -2 div vshift R 
	Blacktext {gsave 0 setgray textshow grestore} {textshow} ifelse} def
/UP {dup vpt_ mul /vpt exch def hpt_ mul /hpt exch def
  /hpt2 hpt 2 mul def /vpt2 vpt 2 mul def} def
/DL {Color {setrgbcolor Solid {pop []} if 0 setdash}
 {pop pop pop 0 setgray Solid {pop []} if 0 setdash} ifelse} def
/BL {stroke userlinewidth 2 mul setlinewidth
	Rounded {1 setlinejoin 1 setlinecap} if} def
/AL {stroke userlinewidth 2 div setlinewidth
	Rounded {1 setlinejoin 1 setlinecap} if} def
/UL {dup gnulinewidth mul /userlinewidth exch def
	dup 1 lt {pop 1} if 10 mul /udl exch def} def
/PL {stroke userlinewidth setlinewidth
	Rounded {1 setlinejoin 1 setlinecap} if} def
3.8 setmiterlimit
% Classic Line colors (version 5.0)
/LCw {1 1 1} def
/LCb {0 0 0} def
/LCa {0 0 0} def
/LC0 {1 0 0} def
/LC1 {0 1 0} def
/LC2 {0 0 1} def
/LC3 {1 0 1} def
/LC4 {0 1 1} def
/LC5 {1 1 0} def
/LC6 {0 0 0} def
/LC7 {1 0.3 0} def
/LC8 {0.5 0.5 0.5} def
% Default dash patterns (version 5.0)
/LTB {BL [] LCb DL} def
/LTw {PL [] 1 setgray} def
/LTb {PL [] LCb DL} def
/LTa {AL [1 udl mul 2 udl mul] 0 setdash LCa setrgbcolor} def
/LT0 {PL [] LC0 DL} def
/LT1 {PL [2 dl1 3 dl2] LC1 DL} def
/LT2 {PL [1 dl1 1.5 dl2] LC2 DL} def
/LT3 {PL [6 dl1 2 dl2 1 dl1 2 dl2] LC3 DL} def
/LT4 {PL [1 dl1 2 dl2 6 dl1 2 dl2 1 dl1 2 dl2] LC4 DL} def
/LT5 {PL [4 dl1 2 dl2] LC5 DL} def
/LT6 {PL [1.5 dl1 1.5 dl2 1.5 dl1 1.5 dl2 1.5 dl1 6 dl2] LC6 DL} def
/LT7 {PL [3 dl1 3 dl2 1 dl1 3 dl2] LC7 DL} def
/LT8 {PL [2 dl1 2 dl2 2 dl1 6 dl2] LC8 DL} def
/SL {[] 0 setdash} def
/Pnt {stroke [] 0 setdash gsave 1 setlinecap M 0 0 V stroke grestore} def
/Dia {stroke [] 0 setdash 2 copy vpt add M
  hpt neg vpt neg V hpt vpt neg V
  hpt vpt V hpt neg vpt V closepath stroke
  Pnt} def
/Pls {stroke [] 0 setdash vpt sub M 0 vpt2 V
  currentpoint stroke M
  hpt neg vpt neg R hpt2 0 V stroke
 } def
/Box {stroke [] 0 setdash 2 copy exch hpt sub exch vpt add M
  0 vpt2 neg V hpt2 0 V 0 vpt2 V
  hpt2 neg 0 V closepath stroke
  Pnt} def
/Crs {stroke [] 0 setdash exch hpt sub exch vpt add M
  hpt2 vpt2 neg V currentpoint stroke M
  hpt2 neg 0 R hpt2 vpt2 V stroke} def
/TriU {stroke [] 0 setdash 2 copy vpt 1.12 mul add M
  hpt neg vpt -1.62 mul V
  hpt 2 mul 0 V
  hpt neg vpt 1.62 mul V closepath stroke
  Pnt} def
/Star {2 copy Pls Crs} def
/BoxF {stroke [] 0 setdash exch hpt sub exch vpt add M
  0 vpt2 neg V hpt2 0 V 0 vpt2 V
  hpt2 neg 0 V closepath fill} def
/TriUF {stroke [] 0 setdash vpt 1.12 mul add M
  hpt neg vpt -1.62 mul V
  hpt 2 mul 0 V
  hpt neg vpt 1.62 mul V closepath fill} def
/TriD {stroke [] 0 setdash 2 copy vpt 1.12 mul sub M
  hpt neg vpt 1.62 mul V
  hpt 2 mul 0 V
  hpt neg vpt -1.62 mul V closepath stroke
  Pnt} def
/TriDF {stroke [] 0 setdash vpt 1.12 mul sub M
  hpt neg vpt 1.62 mul V
  hpt 2 mul 0 V
  hpt neg vpt -1.62 mul V closepath fill} def
/DiaF {stroke [] 0 setdash vpt add M
  hpt neg vpt neg V hpt vpt neg V
  hpt vpt V hpt neg vpt V closepath fill} def
/Pent {stroke [] 0 setdash 2 copy gsave
  translate 0 hpt M 4 {72 rotate 0 hpt L} repeat
  closepath stroke grestore Pnt} def
/PentF {stroke [] 0 setdash gsave
  translate 0 hpt M 4 {72 rotate 0 hpt L} repeat
  closepath fill grestore} def
/Circle {stroke [] 0 setdash 2 copy
  hpt 0 360 arc stroke Pnt} def
/CircleF {stroke [] 0 setdash hpt 0 360 arc fill} def
/C0 {BL [] 0 setdash 2 copy moveto vpt 90 450 arc} bind def
/C1 {BL [] 0 setdash 2 copy moveto
	2 copy vpt 0 90 arc closepath fill
	vpt 0 360 arc closepath} bind def
/C2 {BL [] 0 setdash 2 copy moveto
	2 copy vpt 90 180 arc closepath fill
	vpt 0 360 arc closepath} bind def
/C3 {BL [] 0 setdash 2 copy moveto
	2 copy vpt 0 180 arc closepath fill
	vpt 0 360 arc closepath} bind def
/C4 {BL [] 0 setdash 2 copy moveto
	2 copy vpt 180 270 arc closepath fill
	vpt 0 360 arc closepath} bind def
/C5 {BL [] 0 setdash 2 copy moveto
	2 copy vpt 0 90 arc
	2 copy moveto
	2 copy vpt 180 270 arc closepath fill
	vpt 0 360 arc} bind def
/C6 {BL [] 0 setdash 2 copy moveto
	2 copy vpt 90 270 arc closepath fill
	vpt 0 360 arc closepath} bind def
/C7 {BL [] 0 setdash 2 copy moveto
	2 copy vpt 0 270 arc closepath fill
	vpt 0 360 arc closepath} bind def
/C8 {BL [] 0 setdash 2 copy moveto
	2 copy vpt 270 360 arc closepath fill
	vpt 0 360 arc closepath} bind def
/C9 {BL [] 0 setdash 2 copy moveto
	2 copy vpt 270 450 arc closepath fill
	vpt 0 360 arc closepath} bind def
/C10 {BL [] 0 setdash 2 copy 2 copy moveto vpt 270 360 arc closepath fill
	2 copy moveto
	2 copy vpt 90 180 arc closepath fill
	vpt 0 360 arc closepath} bind def
/C11 {BL [] 0 setdash 2 copy moveto
	2 copy vpt 0 180 arc closepath fill
	2 copy moveto
	2 copy vpt 270 360 arc closepath fill
	vpt 0 360 arc closepath} bind def
/C12 {BL [] 0 setdash 2 copy moveto
	2 copy vpt 180 360 arc closepath fill
	vpt 0 360 arc closepath} bind def
/C13 {BL [] 0 setdash 2 copy moveto
	2 copy vpt 0 90 arc closepath fill
	2 copy moveto
	2 copy vpt 180 360 arc closepath fill
	vpt 0 360 arc closepath} bind def
/C14 {BL [] 0 setdash 2 copy moveto
	2 copy vpt 90 360 arc closepath fill
	vpt 0 360 arc} bind def
/C15 {BL [] 0 setdash 2 copy vpt 0 360 arc closepath fill
	vpt 0 360 arc closepath} bind def
/Rec {newpath 4 2 roll moveto 1 index 0 rlineto 0 exch rlineto
	neg 0 rlineto closepath} bind def
/Square {dup Rec} bind def
/Bsquare {vpt sub exch vpt sub exch vpt2 Square} bind def
/S0 {BL [] 0 setdash 2 copy moveto 0 vpt rlineto BL Bsquare} bind def
/S1 {BL [] 0 setdash 2 copy vpt Square fill Bsquare} bind def
/S2 {BL [] 0 setdash 2 copy exch vpt sub exch vpt Square fill Bsquare} bind def
/S3 {BL [] 0 setdash 2 copy exch vpt sub exch vpt2 vpt Rec fill Bsquare} bind def
/S4 {BL [] 0 setdash 2 copy exch vpt sub exch vpt sub vpt Square fill Bsquare} bind def
/S5 {BL [] 0 setdash 2 copy 2 copy vpt Square fill
	exch vpt sub exch vpt sub vpt Square fill Bsquare} bind def
/S6 {BL [] 0 setdash 2 copy exch vpt sub exch vpt sub vpt vpt2 Rec fill Bsquare} bind def
/S7 {BL [] 0 setdash 2 copy exch vpt sub exch vpt sub vpt vpt2 Rec fill
	2 copy vpt Square fill Bsquare} bind def
/S8 {BL [] 0 setdash 2 copy vpt sub vpt Square fill Bsquare} bind def
/S9 {BL [] 0 setdash 2 copy vpt sub vpt vpt2 Rec fill Bsquare} bind def
/S10 {BL [] 0 setdash 2 copy vpt sub vpt Square fill 2 copy exch vpt sub exch vpt Square fill
	Bsquare} bind def
/S11 {BL [] 0 setdash 2 copy vpt sub vpt Square fill 2 copy exch vpt sub exch vpt2 vpt Rec fill
	Bsquare} bind def
/S12 {BL [] 0 setdash 2 copy exch vpt sub exch vpt sub vpt2 vpt Rec fill Bsquare} bind def
/S13 {BL [] 0 setdash 2 copy exch vpt sub exch vpt sub vpt2 vpt Rec fill
	2 copy vpt Square fill Bsquare} bind def
/S14 {BL [] 0 setdash 2 copy exch vpt sub exch vpt sub vpt2 vpt Rec fill
	2 copy exch vpt sub exch vpt Square fill Bsquare} bind def
/S15 {BL [] 0 setdash 2 copy Bsquare fill Bsquare} bind def
/D0 {gsave translate 45 rotate 0 0 S0 stroke grestore} bind def
/D1 {gsave translate 45 rotate 0 0 S1 stroke grestore} bind def
/D2 {gsave translate 45 rotate 0 0 S2 stroke grestore} bind def
/D3 {gsave translate 45 rotate 0 0 S3 stroke grestore} bind def
/D4 {gsave translate 45 rotate 0 0 S4 stroke grestore} bind def
/D5 {gsave translate 45 rotate 0 0 S5 stroke grestore} bind def
/D6 {gsave translate 45 rotate 0 0 S6 stroke grestore} bind def
/D7 {gsave translate 45 rotate 0 0 S7 stroke grestore} bind def
/D8 {gsave translate 45 rotate 0 0 S8 stroke grestore} bind def
/D9 {gsave translate 45 rotate 0 0 S9 stroke grestore} bind def
/D10 {gsave translate 45 rotate 0 0 S10 stroke grestore} bind def
/D11 {gsave translate 45 rotate 0 0 S11 stroke grestore} bind def
/D12 {gsave translate 45 rotate 0 0 S12 stroke grestore} bind def
/D13 {gsave translate 45 rotate 0 0 S13 stroke grestore} bind def
/D14 {gsave translate 45 rotate 0 0 S14 stroke grestore} bind def
/D15 {gsave translate 45 rotate 0 0 S15 stroke grestore} bind def
/DiaE {stroke [] 0 setdash vpt add M
  hpt neg vpt neg V hpt vpt neg V
  hpt vpt V hpt neg vpt V closepath stroke} def
/BoxE {stroke [] 0 setdash exch hpt sub exch vpt add M
  0 vpt2 neg V hpt2 0 V 0 vpt2 V
  hpt2 neg 0 V closepath stroke} def
/TriUE {stroke [] 0 setdash vpt 1.12 mul add M
  hpt neg vpt -1.62 mul V
  hpt 2 mul 0 V
  hpt neg vpt 1.62 mul V closepath stroke} def
/TriDE {stroke [] 0 setdash vpt 1.12 mul sub M
  hpt neg vpt 1.62 mul V
  hpt 2 mul 0 V
  hpt neg vpt -1.62 mul V closepath stroke} def
/PentE {stroke [] 0 setdash gsave
  translate 0 hpt M 4 {72 rotate 0 hpt L} repeat
  closepath stroke grestore} def
/CircE {stroke [] 0 setdash 
  hpt 0 360 arc stroke} def
/Opaque {gsave closepath 1 setgray fill grestore 0 setgray closepath} def
/DiaW {stroke [] 0 setdash vpt add M
  hpt neg vpt neg V hpt vpt neg V
  hpt vpt V hpt neg vpt V Opaque stroke} def
/BoxW {stroke [] 0 setdash exch hpt sub exch vpt add M
  0 vpt2 neg V hpt2 0 V 0 vpt2 V
  hpt2 neg 0 V Opaque stroke} def
/TriUW {stroke [] 0 setdash vpt 1.12 mul add M
  hpt neg vpt -1.62 mul V
  hpt 2 mul 0 V
  hpt neg vpt 1.62 mul V Opaque stroke} def
/TriDW {stroke [] 0 setdash vpt 1.12 mul sub M
  hpt neg vpt 1.62 mul V
  hpt 2 mul 0 V
  hpt neg vpt -1.62 mul V Opaque stroke} def
/PentW {stroke [] 0 setdash gsave
  translate 0 hpt M 4 {72 rotate 0 hpt L} repeat
  Opaque stroke grestore} def
/CircW {stroke [] 0 setdash 
  hpt 0 360 arc Opaque stroke} def
/BoxFill {gsave Rec 1 setgray fill grestore} def
/Density {
  /Fillden exch def
  currentrgbcolor
  /ColB exch def /ColG exch def /ColR exch def
  /ColR ColR Fillden mul Fillden sub 1 add def
  /ColG ColG Fillden mul Fillden sub 1 add def
  /ColB ColB Fillden mul Fillden sub 1 add def
  ColR ColG ColB setrgbcolor} def
/BoxColFill {gsave Rec PolyFill} def
/PolyFill {gsave Density fill grestore grestore} def
/h {rlineto rlineto rlineto closepath gsave fill grestore stroke} bind def
%
% PostScript Level 1 Pattern Fill routine for rectangles
% Usage: x y w h s a XX PatternFill
%	x,y = lower left corner of box to be filled
%	w,h = width and height of box
%	  a = angle in degrees between lines and x-axis
%	 XX = 0/1 for no/yes cross-hatch
%
/PatternFill {gsave /PFa [ 9 2 roll ] def
  PFa 0 get PFa 2 get 2 div add PFa 1 get PFa 3 get 2 div add translate
  PFa 2 get -2 div PFa 3 get -2 div PFa 2 get PFa 3 get Rec
  TransparentPatterns {} {gsave 1 setgray fill grestore} ifelse
  clip
  currentlinewidth 0.5 mul setlinewidth
  /PFs PFa 2 get dup mul PFa 3 get dup mul add sqrt def
  0 0 M PFa 5 get rotate PFs -2 div dup translate
  0 1 PFs PFa 4 get div 1 add floor cvi
	{PFa 4 get mul 0 M 0 PFs V} for
  0 PFa 6 get ne {
	0 1 PFs PFa 4 get div 1 add floor cvi
	{PFa 4 get mul 0 2 1 roll M PFs 0 V} for
 } if
  stroke grestore} def
%
/languagelevel where
 {pop languagelevel} {1} ifelse
dup 2 lt
	{/InterpretLevel1 true def
	 /InterpretLevel3 false def}
	{/InterpretLevel1 Level1 def
	 2 gt
	    {/InterpretLevel3 Level3 def}
	    {/InterpretLevel3 false def}
	 ifelse }
 ifelse
%
% PostScript level 2 pattern fill definitions
%
/Level2PatternFill {
/Tile8x8 {/PaintType 2 /PatternType 1 /TilingType 1 /BBox [0 0 8 8] /XStep 8 /YStep 8}
	bind def
/KeepColor {currentrgbcolor [/Pattern /DeviceRGB] setcolorspace} bind def
<< Tile8x8
 /PaintProc {0.5 setlinewidth pop 0 0 M 8 8 L 0 8 M 8 0 L stroke} 
>> matrix makepattern
/Pat1 exch def
<< Tile8x8
 /PaintProc {0.5 setlinewidth pop 0 0 M 8 8 L 0 8 M 8 0 L stroke
	0 4 M 4 8 L 8 4 L 4 0 L 0 4 L stroke}
>> matrix makepattern
/Pat2 exch def
<< Tile8x8
 /PaintProc {0.5 setlinewidth pop 0 0 M 0 8 L
	8 8 L 8 0 L 0 0 L fill}
>> matrix makepattern
/Pat3 exch def
<< Tile8x8
 /PaintProc {0.5 setlinewidth pop -4 8 M 8 -4 L
	0 12 M 12 0 L stroke}
>> matrix makepattern
/Pat4 exch def
<< Tile8x8
 /PaintProc {0.5 setlinewidth pop -4 0 M 8 12 L
	0 -4 M 12 8 L stroke}
>> matrix makepattern
/Pat5 exch def
<< Tile8x8
 /PaintProc {0.5 setlinewidth pop -2 8 M 4 -4 L
	0 12 M 8 -4 L 4 12 M 10 0 L stroke}
>> matrix makepattern
/Pat6 exch def
<< Tile8x8
 /PaintProc {0.5 setlinewidth pop -2 0 M 4 12 L
	0 -4 M 8 12 L 4 -4 M 10 8 L stroke}
>> matrix makepattern
/Pat7 exch def
<< Tile8x8
 /PaintProc {0.5 setlinewidth pop 8 -2 M -4 4 L
	12 0 M -4 8 L 12 4 M 0 10 L stroke}
>> matrix makepattern
/Pat8 exch def
<< Tile8x8
 /PaintProc {0.5 setlinewidth pop 0 -2 M 12 4 L
	-4 0 M 12 8 L -4 4 M 8 10 L stroke}
>> matrix makepattern
/Pat9 exch def
/Pattern1 {PatternBgnd KeepColor Pat1 setpattern} bind def
/Pattern2 {PatternBgnd KeepColor Pat2 setpattern} bind def
/Pattern3 {PatternBgnd KeepColor Pat3 setpattern} bind def
/Pattern4 {PatternBgnd KeepColor Landscape {Pat5} {Pat4} ifelse setpattern} bind def
/Pattern5 {PatternBgnd KeepColor Landscape {Pat4} {Pat5} ifelse setpattern} bind def
/Pattern6 {PatternBgnd KeepColor Landscape {Pat9} {Pat6} ifelse setpattern} bind def
/Pattern7 {PatternBgnd KeepColor Landscape {Pat8} {Pat7} ifelse setpattern} bind def
} def
%
%
%End of PostScript Level 2 code
%
/PatternBgnd {
  TransparentPatterns {} {gsave 1 setgray fill grestore} ifelse
} def
%
% Substitute for Level 2 pattern fill codes with
% grayscale if Level 2 support is not selected.
%
/Level1PatternFill {
/Pattern1 {0.250 Density} bind def
/Pattern2 {0.500 Density} bind def
/Pattern3 {0.750 Density} bind def
/Pattern4 {0.125 Density} bind def
/Pattern5 {0.375 Density} bind def
/Pattern6 {0.625 Density} bind def
/Pattern7 {0.875 Density} bind def
} def
%
% Now test for support of Level 2 code
%
Level1 {Level1PatternFill} {Level2PatternFill} ifelse
%
/Symbol-Oblique /Symbol findfont [1 0 .167 1 0 0] makefont
dup length dict begin {1 index /FID eq {pop pop} {def} ifelse} forall
currentdict end definefont pop
%
/Metrics {ExtendTextBox Gswidth} def
/Lwidth {currentpoint stroke M 0 vshift R Metrics} def
/Rwidth {currentpoint stroke M dup stringwidth pop neg vshift R Metrics} def
/Cwidth {currentpoint stroke M dup stringwidth pop -2 div vshift R Metrics} def
/GLwidth {currentpoint stroke M 0 vshift R {ExtendTextBox} forall} def
/GRwidth {currentpoint stroke M dup Gwidth vshift R {ExtendTextBox} forall} def
/GCwidth {currentpoint stroke M dup Gwidth 2 div vshift R {ExtendTextBox} forall} def
/GLwidth2 {0 Gwidth AddGlyphWidth} def
/GRwidth2 {Gwidth -1 mul 0 AddGlyphWidth} def
/GCwidth2 {Gwidth 2 div dup -1 mul AddGlyphWidth} def
/AddGlyphWidth { dup TBx2 gt {userdict /TBx2 3 -1 roll put} {pop} ifelse
                 dup TBx1 lt {userdict /TBx1 3 -1 roll put} {pop} ifelse } def
/MFshow {
   { dup 5 get 3 ge
     { 5 get 3 eq {gsave} {grestore} ifelse }
     {dup dup 0 get findfont exch 1 get scalefont setfont
     [ currentpoint ] exch dup 2 get 0 exch R dup 5 get 2 ne {dup dup 6
     get exch 4 get {textshow} {Metrics pop 0 R} ifelse }if dup 5 get 0 eq
     {dup 3 get {2 get neg 0 exch R pop} {pop aload pop M} ifelse} {dup 5
     get 1 eq {dup 2 get exch dup 3 get exch 6 get Gswidth pop -2 div
     dup 0 R} {dup 6 get Gswidth pop -2 div 0 R 6 get
     textshow 2 index {aload pop M neg 3 -1 roll neg R pop pop} {pop pop pop
     pop aload pop M} ifelse }ifelse }ifelse }
     ifelse }
   forall} def
/Gswidth {dup type /stringtype eq {stringwidth} {pop (n) stringwidth} ifelse} def
/MFwidth {0 exch { dup 5 get 3 ge { 5 get 3 eq { 0 } { pop } ifelse }
 {dup 3 get{dup dup 0 get findfont exch 1 get scalefont setfont
     6 get Gswidth pop add} {pop} ifelse} ifelse} forall} def
/MLshow { currentpoint stroke M
  0 exch R
  Blacktext {gsave 0 setgray MFshow grestore} {MFshow} ifelse } bind def
/MRshow { currentpoint stroke M
  exch dup MFwidth neg 3 -1 roll R
  Blacktext {gsave 0 setgray MFshow grestore} {MFshow} ifelse } bind def
/MCshow { currentpoint stroke M
  exch dup MFwidth -2 div 3 -1 roll R
  Blacktext {gsave 0 setgray MFshow grestore} {MFshow} ifelse } bind def
/XYsave    { [( ) 1 2 true false 3 ()] } bind def
/XYrestore { [( ) 1 2 true false 4 ()] } bind def
Level1 SuppressPDFMark or 
{} {
/SDict 10 dict def
systemdict /pdfmark known not {
  userdict /pdfmark systemdict /cleartomark get put
} if
SDict begin [
  /Title (Results.daisy.v100/Run.001/FLOPS.128/GPU_Blocks.0320/GPU_Threads.0512/graph2.ps)
  /Subject (gnuplot plot)
  /Creator (gnuplot 5.2 patchlevel 7)
%  /Producer (gnuplot)
%  /Keywords ()
  /CreationDate (Sun Jan 19 15:23:19 2020)
  /DOCINFO pdfmark
end
} ifelse
%
% Support for boxed text - Ethan A Merritt Sep 2016
%
/InitTextBox { userdict /TBy2 3 -1 roll put userdict /TBx2 3 -1 roll put
           userdict /TBy1 3 -1 roll put userdict /TBx1 3 -1 roll put
	   /Boxing true def } def
/ExtendTextBox { dup type /stringtype eq
    { Boxing { gsave dup false charpath pathbbox
      dup TBy2 gt {userdict /TBy2 3 -1 roll put} {pop} ifelse
      dup TBx2 gt {userdict /TBx2 3 -1 roll put} {pop} ifelse
      dup TBy1 lt {userdict /TBy1 3 -1 roll put} {pop} ifelse
      dup TBx1 lt {userdict /TBx1 3 -1 roll put} {pop} ifelse
      grestore } if }
    {} ifelse} def
/PopTextBox { newpath TBx1 TBxmargin sub TBy1 TBymargin sub M
               TBx1 TBxmargin sub TBy2 TBymargin add L
	       TBx2 TBxmargin add TBy2 TBymargin add L
	       TBx2 TBxmargin add TBy1 TBymargin sub L closepath } def
/DrawTextBox { PopTextBox stroke /Boxing false def} def
/FillTextBox { gsave PopTextBox fill grestore /Boxing false def} def
0 0 0 0 InitTextBox
/TBxmargin 20 def
/TBymargin 20 def
/Boxing false def
/textshow { ExtendTextBox Gshow } def
%
end
%%EndProlog
%%Page: 1 1
gnudict begin
gsave
doclip
50 50 translate
0.100 0.100 scale
90 rotate
0 -5040 translate
0 setgray
newpath
(Helvetica) findfont 140 scalefont setfont
BackgroundColor 0 lt 3 1 roll 0 lt exch 0 lt or or not {gsave BackgroundColor C clippath fill grestore} if
1.000 UL
LTb
LCb setrgbcolor
1.000 UL
LTa
LCa setrgbcolor
770 448 M
6107 0 V
stroke
LTb
LCb setrgbcolor
770 448 M
63 0 V
6044 0 R
-63 0 V
stroke
686 448 M
[ [(Helvetica) 140.0 0.0 true true 0 (1e-02)]
] -46.7 MRshow
/Helvetica findfont 140 scalefont setfont
/vshift -46 def
1.000 UL
LTb
LCb setrgbcolor
1.000 UL
LTa
LCa setrgbcolor
770 699 M
6107 0 V
stroke
LTb
LCb setrgbcolor
770 699 M
31 0 V
6076 0 R
-31 0 V
stroke
LTa
LCa setrgbcolor
770 846 M
6107 0 V
stroke
LTb
LCb setrgbcolor
770 846 M
31 0 V
6076 0 R
-31 0 V
stroke
LTa
LCa setrgbcolor
770 950 M
6107 0 V
stroke
LTb
LCb setrgbcolor
770 950 M
31 0 V
6076 0 R
-31 0 V
stroke
LTa
LCa setrgbcolor
770 1031 M
6107 0 V
stroke
LTb
LCb setrgbcolor
770 1031 M
31 0 V
6076 0 R
-31 0 V
stroke
LTa
LCa setrgbcolor
770 1097 M
6107 0 V
stroke
LTb
LCb setrgbcolor
770 1097 M
31 0 V
6076 0 R
-31 0 V
stroke
LTa
LCa setrgbcolor
770 1153 M
6107 0 V
stroke
LTb
LCb setrgbcolor
770 1153 M
31 0 V
6076 0 R
-31 0 V
stroke
LTa
LCa setrgbcolor
770 1201 M
6107 0 V
stroke
LTb
LCb setrgbcolor
770 1201 M
31 0 V
6076 0 R
-31 0 V
stroke
LTa
LCa setrgbcolor
770 1244 M
6107 0 V
stroke
LTb
LCb setrgbcolor
770 1244 M
31 0 V
6076 0 R
-31 0 V
stroke
LTa
LCa setrgbcolor
770 1282 M
6107 0 V
stroke
LTb
LCb setrgbcolor
770 1282 M
63 0 V
6044 0 R
-63 0 V
stroke
686 1282 M
[ [(Helvetica) 140.0 0.0 true true 0 (1e-01)]
] -46.7 MRshow
/Helvetica findfont 140 scalefont setfont
1.000 UL
LTb
LCb setrgbcolor
1.000 UL
LTa
LCa setrgbcolor
770 1533 M
6107 0 V
stroke
LTb
LCb setrgbcolor
770 1533 M
31 0 V
6076 0 R
-31 0 V
stroke
LTa
LCa setrgbcolor
770 1680 M
6107 0 V
stroke
LTb
LCb setrgbcolor
770 1680 M
31 0 V
6076 0 R
-31 0 V
stroke
LTa
LCa setrgbcolor
770 1784 M
6107 0 V
stroke
LTb
LCb setrgbcolor
770 1784 M
31 0 V
6076 0 R
-31 0 V
stroke
LTa
LCa setrgbcolor
770 1865 M
6107 0 V
stroke
LTb
LCb setrgbcolor
770 1865 M
31 0 V
6076 0 R
-31 0 V
stroke
LTa
LCa setrgbcolor
770 1931 M
6107 0 V
stroke
LTb
LCb setrgbcolor
770 1931 M
31 0 V
6076 0 R
-31 0 V
stroke
LTa
LCa setrgbcolor
770 1987 M
6107 0 V
stroke
LTb
LCb setrgbcolor
770 1987 M
31 0 V
6076 0 R
-31 0 V
stroke
LTa
LCa setrgbcolor
770 2036 M
6107 0 V
stroke
LTb
LCb setrgbcolor
770 2036 M
31 0 V
6076 0 R
-31 0 V
stroke
LTa
LCa setrgbcolor
770 2078 M
6107 0 V
stroke
LTb
LCb setrgbcolor
770 2078 M
31 0 V
6076 0 R
-31 0 V
stroke
LTa
LCa setrgbcolor
770 2116 M
6107 0 V
stroke
LTb
LCb setrgbcolor
770 2116 M
63 0 V
6044 0 R
-63 0 V
stroke
686 2116 M
[ [(Helvetica) 140.0 0.0 true true 0 (1e+00)]
] -46.7 MRshow
/Helvetica findfont 140 scalefont setfont
1.000 UL
LTb
LCb setrgbcolor
1.000 UL
LTa
LCa setrgbcolor
770 2368 M
6107 0 V
stroke
LTb
LCb setrgbcolor
770 2368 M
31 0 V
6076 0 R
-31 0 V
stroke
LTa
LCa setrgbcolor
770 2514 M
6107 0 V
stroke
LTb
LCb setrgbcolor
770 2514 M
31 0 V
6076 0 R
-31 0 V
stroke
LTa
LCa setrgbcolor
770 2619 M
6107 0 V
stroke
LTb
LCb setrgbcolor
770 2619 M
31 0 V
6076 0 R
-31 0 V
stroke
LTa
LCa setrgbcolor
770 2699 M
6107 0 V
stroke
LTb
LCb setrgbcolor
770 2699 M
31 0 V
6076 0 R
-31 0 V
stroke
LTa
LCa setrgbcolor
770 2766 M
6107 0 V
stroke
LTb
LCb setrgbcolor
770 2766 M
31 0 V
6076 0 R
-31 0 V
stroke
LTa
LCa setrgbcolor
770 2821 M
6107 0 V
stroke
LTb
LCb setrgbcolor
770 2821 M
31 0 V
6076 0 R
-31 0 V
stroke
LTa
LCa setrgbcolor
770 2870 M
6107 0 V
stroke
LTb
LCb setrgbcolor
770 2870 M
31 0 V
6076 0 R
-31 0 V
stroke
LTa
LCa setrgbcolor
770 2912 M
6107 0 V
stroke
LTb
LCb setrgbcolor
770 2912 M
31 0 V
6076 0 R
-31 0 V
stroke
LTa
LCa setrgbcolor
770 2951 M
6107 0 V
stroke
LTb
LCb setrgbcolor
770 2951 M
63 0 V
6044 0 R
-63 0 V
stroke
686 2951 M
[ [(Helvetica) 140.0 0.0 true true 0 (1e+01)]
] -46.7 MRshow
/Helvetica findfont 140 scalefont setfont
1.000 UL
LTb
LCb setrgbcolor
1.000 UL
LTa
LCa setrgbcolor
770 3202 M
6107 0 V
stroke
LTb
LCb setrgbcolor
770 3202 M
31 0 V
6076 0 R
-31 0 V
stroke
LTa
LCa setrgbcolor
770 3349 M
6107 0 V
stroke
LTb
LCb setrgbcolor
770 3349 M
31 0 V
6076 0 R
-31 0 V
stroke
LTa
LCa setrgbcolor
770 3453 M
6107 0 V
stroke
LTb
LCb setrgbcolor
770 3453 M
31 0 V
6076 0 R
-31 0 V
stroke
LTa
LCa setrgbcolor
770 3534 M
6107 0 V
stroke
LTb
LCb setrgbcolor
770 3534 M
31 0 V
6076 0 R
-31 0 V
stroke
LTa
LCa setrgbcolor
770 3600 M
6107 0 V
stroke
LTb
LCb setrgbcolor
770 3600 M
31 0 V
6076 0 R
-31 0 V
stroke
LTa
LCa setrgbcolor
770 3656 M
6107 0 V
stroke
LTb
LCb setrgbcolor
770 3656 M
31 0 V
6076 0 R
-31 0 V
stroke
LTa
LCa setrgbcolor
770 3704 M
6107 0 V
stroke
LTb
LCb setrgbcolor
770 3704 M
31 0 V
6076 0 R
-31 0 V
stroke
LTa
LCa setrgbcolor
770 3747 M
6107 0 V
stroke
LTb
LCb setrgbcolor
770 3747 M
31 0 V
6076 0 R
-31 0 V
stroke
LTa
LCa setrgbcolor
770 3785 M
6107 0 V
stroke
LTb
LCb setrgbcolor
770 3785 M
63 0 V
6044 0 R
-63 0 V
stroke
686 3785 M
[ [(Helvetica) 140.0 0.0 true true 0 (1e+02)]
] -46.7 MRshow
/Helvetica findfont 140 scalefont setfont
1.000 UL
LTb
LCb setrgbcolor
1.000 UL
LTa
LCa setrgbcolor
770 4036 M
6107 0 V
stroke
LTb
LCb setrgbcolor
770 4036 M
31 0 V
6076 0 R
-31 0 V
stroke
LTa
LCa setrgbcolor
770 4183 M
6107 0 V
stroke
LTb
LCb setrgbcolor
770 4183 M
31 0 V
6076 0 R
-31 0 V
stroke
LTa
LCa setrgbcolor
770 4287 M
6107 0 V
stroke
LTb
LCb setrgbcolor
770 4287 M
31 0 V
6076 0 R
-31 0 V
stroke
LTa
LCa setrgbcolor
770 4368 M
6107 0 V
stroke
LTb
LCb setrgbcolor
770 4368 M
31 0 V
6076 0 R
-31 0 V
stroke
LTa
LCa setrgbcolor
770 4434 M
6107 0 V
stroke
LTb
LCb setrgbcolor
770 4434 M
31 0 V
6076 0 R
-31 0 V
stroke
LTa
LCa setrgbcolor
770 4490 M
6107 0 V
stroke
LTb
LCb setrgbcolor
770 4490 M
31 0 V
6076 0 R
-31 0 V
stroke
LTa
LCa setrgbcolor
770 4538 M
6107 0 V
stroke
LTb
LCb setrgbcolor
770 4538 M
31 0 V
6076 0 R
-31 0 V
stroke
LTa
LCa setrgbcolor
770 4581 M
6107 0 V
stroke
LTb
LCb setrgbcolor
770 4581 M
31 0 V
6076 0 R
-31 0 V
stroke
LTa
LCa setrgbcolor
770 4619 M
6107 0 V
stroke
LTb
LCb setrgbcolor
770 4619 M
63 0 V
6044 0 R
-63 0 V
stroke
686 4619 M
[ [(Helvetica) 140.0 0.0 true true 0 (1e+03)]
] -46.7 MRshow
/Helvetica findfont 140 scalefont setfont
1.000 UL
LTb
LCb setrgbcolor
1.000 UL
LTa
LCa setrgbcolor
1067 448 M
0 4171 V
stroke
LTb
LCb setrgbcolor
1067 448 M
0 31 V
0 4140 R
0 -31 V
stroke
LTa
LCa setrgbcolor
1246 448 M
0 4171 V
stroke
LTb
LCb setrgbcolor
1246 448 M
0 31 V
0 4140 R
0 -31 V
stroke
LTa
LCa setrgbcolor
1374 448 M
0 4171 V
stroke
LTb
LCb setrgbcolor
1374 448 M
0 31 V
0 4140 R
0 -31 V
stroke
LTa
LCa setrgbcolor
1473 448 M
0 4171 V
stroke
LTb
LCb setrgbcolor
1473 448 M
0 31 V
0 4140 R
0 -31 V
stroke
LTa
LCa setrgbcolor
1553 448 M
0 4171 V
stroke
LTb
LCb setrgbcolor
1553 448 M
0 31 V
0 4140 R
0 -31 V
stroke
LTa
LCa setrgbcolor
1622 448 M
0 4171 V
stroke
LTb
LCb setrgbcolor
1622 448 M
0 31 V
0 4140 R
0 -31 V
stroke
LTa
LCa setrgbcolor
1681 448 M
0 4171 V
stroke
LTb
LCb setrgbcolor
1681 448 M
0 31 V
0 4140 R
0 -31 V
stroke
LTa
LCa setrgbcolor
1733 448 M
0 4171 V
stroke
LTb
LCb setrgbcolor
1733 448 M
0 31 V
0 4140 R
0 -31 V
stroke
LTa
LCa setrgbcolor
1780 448 M
0 4171 V
stroke
LTb
LCb setrgbcolor
1780 448 M
0 63 V
0 4108 R
0 -63 V
stroke
1780 308 M
[ [(Helvetica) 140.0 0.0 true true 0 (1e+04)]
] -46.7 MCshow
/Helvetica findfont 140 scalefont setfont
1.000 UL
LTb
LCb setrgbcolor
1.000 UL
LTa
LCa setrgbcolor
2087 448 M
0 4171 V
stroke
LTb
LCb setrgbcolor
2087 448 M
0 31 V
0 4140 R
0 -31 V
stroke
LTa
LCa setrgbcolor
2266 448 M
0 4171 V
stroke
LTb
LCb setrgbcolor
2266 448 M
0 31 V
0 4140 R
0 -31 V
stroke
LTa
LCa setrgbcolor
2394 448 M
0 4171 V
stroke
LTb
LCb setrgbcolor
2394 448 M
0 31 V
0 4140 R
0 -31 V
stroke
LTa
LCa setrgbcolor
2493 448 M
0 4171 V
stroke
LTb
LCb setrgbcolor
2493 448 M
0 31 V
0 4140 R
0 -31 V
stroke
LTa
LCa setrgbcolor
2573 448 M
0 4171 V
stroke
LTb
LCb setrgbcolor
2573 448 M
0 31 V
0 4140 R
0 -31 V
stroke
LTa
LCa setrgbcolor
2642 448 M
0 4171 V
stroke
LTb
LCb setrgbcolor
2642 448 M
0 31 V
0 4140 R
0 -31 V
stroke
LTa
LCa setrgbcolor
2701 448 M
0 4171 V
stroke
LTb
LCb setrgbcolor
2701 448 M
0 31 V
0 4140 R
0 -31 V
stroke
LTa
LCa setrgbcolor
2753 448 M
0 4171 V
stroke
LTb
LCb setrgbcolor
2753 448 M
0 31 V
0 4140 R
0 -31 V
stroke
LTa
LCa setrgbcolor
2800 448 M
0 4171 V
stroke
LTb
LCb setrgbcolor
2800 448 M
0 63 V
0 4108 R
0 -63 V
stroke
2800 308 M
[ [(Helvetica) 140.0 0.0 true true 0 (1e+05)]
] -46.7 MCshow
/Helvetica findfont 140 scalefont setfont
1.000 UL
LTb
LCb setrgbcolor
1.000 UL
LTa
LCa setrgbcolor
3107 448 M
0 4171 V
stroke
LTb
LCb setrgbcolor
3107 448 M
0 31 V
0 4140 R
0 -31 V
stroke
LTa
LCa setrgbcolor
3286 448 M
0 4171 V
stroke
LTb
LCb setrgbcolor
3286 448 M
0 31 V
0 4140 R
0 -31 V
stroke
LTa
LCa setrgbcolor
3414 448 M
0 4171 V
stroke
LTb
LCb setrgbcolor
3414 448 M
0 31 V
0 4140 R
0 -31 V
stroke
LTa
LCa setrgbcolor
3513 448 M
0 4171 V
stroke
LTb
LCb setrgbcolor
3513 448 M
0 31 V
0 4140 R
0 -31 V
stroke
LTa
LCa setrgbcolor
3593 448 M
0 4171 V
stroke
LTb
LCb setrgbcolor
3593 448 M
0 31 V
0 4140 R
0 -31 V
stroke
LTa
LCa setrgbcolor
3662 448 M
0 4171 V
stroke
LTb
LCb setrgbcolor
3662 448 M
0 31 V
0 4140 R
0 -31 V
stroke
LTa
LCa setrgbcolor
3721 448 M
0 4171 V
stroke
LTb
LCb setrgbcolor
3721 448 M
0 31 V
0 4140 R
0 -31 V
stroke
LTa
LCa setrgbcolor
3773 448 M
0 4171 V
stroke
LTb
LCb setrgbcolor
3773 448 M
0 31 V
0 4140 R
0 -31 V
stroke
LTa
LCa setrgbcolor
3820 448 M
0 4171 V
stroke
LTb
LCb setrgbcolor
3820 448 M
0 63 V
0 4108 R
0 -63 V
stroke
3820 308 M
[ [(Helvetica) 140.0 0.0 true true 0 (1e+06)]
] -46.7 MCshow
/Helvetica findfont 140 scalefont setfont
1.000 UL
LTb
LCb setrgbcolor
1.000 UL
LTa
LCa setrgbcolor
4127 448 M
0 4171 V
stroke
LTb
LCb setrgbcolor
4127 448 M
0 31 V
0 4140 R
0 -31 V
stroke
LTa
LCa setrgbcolor
4306 448 M
0 4171 V
stroke
LTb
LCb setrgbcolor
4306 448 M
0 31 V
0 4140 R
0 -31 V
stroke
LTa
LCa setrgbcolor
4434 448 M
0 4171 V
stroke
LTb
LCb setrgbcolor
4434 448 M
0 31 V
0 4140 R
0 -31 V
stroke
LTa
LCa setrgbcolor
4533 448 M
0 4171 V
stroke
LTb
LCb setrgbcolor
4533 448 M
0 31 V
0 4140 R
0 -31 V
stroke
LTa
LCa setrgbcolor
4614 448 M
0 4171 V
stroke
LTb
LCb setrgbcolor
4614 448 M
0 31 V
0 4140 R
0 -31 V
stroke
LTa
LCa setrgbcolor
4682 448 M
0 4171 V
stroke
LTb
LCb setrgbcolor
4682 448 M
0 31 V
0 4140 R
0 -31 V
stroke
LTa
LCa setrgbcolor
4741 448 M
0 4171 V
stroke
LTb
LCb setrgbcolor
4741 448 M
0 31 V
0 4140 R
0 -31 V
stroke
LTa
LCa setrgbcolor
4793 448 M
0 4171 V
stroke
LTb
LCb setrgbcolor
4793 448 M
0 31 V
0 4140 R
0 -31 V
stroke
LTa
LCa setrgbcolor
4840 448 M
0 4171 V
stroke
LTb
LCb setrgbcolor
4840 448 M
0 63 V
0 4108 R
0 -63 V
stroke
4840 308 M
[ [(Helvetica) 140.0 0.0 true true 0 (1e+07)]
] -46.7 MCshow
/Helvetica findfont 140 scalefont setfont
1.000 UL
LTb
LCb setrgbcolor
1.000 UL
LTa
LCa setrgbcolor
5147 448 M
0 4171 V
stroke
LTb
LCb setrgbcolor
5147 448 M
0 31 V
0 4140 R
0 -31 V
stroke
LTa
LCa setrgbcolor
5327 448 M
0 4171 V
stroke
LTb
LCb setrgbcolor
5327 448 M
0 31 V
0 4140 R
0 -31 V
stroke
LTa
LCa setrgbcolor
5454 448 M
0 4171 V
stroke
LTb
LCb setrgbcolor
5454 448 M
0 31 V
0 4140 R
0 -31 V
stroke
LTa
LCa setrgbcolor
5553 448 M
0 4171 V
stroke
LTb
LCb setrgbcolor
5553 448 M
0 31 V
0 4140 R
0 -31 V
stroke
LTa
LCa setrgbcolor
5634 448 M
0 4171 V
stroke
LTb
LCb setrgbcolor
5634 448 M
0 31 V
0 4140 R
0 -31 V
stroke
LTa
LCa setrgbcolor
5702 448 M
0 4171 V
stroke
LTb
LCb setrgbcolor
5702 448 M
0 31 V
0 4140 R
0 -31 V
stroke
LTa
LCa setrgbcolor
5761 448 M
0 4171 V
stroke
LTb
LCb setrgbcolor
5761 448 M
0 31 V
0 4140 R
0 -31 V
stroke
LTa
LCa setrgbcolor
5813 448 M
0 4171 V
stroke
LTb
LCb setrgbcolor
5813 448 M
0 31 V
0 4140 R
0 -31 V
stroke
LTa
LCa setrgbcolor
5860 448 M
0 4171 V
stroke
LTb
LCb setrgbcolor
5860 448 M
0 63 V
0 4108 R
0 -63 V
stroke
5860 308 M
[ [(Helvetica) 140.0 0.0 true true 0 (1e+08)]
] -46.7 MCshow
/Helvetica findfont 140 scalefont setfont
1.000 UL
LTb
LCb setrgbcolor
1.000 UL
LTa
LCa setrgbcolor
6167 448 M
0 4171 V
stroke
LTb
LCb setrgbcolor
6167 448 M
0 31 V
0 4140 R
0 -31 V
stroke
LTa
LCa setrgbcolor
6347 448 M
0 4171 V
stroke
LTb
LCb setrgbcolor
6347 448 M
0 31 V
0 4140 R
0 -31 V
stroke
LTa
LCa setrgbcolor
6474 448 M
0 4171 V
stroke
LTb
LCb setrgbcolor
6474 448 M
0 31 V
0 4140 R
0 -31 V
stroke
LTa
LCa setrgbcolor
6573 448 M
0 4171 V
stroke
LTb
LCb setrgbcolor
6573 448 M
0 31 V
0 4140 R
0 -31 V
stroke
LTa
LCa setrgbcolor
6654 448 M
0 4171 V
stroke
LTb
LCb setrgbcolor
6654 448 M
0 31 V
0 4140 R
0 -31 V
stroke
LTa
LCa setrgbcolor
6722 448 M
0 4171 V
stroke
LTb
LCb setrgbcolor
6722 448 M
0 31 V
0 4140 R
0 -31 V
stroke
LTa
LCa setrgbcolor
6781 448 M
0 4171 V
stroke
LTb
LCb setrgbcolor
6781 448 M
0 31 V
0 4140 R
0 -31 V
stroke
LTa
LCa setrgbcolor
6833 448 M
0 4171 V
stroke
LTb
LCb setrgbcolor
6833 448 M
0 31 V
0 4140 R
0 -31 V
stroke
LTa
LCa setrgbcolor
6880 448 M
0 4171 V
stroke
LTb
LCb setrgbcolor
1.000 UL
LTB
LCb setrgbcolor
770 4619 N
770 448 L
6107 0 V
0 4171 V
-6107 0 V
Z stroke
1.000 UP
1.000 UL
LTb
LCb setrgbcolor
LCb setrgbcolor
196 2533 M
currentpoint gsave translate -270 rotate 0 0 moveto
[ [(Helvetica) 140.0 0.0 true true 0 (Total Bandwidth \(GB/s\))]
] -46.7 MCshow
grestore
/Helvetica findfont 140 scalefont setfont
LTb
LCb setrgbcolor
LTb
LCb setrgbcolor
3823 98 M
[ [(Helvetica) 140.0 0.0 true true 0 (Working Set Size \(bytes\))]
] -46.7 MCshow
/Helvetica findfont 140 scalefont setfont
LTb
LCb setrgbcolor
3823 4829 M
[ [(Helvetica) 140.0 0.0 true true 0 (Graph 2 \(Results.daisy.v100/Run.001/FLOPS.128/GPU)]
[(Helvetica) 112.0 -42.0 true true 0 (B)]
[(Helvetica) 140.0 0.0 true true 0 (locks.0320/GPU)]
[(Helvetica) 112.0 -42.0 true true 0 (T)]
[(Helvetica) 140.0 0.0 true true 0 (hreads.0512\))]
] -32.7 MCshow
/Helvetica findfont 140 scalefont setfont
LTb
LCb setrgbcolor
LTb
LCb setrgbcolor
% Begin plot #1
0.400 UP
1.000 UL
LTb
0.58 0.00 0.83 C
770 1250 M
0 499 V
0 238 V
0 236 V
0 150 V
0 117 V
0 53 V
0 72 V
0 -8 V
0 29 V
0 -3 V
0 8 V
0 3 V
0 1 V
0 1 V
810 1323 M
0 482 V
0 241 V
0 201 V
0 146 V
0 113 V
0 61 V
0 65 V
0 25 V
0 5 V
0 -8 V
0 12 V
0 -4 V
0 3 V
0 1 V
852 1387 M
0 463 V
0 224 V
0 200 V
0 158 V
0 107 V
0 83 V
0 40 V
0 20 V
0 19 V
0 -7 V
0 3 V
0 2 V
0 1 V
893 1374 M
0 484 V
0 252 V
0 178 V
0 182 V
0 109 V
0 80 V
0 43 V
0 23 V
0 -4 V
0 12 V
0 -1 V
0 2 V
0 1 V
0 -1 V
933 1456 M
0 468 V
0 210 V
0 219 V
0 135 V
0 125 V
0 74 V
0 44 V
0 22 V
0 -9 V
0 13 V
0 4 V
0 4 V
0 1 V
974 1468 M
0 484 V
0 237 V
0 170 V
0 167 V
0 124 V
0 74 V
0 42 V
0 24 V
0 -14 V
0 16 V
0 4 V
0 4 V
0 1 V
42 -1339 R
0 517 V
0 242 V
0 194 V
0 149 V
0 117 V
0 77 V
0 40 V
0 16 V
0 19 V
0 -7 V
0 4 V
0 -1 V
0 3 V
0 1 V
0 1 V
42 -1268 R
0 431 V
0 240 V
0 207 V
0 159 V
0 107 V
0 80 V
0 45 V
0 24 V
0 1 V
0 -5 V
0 12 V
0 1 V
0 -1 V
0 1 V
41 -1290 R
0 464 V
0 228 V
0 179 V
0 133 V
0 107 V
0 68 V
0 37 V
0 22 V
0 4 V
0 -6 V
0 9 V
0 2 V
41 -1210 R
0 387 V
0 277 V
0 196 V
0 149 V
0 93 V
0 73 V
0 38 V
0 19 V
0 1 V
0 4 V
0 4 V
0 2 V
0 -1 V
0 1 V
0 1 V
41 -1200 R
0 418 V
0 260 V
0 173 V
0 145 V
0 107 V
0 65 V
0 34 V
0 5 V
0 25 V
0 -11 V
0 8 V
0 2 V
0 1 V
0 1 V
0 1 V
42 -1195 R
0 427 V
0 238 V
0 187 V
0 140 V
0 101 V
0 67 V
0 25 V
0 33 V
0 7 V
0 -9 V
0 11 V
0 -1 V
0 1 V
0 1 V
0 1 V
42 -1193 R
0 429 V
0 216 V
0 165 V
0 107 V
0 113 V
0 60 V
0 30 V
0 24 V
0 -7 V
0 7 V
0 1 V
0 1 V
0 1 V
42 -1125 R
0 437 V
0 216 V
0 174 V
0 138 V
0 87 V
0 50 V
0 29 V
0 5 V
0 20 V
0 -6 V
0 7 V
0 1 V
0 1 V
42 -1125 R
0 442 V
0 201 V
0 182 V
0 128 V
0 97 V
0 52 V
0 31 V
0 23 V
0 -6 V
0 7 V
0 1 V
0 1 V
42 -1161 R
0 412 V
0 267 V
0 184 V
0 118 V
0 86 V
0 67 V
0 31 V
0 14 V
0 12 V
0 -6 V
0 8 V
0 1 V
0 1 V
0 1 V
42 -1122 R
0 448 V
0 210 V
0 165 V
0 125 V
0 94 V
0 57 V
0 30 V
0 11 V
0 3 V
0 5 V
0 6 V
0 1 V
0 1 V
42 -1124 R
0 444 V
stroke 1475 2338 M
0 210 V
0 179 V
0 130 V
0 82 V
0 57 V
0 28 V
0 18 V
0 7 V
0 -7 V
0 8 V
0 2 V
0 1 V
42 -1123 R
0 449 V
0 183 V
0 194 V
0 132 V
0 84 V
0 58 V
0 30 V
0 8 V
0 1 V
0 7 V
0 8 V
0 1 V
0 1 V
0 1 V
42 -1121 R
0 439 V
0 195 V
0 196 V
0 122 V
0 92 V
0 55 V
0 28 V
0 18 V
0 8 V
0 -7 V
0 7 V
0 1 V
0 1 V
42 -1168 R
0 475 V
0 223 V
0 179 V
0 130 V
0 82 V
0 57 V
0 21 V
0 21 V
0 1 V
0 6 V
0 5 V
0 1 V
0 1 V
0 1 V
42 -1140 R
0 463 V
0 222 V
0 116 V
0 160 V
0 87 V
0 67 V
0 30 V
0 16 V
0 5 V
0 -4 V
0 8 V
0 1 V
0 1 V
42 -1110 R
0 414 V
0 171 V
0 223 V
0 141 V
0 81 V
0 48 V
0 41 V
0 16 V
0 6 V
0 -7 V
0 8 V
0 2 V
0 1 V
42 -1141 R
0 459 V
0 204 V
0 164 V
0 142 V
0 98 V
0 43 V
0 40 V
0 16 V
0 4 V
0 -5 V
0 7 V
0 1 V
0 1 V
0 1 V
43 -1164 R
0 482 V
0 211 V
0 184 V
0 125 V
0 85 V
0 53 V
0 19 V
0 21 V
0 4 V
0 4 V
0 8 V
0 1 V
0 1 V
42 -1111 R
0 419 V
0 227 V
0 170 V
0 114 V
0 105 V
0 42 V
0 42 V
0 18 V
0 6 V
0 -9 V
0 8 V
0 3 V
0 1 V
42 -1138 R
0 454 V
0 227 V
0 156 V
0 133 V
0 87 V
0 59 V
0 13 V
0 16 V
0 25 V
0 -8 V
0 8 V
0 1 V
0 1 V
42 -1107 R
0 419 V
0 218 V
0 177 V
0 123 V
0 96 V
0 50 V
0 23 V
0 21 V
0 1 V
0 5 V
0 6 V
0 1 V
0 1 V
0 1 V
42 -1110 R
0 408 V
0 227 V
0 180 V
0 132 V
0 85 V
0 55 V
0 31 V
0 9 V
0 2 V
0 6 V
0 7 V
0 1 V
0 1 V
42 -1133 R
0 438 V
0 221 V
0 125 V
0 176 V
0 95 V
0 57 V
0 29 V
0 10 V
0 1 V
0 5 V
0 7 V
0 2 V
0 1 V
42 -1138 R
0 394 V
0 251 V
0 191 V
0 126 V
0 80 V
0 50 V
0 50 V
0 6 V
0 15 V
0 -1 V
0 8 V
0 1 V
0 1 V
0 1 V
42 -1142 R
0 461 V
0 203 V
0 181 V
0 136 V
0 80 V
0 59 V
0 23 V
0 13 V
0 4 V
0 7 V
0 7 V
0 1 V
0 1 V
42 -1112 R
0 418 V
0 209 V
0 180 V
0 139 V
0 82 V
0 58 V
0 34 V
0 4 V
0 7 V
0 6 V
0 8 V
0 1 V
43 -1127 R
0 446 V
0 217 V
0 170 V
0 132 V
0 68 V
0 71 V
0 32 V
0 4 V
0 13 V
0 -1 V
0 8 V
0 1 V
0 1 V
42 -1152 R
0 450 V
0 229 V
0 182 V
0 124 V
0 88 V
0 56 V
0 33 V
0 -2 V
stroke 2191 3609 M
0 17 V
0 -2 V
0 10 V
0 1 V
42 -1096 R
0 406 V
0 221 V
0 179 V
0 130 V
0 87 V
0 48 V
0 21 V
0 23 V
0 2 V
0 5 V
0 7 V
0 1 V
0 1 V
42 -1102 R
0 428 V
0 205 V
0 170 V
0 139 V
0 87 V
0 39 V
0 30 V
0 14 V
0 9 V
0 6 V
0 7 V
0 2 V
0 1 V
42 -1113 R
0 435 V
0 210 V
0 173 V
0 129 V
0 86 V
0 57 V
0 31 V
0 5 V
0 4 V
0 6 V
0 9 V
0 1 V
0 1 V
42 -1139 R
0 467 V
0 200 V
0 163 V
0 148 V
0 81 V
0 58 V
0 29 V
0 2 V
0 13 V
0 1 V
0 9 V
0 1 V
0 1 V
43 -1096 R
0 413 V
0 222 V
0 158 V
0 133 V
0 93 V
0 46 V
0 24 V
0 23 V
0 3 V
0 6 V
0 8 V
0 1 V
0 1 V
42 -1115 R
0 439 V
0 200 V
0 175 V
0 135 V
0 92 V
0 53 V
0 29 V
0 6 V
0 10 V
0 8 V
0 1 V
0 1 V
42 -1154 R
0 425 V
0 251 V
0 156 V
0 155 V
0 67 V
0 76 V
0 25 V
0 21 V
0 2 V
0 1 V
0 7 V
0 1 V
0 1 V
0 1 V
42 -1111 R
0 409 V
0 220 V
0 162 V
0 156 V
0 83 V
0 55 V
0 26 V
0 13 V
0 3 V
0 8 V
0 7 V
0 1 V
0 2 V
42 -1137 R
0 461 V
0 218 V
0 167 V
0 105 V
0 96 V
0 67 V
0 29 V
0 9 V
0 3 V
0 8 V
0 7 V
0 1 V
0 1 V
42 -1103 R
0 424 V
0 204 V
0 175 V
0 130 V
0 91 V
0 54 V
0 21 V
0 16 V
0 4 V
0 9 V
0 6 V
0 2 V
0 1 V
43 -1147 R
0 457 V
0 211 V
0 170 V
0 145 V
0 59 V
0 72 V
0 36 V
0 10 V
0 6 V
0 6 V
0 7 V
0 2 V
42 -1147 R
0 470 V
0 213 V
0 171 V
0 124 V
0 91 V
0 56 V
0 32 V
0 4 V
0 3 V
0 8 V
0 7 V
0 1 V
0 1 V
42 -1133 R
0 455 V
0 200 V
0 174 V
0 145 V
0 81 V
0 45 V
0 32 V
0 13 V
0 9 V
0 4 V
0 8 V
0 1 V
0 1 V
42 -1143 R
0 473 V
0 194 V
0 172 V
0 132 V
0 99 V
0 50 V
0 24 V
0 13 V
0 4 V
0 7 V
0 7 V
0 1 V
0 1 V
43 -1161 R
0 476 V
0 205 V
0 187 V
0 125 V
0 86 V
0 57 V
0 24 V
0 12 V
0 8 V
0 6 V
0 8 V
0 1 V
0 1 V
42 -1148 R
0 470 V
0 199 V
0 171 V
0 135 V
0 97 V
0 53 V
0 19 V
0 19 V
0 3 V
0 6 V
0 8 V
0 2 V
42 -1142 R
0 463 V
0 195 V
0 178 V
0 137 V
0 91 V
0 53 V
0 26 V
0 13 V
0 4 V
0 7 V
0 8 V
0 1 V
0 1 V
42 -1135 R
0 453 V
0 202 V
0 176 V
0 128 V
0 75 V
0 77 V
0 15 V
0 20 V
stroke 2950 4232 M
0 6 V
0 7 V
0 8 V
0 2 V
42 -1143 R
0 469 V
0 211 V
0 161 V
0 101 V
0 114 V
0 50 V
0 44 V
0 9 V
0 3 V
0 8 V
0 5 V
0 2 V
43 -1160 R
0 461 V
0 215 V
0 183 V
0 111 V
0 105 V
0 54 V
0 26 V
0 20 V
0 3 V
0 7 V
0 8 V
0 1 V
42 -1150 R
0 468 V
0 202 V
0 187 V
0 128 V
0 82 V
0 46 V
0 38 V
0 14 V
0 3 V
0 7 V
0 8 V
0 1 V
42 -1135 R
0 465 V
0 200 V
0 165 V
0 143 V
0 88 V
0 50 V
0 33 V
0 3 V
0 20 V
0 -6 V
0 8 V
0 1 V
42 -1135 R
0 469 V
0 194 V
0 180 V
0 121 V
0 88 V
0 62 V
0 16 V
0 21 V
0 4 V
0 6 V
0 8 V
0 1 V
43 -1133 R
0 445 V
0 192 V
0 203 V
0 121 V
0 94 V
0 45 V
0 39 V
0 9 V
0 10 V
0 3 V
0 4 V
0 3 V
42 -1144 R
0 471 V
0 202 V
0 167 V
0 138 V
0 81 V
0 59 V
0 26 V
0 7 V
0 11 V
0 6 V
0 8 V
42 -1136 R
0 459 V
0 195 V
0 192 V
0 119 V
0 78 V
0 71 V
0 27 V
0 9 V
0 5 V
0 8 V
0 8 V
42 -1151 R
0 437 V
0 184 V
0 131 V
0 79 V
0 63 V
0 30 V
0 18 V
0 9 V
0 5 V
0 3 V
0 1 V
42 -937 R
0 448 V
0 166 V
0 140 V
0 94 V
0 54 V
0 32 V
0 18 V
0 9 V
0 5 V
0 1 V
0 2 V
43 -940 R
0 449 V
0 174 V
0 137 V
0 89 V
0 59 V
0 33 V
0 13 V
0 12 V
0 6 V
0 1 V
0 1 V
42 -910 R
0 426 V
0 159 V
0 143 V
0 97 V
0 52 V
0 33 V
0 18 V
0 8 V
0 5 V
0 2 V
0 1 V
42 -914 R
0 424 V
0 175 V
0 131 V
0 94 V
0 61 V
0 30 V
0 17 V
0 9 V
0 5 V
0 3 V
42 -925 R
0 443 V
0 160 V
0 145 V
0 83 V
0 63 V
0 31 V
0 18 V
0 9 V
0 5 V
0 2 V
43 -935 R
0 441 V
0 170 V
0 148 V
0 84 V
0 60 V
0 32 V
0 18 V
0 10 V
0 4 V
0 3 V
42 -951 R
0 378 V
0 231 V
0 158 V
0 95 V
0 51 V
0 37 V
0 19 V
0 9 V
0 4 V
0 2 V
42 -941 R
0 412 V
0 154 V
0 112 V
0 67 V
0 44 V
0 23 V
0 12 V
0 6 V
0 4 V
0 1 V
42 -794 R
0 401 V
0 152 V
0 121 V
0 66 V
0 41 V
0 24 V
0 13 V
0 6 V
0 3 V
0 1 V
42 -798 R
0 399 V
0 156 V
0 119 V
0 73 V
0 39 V
0 24 V
0 12 V
0 6 V
0 3 V
0 2 V
43 -794 R
0 408 V
0 145 V
0 117 V
0 71 V
0 41 V
0 23 V
0 13 V
0 6 V
0 3 V
0 1 V
42 -803 R
0 385 V
0 136 V
0 88 V
0 59 V
0 34 V
0 12 V
stroke 3837 4483 M
0 14 V
0 5 V
0 2 V
0 2 V
42 -714 R
0 397 V
0 133 V
0 88 V
0 60 V
0 34 V
0 19 V
0 9 V
0 5 V
0 2 V
42 -720 R
0 381 V
0 106 V
0 139 V
0 52 V
0 41 V
0 19 V
0 9 V
0 5 V
0 3 V
43 -1280 R
0 911 V
0 137 V
0 82 V
0 47 V
0 28 V
0 16 V
0 8 V
0 3 V
0 3 V
42 -687 R
0 404 V
0 121 V
0 88 V
0 54 V
0 28 V
0 13 V
0 8 V
0 4 V
0 2 V
42 -645 R
0 342 V
0 112 V
0 69 V
0 43 V
0 25 V
0 13 V
0 6 V
0 3 V
0 2 V
42 -571 R
0 333 V
0 109 V
0 77 V
0 39 V
0 17 V
0 19 V
0 7 V
0 2 V
0 1 V
42 -588 R
0 317 V
0 103 V
0 64 V
0 44 V
0 20 V
0 11 V
0 6 V
0 3 V
0 1 V
43 -543 R
0 338 V
0 93 V
0 63 V
0 40 V
0 23 V
0 10 V
0 6 V
0 3 V
42 -576 R
0 305 V
0 124 V
0 55 V
0 45 V
0 16 V
0 10 V
0 5 V
0 3 V
42 -528 R
0 317 V
0 84 V
0 55 V
0 33 V
0 17 V
0 8 V
0 4 V
0 3 V
42 -490 R
0 294 V
0 83 V
0 52 V
0 28 V
0 16 V
0 7 V
0 5 V
0 1 V
43 -448 R
0 290 V
0 88 V
0 46 V
0 30 V
0 15 V
0 8 V
0 4 V
0 2 V
42 -486 R
0 308 V
0 80 V
0 46 V
0 27 V
0 13 V
0 7 V
0 3 V
0 2 V
42 -443 R
0 256 V
0 71 V
0 48 V
0 22 V
0 11 V
0 5 V
0 3 V
0 2 V
42 -463 R
0 313 V
0 79 V
0 37 V
0 21 V
0 12 V
0 5 V
0 3 V
42 -370 R
0 239 V
0 67 V
0 37 V
0 19 V
0 10 V
0 5 V
0 3 V
43 -357 R
0 220 V
0 58 V
0 36 V
0 17 V
0 8 V
0 5 V
0 2 V
42 -319 R
0 210 V
0 57 V
0 34 V
0 17 V
0 9 V
0 4 V
0 2 V
42 -343 R
0 218 V
0 60 V
0 34 V
0 14 V
0 9 V
0 3 V
0 2 V
42 -342 R
0 210 V
0 74 V
0 21 V
0 24 V
0 8 V
0 3 V
0 2 V
43 -331 R
0 202 V
0 77 V
0 25 V
0 18 V
0 7 V
0 4 V
0 2 V
42 -333 R
0 213 V
0 70 V
0 30 V
0 14 V
0 6 V
0 4 V
42 -327 R
0 199 V
0 76 V
0 27 V
0 11 V
0 6 V
0 2 V
42 -308 R
0 199 V
0 63 V
0 28 V
0 10 V
0 5 V
0 3 V
42 -282 R
0 176 V
0 68 V
0 21 V
0 10 V
0 6 V
0 3 V
43 -275 R
0 169 V
0 69 V
0 20 V
0 13 V
0 7 V
0 2 V
42 -270 R
0 159 V
0 68 V
0 19 V
0 14 V
0 6 V
0 3 V
42 -248 R
0 147 V
0 57 V
0 22 V
0 16 V
0 4 V
0 3 V
42 -237 R
0 129 V
0 61 V
0 20 V
0 17 V
0 5 V
0 3 V
stroke 5061 4591 M
43 -229 R
0 122 V
0 50 V
0 29 V
0 16 V
0 8 V
42 -218 R
0 119 V
0 32 V
0 11 V
0 14 V
0 8 V
42 -172 R
0 102 V
0 27 V
0 16 V
0 3 V
0 5 V
42 -135 R
0 94 V
0 15 V
0 11 V
0 7 V
0 4 V
42 -131 R
0 95 V
0 15 V
0 11 V
0 3 V
0 4 V
43 -115 R
0 85 V
0 12 V
0 6 V
0 6 V
0 6 V
42 -107 R
0 81 V
0 15 V
0 6 V
0 1 V
0 1 V
42 -91 R
0 64 V
0 18 V
0 7 V
0 2 V
42 -86 R
0 70 V
0 9 V
0 5 V
43 -72 R
0 58 V
0 11 V
0 2 V
42 -65 R
0 47 V
0 14 V
0 3 V
42 -61 R
0 52 V
0 9 V
0 -1 V
0 -1 V
42 -51 R
0 47 V
0 1 V
0 1 V
42 -42 R
0 40 V
0 8 V
0 -6 V
43 -42 R
0 41 V
0 3 V
0 -2 V
42 -41 R
0 42 V
0 4 V
0 -7 V
42 -32 R
0 35 V
0 3 V
0 -6 V
42 -26 R
0 31 V
0 2 V
0 -8 V
43 -22 R
0 25 V
0 3 V
0 -6 V
42 -17 R
0 19 V
0 4 V
0 -6 V
42 -17 R
0 23 V
0 -1 V
0 -10 V
42 -8 R
0 22 V
0 -3 V
0 -9 V
43 -5 R
0 15 V
0 -3 V
42 -15 R
0 18 V
0 -7 V
42 -4 R
0 11 V
0 -5 V
42 -4 R
0 4 V
42 -5 R
0 8 V
0 -4 V
43 -46 R
0 49 V
0 -2 V
42 -2 R
0 3 V
0 -4 V
42 2 R
0 1 V
42 -3 R
0 4 V
43 -3 R
0 4 V
42 -3 R
0 -3 V
42 3 R
42 -2 R
0 -1 V
42 4 R
0 -1 V
43 -3 R
42 3 R
42 -2 R
42 -1 R
43 -1 R
42 1 R
42 1 R
770 1250 CircleF
770 1749 CircleF
770 1987 CircleF
770 2223 CircleF
770 2373 CircleF
770 2490 CircleF
770 2543 CircleF
770 2615 CircleF
770 2607 CircleF
770 2636 CircleF
770 2633 CircleF
770 2641 CircleF
770 2641 CircleF
770 2644 CircleF
770 2645 CircleF
770 2645 CircleF
770 2646 CircleF
770 2646 CircleF
770 2646 CircleF
770 2646 CircleF
770 2646 CircleF
810 1323 CircleF
810 1805 CircleF
810 2046 CircleF
810 2247 CircleF
810 2393 CircleF
810 2506 CircleF
810 2567 CircleF
810 2632 CircleF
810 2657 CircleF
810 2662 CircleF
810 2654 CircleF
810 2666 CircleF
810 2662 CircleF
810 2665 CircleF
810 2665 CircleF
810 2666 CircleF
810 2666 CircleF
810 2666 CircleF
810 2666 CircleF
810 2666 CircleF
852 1387 CircleF
852 1850 CircleF
852 2074 CircleF
852 2274 CircleF
852 2432 CircleF
852 2539 CircleF
852 2622 CircleF
852 2662 CircleF
852 2682 CircleF
852 2701 CircleF
852 2694 CircleF
852 2697 CircleF
852 2697 CircleF
852 2699 CircleF
852 2699 CircleF
852 2700 CircleF
852 2700 CircleF
852 2700 CircleF
852 2700 CircleF
852 2700 CircleF
893 1374 CircleF
893 1858 CircleF
893 2110 CircleF
893 2288 CircleF
893 2470 CircleF
893 2579 CircleF
893 2659 CircleF
893 2702 CircleF
893 2725 CircleF
893 2721 CircleF
893 2721 CircleF
893 2733 CircleF
893 2732 CircleF
893 2734 CircleF
893 2734 CircleF
893 2734 CircleF
893 2734 CircleF
893 2734 CircleF
893 2735 CircleF
893 2734 CircleF
933 1456 CircleF
933 1924 CircleF
933 2134 CircleF
933 2353 CircleF
933 2488 CircleF
933 2613 CircleF
933 2687 CircleF
933 2731 CircleF
933 2753 CircleF
933 2744 CircleF
933 2757 CircleF
933 2761 CircleF
933 2765 CircleF
933 2765 CircleF
933 2765 CircleF
933 2766 CircleF
933 2766 CircleF
933 2766 CircleF
933 2766 CircleF
933 2766 CircleF
974 1468 CircleF
974 1952 CircleF
974 2189 CircleF
974 2359 CircleF
974 2526 CircleF
974 2650 CircleF
974 2724 CircleF
974 2766 CircleF
974 2790 CircleF
974 2776 CircleF
974 2792 CircleF
974 2796 CircleF
974 2796 CircleF
974 2800 CircleF
974 2800 CircleF
974 2801 CircleF
974 2801 CircleF
974 2801 CircleF
974 2801 CircleF
974 2801 CircleF
1016 1462 CircleF
1016 1979 CircleF
1016 2221 CircleF
1016 2415 CircleF
1016 2564 CircleF
1016 2681 CircleF
1016 2758 CircleF
1016 2798 CircleF
1016 2814 CircleF
1016 2833 CircleF
1016 2826 CircleF
1016 2830 CircleF
1016 2829 CircleF
1016 2832 CircleF
1016 2833 CircleF
1016 2833 CircleF
1016 2834 CircleF
1016 2834 CircleF
1016 2834 CircleF
1016 2834 CircleF
1058 1566 CircleF
1058 1997 CircleF
1058 2237 CircleF
1058 2444 CircleF
1058 2603 CircleF
1058 2710 CircleF
1058 2790 CircleF
1058 2835 CircleF
1058 2859 CircleF
1058 2860 CircleF
1058 2855 CircleF
1058 2867 CircleF
1058 2867 CircleF
1058 2867 CircleF
1058 2867 CircleF
1058 2868 CircleF
1058 2868 CircleF
1058 2868 CircleF
1058 2867 CircleF
1058 2868 CircleF
1099 1578 CircleF
1099 2042 CircleF
1099 2270 CircleF
1099 2449 CircleF
1099 2582 CircleF
1099 2689 CircleF
1099 2757 CircleF
1099 2794 CircleF
1099 2816 CircleF
1099 2820 CircleF
1099 2814 CircleF
1099 2823 CircleF
1099 2823 CircleF
1099 2825 CircleF
1099 2825 CircleF
1099 2825 CircleF
1099 2825 CircleF
1099 2825 CircleF
1099 2825 CircleF
1140 1615 CircleF
1140 2002 CircleF
1140 2279 CircleF
1140 2475 CircleF
1140 2624 CircleF
1140 2717 CircleF
1140 2790 CircleF
1140 2828 CircleF
1140 2847 CircleF
1140 2848 CircleF
1140 2852 CircleF
1140 2856 CircleF
1140 2858 CircleF
1140 2857 CircleF
1140 2858 CircleF
1140 2858 CircleF
1140 2859 CircleF
1140 2859 CircleF
1140 2859 CircleF
1181 1659 CircleF
1181 2077 CircleF
1181 2337 CircleF
1181 2510 CircleF
1181 2655 CircleF
1181 2762 CircleF
1181 2827 CircleF
1181 2861 CircleF
1181 2866 CircleF
1181 2891 CircleF
1181 2880 CircleF
1181 2888 CircleF
1181 2890 CircleF
1181 2891 CircleF
1181 2892 CircleF
1181 2892 CircleF
1181 2893 CircleF
1181 2893 CircleF
1181 2893 CircleF
1223 1698 CircleF
1223 2125 CircleF
1223 2363 CircleF
1223 2550 CircleF
1223 2690 CircleF
1223 2791 CircleF
1223 2858 CircleF
1223 2883 CircleF
1223 2916 CircleF
1223 2923 CircleF
1223 2914 CircleF
1223 2925 CircleF
1223 2924 CircleF
1223 2925 CircleF
1223 2926 CircleF
1223 2927 CircleF
1223 2927 CircleF
1223 2927 CircleF
1223 2927 CircleF
1265 1734 CircleF
1265 2163 CircleF
1265 2379 CircleF
1265 2544 CircleF
1265 2651 CircleF
1265 2764 CircleF
1265 2824 CircleF
1265 2854 CircleF
1265 2854 CircleF
1265 2878 CircleF
1265 2871 CircleF
1265 2878 CircleF
1265 2879 CircleF
1265 2880 CircleF
1265 2880 CircleF
1265 2881 CircleF
1265 2881 CircleF
1265 2881 CircleF
1265 2881 CircleF
1307 1756 CircleF
1307 2193 CircleF
1307 2409 CircleF
1307 2583 CircleF
1307 2721 CircleF
1307 2808 CircleF
1307 2858 CircleF
1307 2887 CircleF
1307 2892 CircleF
1307 2912 CircleF
1307 2906 CircleF
1307 2913 CircleF
1307 2914 CircleF
1307 2914 CircleF
1307 2915 CircleF
1307 2915 CircleF
1307 2915 CircleF
1307 2915 CircleF
1307 2915 CircleF
1349 1790 CircleF
1349 2232 CircleF
1349 2433 CircleF
1349 2615 CircleF
1349 2743 CircleF
1349 2840 CircleF
1349 2892 CircleF
1349 2923 CircleF
1349 2923 CircleF
1349 2946 CircleF
1349 2940 CircleF
1349 2947 CircleF
1349 2948 CircleF
1349 2949 CircleF
1349 2949 CircleF
1349 2949 CircleF
1349 2949 CircleF
1349 2949 CircleF
1349 2949 CircleF
1391 1788 CircleF
1391 2200 CircleF
1391 2467 CircleF
1391 2651 CircleF
1391 2769 CircleF
1391 2855 CircleF
1391 2922 CircleF
1391 2953 CircleF
1391 2967 CircleF
1391 2979 CircleF
1391 2973 CircleF
1391 2981 CircleF
1391 2982 CircleF
1391 2983 CircleF
1391 2983 CircleF
1391 2983 CircleF
1391 2984 CircleF
1391 2984 CircleF
1433 1862 CircleF
1433 2310 CircleF
1433 2520 CircleF
1433 2685 CircleF
1433 2810 CircleF
1433 2904 CircleF
1433 2961 CircleF
1433 2991 CircleF
1433 3002 CircleF
1433 3005 CircleF
1433 3010 CircleF
1433 3016 CircleF
1433 3017 CircleF
1433 3017 CircleF
1433 3018 CircleF
1433 3018 CircleF
1433 3018 CircleF
1433 3018 CircleF
1475 1894 CircleF
1475 2338 CircleF
1475 2548 CircleF
1475 2727 CircleF
1475 2857 CircleF
1475 2939 CircleF
1475 2996 CircleF
1475 3024 CircleF
1475 3042 CircleF
1475 3049 CircleF
1475 3042 CircleF
1475 3050 CircleF
1475 3052 CircleF
1475 3052 CircleF
1475 3052 CircleF
1475 3053 CircleF
1475 3053 CircleF
1475 3053 CircleF
1517 1930 CircleF
1517 2379 CircleF
1517 2562 CircleF
1517 2756 CircleF
1517 2888 CircleF
1517 2972 CircleF
1517 3030 CircleF
1517 3060 CircleF
1517 3068 CircleF
1517 3069 CircleF
1517 3076 CircleF
1517 3084 CircleF
1517 3085 CircleF
1517 3086 CircleF
1517 3086 CircleF
1517 3087 CircleF
1517 3087 CircleF
1517 3087 CircleF
1559 1966 CircleF
1559 2405 CircleF
1559 2600 CircleF
1559 2796 CircleF
1559 2918 CircleF
1559 3010 CircleF
1559 3065 CircleF
1559 3093 CircleF
1559 3111 CircleF
1559 3119 CircleF
1559 3112 CircleF
1559 3119 CircleF
1559 3120 CircleF
1559 3120 CircleF
1559 3121 CircleF
1559 3121 CircleF
1559 3121 CircleF
1559 3121 CircleF
1601 1953 CircleF
1601 2428 CircleF
1601 2651 CircleF
1601 2830 CircleF
1601 2960 CircleF
1601 3042 CircleF
1601 3099 CircleF
1601 3120 CircleF
1601 3141 CircleF
1601 3142 CircleF
1601 3148 CircleF
1601 3153 CircleF
1601 3154 CircleF
1601 3155 CircleF
1601 3156 CircleF
1601 3156 CircleF
1601 3156 CircleF
1601 3156 CircleF
1643 2016 CircleF
1643 2479 CircleF
1643 2701 CircleF
1643 2817 CircleF
1643 2977 CircleF
1643 3064 CircleF
1643 3131 CircleF
1643 3161 CircleF
1643 3177 CircleF
1643 3182 CircleF
1643 3178 CircleF
1643 3186 CircleF
1643 3187 CircleF
1643 3188 CircleF
1643 3188 CircleF
1643 3188 CircleF
1643 3188 CircleF
1643 3188 CircleF
1685 2078 CircleF
1685 2492 CircleF
1685 2663 CircleF
1685 2886 CircleF
1685 3027 CircleF
1685 3108 CircleF
1685 3156 CircleF
1685 3197 CircleF
1685 3213 CircleF
1685 3219 CircleF
1685 3212 CircleF
1685 3220 CircleF
1685 3220 CircleF
1685 3222 CircleF
1685 3222 CircleF
1685 3222 CircleF
1685 3222 CircleF
1685 3223 CircleF
1727 2082 CircleF
1727 2541 CircleF
1727 2745 CircleF
1727 2909 CircleF
1727 3051 CircleF
1727 3149 CircleF
1727 3192 CircleF
1727 3232 CircleF
1727 3248 CircleF
1727 3252 CircleF
1727 3247 CircleF
1727 3254 CircleF
1727 3255 CircleF
1727 3256 CircleF
1727 3257 CircleF
1727 3257 CircleF
1727 3257 CircleF
1770 2093 CircleF
1770 2575 CircleF
1770 2786 CircleF
1770 2970 CircleF
1770 3095 CircleF
1770 3180 CircleF
1770 3233 CircleF
1770 3252 CircleF
1770 3273 CircleF
1770 3277 CircleF
1770 3281 CircleF
1770 3289 CircleF
1770 3290 CircleF
1770 3291 CircleF
1770 3291 CircleF
1770 3291 CircleF
1770 3291 CircleF
1812 2180 CircleF
1812 2599 CircleF
1812 2826 CircleF
1812 2996 CircleF
1812 3110 CircleF
1812 3215 CircleF
1812 3257 CircleF
1812 3299 CircleF
1812 3317 CircleF
1812 3323 CircleF
1812 3314 CircleF
1812 3322 CircleF
1812 3325 CircleF
1812 3325 CircleF
1812 3325 CircleF
1812 3325 CircleF
1812 3326 CircleF
1854 2188 CircleF
1854 2642 CircleF
1854 2869 CircleF
1854 3025 CircleF
1854 3158 CircleF
1854 3245 CircleF
1854 3304 CircleF
1854 3317 CircleF
1854 3333 CircleF
1854 3358 CircleF
1854 3350 CircleF
1854 3358 CircleF
1854 3359 CircleF
1854 3359 CircleF
1854 3360 CircleF
1854 3360 CircleF
1854 3360 CircleF
1896 2253 CircleF
1896 2672 CircleF
1896 2890 CircleF
1896 3067 CircleF
1896 3190 CircleF
1896 3286 CircleF
1896 3336 CircleF
1896 3359 CircleF
1896 3380 CircleF
1896 3381 CircleF
1896 3386 CircleF
1896 3392 CircleF
1896 3393 CircleF
1896 3394 CircleF
1896 3394 CircleF
1896 3394 CircleF
1896 3395 CircleF
1938 2285 CircleF
1938 2693 CircleF
1938 2920 CircleF
1938 3100 CircleF
1938 3232 CircleF
1938 3317 CircleF
1938 3372 CircleF
1938 3403 CircleF
1938 3412 CircleF
1938 3414 CircleF
1938 3420 CircleF
1938 3427 CircleF
1938 3427 CircleF
1938 3428 CircleF
1938 3429 CircleF
1938 3429 CircleF
1938 3429 CircleF
1980 2296 CircleF
1980 2734 CircleF
1980 2955 CircleF
1980 3080 CircleF
1980 3256 CircleF
1980 3351 CircleF
1980 3408 CircleF
1980 3437 CircleF
1980 3447 CircleF
1980 3448 CircleF
1980 3453 CircleF
1980 3460 CircleF
1980 3462 CircleF
1980 3463 CircleF
1980 3463 CircleF
1980 3463 CircleF
1980 3463 CircleF
2022 2325 CircleF
2022 2719 CircleF
2022 2970 CircleF
2022 3161 CircleF
2022 3287 CircleF
2022 3367 CircleF
2022 3417 CircleF
2022 3467 CircleF
2022 3473 CircleF
2022 3488 CircleF
2022 3487 CircleF
2022 3495 CircleF
2022 3496 CircleF
2022 3497 CircleF
2022 3497 CircleF
2022 3498 CircleF
2064 2356 CircleF
2064 2817 CircleF
2064 3020 CircleF
2064 3201 CircleF
2064 3337 CircleF
2064 3417 CircleF
2064 3476 CircleF
2064 3499 CircleF
2064 3512 CircleF
2064 3516 CircleF
2064 3523 CircleF
2064 3530 CircleF
2064 3531 CircleF
2064 3531 CircleF
2064 3532 CircleF
2064 3532 CircleF
2106 2420 CircleF
2106 2838 CircleF
2106 3047 CircleF
2106 3227 CircleF
2106 3366 CircleF
2106 3448 CircleF
2106 3506 CircleF
2106 3540 CircleF
2106 3544 CircleF
2106 3551 CircleF
2106 3557 CircleF
2106 3565 CircleF
2106 3565 CircleF
2106 3566 CircleF
2106 3566 CircleF
2106 3566 CircleF
2149 2439 CircleF
2149 2885 CircleF
2149 3102 CircleF
2149 3272 CircleF
2149 3404 CircleF
2149 3472 CircleF
2149 3543 CircleF
2149 3575 CircleF
2149 3579 CircleF
2149 3592 CircleF
2149 3591 CircleF
2149 3599 CircleF
2149 3599 CircleF
2149 3600 CircleF
2149 3601 CircleF
2149 3601 CircleF
2191 2449 CircleF
2191 2899 CircleF
2191 3128 CircleF
2191 3310 CircleF
2191 3434 CircleF
2191 3522 CircleF
2191 3578 CircleF
2191 3611 CircleF
2191 3609 CircleF
2191 3626 CircleF
2191 3624 CircleF
2191 3634 CircleF
2191 3634 CircleF
2191 3635 CircleF
2191 3635 CircleF
2191 3635 CircleF
2233 2539 CircleF
2233 2945 CircleF
2233 3166 CircleF
2233 3345 CircleF
2233 3475 CircleF
2233 3562 CircleF
2233 3610 CircleF
2233 3631 CircleF
2233 3654 CircleF
2233 3656 CircleF
2233 3661 CircleF
2233 3668 CircleF
2233 3669 CircleF
2233 3669 CircleF
2233 3670 CircleF
2233 3670 CircleF
2275 2568 CircleF
2275 2996 CircleF
2275 3201 CircleF
2275 3371 CircleF
2275 3510 CircleF
2275 3597 CircleF
2275 3636 CircleF
2275 3666 CircleF
2275 3680 CircleF
2275 3689 CircleF
2275 3695 CircleF
2275 3702 CircleF
2275 3704 CircleF
2275 3704 CircleF
2275 3705 CircleF
2275 3705 CircleF
2317 2592 CircleF
2317 3027 CircleF
2317 3237 CircleF
2317 3410 CircleF
2317 3539 CircleF
2317 3625 CircleF
2317 3682 CircleF
2317 3713 CircleF
2317 3718 CircleF
2317 3722 CircleF
2317 3728 CircleF
2317 3737 CircleF
2317 3738 CircleF
2317 3739 CircleF
2317 3739 CircleF
2359 2600 CircleF
2359 3067 CircleF
2359 3267 CircleF
2359 3430 CircleF
2359 3578 CircleF
2359 3659 CircleF
2359 3717 CircleF
2359 3746 CircleF
2359 3748 CircleF
2359 3761 CircleF
2359 3762 CircleF
2359 3771 CircleF
2359 3772 CircleF
2359 3773 CircleF
2359 3773 CircleF
2402 2677 CircleF
2402 3090 CircleF
2402 3312 CircleF
2402 3470 CircleF
2402 3603 CircleF
2402 3696 CircleF
2402 3742 CircleF
2402 3766 CircleF
2402 3789 CircleF
2402 3792 CircleF
2402 3798 CircleF
2402 3806 CircleF
2402 3807 CircleF
2402 3807 CircleF
2402 3808 CircleF
2444 2693 CircleF
2444 3132 CircleF
2444 3332 CircleF
2444 3507 CircleF
2444 3642 CircleF
2444 3734 CircleF
2444 3787 CircleF
2444 3816 CircleF
2444 3822 CircleF
2444 3822 CircleF
2444 3832 CircleF
2444 3840 CircleF
2444 3841 CircleF
2444 3842 CircleF
2444 3842 CircleF
2486 2688 CircleF
2486 3113 CircleF
2486 3364 CircleF
2486 3520 CircleF
2486 3675 CircleF
2486 3742 CircleF
2486 3818 CircleF
2486 3843 CircleF
2486 3864 CircleF
2486 3866 CircleF
2486 3867 CircleF
2486 3874 CircleF
2486 3875 CircleF
2486 3876 CircleF
2486 3877 CircleF
2528 2766 CircleF
2528 3175 CircleF
2528 3395 CircleF
2528 3557 CircleF
2528 3713 CircleF
2528 3796 CircleF
2528 3851 CircleF
2528 3877 CircleF
2528 3890 CircleF
2528 3893 CircleF
2528 3901 CircleF
2528 3908 CircleF
2528 3909 CircleF
2528 3911 CircleF
2528 3911 CircleF
2570 2774 CircleF
2570 3235 CircleF
2570 3453 CircleF
2570 3620 CircleF
2570 3725 CircleF
2570 3821 CircleF
2570 3888 CircleF
2570 3917 CircleF
2570 3926 CircleF
2570 3929 CircleF
2570 3937 CircleF
2570 3944 CircleF
2570 3945 CircleF
2570 3945 CircleF
2570 3946 CircleF
2612 2843 CircleF
2612 3267 CircleF
2612 3471 CircleF
2612 3646 CircleF
2612 3776 CircleF
2612 3867 CircleF
2612 3921 CircleF
2612 3942 CircleF
2612 3958 CircleF
2612 3962 CircleF
2612 3971 CircleF
2612 3977 CircleF
2612 3979 CircleF
2612 3980 CircleF
2612 3980 CircleF
2655 2833 CircleF
2655 3290 CircleF
2655 3501 CircleF
2655 3671 CircleF
2655 3816 CircleF
2655 3875 CircleF
2655 3947 CircleF
2655 3983 CircleF
2655 3993 CircleF
2655 3999 CircleF
2655 4005 CircleF
2655 4012 CircleF
2655 4014 CircleF
2655 4014 CircleF
2697 2867 CircleF
2697 3337 CircleF
2697 3550 CircleF
2697 3721 CircleF
2697 3845 CircleF
2697 3936 CircleF
2697 3992 CircleF
2697 4024 CircleF
2697 4028 CircleF
2697 4031 CircleF
2697 4039 CircleF
2697 4046 CircleF
2697 4047 CircleF
2697 4048 CircleF
2739 2915 CircleF
2739 3370 CircleF
2739 3570 CircleF
2739 3744 CircleF
2739 3889 CircleF
2739 3970 CircleF
2739 4015 CircleF
2739 4047 CircleF
2739 4060 CircleF
2739 4069 CircleF
2739 4073 CircleF
2739 4081 CircleF
2739 4082 CircleF
2739 4083 CircleF
2781 2940 CircleF
2781 3413 CircleF
2781 3607 CircleF
2781 3779 CircleF
2781 3911 CircleF
2781 4010 CircleF
2781 4060 CircleF
2781 4084 CircleF
2781 4097 CircleF
2781 4101 CircleF
2781 4108 CircleF
2781 4115 CircleF
2781 4116 CircleF
2781 4117 CircleF
2824 2956 CircleF
2824 3432 CircleF
2824 3637 CircleF
2824 3824 CircleF
2824 3949 CircleF
2824 4035 CircleF
2824 4092 CircleF
2824 4116 CircleF
2824 4128 CircleF
2824 4136 CircleF
2824 4142 CircleF
2824 4150 CircleF
2824 4151 CircleF
2824 4152 CircleF
2866 3004 CircleF
2866 3474 CircleF
2866 3673 CircleF
2866 3844 CircleF
2866 3979 CircleF
2866 4076 CircleF
2866 4129 CircleF
2866 4148 CircleF
2866 4167 CircleF
2866 4170 CircleF
2866 4176 CircleF
2866 4184 CircleF
2866 4186 CircleF
2866 4186 CircleF
2908 3044 CircleF
2908 3507 CircleF
2908 3702 CircleF
2908 3880 CircleF
2908 4017 CircleF
2908 4108 CircleF
2908 4161 CircleF
2908 4187 CircleF
2908 4200 CircleF
2908 4204 CircleF
2908 4211 CircleF
2908 4219 CircleF
2908 4220 CircleF
2908 4221 CircleF
2950 3086 CircleF
2950 3539 CircleF
2950 3741 CircleF
2950 3917 CircleF
2950 4045 CircleF
2950 4120 CircleF
2950 4197 CircleF
2950 4212 CircleF
2950 4232 CircleF
2950 4238 CircleF
2950 4245 CircleF
2950 4253 CircleF
2950 4255 CircleF
2992 3112 CircleF
2992 3581 CircleF
2992 3792 CircleF
2992 3953 CircleF
2992 4054 CircleF
2992 4168 CircleF
2992 4218 CircleF
2992 4262 CircleF
2992 4271 CircleF
2992 4274 CircleF
2992 4282 CircleF
2992 4287 CircleF
2992 4289 CircleF
3035 3129 CircleF
3035 3590 CircleF
3035 3805 CircleF
3035 3988 CircleF
3035 4099 CircleF
3035 4204 CircleF
3035 4258 CircleF
3035 4284 CircleF
3035 4304 CircleF
3035 4307 CircleF
3035 4314 CircleF
3035 4322 CircleF
3035 4323 CircleF
3077 3173 CircleF
3077 3641 CircleF
3077 3843 CircleF
3077 4030 CircleF
3077 4158 CircleF
3077 4240 CircleF
3077 4286 CircleF
3077 4324 CircleF
3077 4338 CircleF
3077 4341 CircleF
3077 4348 CircleF
3077 4356 CircleF
3077 4357 CircleF
3119 3222 CircleF
3119 3687 CircleF
3119 3887 CircleF
3119 4052 CircleF
3119 4195 CircleF
3119 4283 CircleF
3119 4333 CircleF
3119 4366 CircleF
3119 4369 CircleF
3119 4389 CircleF
3119 4383 CircleF
3119 4391 CircleF
3119 4392 CircleF
3161 3257 CircleF
3161 3726 CircleF
3161 3920 CircleF
3161 4100 CircleF
3161 4221 CircleF
3161 4309 CircleF
3161 4371 CircleF
3161 4387 CircleF
3161 4408 CircleF
3161 4412 CircleF
3161 4418 CircleF
3161 4426 CircleF
3161 4427 CircleF
3204 3294 CircleF
3204 3739 CircleF
3204 3931 CircleF
3204 4134 CircleF
3204 4255 CircleF
3204 4349 CircleF
3204 4394 CircleF
3204 4433 CircleF
3204 4442 CircleF
3204 4452 CircleF
3204 4455 CircleF
3204 4459 CircleF
3204 4462 CircleF
3246 3318 CircleF
3246 3789 CircleF
3246 3991 CircleF
3246 4158 CircleF
3246 4296 CircleF
3246 4377 CircleF
3246 4436 CircleF
3246 4462 CircleF
3246 4469 CircleF
3246 4480 CircleF
3246 4486 CircleF
3246 4494 CircleF
3288 3358 CircleF
3288 3817 CircleF
3288 4012 CircleF
3288 4204 CircleF
3288 4323 CircleF
3288 4401 CircleF
3288 4472 CircleF
3288 4499 CircleF
3288 4508 CircleF
3288 4513 CircleF
3288 4521 CircleF
3288 4529 CircleF
3330 3378 CircleF
3330 3815 CircleF
3330 3999 CircleF
3330 4130 CircleF
3330 4209 CircleF
3330 4272 CircleF
3330 4302 CircleF
3330 4320 CircleF
3330 4329 CircleF
3330 4334 CircleF
3330 4337 CircleF
3330 4338 CircleF
3372 3401 CircleF
3372 3849 CircleF
3372 4015 CircleF
3372 4155 CircleF
3372 4249 CircleF
3372 4303 CircleF
3372 4335 CircleF
3372 4353 CircleF
3372 4362 CircleF
3372 4367 CircleF
3372 4368 CircleF
3372 4370 CircleF
3415 3430 CircleF
3415 3879 CircleF
3415 4053 CircleF
3415 4190 CircleF
3415 4279 CircleF
3415 4338 CircleF
3415 4371 CircleF
3415 4384 CircleF
3415 4396 CircleF
3415 4402 CircleF
3415 4403 CircleF
3415 4404 CircleF
3457 3494 CircleF
3457 3920 CircleF
3457 4079 CircleF
3457 4222 CircleF
3457 4319 CircleF
3457 4371 CircleF
3457 4404 CircleF
3457 4422 CircleF
3457 4430 CircleF
3457 4435 CircleF
3457 4437 CircleF
3457 4438 CircleF
3499 3524 CircleF
3499 3948 CircleF
3499 4123 CircleF
3499 4254 CircleF
3499 4348 CircleF
3499 4409 CircleF
3499 4439 CircleF
3499 4456 CircleF
3499 4465 CircleF
3499 4470 CircleF
3499 4473 CircleF
3499 4473 CircleF
3541 3548 CircleF
3541 3991 CircleF
3541 4151 CircleF
3541 4296 CircleF
3541 4379 CircleF
3541 4442 CircleF
3541 4473 CircleF
3541 4491 CircleF
3541 4500 CircleF
3541 4505 CircleF
3541 4507 CircleF
3584 3572 CircleF
3584 4013 CircleF
3584 4183 CircleF
3584 4331 CircleF
3584 4415 CircleF
3584 4475 CircleF
3584 4507 CircleF
3584 4525 CircleF
3584 4535 CircleF
3584 4539 CircleF
3584 4542 CircleF
3626 3591 CircleF
3626 3969 CircleF
3626 4200 CircleF
3626 4358 CircleF
3626 4453 CircleF
3626 4504 CircleF
3626 4541 CircleF
3626 4560 CircleF
3626 4569 CircleF
3626 4573 CircleF
3626 4575 CircleF
3668 3634 CircleF
3668 4046 CircleF
3668 4200 CircleF
3668 4312 CircleF
3668 4379 CircleF
3668 4423 CircleF
3668 4446 CircleF
3668 4458 CircleF
3668 4464 CircleF
3668 4468 CircleF
3668 4469 CircleF
3710 3675 CircleF
3710 4076 CircleF
3710 4228 CircleF
3710 4349 CircleF
3710 4415 CircleF
3710 4456 CircleF
3710 4480 CircleF
3710 4493 CircleF
3710 4499 CircleF
3710 4502 CircleF
3710 4503 CircleF
3752 3705 CircleF
3752 4104 CircleF
3752 4260 CircleF
3752 4379 CircleF
3752 4452 CircleF
3752 4491 CircleF
3752 4515 CircleF
3752 4527 CircleF
3752 4533 CircleF
3752 4536 CircleF
3752 4538 CircleF
3795 3744 CircleF
3795 4152 CircleF
3795 4297 CircleF
3795 4414 CircleF
3795 4485 CircleF
3795 4526 CircleF
3795 4549 CircleF
3795 4562 CircleF
3795 4568 CircleF
3795 4571 CircleF
3795 4572 CircleF
3837 3769 CircleF
3837 4154 CircleF
3837 4290 CircleF
3837 4378 CircleF
3837 4437 CircleF
3837 4471 CircleF
3837 4483 CircleF
3837 4497 CircleF
3837 4502 CircleF
3837 4504 CircleF
3837 4506 CircleF
3879 3792 CircleF
3879 4189 CircleF
3879 4322 CircleF
3879 4410 CircleF
3879 4470 CircleF
3879 4504 CircleF
3879 4523 CircleF
3879 4532 CircleF
3879 4537 CircleF
3879 4539 CircleF
3921 3819 CircleF
3921 4200 CircleF
3921 4306 CircleF
3921 4445 CircleF
3921 4497 CircleF
3921 4538 CircleF
3921 4557 CircleF
3921 4566 CircleF
3921 4571 CircleF
3921 4574 CircleF
3964 3294 CircleF
3964 4205 CircleF
3964 4342 CircleF
3964 4424 CircleF
3964 4471 CircleF
3964 4499 CircleF
3964 4515 CircleF
3964 4523 CircleF
3964 4526 CircleF
3964 4529 CircleF
4006 3842 CircleF
4006 4246 CircleF
4006 4367 CircleF
4006 4455 CircleF
4006 4509 CircleF
4006 4537 CircleF
4006 4550 CircleF
4006 4558 CircleF
4006 4562 CircleF
4006 4564 CircleF
4048 3919 CircleF
4048 4261 CircleF
4048 4373 CircleF
4048 4442 CircleF
4048 4485 CircleF
4048 4510 CircleF
4048 4523 CircleF
4048 4529 CircleF
4048 4532 CircleF
4048 4534 CircleF
4090 3963 CircleF
4090 4296 CircleF
4090 4405 CircleF
4090 4482 CircleF
4090 4521 CircleF
4090 4538 CircleF
4090 4557 CircleF
4090 4564 CircleF
4090 4566 CircleF
4090 4567 CircleF
4132 3979 CircleF
4132 4296 CircleF
4132 4399 CircleF
4132 4463 CircleF
4132 4507 CircleF
4132 4527 CircleF
4132 4538 CircleF
4132 4544 CircleF
4132 4547 CircleF
4132 4548 CircleF
4175 4005 CircleF
4175 4343 CircleF
4175 4436 CircleF
4175 4499 CircleF
4175 4539 CircleF
4175 4562 CircleF
4175 4572 CircleF
4175 4578 CircleF
4175 4581 CircleF
4217 4005 CircleF
4217 4310 CircleF
4217 4434 CircleF
4217 4489 CircleF
4217 4534 CircleF
4217 4550 CircleF
4217 4560 CircleF
4217 4565 CircleF
4217 4568 CircleF
4259 4040 CircleF
4259 4357 CircleF
4259 4441 CircleF
4259 4496 CircleF
4259 4529 CircleF
4259 4546 CircleF
4259 4554 CircleF
4259 4558 CircleF
4259 4561 CircleF
4301 4071 CircleF
4301 4365 CircleF
4301 4448 CircleF
4301 4500 CircleF
4301 4528 CircleF
4301 4544 CircleF
4301 4551 CircleF
4301 4556 CircleF
4301 4557 CircleF
4344 4109 CircleF
4344 4399 CircleF
4344 4487 CircleF
4344 4533 CircleF
4344 4563 CircleF
4344 4578 CircleF
4344 4586 CircleF
4344 4590 CircleF
4344 4592 CircleF
4386 4106 CircleF
4386 4414 CircleF
4386 4494 CircleF
4386 4540 CircleF
4386 4567 CircleF
4386 4580 CircleF
4386 4587 CircleF
4386 4590 CircleF
4386 4592 CircleF
4428 4149 CircleF
4428 4405 CircleF
4428 4476 CircleF
4428 4524 CircleF
4428 4546 CircleF
4428 4557 CircleF
4428 4562 CircleF
4428 4565 CircleF
4428 4567 CircleF
4470 4104 CircleF
4470 4417 CircleF
4470 4496 CircleF
4470 4533 CircleF
4470 4554 CircleF
4470 4566 CircleF
4470 4571 CircleF
4470 4574 CircleF
4512 4204 CircleF
4512 4443 CircleF
4512 4510 CircleF
4512 4547 CircleF
4512 4566 CircleF
4512 4576 CircleF
4512 4581 CircleF
4512 4584 CircleF
4555 4227 CircleF
4555 4447 CircleF
4555 4505 CircleF
4555 4541 CircleF
4555 4558 CircleF
4555 4566 CircleF
4555 4571 CircleF
4555 4573 CircleF
4597 4254 CircleF
4597 4464 CircleF
4597 4521 CircleF
4597 4555 CircleF
4597 4572 CircleF
4597 4581 CircleF
4597 4585 CircleF
4597 4587 CircleF
4639 4244 CircleF
4639 4462 CircleF
4639 4522 CircleF
4639 4556 CircleF
4639 4570 CircleF
4639 4579 CircleF
4639 4582 CircleF
4639 4584 CircleF
4681 4242 CircleF
4681 4452 CircleF
4681 4526 CircleF
4681 4547 CircleF
4681 4571 CircleF
4681 4579 CircleF
4681 4582 CircleF
4681 4584 CircleF
4724 4253 CircleF
4724 4455 CircleF
4724 4532 CircleF
4724 4557 CircleF
4724 4575 CircleF
4724 4582 CircleF
4724 4586 CircleF
4724 4588 CircleF
4766 4255 CircleF
4766 4468 CircleF
4766 4538 CircleF
4766 4568 CircleF
4766 4582 CircleF
4766 4588 CircleF
4766 4592 CircleF
4808 4265 CircleF
4808 4464 CircleF
4808 4540 CircleF
4808 4567 CircleF
4808 4578 CircleF
4808 4584 CircleF
4808 4586 CircleF
4850 4278 CircleF
4850 4477 CircleF
4850 4540 CircleF
4850 4568 CircleF
4850 4578 CircleF
4850 4583 CircleF
4850 4586 CircleF
4892 4304 CircleF
4892 4480 CircleF
4892 4548 CircleF
4892 4569 CircleF
4892 4579 CircleF
4892 4585 CircleF
4892 4588 CircleF
4935 4313 CircleF
4935 4482 CircleF
4935 4551 CircleF
4935 4571 CircleF
4935 4584 CircleF
4935 4591 CircleF
4935 4593 CircleF
4977 4323 CircleF
4977 4482 CircleF
4977 4550 CircleF
4977 4569 CircleF
4977 4583 CircleF
4977 4589 CircleF
4977 4592 CircleF
5019 4344 CircleF
5019 4491 CircleF
5019 4548 CircleF
5019 4570 CircleF
5019 4586 CircleF
5019 4590 CircleF
5019 4593 CircleF
5061 4356 CircleF
5061 4485 CircleF
5061 4546 CircleF
5061 4566 CircleF
5061 4583 CircleF
5061 4588 CircleF
5061 4591 CircleF
5104 4362 CircleF
5104 4484 CircleF
5104 4534 CircleF
5104 4563 CircleF
5104 4579 CircleF
5104 4587 CircleF
5146 4369 CircleF
5146 4488 CircleF
5146 4520 CircleF
5146 4531 CircleF
5146 4545 CircleF
5146 4553 CircleF
5188 4381 CircleF
5188 4483 CircleF
5188 4510 CircleF
5188 4526 CircleF
5188 4529 CircleF
5188 4534 CircleF
5230 4399 CircleF
5230 4493 CircleF
5230 4508 CircleF
5230 4519 CircleF
5230 4526 CircleF
5230 4530 CircleF
5272 4399 CircleF
5272 4494 CircleF
5272 4509 CircleF
5272 4520 CircleF
5272 4523 CircleF
5272 4527 CircleF
5315 4412 CircleF
5315 4497 CircleF
5315 4509 CircleF
5315 4515 CircleF
5315 4521 CircleF
5315 4527 CircleF
5357 4420 CircleF
5357 4501 CircleF
5357 4516 CircleF
5357 4522 CircleF
5357 4523 CircleF
5357 4524 CircleF
5399 4433 CircleF
5399 4497 CircleF
5399 4515 CircleF
5399 4522 CircleF
5399 4524 CircleF
5441 4438 CircleF
5441 4508 CircleF
5441 4517 CircleF
5441 4522 CircleF
5441 4522 CircleF
5484 4450 CircleF
5484 4508 CircleF
5484 4519 CircleF
5484 4519 CircleF
5484 4521 CircleF
5526 4456 CircleF
5526 4503 CircleF
5526 4517 CircleF
5526 4520 CircleF
5526 4520 CircleF
5568 4459 CircleF
5568 4511 CircleF
5568 4520 CircleF
5568 4519 CircleF
5568 4518 CircleF
5610 4467 CircleF
5610 4514 CircleF
5610 4515 CircleF
5610 4515 CircleF
5610 4516 CircleF
5652 4474 CircleF
5652 4514 CircleF
5652 4522 CircleF
5652 4516 CircleF
5652 4516 CircleF
5695 4474 CircleF
5695 4515 CircleF
5695 4518 CircleF
5695 4516 CircleF
5737 4475 CircleF
5737 4517 CircleF
5737 4521 CircleF
5737 4514 CircleF
5779 4482 CircleF
5779 4517 CircleF
5779 4520 CircleF
5779 4514 CircleF
5821 4488 CircleF
5821 4519 CircleF
5821 4521 CircleF
5821 4513 CircleF
5864 4491 CircleF
5864 4516 CircleF
5864 4519 CircleF
5864 4513 CircleF
5906 4496 CircleF
5906 4515 CircleF
5906 4519 CircleF
5906 4513 CircleF
5948 4496 CircleF
5948 4519 CircleF
5948 4518 CircleF
5948 4508 CircleF
5990 4500 CircleF
5990 4522 CircleF
5990 4519 CircleF
5990 4510 CircleF
6033 4505 CircleF
6033 4520 CircleF
6033 4517 CircleF
6075 4502 CircleF
6075 4520 CircleF
6075 4513 CircleF
6117 4509 CircleF
6117 4520 CircleF
6117 4515 CircleF
6159 4511 CircleF
6159 4515 CircleF
6159 4515 CircleF
6201 4510 CircleF
6201 4518 CircleF
6201 4514 CircleF
6244 4468 CircleF
6244 4517 CircleF
6244 4515 CircleF
6286 4513 CircleF
6286 4516 CircleF
6286 4512 CircleF
6328 4514 CircleF
6328 4515 CircleF
6370 4512 CircleF
6370 4516 CircleF
6413 4513 CircleF
6413 4517 CircleF
6455 4514 CircleF
6455 4511 CircleF
6497 4514 CircleF
6497 4514 CircleF
6539 4512 CircleF
6539 4511 CircleF
6581 4515 CircleF
6581 4514 CircleF
6624 4511 CircleF
6666 4514 CircleF
6708 4512 CircleF
6750 4511 CircleF
6793 4510 CircleF
6835 4511 CircleF
6877 4512 CircleF
% End plot #1
2.000 UL
LTb
LCb setrgbcolor
1.000 UL
LTB
LCb setrgbcolor
770 4619 N
770 448 L
6107 0 V
0 4171 V
-6107 0 V
Z stroke
1.000 UP
1.000 UL
LTb
LCb setrgbcolor
stroke
grestore
end
showpage
%%Trailer
%%DocumentFonts: Helvetica
%%Pages: 1
